 
 
 
 
 
 
 
 
 
 
a

 
 
 
y

=

y
 
I
y

=

y
 
 
 
 
 
a
Cl
 
 
 
 
i
 
i)
 
»
 
.
 
 
 
 
 
 
 
 
 
 
 
 
 
|
 
 
 
 
 
 
 
 
 
 
 
 
G)
 
 
 
PHONAK
PHONAK

life is on
PHONAK
PHONAK

life is on
 
 
 
 
 
 
 
 
 
 
G)
 
 
PHONAK

life is on
