 
 
 
 
 
 
 
a
Cl
 
 
 
 
 
_
J
»
 
.
 
 
—
—
A
 
 
en
 
 
 
 
 
 
 
 
Po
 
Q
ros
Ae
 
 
a
ce
 
 
 
 
 
= PROFILE
\
 
      
    

  

Health Tracker @

‘cancerHealth
< 04/24/2018 ® Shortness of Breath Save

Symptoms

      
       
           
    
     

  

Are you experiencing a shortness of breath? *
Pain O° 7

No |
Fatigue eo

  

When does it occur?

OAtrest @ With activity
O Both

Nausea & Vomiting O°

Skin Changes O°

  

Shortness of Breath © Rate your shortness of breath *

1 being minimal, 10 being extermely severe shortness of breath

Lack of Appetite O°
 
 
  

 
  

 

medoc
iCancerHealth

< 04/24/2018 i Shortness of Breath Save

Symptoms

Health Tracker @

ba)

    
      
  

  

Are you experiencing a shortness of breath? *

Pain O° 7
No |

      

Fatigue eo

  
 
 

  

When does it occur?
OdAtrest @ With activity
O Both

Nausea & Vomiting O°

      
 

Skin Changes O°

    
  

  

Shortness of Breath © Rate your shortness of breath *

1 being minimal, 10 being extermely severe shortness of breath

     

Lack of Appetite O°
g Health Tracker

Yesterday you were ex, ncing Headache, Nausea >

& Vomiting, Lack of Appetite. Have these changed
or subsided? Health Tracker Vital Signs

Track your Record your
Symptoms Vitals Signs

You have not reported on 1 medication. You have 4
medications coming up. Next up: 1 Afinitor today

at 3:30 PM 3

Resources

Make sure you're taking your medication as Explore available Manage your

prescribed, even when you are feeling well. Also, Resources Medications

try eating smaller amounts more...

 
Manage Your Medications

and Receive Reminders

      

C=»
wa

Health Tracker © gy

  
 

< Apr24, 2018 >

  
 
 

&
3 ae 2 i Add
Ba 1@ 2 Pay medication

Noni) Afternoon fan) ONT &

      
       
      

 

 
   
       
 

 

 

       

Medicine
Cabinet
Ativan — -
\—/ 1 pill (undefined) 2 MG 1:45 PM Ex i
Afinitor Unreported
1 pill (undefined) 10 MG 3:30 PM medication
Chemo

   

Treatment

  
Messages @

Y Upset Stomach :

Upset Stomach(2) e 018 12:56 PM @Q
Priya Nashal T'm not feeling well today. What can | do to relieve my upset stomach? Y
Priya: Make sure you're taking your.
Qrvansena ossoaaoie 1:18PM
- M Make sure you're taking your medication as prescribed, even when you are feeling wel. Also, try eating
Bleeding Gums(5) in smaller amounts more frequently.

Priya:
Shoulder Pain(3)

Priya Nashall
Me: I'm feeling better to

 
 
..and more!

ot | Martha Stevens

Logout

EB) Dashboard

=) Health Tracker

Vital Signs

Medication

|
1] Medical Summary

 

  
powered by Google
 
Vital Signs @

Last Updated: 04/17/2 Last Updated: 04/17)

Last Updated: 04/17) 7 Last Updated: 04/17)

 
& TRENDING
 
4
 
 
 
 
Cl
ex
2) ence li)
 
 
a
 
oe
 

7
 
 
sa Facebook
—
—
 
A
a
 
PtH
 
Cd
 
 
ane)
 
G8
 
 
JKL
 
ON Tea tAMa SMMC La \ DN Ola
a
Ed 4]
PQRS
¢ END CALL
 
ee
7
a
a
 
~~
|
a
[J
g Health Tracker

Yesterday you were ex, ncing Headache, Nausea >

& Vomiting, Lack of Appetite. Have these changed
or subsided? Health Tracker Vital Signs

Track your Record your
Symptoms Vitals Signs

You have not reported on 1 medication. You have 4
medications coming up. Next up: 1 Afinitor today

at 3:30 PM 3

Resources

Make sure you're taking your medication as Explore available Manage your

prescribed, even when you are feeling well. Also, Resources Medications

try eating smaller amounts more...

 
Manage Your Medications

and Receive Reminders

      

C=»
wa

Health Tracker © gy

  
 

< Apr24, 2018 >

  
 
 

&
3 ae 2 i Add
Ba 1@ 2 Pay medication

Noni) Afternoon fan) ONT &

      
       
      

 

 
   
       
 

 

 

       

Medicine
Cabinet
Ativan — -
\—/ 1 pill (undefined) 2 MG 1:45 PM Ex i
Afinitor Unreported
1 pill (undefined) 10 MG 3:30 PM medication
Chemo

   

Treatment

  
Messages @

Y Upset Stomach :

Upset Stomach(2) e 018 12:56 PM @Q
Priya Nashal T'm not feeling well today. What can | do to relieve my upset stomach? Y
Priya: Make sure you're taking your.
Qrvansena ossoaaoie 1:18PM
- M Make sure you're taking your medication as prescribed, even when you are feeling wel. Also, try eating
Bleeding Gums(5) in smaller amounts more frequently.

Priya:
Shoulder Pain(3)

Priya Nashall
Me: I'm feeling better to

 
 
FOLLOW
\
Fea iNa San
transmitting video
Remote party isn’t
transmitting video

 
Ju
Ul
 
 
 
 
 
 
 
 
 
 
 
 
 
 
.
 
 
—
—
A
 
 
en
a
 
 
 
 
 
 
 
Po
 
ros
Ae
 

7
a
oe
ce
 
 
 
 
a
= PROFILE
\
      
    

  

Health Tracker @

‘cancerHealth
< 04/24/2018 ® Shortness of Breath Save

Symptoms

      
       
           
    
     

  

Are you experiencing a shortness of breath? *
Pain O° 7

No |
Fatigue eo

  

When does it occur?

OAtrest @ With activity
O Both

Nausea & Vomiting O°

Skin Changes O°

  

Shortness of Breath © Rate your shortness of breath *

1 being minimal, 10 being extermely severe shortness of breath

Lack of Appetite O°
 
 
  

 
  

 

medoc
iCancerHealth

< 04/24/2018 i Shortness of Breath Save

Symptoms

Health Tracker @

ba)

    
      
  

  

Are you experiencing a shortness of breath? *

Pain O° 7
No |

      

Fatigue eo

  
 
 

  

When does it occur?
OdAtrest @ With activity
O Both

Nausea & Vomiting O°

      
 

Skin Changes O°

    
  

  

Shortness of Breath © Rate your shortness of breath *

1 being minimal, 10 being extermely severe shortness of breath

     

Lack of Appetite O°
g Health Tracker

Yesterday you were ex, ncing Headache, Nausea >

& Vomiting, Lack of Appetite. Have these changed
or subsided? Health Tracker Vital Signs

Track your Record your
Symptoms Vitals Signs

You have not reported on 1 medication. You have 4
medications coming up. Next up: 1 Afinitor today

at 3:30 PM 3

Resources

Make sure you're taking your medication as Explore available Manage your

prescribed, even when you are feeling well. Also, Resources Medications

try eating smaller amounts more...

 
Manage Your Medications

and Receive Reminders

      

C=»
wa

Health Tracker © gy

  
 

< Apr24, 2018 >

  
 
 

&
3 ae 2 i Add
Ba 1@ 2 Pay medication

Noni) Afternoon fan) ONT &

      
       
      

 

 
   
       
 

 

 

       

Medicine
Cabinet
Ativan — -
\—/ 1 pill (undefined) 2 MG 1:45 PM Ex i
Afinitor Unreported
1 pill (undefined) 10 MG 3:30 PM medication
Chemo

   

Treatment

  
Messages @

Y Upset Stomach :

Upset Stomach(2) e 018 12:56 PM @Q
Priya Nashal T'm not feeling well today. What can | do to relieve my upset stomach? Y
Priya: Make sure you're taking your.
Qrvansena ossoaaoie 1:18PM
- M Make sure you're taking your medication as prescribed, even when you are feeling wel. Also, try eating
Bleeding Gums(5) in smaller amounts more frequently.

Priya:
Shoulder Pain(3)

Priya Nashall
Me: I'm feeling better to

 
 
..and more!

ot | Martha Stevens

Logout

EB) Dashboard

=) Health Tracker

Vital Signs

Medication

|
1] Medical Summary

 

  
powered by Google
 
Vital Signs @

Last Updated: 04/17/2 Last Updated: 04/17)

Last Updated: 04/17) 7 Last Updated: 04/17)

 
& TRENDING
 
4
 
 
 
 
Cl
ex
2) ence li)
 
 
sa Facebook
PtH
 
Cd
 
 
ane)
 
G8
 
 
JKL
 
ON Tea tAMa SMMC La \ DN Ola
Ed 4]
PQRS
¢ END CALL
 
ee
7
a
a
 
~~
|
a
[J
 
FOLLOW
Fea iNa San
transmitting video
Remote party isn’t
transmitting video

 
Ju
Ul
