Item_Name,Description
com.incubateltd.neomate, neomate help neonatal staff provide best possible care unwell baby hospital setting app offer drug infusion fluid calculation concise checklist common clinical problem quick reference information guide acute neonatal intensive care
com.insimu.patientapp, practice real world diagnostic decision making virtual patient great usmle prep
com.iSOFORM.DentalLite, bonebox xe2 x84 xa2 dental lite pocket sized version bonebox xe2 x84 xa2 dental app real time medical education patient communication tool featuring incredibly detailed anatomical model human dental anatomy member series apps developed team anatomist certified medical illustrator animator programmer using actual human imaging data accurate modeling technology available
com.itdcs.neonatologylite, application provides healthcare professional time critical information need treating acutely unwell neonate lite version full functionality display limited number result matter second full version xe2 x80 x98neonatology xe2 x80 x99 provides normal value dos following
com.itiox.icontraception, app intended health care provider
com.jankari.apps.medihand, medicine handbook used medication us dosage take side effect precaution drug interaction missed dose storage
com.ksoftapps.ta.diffrentialbloodcounter, differential blood counter
com.ksoftapps.ta.meldscore11, model end stage liver disease meld score used estimate relative disease severity likely survival patient awaiting liver transplantation
com.Laerdal.QCPRPlugin, xe2 x80 xa2 tfor student see performance
com.liverpooluni.icharthiv, healthcare professional patient use application search potential drug drug interaction anti hiv drug medication recommended international treatment guideline result presented xe2 x80 x9ctraffic light xe2 x80 x9d system red amber yellow green indicate recommendation brief summary interaction given along grading quality evidence low low moderate high application available free charge developed liverpool drug interaction group university liverpool clubzap ltd
com.medicalgroupsoft.medical.refbookdiseases.free, translate description english united state using google translate
com.mcdonalds.mobileapp, download mcdonald xe2 x84 xa2 app unique offer
com.munchery.team, munchery answer xe2 x80 x9cwhat xe2 x80 x99s dinner xe2 x80 x9d nourishing affordable chef cooked meal delivered right door
com.infizoom.treatathome, treat home next generation mobile app powered web service pvt ltd providing healthcare service doorstep push button mobile phone simple booking cab
com.insyncapp.guidehomeo, guide present main homeopathy homeopathic medicine different disease minor ailment could treated medicine
com.intelisenze.medical.disease.dictionary, completely free offline medical disease dictionary contains disease medical disorder detailed information sign symptom cause treatment prevention resource
com.intricon.hihearing, hearing app alows use smart phone adjust healthinnovations xc2 xae bte xc2 xae wireless hearing aid enhancing hearing experience various listening environment
com.involtapp.psyans, need psychologist psychiatrist therapist app anonymously ask question bothering get valuable advice anonymous psychological help chat app attracts many active user depression chat therapy chat lonely chat meet new people new friend experienced counsellor give useful advice perfect place require support depression anxiety group people type depression discussing sharing similar problem never judge support
com.kadersapp.medicine_guide_bangla, xe0 xa6 x95 xe0 xa7 x8b xe0 xa6 xa8 xe0 xa6 xb0 xe0 xa7 x8b xe0 xa6 x97 xe0 xa7 x87 xe0 xa6 xb0 xe0 xa6 x95 xe0 xa7 x8b xe0 xa6 xa8 xe0 xa6 x94 xe0 xa6 xb7 xe0 xa6 xa7 xe0 xa6 x9c xe0 xa6 xbe xe0 xa6 xa8 xe0 xa6 xbe xe0 xa6 xa5 xe0 xa6 xbe xe0 xa6 x95 xe0 xa6 xbe xe0 xa6 x9f xe0 xa6 xbe xe0 xa6 x85 xe0 xa6 xa8 xe0 xa7 x87 xe0 xa6 x95 xe0 xa6 xad xe0 xa6 xbe xe0 xa6 xb2 xe0 xa6 x85 xe0 xa6 xa8 xe0 xa7 x87 xe0 xa6 x95 xe0 xa7 x87 xe0 xa6 xb0 xe0 xa6 x87 xe0 xa6 x8f xe0 xa6 x87 xe0 xa6 xac xe0 xa6 xbf xe0 xa6 xb6 xe0 xa7 x87 xe0 xa6 xb7 xe0 xa6 x97 xe0 xa7 x81 xe0 xa6 xa8 xe0 xa6 x9f xe0 xa6 xbf xe0 xa6 xb0 xe0 xa6 xaf xe0 xa6 xbc xe0 xa7 x87 xe0 xa6 x9b xe0 xa7 x87 xe0 xa6 x97 xe0 xa6 xb0 xe0 xa6 x97 xe0 xa6 xb0 xe0 xa6 x95 xe0 xa6 xb0 xe0 xa7 x87 xe0 xa6 xac xe0 xa6 xb2 xe0 xa7 x87 xe0 xa6 xa6 xe0 xa6 xbf xe0 xa6 xa4 xe0 xa7 x87 xe0 xa6 xaa xe0 xa6 xbe xe0 xa6 xb0 xe0 xa7 x87 xe0 xa6 x95 xe0 xa7 x8b xe0 xa6 xa8 xe0 xa6 xb0 xe0 xa7 x8b xe0 xa6 x97 xe0 xa7 x87 xe0 xa6 xb0 xe0 xa6 x95 xe0 xa6 xbf xe0 xa6 x94 xe0 xa6 xb7 xe0 xa6 xa7 xe0 xa5 xa4 xe0 xa6 xb6 xe0 xa7 x81 xe0 xa6 xa7 xe0 xa7 x81 xe0 xa6 xae xe0 xa6 xbe xe0 xa6 xa4 xe0 xa7 x8d xe0 xa6 xb0 xe0 xa6 x8f xe0 xa6 x9f xe0 xa7 x81 xe0 xa6 x95 xe0 xa7 x81 xe0 xa6 x87 xe0 xa6 xa8 xe0 xa6 xbe xe0 xa6 x8f xe0 xa6 x95 xe0 xa6 x87 xe0 xa6 xb8 xe0 xa6 xbe xe0 xa6 xa5 xe0 xa7 x87 xe0 xa6 xb0 xe0 xa7 x8b xe0 xa6 x97 xe0 xa7 x87 xe0 xa6 xb0 xe0 xa6 xa8 xe0 xa6 xbe xe0 xa6 xae xe0 xa6 xb0 xe0 xa7 x8b xe0 xa6 x97 xe0 xa7 x87 xe0 xa6 xb0 xe0 xa6 xb2 xe0 xa6 x95 xe0 xa7 x8d xe0 xa6 xb7 xe0 xa6 xa8 xe0 xa6 xb0 xe0 xa7 x8b xe0 xa6 x97 xe0 xa7 x87 xe0 xa6 xb0 xe0 xa6 x9a xe0 xa6 xbf xe0 xa6 x95 xe0 xa6 xbf xe0 xa7 x8e xe0 xa6 xb8 xe0 xa6 xbe xe0 xa6 x95 xe0 xa7 x8b xe0 xa6 xa8 xe0 xa6 xa1 xe0 xa6 xbe xe0 xa6 x95 xe0 xa7 x8d xe0 xa6 xa4 xe0 xa6 xbe xe0 xa6 xb0 xe0 xa6 xac xe0 xa6 xbe xe0 xa6 x95 xe0 xa7 x8b xe0 xa6 xa5 xe0 xa6 xbe xe0 xa6 xaf xe0 xa6 xbc xe0 xa6 x8f xe0 xa6 x87 xe0 xa6 xb0 xe0 xa7 x8b xe0 xa6 x97 xe0 xa7 x87 xe0 xa6 xb0 xe0 xa6 xad xe0 xa6 xbe xe0 xa6 xb2 xe0 xa6 x95 xe0 xa6 xb0 xe0 xa7 x87 xe0 xa6 x9a xe0 xa6 xbf xe0 xa6 x95 xe0 xa6 xbf xe0 xa7 x8e xe0 xa6 xb8 xe0 xa6 xbe xe0 xa6 xb9 xe0 xa6 xac xe0 xa7 x87 xe0 xa6 x8f xe0 xa6 xac xe0 xa6 x82 xe0 xa6 x9a xe0 xa6 xbf xe0 xa6 x95 xe0 xa6 xbf xe0 xa7 x8e xe0 xa6 xb8 xe0 xa6 xbe xe0 xa6 xaf xe0 xa6 xbc xe0 xa6 x96 xe0 xa6 xb0 xe0 xa6 xbe xe0 xa6 x9a xe0 xa6 x95 xe0 xa6 xa4 xe0 xa7 x8b xe0 xa6 xb9 xe0 xa6 xac xe0 xa7 x87 xe0 xa6 xb8 xe0 xa6 xac xe0 xa6 xac xe0 xa6 xbf xe0 xa6 xb8 xe0 xa7 x8d xe0 xa6 xa4 xe0 xa6 xbe xe0 xa6 xb0 xe0 xa6 xbf xe0 xa6 xa4 xe0 xa6 xac xe0 xa6 xb2 xe0 xa7 x87 xe0 xa6 xa6 xe0 xa6 xbf xe0 xa6 xa4 xe0 xa7 x87 xe0 xa6 xaa xe0 xa6 xbe xe0 xa6 xb0 xe0 xa7 x87 xe0 xa6 xa8 xe0 xa5 xa4 xe0 xa6 x85 xe0 xa6 xa5 xe0 xa6 x9a xe0 xa6 x8f xe0 xa6 x87 xe0 xa6 xae xe0 xa6 xbe xe0 xa6 xa8 xe0 xa7 x81 xe0 xa6 xb7 xe0 xa6 x97 xe0 xa7 x81 xe0 xa6 xb2 xe0 xa7 x8b xe0 xa6 xa1 xe0 xa6 xbe xe0 xa6 x95 xe0 xa7 x8d xe0 xa6 xa4 xe0 xa6 xbe xe0 xa6 xb0 xe0 xa6 xac xe0 xa6 xbe xe0 xa6 xaa xe0 xa7 x8d xe0 xa6 xaf xe0 xa6 xbe xe0 xa6 xb0 xe0 xa6 xbe xe0 xa6 xae xe0 xa7 x87 xe0 xa6 xa1 xe0 xa6 xbf xe0 xa6 xb2 xe0 xa7 x87 xe0 xa6 x95 xe0 xa6 xa5 xe0 xa7 x87 xe0 xa6 x95 xe0 xa7 x87 xe0 xa6 xaa xe0 xa6 xbe xe0 xa6 xb6 xe0 xa6 x95 xe0 xa6 xb0 xe0 xa6 xbe xe0 xa6 x95 xe0 xa7 x8b xe0 xa6 xa8 xe0 xa6 xab xe0 xa6 xbe xe0 xa6 xb0 xe0 xa7 x8d xe0 xa6 xae xe0 xa6 xbe xe0 xa6 xb8 xe0 xa6 xbf xe0 xa6 xb7 xe0 xa7 x8d xe0 xa6 x9f xe0 xa6 x93 xe0 xa6 xa8 xe0 xa6 xaf xe0 xa6 xbc xe0 xa5 xa4 xe0 xa6 xac xe0 xa7 x87 xe0 xa6 xb6 xe0 xa6 xbf xe0 xa6 xb0 xe0 xa6 xad xe0 xa6 xbe xe0 xa6 x97 xe0 xa6 xb8 xe0 xa6 xae xe0 xa6 xaf xe0 xa6 xbc xe0 xa6 x87 xe0 xa6 xa6 xe0 xa7 x87 xe0 xa6 x96 xe0 xa6 xbe xe0 xa6 xaf xe0 xa6 xbe xe0 xa6 xaf xe0 xa6 xbc xe0 xa6 x8f xe0 xa6 x87 xe0 xa6 xae xe0 xa6 xbe xe0 xa6 xa8 xe0 xa7 x81 xe0 xa6 xb7 xe0 xa6 x97 xe0 xa7 x81 xe0 xa6 xb2 xe0 xa7 x8b xe0 xa6 xb8 xe0 xa6 xb0 xe0 xa6 xbe xe0 xa6 x9c xe0 xa7 x80 xe0 xa6 xac xe0 xa6 xa8 xe0 xa6 xac xe0 xa6 xbf xe0 xa6 xad xe0 xa6 xbf xe0 xa6 xa8 xe0 xa7 x8d xe0 xa6 xa8 xe0 xa6 xb0 xe0 xa7 x81 xe0 xa6 x97 xe0 xa7 x80 xe0 xa6 x95 xe0 xa7 x87 xe0 xa6 xa8 xe0 xa6 xbf xe0 xa6 xaf xe0 xa6 xbc xe0 xa7 x87 xe0 xa6 xac xe0 xa6 xbf xe0 xa6 xad xe0 xa6 xbf xe0 xa6 xa8 xe0 xa7 x8d xe0 xa6 xa8 xe0 xa6 x9c xe0 xa6 xbe xe0 xa6 xaf xe0 xa6 xbc xe0 xa6 x97 xe0 xa6 xbe xe0 xa6 xaf xe0 xa6 xbc xe0 xa6 x98 xe0 xa7 x81 xe0 xa6 xb0 xe0 xa7 x87 xe0 xa6 xac xe0 xa7 x87 xe0 xa6 xa1 xe0 xa6 xbc xe0 xa6 xbf xe0 xa6 xaf xe0 xa6 xbc xe0 xa7 x87 xe0 xa6 x9b xe0 xa7 x87 xe0 xa6 xa8 xe0 xa6 xaf xe0 xa6 xbe xe0 xa6 xb0 xe0 xa6 xab xe0 xa6 xb2 xe0 xa7 x87 xe0 xa6 x8f xe0 xa6 x87 xe0 xa6 x9c xe0 xa7 x8d xe0 xa6 x9e xe0 xa6 xbe xe0 xa6 xa8 xe0 xa6 x85 xe0 xa6 xb0 xe0 xa7 x8d xe0 xa6 x9c xe0 xa6 xa8 xe0 xa6 x95 xe0 xa6 xb0 xe0 xa7 x87 xe0 xa6 x9b xe0 xa7 x87 xe0 xa6 xa8 xe0 xa5 xa4 xe0 xa6 x8f xe0 xa6 xae xe0 xa6 xa8 xe0 xa6 x8f xe0 xa6 x95 xe0 xa6 x9c xe0 xa6 xa8 xe0 xa6 xae xe0 xa6 xbe xe0 xa6 xa8 xe0 xa7 x81 xe0 xa6 xb7 xe0 xa6 xaa xe0 xa6 xb0 xe0 xa6 xbf xe0 xa6 x9a xe0 xa6 xbf xe0 xa6 xa4 xe0 xa6 xa5 xe0 xa6 xbe xe0 xa6 x95 xe0 xa6 xbe xe0 xa6 xac xe0 xa6 xbe xe0 xa6 xaa xe0 xa7 x8d xe0 xa6 xb0 xe0 xa6 xa4 xe0 xa6 xbf xe0 xa6 xac xe0 xa7 x87 xe0 xa6 xb6 xe0 xa6 xbf xe0 xa6 xa5 xe0 xa6 xbe xe0 xa6 x95 xe0 xa6 xbe xe0 xa6 x96 xe0 xa7 x81 xe0 xa6 xac xe0 xa6 x87 xe0 xa6 xb8 xe0 xa7 x8c xe0 xa6 xad xe0 xa6 xbe xe0 xa6 x97 xe0 xa7 x8d xe0 xa6 xaf xe0 xa7 x87 xe0 xa6 xb0 xe0 xa6 xac xe0 xa6 xbf xe0 xa6 xb7 xe0 xa6 xaf xe0 xa6 xbc xe0 xa5 xa4 xe0 xa6 xac xe0 xa6 xbf xe0 xa6 xaa xe0 xa6 xa6 xe0 xa7 x87 xe0 xa6 xb0 xe0 xa6 xb8 xe0 xa6 xae xe0 xa6 xaf xe0 xa6 xbc xe0 xa6 xac xe0 xa6 xbf xe0 xa6 xad xe0 xa6 xbf xe0 xa6 xa8 xe0 xa7 x8d xe0 xa6 xa8 xe0 xa6 xb0 xe0 xa7 x8b xe0 xa6 x97 xe0 xa7 x87 xe0 xa6 xb0 xe0 xa6 x9a xe0 xa6 xbf xe0 xa6 x95 xe0 xa6 xbf xe0 xa7 x8e xe0 xa6 xb8 xe0 xa6 xbe xe0 xa6 xaa xe0 xa6 xa6 xe0 xa7 x8d xe0 xa6 xa7 xe0 xa6 xa4 xe0 xa6 xbf xe0 xa6 xb8 xe0 xa6 xae xe0 xa7 x8d xe0 xa6 xaa xe0 xa6 xb0 xe0 xa7 x8d xe0 xa6 x95 xe0 xa7 x87 xe0 xa6 xad xe0 xa6 xbe xe0 xa6 xb2 xe0 xa6 xaa xe0 xa6 xb0 xe0 xa6 xbe xe0 xa6 xae xe0 xa6 xb0 xe0 xa7 x8d xe0 xa6 xb6 xe0 xa6 xaa xe0 xa6 xbe xe0 xa6 x93 xe0 xa6 xaf xe0 xa6 xbc xe0 xa6 xbe xe0 xa6 xaf xe0 xa6 xbe xe0 xa6 xaf xe0 xa6 xbc xe0 xa5 xa4 xe0 xa6 x8f xe0 xa6 xa4 xe0 xa7 x87 xe0 xa6 x95 xe0 xa6 xb0 xe0 xa7 x87 xe0 xa6 xb0 xe0 xa7 x8b xe0 xa6 x97 xe0 xa7 x80 xe0 xa6 x95 xe0 xa7 x87 xe0 xa6 xb8 xe0 xa6 xa0 xe0 xa6 xbf xe0 xa6 x95 xe0 xa6 x9c xe0 xa6 xbe xe0 xa6 xaf xe0 xa6 xbc xe0 xa6 x97 xe0 xa6 xbe xe0 xa6 xaf xe0 xa6 xbc xe0 xa6 xb8 xe0 xa6 xa0 xe0 xa6 xbf xe0 xa6 x95 xe0 xa6 x9a xe0 xa6 xbf xe0 xa6 x95 xe0 xa6 xbf xe0 xa7 x8e xe0 xa6 xb8 xe0 xa6 xbe xe0 xa6 xb0 xe0 xa6 xae xe0 xa6 xbe xe0 xa6 xa7 xe0 xa7 x8d xe0 xa6 xaf xe0 xa6 xae xe0 xa7 x87 xe0 xa6 xa6 xe0 xa7 x8d xe0 xa6 xb0 xe0 xa7 x81 xe0 xa6 xa4 xe0 xa6 xb8 xe0 xa7 x81 xe0 xa6 xb8 xe0 xa7 x8d xe0 xa6 xa5 xe0 xa6 x95 xe0 xa6 xb0 xe0 xa7 x87 xe0 xa6 xab xe0 xa7 x87 xe0 xa6 xb2 xe0 xa6 xbe xe0 xa6 xb8 xe0 xa6 xae xe0 xa7 x8d xe0 xa6 xad xe0 xa6 xac xe0 xa5 xa4
com.lifcare.launch, lifcare subscription based online pharmacy enables chronic patient diabetes heart condition hypertension renal disorder etc place online medicine order refill every month one leading online healthcare subscription portal 000 loyal customer lifcare facilitates hassle free online medicine purchase official mobile app along keeping user updated latest health tip trend
com.lifescan.reveal, get downloaded diabetes app help one million people around world take step forward diabetes management onetouch reveal xc2 xae app
com.littleapp.diabetes, great easy comprehensive tracker app android helping people track manage diabetes pre diabetes keep track blood glucose control carbs whether diabetes year newly diagnosed diagnosed pre diabetes
coml.macromassive.babytooth.app, teething process infant first teeth often called baby teeth milk teeth sequentially appear emerging gum many parent choose carefully monitor teething timeline others difficulty come identifying progress made teeth eruption
com.luckyxmobile.babycare, track baby feed baby sleep baby poop pee baby growth support multiple reminder help parent caregiver remember take care baby busy
com.marg.pharmanxt, free pharma helpline
com.medicalgroupsoft.medical.drugsdictionary.free, friendly beautiful interface best choice pocket drug dictionary
com.medicalgroupsoft.medical.refdiseases.eng.free, medical dictionary complete offline app containing list medical disorder disease along symptom advisory treatment
com.pocketprep.cota, national board certification occupational therapy inc nbcot xc2 xae national certification body occupational therapy professional united state nbcot certified occupational therapy assistant cota xc2 xae examination consists 200 item comprising four three option single response multiple choice item six option multi select item
com.cookpad.android.cookpad_tv.android_tv, xe2 x97 x86cookpadlive xe3 x81 xae xe7 x89 xb9 xe5 xbe xb4
com.dominos.zeroclick, introducing domino xe2 x80 x99s zero click app
com.banfield.bpht, banfield pet hospital app give easy access pet profile along helpful tool advice right fingertip
com.bannerhealth.BannerHealthMobileApp, access service information banner health regarded recognized top health system country clinical quality consistently provided patient app includes urgent care search find doctor bill pay nurse call mybanner portal access healthcare blog content
com.barcelonacreations.medicalsuitelite, medical suite xc2 xae lite medical application offer quick efficient dozen medical calculator unit conversion risk stratification table
com.bariatriccalc, tool bariatric surgeon help ass patient xe2 x80 x99s risk choose best procedure patient
com.baritastic.view, baritastic app bariatric surgery
com.fungameco.teethfree2, groundbreaking app us high resolution micro scan data real teeth data collected processed two university academic used reconstruction technique allow external internal structure teeth explored great detail
com.gattoussiste.formed_gyneco, formed gyn xc3 xa9co obst tool medical student physician practicing obstetrics gynecology formed gyn xc3 xa9co obst
com.ge.logiqremote, logiq remote replicates subset user interface control compatible logiq ultrasound system enabling approved care provider remotely control ultrasound system
com.getqardio.androidmd, qardiomd app companion app doctor access qardiomd portal would like request invitation start using qardiomd practice app visiting www qardiomd com
com.herbal.cure, looking simple natural herbal cure common ailment side effect herbal cure app offer natural cure simple natural ingredient available home pleasure curing common ailment home easily available low cost ingredient rest assured stay healthy side effect treatment
com.herbalmedicine.tadawi.bila3chab, translate description english united state using google translate
com.hermes.induction, induction free app healthcare professional enabling relevant hospital information number bleep pager guideline door code time place need
com.highmark.hmmobile, highmark member access part insurance use highmark member member one affiliate app let
com.hippoed.rap.pc.app, stay best primary care rap xe2 x80 x9crap xe2 x80 x9d stand review perspective month bring latest greatest host editor chief rob orman joined expert across field tailored exactly need primary care clinician xe2 x80 x99s funny xe2 x80 x99s smart xe2 x80 x99s truly irresistible medical education
com.hivhelpguide.app, hiv virus cause hiv infection aid advanced stage hiv infection
com.naturalcycles.cordova, particle physicist elina berglund initially developed natural cycle offer woman effective non hormonal method birth control app identifies ovulation analyzing basal body temperature letting know fertile xe2 x80 x99re natural cycle different fertility period tracker clinically proven birth control option alongside pill iud condom
com.nccih.herbsataglance, learn herb botanical used complementary integrative health approach free herblist app national center complementary integrative health nccih herb botanical app includes identifying picture common name information science say potential side effect caution resource information additional feature include ability mark favorite herb quick recall offline accessibility national institute health xe2 x80 x99s nccih herblist app offer trusted credible information
com.nch.physician, physician connect access expert pediatric content direct nationwide child xe2 x80 x99s including
com.nckk.healthguide, developed arthurmyanmarapk creation
org.mmh.cvcbundle, xe9 xa6 xac xe5 x81 x95cvc bundle xe5 x8a xa0 xe6 xb2 xb9 xe7 xab x99 xe6 x8f x90 xe4 xbe x9b xe5 x8f xb0 xe5 x8c x97 xe3 x80 x81 xe6 xb7 xa1 xe6 xb0 xb4 xe5 x85 xa9 xe9 x99 xa2 xe5 x8d x80 xef xbc x8c xe5 x9c xa8 xe6 x89 x8b xe6 xa9 x9f xe4 xb8 x8a xe7 x8d xb2 xe5 xbe x97 xe4 xb8 xad xe5 xbf x83 xe5 xb0 x8e xe7 xae xa1 xe7 x85 xa7 xe8 xad xb7 xe7 x9b xb8 xe9 x97 x9c xe7 x9f xa5 xe8 xad x98 xef xbc x8c xe4 xb8 xa6 xe6 x8f x90 xe4 xbe x9b xe7 xb7 x9a xe5 x8d xb3 xe6 x99 x82 xe6 xb8 xac xe9 xa9 x97 xe5 x8a x9f xe8 x83 xbd xef xbc x8c xe8 xae x93 xe5 xad xb8 xe7 xbf x92 xe3 x80 x81 xe6 xb8 xac xe9 xa9 x97 xe4 xb8 x80 xe6 xac xa1 xe5 x88 xb0 xe4 xbd x8d xef xbc x8c xe6 x95 xac xe8 xab x8b xe5 x90 x8c xe4 xbb x81 xe5 xa4 x9a xe5 x8a xa0 xe5 x88 xa9 xe7 x94 xa8 xe5 xad xb8 xe7 xbf x92 xe3 x80 x82
org.mmh.phonereg, xe9 xa6 xac xe5 x81 x95 xe9 x86 xab xe9 x99 xa2 xe8 xa1 x8c xe5 x8b x95 xe6 x8e x9b xe8 x99 x9f xe6 x8f x90 xe4 xbe x9b xe5 x8f xb0 xe5 x8c x97 xe3 x80 x81 xe6 xb7 xa1 xe6 xb0 xb4 xe3 x80 x81 xe6 x96 xb0 xe7 xab xb9 xe3 x80 x81 xe5 x8f xb0 xe6 x9d xb1 xe5 x9b x9b xe9 x99 xa2 xe5 x8d x80 xef xbc x8c xe5 x9c xa8 xe6 x89 x8b xe6 xa9 x9f xe5 xb9 xb3 xe5 x8f xb0 xe4 xb8 x8a xe9 x80 xb2 xe8 xa1 x8c xe3 x80 x8c xe8 xa1 x8c xe5 x8b x95 xe6 x8e x9b xe8 x99 x9f xe3 x80 x81 xe7 x9c x8b xe8 xa8 xba xe9 x80 xb2 xe5 xba xa6 xe3 x80 x81 xe6 x8e x9b xe8 x99 x9f xe6 x9f xa5 xe8 xa9 xa2 xe3 x80 x81 xe8 xa1 x8c xe5 x8b x95 xe7 xb9 xb3 xe8 xb2 xbb xe3 x80 x81 xe6 x9c xac xe6 xa9 x9f xe8 xa8 x98 xe9 x8c x84 xe3 x80 x81 xe7 x97 x85 xe7 x97 x87 xe5 x8f x83 xe8 x80 x83 xe3 x80 x81 xe4 xba xa4 xe9 x80 x9a xe6 x8c x87 xe5 xbc x95 xe3 x80 x8d xe7 x9a x84 xe5 x8a x9f xe8 x83 xbd xe6 x9c x8d xe5 x8b x99 xef xbc x8c xe6 x95 xac xe8 xab x8b xe5 xa4 x9a xe5 x8a xa0 xe5 x88 xa9 xe7 x94 xa8 xe3 x80 x82
org.mountsinai.sicklecellsymptomrecorder, mount sinai released sickle cell symptom recorder app goal improving patient monitor sickle cell disease consider app tool help gain greater insight condition symptom promote adherence treatment plan take charge health app feature include
com.mymealhero.android, life hectic dinner hard totally understand xe2 x80 x99re help meal hero take time consuming element meal planning streamlines simple fun free process let make dinnertime easier
com.olo.blackbeardiner, looking fast meal one quality home style
com.olo.piada, like street food got back order ahead without hassle designed make ordering experience seamless possible piada app take minute day seeing much accomplished today minute count
com.opentable, book enjoy extraordinary dining experience 000 restaurant worldwide opentable app find right restaurant anything using comprehensive intuitive search filter see menu photo special promotion getting inside scoop community opentable diner book reservation invite friend tag along tap plus get personalized recommendation based preference earn point redeem dining reward towards future meal hotel discount
com.slicelife.storefront, pepperoni deep dish find delicious pizza local restaurant one place slice pizza app
com.sourceapp.bru, bruegger bagel mobile app convenient way pay check earn reward mobile pay mean leave wallet home using app check inner circle reward mean earning redeeming point easier ever
com.talabat, download free talabat app get access thousand delivery restaurant straight smartphone tablet order food online kuwait united arab emirate kingdom saudi arabia bahrain oman qatar jordan
com.vietnammm.android, feeling like delicious pizza pho salad burger kebab easily order delicious meal 1200 restaurant vietnam order pizza schnitzel lunch pasta chinese indian takeaway online spoilt choice meal within minute depending restaurant availability
com.yum.pizzahut, download official pizza hut app fastest way order favorite pizza wing dessert xe2 x80 x99ve redesigned app ground making even easier check menu find deal earn free pizza hut reward xc2 xae
de.foodora.android, take first bite foodora
de.lieferheld.android, dinner whatever fancy find favourite meal via lieferheld android app tablet app order simple step
lu.takeaway.android, order food online android smartphone tablet using takeaway com luxembourg app super easy