 
.
 
 
 
 
a 1)
—<
~~

 
 
»
 

 
 

"
 

"
 

 
 
a 1)
 
 
 
 

 

 
 
 
|
 
 
I
y

=

y
 
 
 
 
 
 

 

 
y

=

y
——,

 
 
 
 
 

 

 

 

 
 
TS
 
 
 
 
 
 
 

 
oly
acl)

Wis) 4
Cl
a
pel)

[wis] 4
Ec)

Gwex
ped)

fwil=)> a
