a

 
 
a

 
 
G)
G)
~
NN
~
™s
ti
~
Mm
a

 
 
G)
 

 

Be

OB

 

 
 

re

 

 

 

 

 

 
Rocseuivaropeeirepiaboetesepeut ett

 

 

 

 

 

 

 

RT rar
Be =

fs Fea Ea)
. erway

re SS
LIFE
1
es
re
ia vel
 
 
 
 
 
 
poo
 
 
 
 
 
 
 
 
Y
eS
aN
> 21h»
aN
> 21h»
 
Cr
 
SS
SS
 
iC
 
 
 
aN
> 21h»
 
a
ra
 
vat
RT
