 
NO
 
 
|
 
 
()
1)
i)
SY
IN
a
a
10]
os ae
 
»
 
 
ae
 
P >

DISC@®VER

_ 4
VISA
 
E
Powered by 0) health
 
 
 

 
“ss
Q
E
WN

eee
IN)

Se OER MeN 4An In-ya
ee |
 
am.
ece\ ui -1C-10 0 8) (k) health
Powered by 0) health
 
|
:
sydney
syoney care
 
 
 

 
ae
 
E
 
 
»
 
P >

DISC@®VER

_ 4
VISA
a
 
 
10]
IN
NO
 
ee |
 
os ae
 
:
sydney
E
()
 
 
WN

eee
Powered by 0) health
SY
 
syoney care
IN)

Se OER MeN 4An In-ya
|
am.
 
“ss
Q
1)
i)
a
 
|
ece\ ui -1C-10 0 8) (k) health
 
 
Powered by 0) health
 
INO
(Oy
SY
a
IN
a
\)
G)
10]
wi
y

4
 
 
tb
 
a >

DISC@VER

4
 
VISA
 
al
r
Powered by C9 health
 
 
Os
Q,
r
WES

elie Rees CEI ame Si E Ll,
WES

Sw OI NINN IN Ww
°I3N)
 

 
Powered by C) health
Powered by C9 health
 
|
=
ero) a=
SV]
syon
 
 
G)
ero) a=
SV]
syon
WES

Sw OI NINN IN Ww
a
 
y

4
 
°I3N)
 
=
wi
VISA
 

 
WES

elie Rees CEI ame Si E Ll,
 
 
Powered by C9 health
Powered by C9 health
Powered by C) health
 
r
 
IN
a
r
 
Os
Q,
(Oy
 
a >

DISC@VER

4
 
INO
\)
|
al
SY
tb
10]
 
 
 
 
I
 
 
y

=

y
y

=

y
NO
()
SY
IN
y
 
a

 
 
Powered by 0) health
 
I
IN
 
 
y

=

y
 
Powered by 0) health
SY
NO
y

=

y
()
 
 
 
a

 
y
 
 
 
 
 
.
»
NU
(©)
 
 
IN
C7
 
a
VISA
 
OWN L
 
 
[a
 
 
 
 
VW
 
 
 
 
 
 
 
 
 
 
 
ead (C3) rei)
a is
 
 
 
 
 
 
 
 

 
 
a alle alle
. a +

 
 
+ +

+ +

 
 
 
 
 
 
 
 
i * * 99
“@°
Yew“
we @8.8.a
Nyy

Ort

lly,

 
Soy ain
 
€.
 
 
SD
ME
ead (C3) rei)
 
 
A
a

\ YY
YY <

 
 
 

AN
 

 

 
 
Es
 
 
 
 
    

oP Ay

ds
 
— a
xk *
 
 
r
 
 
 
 
 
 
 
 
 
'e:
 
 
 
 
 
 
 
 
 
 
 
an |
 

Fe

@®

Cm.
 
Powered by (k) by
ead (C3) rei)
 
 
syoney care
 

 
 
 
 
 
 
 
OWN L
    

oP Ay

ds
Es
 

 
NU
 
 
 
 
 
 
 
 
Powered by (k) by
 
 
 
 

AN
 
 
»
 
 
 
 
 
 
a
a alle alle
. a +

 
VW
— a
 
IN
 
 
 
 
 

 
 
 
 
“@°
Yew“
 
syoney care
 
 
SD
ME
+ +

+ +

 
 
ead (C3) rei)
C7
 
Soy ain
 
'e:
a is
i * * 99
 
an |
 
 
 
 
 
A
a

\ YY
YY <

 
 
Nyy

Ort

lly,

 
 

 
 
 
 
.
 
 
 
 
 
 
 
 
 
 
€.
 
 
 
 
 
 
 
 
 
(©)
 
 
 
 
we @8.8.a
 

Fe

@®

Cm.
xk *
 
 
 

 

 
 
 
[a
 
r
 
 
VISA
Powered by 0) health
Powered by 0) health
ww
(Oy
ie
BS
Powered by C9 health
(Oy
BS
ww
Powered by C9 health
ie
Cl
Cl
 
a9
io}
9
a
a
99
 
a9
a9
 
 
 
I
 
 
y

=

y
y

=

y
NO
()
SY
IN
y
 
a

 
 
Powered by 0) health
a
Cl
 
 
 
 
 
.
»
NU
(©)
 
 
IN
C7
 
a
VISA
 
OWN L
 
 
[a
 
 
 
 
VW
 
 
 
 
 
 
 
 
 
 
 
a is
 
 
 
 
 
 
 
 

 
 
a alle alle
. a +

 
 
+ +

+ +

 
 
 
 
 
 
 
 
i * * 99
“@°
Yew“
we @8.8.a
Nyy

Ort

lly,

 
Soy ain
 
€.
 
 
SD
ME
 
 
A
a

\ YY
YY <

 
 
 

AN
 

 

 
 
Es
 
 
 
 
    

oP Ay

ds
 
— a
xk *
 
 
r
 
 
 
 
 
 
 
 
 
'e:
 
 
 
 
 
 
 
 
ead (C3) rei)
 
 
 
an |
 

Fe

@®

Cm.
 
Powered by (k) by
ead (C3) rei)
 
 
syoney care
 

 
Powered by 0) health
 
 
 
|
 
 
NO
()
1)
i)
SY
IN
a
a
10]
os ae
 
»
 
 
ae
 
P >

DISC@®VER

_ 4
VISA
 
E
Powered by 0) health
 
 
 

 
“ss
Q
E
WN

eee
IN)

Se OER MeN 4An In-ya
ee |
 
am.
ece\ ui -1C-10 0 8) (k) health
Powered by 0) health
 
|
:
sydney
syoney care
 
 
 
INO
(Oy
SY
a
IN
a
\)
G)
10]
wi
y

4
 
 
tb
 
a >

DISC@VER

4
 
VISA
 
al
r
Powered by C9 health
 
 
Os
Q,
r
WES

elie Rees CEI ame Si E Ll,
WES

Sw OI NINN IN Ww
°I3N)
 

 
Powered by C) health
Powered by C9 health
 
|
=
ero) a=
SV]
syon
 
 
ww
(Oy
ie
BS
Powered by C9 health
 
 
 
 
 
@@e @
 
 
   

blah,blah
blahblah

 
   
 
 
—

@ 3
 
 
 
ie
 
ry x
bog
 
 
 
 
 
 
1

C®)
>>

©)
 
o

i]
a
a
\ «vf
 
 
 
 
 
 

N
 
 
 
©)
 
 
 
 
 
 
 
 
 
A
 
 
ai
 
 
>
i
r FTO)
 
 
 
 
 
PC

 
 
 
 
 
 
 
 
 
 
 
 
iA
 
 
 
“aL
 
 
 
 
 
 
 
 
 
 
¥

ry
.j
 
 
al

a
 
 
 
 
a |
 
 
 
J
 
 
 
 
 
 
oO
 
 
 
 
 
 
 
 
“ id
ee
 
 
 
 
S
<¢

@
 

@ood
<)>
 
 
 
 
 
 
 
 
 
 
 
 
 
 

7IN
J
 
 
Sd
Your personal health assistant
 
 
 
 
/\~
 
 
 
 
 
ie
 
 
“
©

‘q
Ve

 
 
 
 
 
&

INTEGRITY

FAMILY CARE
 
 
 
 
_
 
 
 
 
 
 
 
a)
a
=
=
 
 
 
 
 
 
 
 
 
oe
a an
bg
cM
((@))
  
oP
 
 
 
eo-e 0-6

Health KResults Medical KMD
Dialog IIe) 6]
|e

 
 
C®)

)>

©)
 
 
 
 
oe
OD
 
 
SG
 
 
 

 
 
_
 
 
 
 
 
>
 
 
 
 
 
 
 
 
CNT)
 
 
 

 
 
 
 
 
/\~
 
@ooo
ie
Vay
 
 
 
, an

@ 8
ie
7IN
 
 
 
(*]
<¢

@
 
PC

 
 
fy
 
 
 
 
 
Vy
G)
 
~

a YD
 
SQ
 
@)

>

®)
 
 
 
 
 
 
 
zea gn
 
 
 
 
 
 
 
 
 
 
 
Your personal healin assstant
<b
 
 
<e
 
Your personal health assistant
 
va
 

ZoeDoe)
puna
J
 
 
SG
 

 

Health KResults Medical KMD
Dialog History
ze4" eu
 
 
 
 
 
 
 
 
 
 
 
 
 
 
 
y,
 
 
 
 
2)
 
 
 
  
Q )
 
7
 
 
  
  
 

  

blah,blah
blahblah
 
Mi)
 
 
 
 
 
 
 

ZoeDoe)
@
 
 
 
 
 
 
 
 
 
 
a
ae +
e
 
 
 
 
git.version=ce3551a92c8cf91f925232f93a88b3048fecd9ac
