a

 
 
 
a

 
G)
G)
OptiExpert™

   
OptiExpert™

   
 
 
 
 
OptiExpert™

 
OptiExpert™

 
 
 
OptiExpert”

A
RS,

ae
OptiExpert”

A
RS,

ae
OptiExpert’

 
OptiExpert’

 
a

 
 
 
 
 
OptiExpert’

 
OptiExpert™

 
OptiExpert”

A
RS,

ae
OptiExpert™

   
G)
 
i

  
  
    

  
 
MyDay ss soue
tore

CooperVision’

 
Proclear’ &

CooperVision

 
 
Sapphire™ Toric

  
   
Biofinity” )

CooperVision

 
 

Biomedics 1 day Extra @

toric

oe CooperVision
2
 
clariti
XR toric

 
 
   

Biofinity”
toric

een conte Sere? CooperVision
Proclear”
toric

PC Tetras” CooperVision

  

   
NPT

DAILY DISPOSABLE
CONTACT LENSES

 
Biomedics’ 1 day Extra

| -ereemtarns ‘CooperVision”
FER, |

 
Biofinity Energys” )

CooperVision’

 

ess @
 

Avaira Vitality”
toric

  

wvebcing

CooperVision”
 
      
   

Avaira Vitality”

CooperVision"

   
 

o
=.

    
  

 
Proclear’ 1 day
multifocal

oe CooperVision

 
Biomedics"
toric

cote es CooperVision”

 
 

Biofinity”
multifocal

CooperVision
 
    
  
  

Biofinity’XR
toric

contact eases CooperVision’

  
 

Proclear’
toric XR

   

CooperVision
     

clariti”
toric
clariti

multifocal

 
 
 

. ® CooperVision"

 
     
   
   
 

Proclear 1 day &

CooperVision
Cooper Vision’

 
 
 

Proclear*
multifocal XR

CooperVision

  
 
Proclear”
multifocal

. CooperVision

  
 
 

Pearle

 
rw}
=
5S /
<
a

ARN
PROTECTION
 
Cooper Vision’
 
 
 
 
a F _—

—
 

 

 
CooperVision’

OptiExpert”
a

8
|||
  

(ey wish

--Opticrens
eye wish
opticiens
eyexpert
eye wish
opticiens
 
 
Axel a
Greets
 
Bolster 16)
 

BS) 9] -let V1)
Specsavers
 
Specsavers

CooperVision
Specsavers

CooperVision
Specsavers

CooperVision
Specsavers

CooperVision
Specsavers
Greets
 
Bolster 16)
 

BS) 9] -let V1)
Specsavers
 
Specsavers

easyvision
Specsavers

easyvision
Specsavers

easyvision
Specsavers
 
vision express
vision express
vision express
 

Vision Express :
 
 
 
 
 
 
 
 
 
 
 
Lens
power

 

-3.00

+3.00

+6.00

Typical daily
disposable
hydrogel lens

‘Avaira Vitality"

oer

 
Lens
power

 

-3.00

+3.00

+6.00

Typical daily
disposable
hydrogel lens

‘Avaira Vitality"

oer

 
Lens
power

 

-3.00

+3.00

+6.00

Typical daily
disposable
hydrogel lens

Biofinity®

 
Lens
power

 

-3.00

+3.00

+6.00

Typical daily
disposable
hydrogel lens

 
Lens
power

 

-3.00

+3.00

+6.00

Typical daily
disposable
hydrogel lens

 
Typical daily

 

Lens Biomedics* ert
disposable
ower | ydrogellens "day ba |" Ben
70
-6.00 |
|" 3
so
-3.00 |
“0
| 5
+3.00
2»:
“ © © :
oe
Typical daily

 

Lens Biomedics* ert
disposable
ower | ydrogellens "day ba |" Ben
70
-6.00 |
|" 3
so
-3.00 |
“0
| 5
+3.00
2»:
“ © © :
oe
Lens
power

 

-3.00

+3.00

+6.00

Typical daily
disposable
hydrogel lens

clariti?1 day

oer

 
Lens
power

 

-3.00

+3.00

+6.00

Typical daily
disposable
hydrogel lens

clariti?1 day

oer

 
Lens
power

 

-3.00

+3.00

+6.00

Typical daily
disposable
hydrogel lens

clariti?1 day

oer

 
Lens
power

 

-3.00

+3.00

+6.00

Typical daily
disposable
hydrogel lens

 
Lens
power

 

-3.00

+3.00

+6.00

Typical daily
disposable
hydrogel lens

Lives

 
Lens
power

 

-3.00

+3.00

+6.00

Typical daily
disposable
hydrogel lens

MyDay*

oer

 
Lens
power

 

-3.00

+3.00

+6.00

Typical daily
disposable
hydrogel lens

MyDay*

oer

 
Lens
power

 

-3.00

+3.00

+6.00

Typical daily
disposable
hydrogel lens

clariti?1 day

oer

 
Lens
power

 

-3.00

+3.00

+6.00

Typical daily
disposable
hydrogel lens

clariti?1 day

oer

 
Lens
power

 

-3.00

+3.00

+6.00

Typical daily
disposable
hydrogel lens

Proclear’

oer

 
Lens
power

 

-3.00

+3.00

+6.00

Typical daily
disposable
hydrogel lens

Proclear’

oer

 
Lens
power

 

-3.00

+3.00

+6.00

Typical daily
disposable
hydrogel lens

Proclear’

oer

 
 

Biofnty =)

 
CooperVisior™
[Live Brightly.® |
CooperVision™
 
 
 
 
 
 
 
 
 
 
 
 
 
 
 
 
 
 
 
 
 
 
 
 
 
 
 
 
 
 
 
 
 
 
 
 
 
 
 
 
 
80

70

60

50

 

40

30

 

20

 

10

 

 

 

 

 

 

-6 -4 -2 0 2 4 6
Distance from centre (mm)

Dk/T
 
 
 

80

70

60

50

40

Dk/T

30

20

10
 
 
 

 

 

 

 

 

 

-4

-2

0
Distance from centre (mm)

80

70

60

50

40

30

20

10

Dk/T
 
 
 
 

70

10
 
 

 

 

80

70

60

50

40

Dk/T

30

20

10
 

 

 

Dk/T
 

 

 

Dk/T
 

BE

 

 

 

 

-2

0
Distance from centre (mm)

80

70

60

 

40

 

30

 

20

 

 

 

Dk/T
 

 

 

80

70

60

50

40

Dk/T

30

20

10
LAG

 

= 50
40
=| 30
20

 
 

 

 

 

 
LAG

 

= 50
40
=| 30
20

 
 

 

 

 

 
 
 

 

 

 

 

 

 

 

 

 

 

 

-6 -4 -2 0
Distance from centre (mm)

80

70

60

50

40

30

20

10

Dk/T
 
 
Dk/t
High
oxygen

Typical daily
disposable clariti® 1 day toric

hydrogel lens

20

Low
oxygen

 
Lens
power

 

-3.00

+3.00

+6.00

Typical daily
disposable
hydrogel lens

clariti?1 day

oer

 
Dk/t
Hodné
kysliku

Dioptricka | Typicka jednodenni . ;
hodnota hydrogelova clariti? 1 day toric
fotky kontaktni Gotka

20

Malo
kysliku

 
Dk/t
Hoher
Sauerstoffgehalt

Typische Hydrogel
Einmalkontaktlinse

clariti® 1 day toric

Lieferbereich

20

Niedriger
Sauerstoffgehalt

 
Dk/t
High
oxygen

Typical daily
disposable clariti® 1 day toric

hydrogel lens

20

Low
oxygen

 
Dk/t
Alta
oxigenacion

Tipica lente

Potencia ve .
desechable diaria clariti? 1 day toric

de la lente

de hidrogel

20

Baja
oxigenacion

 
Dk/t
Oxygénation
élevée

Puissance Lentille jetable . ;
dela journaliére en clariti® 1 day toric
lentille hydrogel classique

20

Oxygénation
faible

 
Dk/t
High
oxygen

Typical daily
disposable clariti® 1 day toric

hydrogel lens

20

Low
oxygen

 
Dk/t
Magas
oxigénateresztés

Altalanos napi _ |
Dioptria eldobhaté clariti? 1 day toric
hidrogél lencse

20

Alacsony
oxigénateresztés

 
Dk/t
Alta
trasmissibilita

Lenti a contatto
giornaliere clariti® 1 day toric

Potere

sferico
in Hydrogel

20

Bassa
trasmissibilita

 
Dk/t

Typowa .
mee Jednodniowa soczewka clariti® 1 day toric Wysoll

hydrozelowa

soczewki poziom tlenu

20

Niski
poziom tlenu

 
Dk/t
Alta
oxigenacao

Tipica lente de
hidrogel clariti® 1 day toric

descartavel diaria

Poténcia
da lente

20

Baixa
oxigenacao

 
 

-6

-4

-2

 

0
Distance from centre (mm)

 

 

80

70

60

50

40

30

20

10

Dk/T
 

QE

 

 

 

-2

0
Distance from centre (mm)

80

70

60

50

40

30

 

20

 

10

 

 

Dk/T
0

 
C)
 

 

 

 

 

 

 

 

6 -4 -2 0 2 4 6
Distance from centre (mm)

80

70

60

50

40

30

20

10

Dk/T
&

*

* 4 3 ° 2
‘stance om cant im)
 

 

-2 4

 

| | | | | |
6 -4 -2 0 2 4 6
Distance from centre (mm)

 

80

70

60

50

40

30

20

10

Dk/T
0

 
 
-2

-4

-6

 

 

 

 

 

 

-6

-4

-2

 

 

 

0
Distance from centre (mm)

80

70

60

50

40

30

20

10

Dk/T
 

 

   

 

 

 

6 -4 -2 0 2 4 6
Distance from centre (mm)
 
me

So

80
80
20
80

70

60

2
wm

wd

40

30

 

20

10
 

80

70

60

50

40

Dk/T

30

20

10
 

QE

BE

 

 

 

-2

0)
Distance from centre (mm)

80

70

60

50

40

30

 

20

 

10

 

 

Dk/T
 

 

 

 

| | | | | | |
6 -4 -2 0 2 4 6
Distance from centre (mm)

 

80

70

60

50

40

30

 

20

 

10

 

 

Dk/T
 
 

 

 

 

 

Distance from centre (mm)

80

70

60

50

40

30

20

10

Dk/T
 

Distance rom ent)

70

0
 
-2

4

 

-4

-2

 

|
0
Distance from centre (mm)

 

 

 
Distance rom ent (nm)
 
 

QE

AL

BE

 

 

 

-4

-2

0
Distance from centre (mm)

 

 

 

 

80

70

60

50

40

30

20

10

Dk/T
 
 

AE

 

 

 

-4

-2

0
Distance from centre (mm)

80

70

60

50

40

30

 

20

 

10

 

 

Dk/T
 
 

4

 

0)
Distance from centre (mm)

 

 

 

80

70

60

50

40

30

20

10

Dk/T
 
4

 

 

 

 

 

 

 

Distance from centre (mm)

80

70

60

50

40

30

20

10

Dk/T
 

—— iil

Distance rom entre (re)
 
 

 

 

 

-4

 

 

 

 

0
Distance from centre (mm)

80

70

60

50

40

30

20

10

Dk/T
 

Distance rom ene (re)
 

 

 

 

80

70

60

50

40

30

 

20

 

10

 

 

 

-2

0
Distance from centre (mm)

Dk/T
 
 

 

 

 

4

-2

 

 

 

 

0)
Distance from centre (mm)

80

70

60

50

40

30

20

10

Dk/T
 

Distance rom en (nm)

70

0
 

 

 

 

-4

-2

 

 

 

 

0)
Distance from centre (mm)

80

70

60

50

40

30

20

10

Dk/T
rom en (nm)
 

80

70

60

50

40

Dk/T

30

20

10
 
 
 
 

70

10
 
 

 

 

80

70

60

50

40

Dk/T

30

20

10
 

 

 

80

70

60

50

40

Dk/T

30

20

10
Lens
power

-6.00

-3.00

+3.00

+6.00

Typical daily 7
disposable clariti? 1 day
hydrogel lens

ee
»>@
0 @
_@O

Dk/t
High
oxygen

Low
oxygen
Lens
power

 

-3.00

+3.00

+6.00

Typical daily
disposable
hydrogel lens

clariti?1 day

oer

 
Dk/t
Dioptricka | Typicka jednodenni or

hodnota hydroaeles a clariti® 1 day kysliku

60

50

30

Malo
kysliku

 
Dk/t

Typische Hydrogel clariti® 1 da Hoher
Einmalkontaktlinse ¥ Sauerstoffgehalt

Lieferbereich

60

50

30

Niedriger
Sauerstoffgehalt

 
Typical daily
disposable
hydrogel lens

clariti® 1 day

 

60

50

30
z Dk/t
Tipica lente Alta

desechable diaria clariti® 1 day oxigenacion
de hidrogel

Potencia
de la lente

60

50

30

Baja
oxigenacion

 
Dk/t
Oxygénation
élevée

Puissance Lentille jetable .
dela journaliére en clariti? 1 day
lentille hydrogel classique

60

50

30

Oxygénation
faible

 
Typical daily
disposable
hydrogel lens

clariti® 1 day

 

60

50

30
Altalénos napi .
Dioptria eldobhaté clariti®? 1 day
hidrogél lencse

 

60

50

30

Alacsony
oxigénateresztés

 
. Dk/t
Lenti a contatto Alta

giornaliere daritio’, day trasmissibilita
in Hydrogel

Potere
sferico

60

50

30

Bassa
trasmissibilita

 
T Dk/t
ypowa _ i
Jednodniowa soczewka clariti® 1 day week

hydrozelowa

poziom tlenu

60

50

30

Niski
poziom tlenu

 
Tipica lente de Alta
hidrogel clariti° 1 day oxigenacdo
descartavel diaria

Poténcia
da lente

60

50

30

Baixa
oxigenacao

 
 

 

 

 

6 4 2 0 2 4 6
Distance from centre (mm)

 

 
 

 

 

 

 

+ 2 ° 2 4
Distance rom entre (nm)

so
 
 

 

 

 

 

-2

0
Distance from centre (mm)

 

80

70

60

 

Dk/T
 

 

 

 

 

Distance rom ante (rm)

to
 
 

 

 

 

 

 

 

4

-2

0
Distance from centre (mm)

Dk/T
 

 

 

 

 

 

 

 

-2

0
Distance from centre (mm)

 

50

30

20

Dk/T
Typical daily
disposable
hydrogel lens

clariti® 1 day
multifocal

 

Dk/t
High
oxygen

20
Lens
power

 

-3.00

+3.00

+6.00

Typical daily
disposable
hydrogel lens

clariti?1 day

oer

 
Dk/t

cere] ata | ame ay pt
‘

.

:

:

'

20

10
Malo
kysliku

 
Dk/t

Leterbereen| Typshe year! | lt dy Lena
:
ls
30

20

10
Niedriger
Sauerstoffgehalt

 
Dk/t
clariti® 1 day High
multifocal oxygen

Typical daily
disposable
hydrogel lens

20

Low
oxygen

 
Dk/t

i Tipica lente 7
Potencia ° iia
delalent desechable diaria clariti® 1 day ae

“vee de hidrogel multifocal i9
( 70
60
50
40
30

20

10
Baja
oxigenacion

 
Dk/t

Puissance Lentille jetable earns aay Oxygenation
dela journaliére en : dlevée
; ; multifocal
lentille hydrogel classique
7 70

60
50
40
30

20

10
Oxygénation
faible

 
Dk/t
clariti® 1 day High
multifocal oxygen

Typical daily
disposable
hydrogel lens

20

Low
oxygen

 
Dk/t

clariti® 1 day Magas
multifocal oxigénateresztés

Altalanos napi
Dioptria eldobhaté
hidrogél lencse

20

10
Alacsony
oxigénateresztés

 
Dk/t

Lenti a contatto
Potere itie Alta
eer giornaliere Sarit Uday trasmissil
sferico in Hydrogel multifocal
y 7
60
50
40
30

20

10
Bassa

 

  
Dk/t

Moc , Typowa claritie 1 day Wysoki
soczewki eee irultifocal poziom tlenu
Z 70
60
50
40
30

20

10
Niski
poziom tlenu

 
Dk/t
clariti® 1 day Alta
multifocal oxigenacao

Tipica lente de
hidrogel
descartavel diaria

Poténcia
da lente

20

10
Baixa
oxigenacao

 
 

 

 

 

80

70

60

50

40

30

20

10

Dk/T
20
80

70

60

 

 

 
| i

} 420
 

80
 
 
80

70

60

oO
oo
T

 

+20

10
Lens Dk/t Map

 

80
Lens Dk/t Map

 

80
 
©
Dk/t
Typical daily

: High
power disposable MyDay® 7 Lom
hydrogel lens

70
-6.00

60

50
-3.00

40

30
+3.00

20

10
+6.00

Low

 

oxygen
Lens
power

 

-3.00

+3.00

+6.00

Typical daily
disposable
hydrogel lens

MyDay*

oer

 
Dk/t
Dioptricka | Typicka lediedennt

Hodné
hodnota legs
eoéky

70

-6.00
60
50
-3.00
40
30
+3.00
20
10
+6.00
Malo

 

kysliku
Dk/t
Typische Hydrogel MyDaye Hoher
Einmalkontaktlinse

Lieferbereich Sauerstoffgehalt

70
-6.00
60
50
-3.00
40
30
+3.00
20
10
+6.00
Niedriger

 

Sauerstoffgehalt
Lens
power

-6.00

-3.00

+3.00

+6.00

Typical daily
disposable
hydrogel lens

MyDay®

 

Dk/t
High
oxygen

Low
oxygen
Dk/t

Potencia Tiplea lente) _ MyDaye Alta
delalente | desechable dara lyDay exigenacién
Je hidrogel

-6.00

-3.00

+3.00

+6.00

 

Baja
oxigenacion
Dk/t

Puissance Lentille jetable —
fe} Jenation
dela journaligre en MyDay® elena
lentille hydrogel classique
70
-6.00
0
50
-3.00
Py
30
+3.00
20
0
+6.00
Oxygénation

 

faible
Lens
power

-6.00

-3.00

+3.00

+6.00

Typical daily
disposable
hydrogel lens

MyDay®

 

Dk/t
High
oxygen

Low
oxygen
Dk/t
Magas
oxigénateresztés

Altalénos napi
Dioptria eldobhaté MyDay®
hidrogél lencse

 

70
-6.00

60

50
-3.00

40

30
+3.00

20

10
+6.00

Alacsony

oxigénateresztés
Dk/t
Lenti a contatto

Potere 4 Alta
sferico siomaliere MyDay® trasmissibilita
in Hydrogel

70
-6.00

60

50
-3.00

40

30
+3.00

20

10
+6.00

Bassa

 

trasmissibilita
Dk/t

Typowa .
Moc Wysoki
jednodniowa soczewka MyDay® y

hydrozelowa

soczewki poziom tlenu

-6.00

-3.00

+3.00

+6.00

Niski
poziom tlenu

 
Dk/t

Poténcia Tiplca lenteide MyDaye Alta
da lente hidrogel lyDay’ oxigenacdo
descartavel diaria

70
-6.00

60

50
-3.00

40

30
+3.00

20

10
+6.00

Baixa

 

oxigenacao
 

QE

BE

 

 

 

-2

0
Distance from centre (mm)

80

70

60

50

40

30

 

20

 

10

 

 

Dk/T
0
 

 

4

-2

 

Distance from centre (mm)

 

oo ae

 

 

80

70

60

50

40

30

20

10

Dk/T
-2

4

6

 

 

 

80

70

60

50

 

40

 

30

 

 

 

-6

-4

-2

 

0 2 4 6
Distance from centre (mm)

Dk/T
| os

3 4 2 ° 2 a é

 

 
 

 

 

 

-4

-2

 

 

 

 

0
Distance from centre (mm)

80

70

60

50

40

30

20

10

Dk/T
 

 

80

70

60

50

 

40

30

 

6

 

 

 

 

 

6 -4 -2 0 2 4 6
Distance from centre (mm)

Dk/T
 

-2

-4

-6

-4

0

 

80

70

60

50

 

40

Dk/T

30

20

10

 

 

Distance from centre (mm)

 
 
 

 

 

 

 

 

 

 

Dk/T
 
 
 

 

 

 

80

70

60

50

40

30

20

10

Dk/T
20
 

 

 
 
 
80

70

60

 

 

 
| i

} 420
 

80
-2

-4

6

 

 

 

 

-6

-4

-2

0
Distance from centre (mm)

mm CO

 

 

 
 
 
 
80

70

60

oO
oo
T

 

+20

10
-2

4

6

 

 

 

 

 

 

-6

-4

-2

0
Distance from centre (mm)

80

70

60

 

 

30

 

20

 

 

 

Dk/T
 

 

 
 
©
©
Dk/t

Typical daily ;
ae disposable MyDay? toric ees
hydrogel lens
o eae 70
-6.00/
-0.75x180
60
a aa
50
-3.00/
-0.75x180
40
30
+1.00/
-1.25x70
20
+4.00/ @
-1.75x160
e Low

 

oxygen
Lens
power

 

-3.00

+3.00

+6.00

Typical daily
disposable
hydrogel lens

MyDay*

oer

 
Dk/t
Dioptricka | Typicka jednodenni ; Hod
hodnota hydrogelova MyDay?® toric legs
fotky kontaktni Gotka

-6.00/
-0.75x180

-3.00/
-0.75x180

+1.00/
-1.25x70

+4.00/
-1.75x160

Malo
kysliku

 
Dk/t

Typische Hydrogel MyDay® toric Hoher
Einmalkontaktlinse

Lieferbereich Sauerstoffgehalt

70
-6.00/
-0.75x180

«0

so
-3.00/
-0.75x180

“0

30
+1.00/
-1.25x70

20
+4,00/ 0
-1.75x160

Niedriger

 

Sauerstoffgehalt
Typical dail Dk/t
Lens ypical daily ; nigh
disposable MyDay® toric ig
hydrogel lens

power oxygen

-6.00/
-0.75x180

-3.00/
-0.75x180

+1.00/
-1.25x70

+4.00/
-1.75x160

 
= Dk/t
Tipica lente _ Myaye tori ‘Alta
desechable diaria lyDay?® toric oxigenacion

de hidrogel

Potencia
de la lente

-6.00/
-0.75x180

-3.00/
-0.75x180

+1.00/
-1.25x70

+4.00/
-1.75x160

Baja
oxigenacion

 
Dk/t
Puissance Lentille jetable Sy
Je . Oxygénation
dela journaliére en MyDay?® toric aleve
lentille hydrogel classique

-6.00/
-0.75x180

-3.00/
-0.75x180

+1.00/
-1.25x70

+4.00/
-1.75x160

Oxygénation
faible

 
Typical dail Dk/t
Lens ypical daily ; nigh
disposable MyDay® toric ig
hydrogel lens

power oxygen

-6.00/
-0.75x180

-3.00/
-0.75x180

+1.00/
-1.25x70

+4.00/
-1.75x160

 
Dk/t
Magas
oxigénateresztés

Altalanos napi ;
Dioptria eldobhaté MyDay?® toric
hidrogél lencse

70
-6.00/
-0.75x180

0

50
-3.00/
-0.75x180

Py

30
+1.00/
-1.25x70

20
+4,00/ 0
-1.75x160

Alacsony

 

oxigénateresztés
Dk/t

Potere Lenti a contatto ; “ait
sferico Sees, MyDay? toric crainicaitta
in Hydrogel
70
-6.00/
-0.75x180
60
50
-3.00/
-0.75x180
40
30
+1.00/
-1.25x70
20
+4,00/ mn
-1.75x160
Bassa

 

trasmissibilita
Dk/t

Typowa |
Moc + Wysoki
jednodniowa soczewka MyDay® toric posioha th

hydrozelowa

soczewki

-6.00/
-0.75x180

-3.00/
-0.75x180

+1.00/
-1.25x70

+4.00/
-1.75x160

Niski
poziom tlenu

 
ae Dk/t
Tipica lente de Mypaye'tert Alta
hidrogel ty Day toric ‘oxigenacdo
descartavel diaria

Poténcia
da lente

-6.00/
-0.75x180

-3.00/
-0.75x180

+1.00/
-1.25x70

+4.00/
-1.75x160

Baixa
oxigenacao

 
Lens Dk/t Map

 

80
80

 
Lens Dk/t Map

 

80
80
Lens Dk/t Map

 

80
Lens Dk/t Map

 
 
Lens Dk/t Map

 

80
Lens Dkit Map

 

20
Lens Dk/t Map

 

80
Lens Di/t Map

80
 

80

70

60

50

40

Dk/T

30

20

10
 
80

70

60

50

40

30

20

10

Dk/T
20

70

60

50

sos

30

20

10
 

80

70

60

50

40

Dk/T

30

20

10
 

80
 
 
 
 

 

 
il
a
CooperVision’

OptiExpert”
 

 
 

Back
OptiExpert”

 

Calculated result:

0.00/-1.48x180

For maximum success, the
recommended lenses are:

0.00/-1.25x180

 

 

Refine sphere power
|||
 
