 

 

&

 

 
&
 

 

&

 

 
 

 

| 3

 

 
 

 

| 3

 

 
 

 

po

 

 
po
 

 

pe

 

 
 
J4+1,
 
Het th Ree ed
We th eee eld
 

 

pe

 

 
 
 

 

| 3

 

 
J4+1,
&
 

 

po

 

 
We th eee eld
 

 

&

 

 
 

 

&

 

 
Het th Ree ed
 
 

 

| 3

 

 
po
poe
 
He
powered by Goog!
powered by Google
poe
powered by Google
 
He
powered by Goog!
3+ |
3+ |
ee
 

 

&

 

 
 

 

&

 

 
I+1
powered by Google
powered by Google
powered by Google
 

 

&

 

 
 

 

&

 

 
3+ |
I+1
3+ |
ee
powered by Google
ae
+1
sete ty a Ox0l sod (a
powered by Google
sete ty a Ox0l sod (a
+1
powered by Google
ae
 
poe
 
He
powered by Goog!
powered by Google
 

 

&

 

 
&
 

 

&

 

 
 

 

| 3

 

 
 

 

| 3

 

 
 

 

po

 

 
po
 

 

pe

 

 
 
J4+1,
 
Het th Ree ed
We th eee eld
3+ |
3+ |
ee
 

 

&

 

 
 

 

&

 

 
I+1
powered by Google
powered by Google
ae
+1
sete ty a Ox0l sod (a
powered by Google
 
 
He
powered by Goog!
powered by Google
 
J4+1,
O41
 
Het th Ree ed
We th eee eld
I+1
powered by Google
powered by Google
 
sete ty a Ox0l sod (a
powered by Google
 
