 
a
a
 
a
 
 
a
 
 
 
I
 
 
y

=

y
y

=

y
 
 
-
a
 
 
 
y

=

y
 
 
 
-
a
I
y

=

y
 
 
 
 
|
 
 
 
 
 
 
 
|
a
 
 
a
 
 
 
 
 
.
»
 
 
 
 
.
 
 
 
 
 
 
 
»
 
 
 
 
 
 
 
 
 
ERROR
ERROR
ERROR
 
ERROR
ERROR
ERROR
 
 
 
 
 
 
 
 
a
a
Cl
Cl
 
 
 
 
 
I
 
 
y

=

y
y

=

y
 
 
-
a
 
a
Cl
 
 
 
 
 
.
»
 
 
 
 
 
 
 
 
 
 
 
 
ERROR
ERROR
ERROR
 
 
 
|
 
 
 
a
a
 
a
 
git.version=eb8d5626ff8b7781e3a2ec6c3990785697adb99f
