 
a
G)
 
G)
a
 
 
 
|
 
 
ee
 
 
ee
 
|
 
 
Cl
Cl
 
 
 
I
 
 
y

=

y
y

=

y
a

 
re
 
 
 
y

=

y
 
 
re
y

=

y
I
 
 
a

 
 
 
 
 
 
.
»
ee
 
.
 
ee
 
 
»
 
a
a
 
 
 
I
 
 
y

=

y
y

=

y
a

 
re
 
a
Cl
 
 
 
 
 
.
»
ee
 
 
 
|
 
 
ee
 
a
G)
git.version=a1f28028ba4e22c11cfaffe0e37ae27be1eea0c3
3.1.1
