 
=e
 
Seip NII
BANK BRI
 
G)
EXCEL
WORD
B
(8
(S41
8+
 
 
ae
gZKis
   
       
    
 

7

| PUSAT LAYANAN INFORMASI
{3} BPJS Kesehatan
LCC esc ed

1800400
 

(o

mobilecashn

easy transaction in your hand
oe
oe
a
io

BRIS Kesenatar
eel nfslonggsre lala Shoal
BIASKesehiaiteant
Badanigenyclenceacct amiban Sos
mandiri
 
N Pa
 
wo |
| RENTER
yd
mandir
VISA
EM eR ‘Norton’
a MT ey

rel BS Maile
=:
nS
 
powered by Google
Tn a
PO -:

(Payment Point Online Bank)
ae
Se
Virtual

Accout
CO
nS
BIASKesehiaiteant
Badanigenyclenceacct amiban Sos
wo |
 
   
       
    
 

7

| PUSAT LAYANAN INFORMASI
{3} BPJS Kesehatan
LCC esc ed

1800400
PO -:

(Payment Point Online Bank)
(S41
N Pa
 
 
mandiri
gZKis
 
WORD
| RENTER
ae
io

BRIS Kesenatar
eel nfslonggsre lala Shoal
BANK BRI
 
Seip NII
powered by Google
EM eR ‘Norton’
a MT ey

rel BS Maile
 

(o

mobilecashn

easy transaction in your hand
oe
oe
ae
Se
Virtual

Accout
CO
(8
 
 
=:
G)
8+
Tn a
=e
EXCEL
 
yd
mandir
a
 
 
VISA
B
 
 
 
 
 
.
»
 
 
 
oe
 
 
-
ae
powered by Google
 
 
 
 
powered by Google
 
 
 
 
 
-
ae
oe
»
 
.
 
 
 
 
ny
wo
 
a
 
(|*
 
YY
ra
 
re
Brus
 
a)
 
 
\\
[°|
a
 
Rg
lal)
NY
hi,
NY
 
[6
 
 
|v
LN
G
\
ed
 
 
IZ
; ~
 
 
bx
aye
 
 
Oe
@
iG
 
|
 
eae
72 a
pg
 
,

>

ae
oe
a
\
NV
7
a
 
43
bd
 
‘BE
eee
 
>
 
 
 
WA
pe
oko)
 
)
f
 
a)
ra)
| 3
QF
Ge
Ln
 
Ave
 
AS
Wee
“y
)
 
 
 
Ry
 
CN
 
Cy
 
et
SC ie
UI
ce
Sell
Da]
3)
3)
3)
a5)
oe
Oo
oe
cowe7
ewe,
ahs
ye
oe
7)

me
Per
 
ae
“@
hg
mS

DY
ww
eu
Teo)
>
fee)
W)
a
can
Pi
   

 
Cre
Es
Z
 
Ma
a
iA
BACK
aa)
ys :
ANd 4
a
tage
ca
MW
},
UJ
re)
y 6)
pS
¢

~v
rN
€

av
a
4
>
te
es

 
Peas
awe

a
awe

ea
Pe AGS
Te)
 
a¥>
a¥>p
Co
i —
 
 
 

Pr ry
aw
 
7¥eN
ine
 
 
ke
eo
a
ff
a
at
or
.

a
he
acd
i)
$99
+$s
ee
Na
ah
~

f
 
wd
45
25
4)
2
 
ee
riNG
og
 
fore]
Sal
 
 
al
phd

sey

ia al

la al
 
Ne
(«
ES)
3
IN
i
(Goa
4
Karis
if
eT EO
oD
 
 
es

 
a
 
fore]
4
ah
Cy
2
oe
phd

sey

ia al

la al
)
oe
 
iG
Co
 
if
“@
a
 
ny
\
ee
Es
G
[6
oe
 
7¥eN
ine
ra
bx
 
 
bd
WA
pe
Sal
Ln
 
pg
 
fee)
+$s
>
te
 
pS
4
re)
y 6)
ca
i)
a
 
 
Ave
‘BE
 
Oo
43
 
AS
Ry
awe

a
iA
Ne
aw
a
Ge
\
 
\\
a¥>
eu
YY
 
 
Per
acd
Sell
wo
3
oD
Cre
Z
awe

ea
 
 
Te)
ke
 
4)
 
(|*
Pe AGS
aye
(Goa
mS

DY
Brus
Rg
riNG
a)
 
 
cowe7
Karis
 
7
a
CN
 
tage
ewe,
Teo)
 
MW
a)
ra)
hg
Pi
 
Da]
Peas
QF
ES)
ff
 
ww
a
IZ
; ~
a
 
NY
 
Wee
45
wd
 
| 3
eo
 
 
3)
a5)
3)
ee
BACK
can
et
SC ie
W)
 
 
NY
$99
al
a¥>p
(«
>
 
|
hi,
Oe
 
re
NV
   

 
@
 
25
UI
€

av
a
,

>

ae
 
ce
ahs
ye
oe
|v
LN
)
ed
 
Na
Ma
f
7)

me
at
“y
eae
72 a
a
 
 
 
or
 
eT EO
~

f
 
[°|
aa)
},
UJ
a
ys :
ANd 4
og
 

Pr ry
>
lal)
ae
oko)
eee
i —
 
3)
 
IN
i
¢

~v
rN
 
.

a
he
 
 
 
|
 
 
3
en)
uit
 
 
OM Taxa ele ae

 
 
Sa
(St
INVOICE
|
|
oe
oe
a
 
 
 
 

 
<:
powered by Google
en = i
 
 
 
 
 
powered by Google
|
en = i
en)
uit
OM Taxa ele ae

 
 
3
a
 
|
 

 
Sa
 
oe
|
 
 
 
 
<:
 
oe
 
 
INVOICE
(St
 
 
 
 
 
I
 
 
y

=

y
y

=

y
 
 
 
 
a

 
 
 
 
 
 
 
RPIS Kesehatan
 
8+
WT
a
AUN ons reRS air Gy

 

Syarat dan ketentuan
1. Kartu Peserta harap dibawa ketika berobat.

2. Apabila kartu ini disalahgunakan akan dikenakan sanksi.

3, Apabila ada perubahan atau kehilangan Kartu, segera lapor ke kantor BPJS Kesehatan setempat.

Pusat Layanan Informasi BPJS Kesehatan 1500400
www.bpjs-kesehatan.go.id Z|
Sem TLIO Bub eL > Boel
RDIS Kesehatan
PP”
mandir!
 
-
aN) L,
 
 
©)

BPJS Kesehatan
er

Pe

i
I
i

 
powered by Google
en =.
 
 
 

 
 
 

 
 
 
RDIS Kesehatan
 
8+
 
en =.
-
aN) L,
y

=

y
 
 
PP”
mandir!
 
RPIS Kesehatan
 
 
a
AUN ons reRS air Gy

 

Syarat dan ketentuan
1. Kartu Peserta harap dibawa ketika berobat.

2. Apabila kartu ini disalahgunakan akan dikenakan sanksi.

3, Apabila ada perubahan atau kehilangan Kartu, segera lapor ke kantor BPJS Kesehatan setempat.

Pusat Layanan Informasi BPJS Kesehatan 1500400
www.bpjs-kesehatan.go.id Z|
 
©)

BPJS Kesehatan
er

Pe

i
I
i

 
 
 
Sem TLIO Bub eL > Boel
 
 
 
y

=

y
 
I
 
WT
a

 
 
 
powered by Google
 
 

 
 
Kesenatan

 
Pendaftaran Peserta Baru

 
 
 
 
Kesenatan

 
 
 
 

 
 
Pendaftaran Peserta Baru

 
 
BANK BRI
ig
Hx
 
©5 tokopedia
 
 
 
 
 
 
 
 
- >
Oa
   

MOON
 
powered by Google
ee a
 
 
 

 
   

MOON
 
 
 
powered by Google
 
- >
Oa
 
 
 
ee a
 
 
 
 

 
a
a
B+
 

 

8+

 

 
B+
 

 

8+

 

 
Cl
Cl
 

 
 
Kesenatan

 
Pendaftaran Peserta Baru

 
 
 
 
I
 
 
y

=

y
y

=

y
 
 
 
 
a

 
 
 
 
 
 
 
RPIS Kesehatan
 
8+
WT
a
AUN ons reRS air Gy

 

Syarat dan ketentuan
1. Kartu Peserta harap dibawa ketika berobat.

2. Apabila kartu ini disalahgunakan akan dikenakan sanksi.

3, Apabila ada perubahan atau kehilangan Kartu, segera lapor ke kantor BPJS Kesehatan setempat.

Pusat Layanan Informasi BPJS Kesehatan 1500400
www.bpjs-kesehatan.go.id Z|
Sem TLIO Bub eL > Boel
RDIS Kesehatan
PP”
mandir!
 
-
aN) L,
 
 
©)

BPJS Kesehatan
er

Pe

i
I
i

 
powered by Google
en =.
 
 
 

 
 
 
a
Cl
 
 
 
 
 
.
»
 
 
 
oe
 
 
-
ae
powered by Google
 
 
ny
wo
 
a
 
(|*
 
YY
ra
 
re
Brus
 
a)
 
 
\\
[°|
a
 
Rg
lal)
NY
hi,
NY
 
[6
 
 
|v
LN
G
\
ed
 
 
IZ
; ~
 
 
bx
aye
 
 
Oe
@
iG
 
|
 
eae
72 a
pg
 
,

>

ae
oe
a
\
NV
7
a
 
43
bd
 
‘BE
eee
 
>
 
 
 
WA
pe
oko)
 
)
f
 
a)
ra)
| 3
QF
Ge
Ln
 
Ave
 
AS
Wee
“y
)
 
 
 
Ry
 
CN
 
Cy
 
et
SC ie
UI
ce
Sell
Da]
3)
3)
3)
a5)
oe
Oo
oe
cowe7
ewe,
ahs
ye
oe
7)

me
Per
 
ae
“@
hg
mS

DY
ww
eu
Teo)
>
fee)
W)
a
can
Pi
   

 
Cre
Es
Z
 
Ma
a
iA
BACK
aa)
ys :
ANd 4
a
tage
ca
MW
},
UJ
re)
y 6)
pS
¢

~v
rN
€

av
a
4
>
te
es

 
Peas
awe

a
awe

ea
Pe AGS
Te)
 
a¥>
a¥>p
Co
i —
 
 
 

Pr ry
aw
 
7¥eN
ine
 
 
ke
eo
a
ff
a
at
or
.

a
he
acd
i)
$99
+$s
ee
Na
ah
~

f
 
wd
45
25
4)
2
 
ee
riNG
og
 
fore]
Sal
 
 
al
phd

sey

ia al

la al
 
Ne
(«
ES)
3
IN
i
(Goa
4
Karis
if
eT EO
oD
B+
 

 

8+

 

 
 
 
 
 
|
 
 
3
en)
uit
 
 
OM Taxa ele ae

 
 
Sa
(St
INVOICE
|
|
oe
oe
a
 
 
 
 

 
<:
powered by Google
en = i
 
 
 
 
=e
 
Seip NII
BANK BRI
 
G)
EXCEL
WORD
B
(8
(S41
8+
 
 
ae
gZKis
   
       
    
 

7

| PUSAT LAYANAN INFORMASI
{3} BPJS Kesehatan
LCC esc ed

1800400
oe
oe
a
io

BRIS Kesenatar
eel nfslonggsre lala Shoal
BIASKesehiaiteant
Badanigenyclenceacct amiban Sos
 

(o

mobilecashn

easy transaction in your hand
mandiri
 
N Pa
 
wo |
| RENTER
yd
mandir
VISA
EM eR ‘Norton’
a MT ey

rel BS Maile
=:
nS
 
powered by Google
Tn a
PO -:

(Payment Point Online Bank)
ae
Se
Virtual

Accout
CO
 
 
 
 
 
 
 
- >
Oa
   

MOON
 
powered by Google
ee a
 
 
 

 
 

MasterGara
git.version=ce3551a92c8cf91f925232f93a88b3048fecd9ac
1.9.13
1.9.13
