 
 

Homoeopathy is Mathematics
 
+
Hh
Hh
 
 
 
 
 
 
a

Dr. Prafull Vijayakar

 

Homoeopathy is Mathematics
tt
 
 
 
 
Og
 

Homoeopathy is Mathematics
 
 
tt
 
Dr. Prafull Viiqyakar

 

THEORY

OF

 

 

Homoeopathy is Mathematics
 
ne
 

be LOW CHART OF ACUTES

re

ee

 

 

 

 

 

    
  

 

 

 

 

 

 

 

 

 

 

 

 

 

 

 

 

 

 

7

 

 

 

 

 

 

 

 

 

 

 

 

 

 

 

 

 

 

 

 

 

 

 

 

 

 

 

 

 

 

 

 

 

 

 

 

 

 

 

 

——
a
re ee a a
ae ae an
ee a an a
ne ee
ee a
a
ae rs
re a
ee ne ee
es re
re an
re ae ee
re a an
re an
re en
a an ee ee
re ae a
a a 7
ee
a
a ee
re
re
a ee
ae re
7 ae

 

 

 

 

 

 

 

 
 

 

 

re

 

 

re

 

ee

 

 

 

a

 

 

 

 

 

a
an

a
a
a

 

 

a

-

 

 

 

a

 

ae
ee
a
ee a
a

 

 

 

a 7 7

 

 

 

a

 

a

ee

 

 

 

a

an

 
re

 

 

 

 

 

 

 

 

 

 

 

 

 

 

 

 

 

 

 

 

 

 

 

ae
a ee ee
i a
a a
a a
a
re
7 7 7 7 7
re

a

 

a
a

 

 

 
 

  

re

  

 

ee
ee
ee
ee
re

 

 

 

 

 

 

 

 
 

ee
re

 

 

 

ee

ee a ee
ee a ee
 

ee

re

 

 

 

 

 

 

 

a a a a
a ee an a
ee ae a a
a an a a
an ae ae a
an a a a
a a ae

an ae a

ee a

 

 

 

 

 

 
 

ee
re

 

 

 

 

 

 

 

 

 

 

 

 

 

 

 

 

 

 

 

 

 

 

 

 

 

7
ee ae
a a es

ee
: 7
ee

 

 

 

 

 

 

 

 

 

 

 
 

 

re

 

 

ee

 

 

an

a

 

 

 

 

 

 

 

 

 
  

 

 

 

 

    

 

 

 

 

: a 7 a
an
re

ee

an

a

a

  

a

 
 

 

ee
re

 

 

 

 

 

 

 

 

 

 

 

 

 

 

 

 

 

 

re ee
ae a
ee a
;
an ne a ae
ee

 

 

 

 

 

; ; a a
a a ee

 

 

 

 

 

 

 

 

 

 

 

 

es
ee
- a ee

 

 

 

 

 

 

 

 

a a re
 

 

re

 

 

re

 

 

ee

 

an

 

 

 

ee

 

re

ee

 

a
a

 

 

 

 

 

 

an

a
a

 

 

 

a
a

 

 

a

a

a a
a

 

 

 

a an

 

a ee

 
 

 

re

 

 

re

ee

 

a

 

 

 

;

 

 

a

 

 

 

 

ee

ee
ne

 

ee

 

;

a

 

 

an
an

ee
a

 

 

 

 

 

;

ee

:

ae

:

a

 
 

 

ee

a
ee

 

 

ne

 

 

 

 

 

 

 

 

 

 

 

 

 

 

 

 

 

 

 

 

 

 

 

 

 

 

 

 

 

 

 

 

 

 

 

 

 

 

a a
a re
re
ee
ee ae
- a a ae
ee
re
ne
re
: :
re

_ _ a

re re

ee ee
es a
a ae
an

re

ee ee
re ae
re

a

ee

es

  

re
ee.
° .
@ Lompine »
° .
