all
 
y

=

y
 
 
y

=

y
 
a
I
 
 
a
 
.
 
 
 
»
 
 
il
 
 
 
&
40%
OFF
 
a

a

7
a
 
=
 
@u
 
 
 
 
@u
 
 
)
a
a

an

a

a
 
 
 
 
 
 
 
 
|
 
 
4s
 
 
a
Cl
