Cl
 
 
gl
 
 
 
|
 
 
 
.
 
 
Cl
»
 
 
y

=

y
 
 
 
 
I
y

=

y
 
 
 
a

 
 
 
G)
he
 
a
 

 

 
 

 

 
 

 
a
 

 
 

 

 
~
 
 
 

 
 

 
 

 
 
e000 ATaT = 10:06 PM oy,

< Inbox Sadie Mae :

Today @ 11:58am - 12:20pm Details
ProCyte Dx, Catalyst Dx, IDEXX VetLab UA, Han..

HEMATOLOGY

RBC 5.69 I 6.16
Hematocrit 39.1 I 42.7
Hemoglobin 13.6 I 14.9
MCV 69 1 69
MCH 23.9 I 24.2
MCHC 34.8 I 34.9
WBC 5.4 I 6.4
% Neutrophil 72 I 74
%lymphocyte 13 I 16
% Monocyte 6 I 7

% Eosinophil 9 I 4

% Basophil 0 0

 

Neutrophil 3.888 I 4.736
e000 ATaT = 10:06 PM oy,

< Inbox Sadie Mae :

Today @ 11:58am - 12:20pm Details
ProCyte Dx, Catalyst Dx, IDEXX VetLab UA, Han..

HEMATOLOGY

RBC 5.69 I

Hematocrit 39.1 I 42.7
Hemoglobin 13.6 I 14.9
MCV 69 ! 69
MCH 23.9 I 24.2
MCHC 34.8 I 34.9
WBC 5.4 I 6.4
% Neutrophil 72 I 74
%lymphocyte 13 I 16
% Monocyte 6 I 7

% Eosinophil 9 ! 4

% Basophil 0 0

 

Neutrophil 3.888 I 4.736
e000 ATaT > 10:06 PM % 100% =!

< Inbox Sadie Mae

Today @ 11:58am - 12:20pm Details
ProCyte Dx, Catalyst Dx, IDEXX VetLab UA, Han...

HEMATOLOGY 2
RBC 5.69 6.16 6.15 6.44 6.55
Hematocrit 39.1 42.7 43.1 45.0 44.2

Hemoglobin 13.6 14.9 15.0 15.8 16.9

MCV 69 69 70 70 68
MCH 23.9 24.2 24.4 24.5 25.8
MCHC 34.8 34.9 34.8 35.1 38.2
WBC 5.4 6.4 6.1 6.3 7.2
% Neutrophil 72 74 70 71 74
%lymphocyte 13 16 17 15 15
% Monocyte 6 7 7 8 5

% Eosinophil 9 4 6 7 6

% Basophil 0 0 0 0 0

Neutrophil 3.888 4.736 4.27 4.473 5.328
e000 ATET >

< Inbox Motormouse

Today @ 11:58am - 12:20pm Details

% 100% =

Catalyst Dx, IDEXX VetLab UA, Handheld SNAP

CHEMISTRY
102
50
ie 1.5

BUN/Creatini... 33.3

Phosphorus 4.4

Calcium 11.5
Sodium 149
Potassium 5.3

Na/K Ratio 28
Chloride 109
TCO2 (Bicarbo... 21
Anion Gap 24

Total Protein 6.6

93

Bo)

31

107

28
e000 ATaT F 10:06 PM % 100%

< Inbox Motormouse :

Today @ 11:58am - 12:20pm Details
Catalyst Dx, IDEXX VetLab UA, ProCyte Dx, Han..

CHEMISTRY

Glucose 102 I 93
BUN 50 e
7-27 mg/dl

64

 

—————

2012 2013 2014
Creatinine 1.5 1 1.3
BUN/Creatini... 33.3 26.9
Phosphorus 4.4 I 4.1
Calcium 11.5 1 11.9
Sodium 149 I 148
Potassium 5.3 I 4.8
Na/K Ratio 28 I 31

Chloride 109 I 107
0000 AT&T F 10:06 PM % 100% =

< Motormouse BUN

| day | month | year EE i

 

ee

 

 

 

 

117

27

7

0

Aug 29, 2008 Jan 11,2010 April 29, 2012 Today
1/18/2014 50 I 7 ~ 27 mg/dl
1/7/2014 35 I 7 = 27 mg/d
1/2/2014 117 Boz - 27 mga.
8/8/2013 49 I 7 ~ 27 mg/dL
2/10/2013 27 1 7 ~ 27 mg/dl
10/2/2012 17 1 7 ~ 27 mg/dl
4/8/2012 1€ I 7 ~ 27 mg/dl

4/22/2011 13 I 7 = 27 mg/dt
Take me to the app
TTR are] og
ecocoee AT&T LTE 10:33 AM 7 92% =)

< 3006449-1 ES /E= os

11/12/14 @ 5:48... BEAR
AYVUAKDx, FATT KDx

 

 

 

 

MRFRE
PRIMERA (RBC) 4.92 [| 7 fF

 

AYKIYYMHCT) 28.0 I

NET Ot VIBE... 9.6 rh.) 11.8

 

FigmMERA... 56.9 [| PT. 58.1

 

 

 

 

 

 

 

IAPR MMERATE... = 19.5 I 19.4
IPMN... 34.3 L 33.3
TROD Fata 20.5 I 18.4
PAA TR MDER 1.1 I 0.3

HORA... 53.6 I 18.3
FumERex (WBC) 8.52 I 8.57
YFIR%(Neu) * 77.9 I *79 3

 

 

 
ecocoee AT&T LTE 10:33 AM 7 92% =)

< 3006449-1 ES /EE eee

11/12/14 @ 5:48 Ha

AYIAKDx, FAUT KDx

 

 

 

 

MRF RE
PROMERA (RBC) 4.92 6.09 5.6 5.6

AYMYyNHCT) 28.0 35.4 31.7 31.7

tT Ob VIBE... 9.6 11.8 10.7 10.7
tgmMERA... 56.9 58.1 56.6 56.6

St RMMERAE... §=8919.5 19.4 19.1 19.1

 

 

 

 

 

SAIQARMMERAE... 3.4.3 33.3. 33.8 33.8

 

PRODERD AHR 20.5 18.4 19.2 19.2
CHK A DER 1.1 0.3 0.5 0.5

MAAR MERM... 53.6 18.3 30.2 30.2

a

 

 

 

 

Aimee (WBC) 8.52 8.57 9.08 9.08

BEFERG(Neu) * 77.9 *79.3 *81.8 *81.8
ecooee AT&T LTE 10:33 AM 7 92% =)

< 3006449-1 ES JES eee

11/12/14 @ 5:48

AYUAKDx, tf KDx

 

 

 

 

 

 

 

 

 

 

 

 

 

 

 

 

 

 

 

 

RPRE

PRIMERA (RBC) 4.92 I 6.09
AVN NHCT) 28.0 I 35.4
tT Ot VRE... 9.6 I 11.8
IQARMIRA... 56.9 I 58.1
EIQ ARMERAT... = 19.5 I 19.4
EIQ PRIMERAT... 3.4.3 I 33.3
TREK FB 20.5 I 18.4
HATA TR MER 1.1 I 0.3
HAA TRODERAK... 53.6 I 18.3

BRAK (WBC) 8.52 I 8.57

 

 

 

 

 

 

 

RFHER%(Neu) * 77.9 I *79 3
 

 

 

 

 

 

 

 

 

 

 

ecoocee AT&T LIE 10:33 AM

< 3006449-1 ES JES
11/12/14 @ 5:48

AYVAKDx, FAUT KDx
nRFRE

PROMERR (RBC) 4.92 I
AYKIYYMHCT) 28.0 I

ET Oe RE... 9.6 I
FIAMMA... 56.9 I
IQA MERAT... = 19.5 I
IPMN... 34.3 1
PRIMERA AH ta 20.5 I
aA TR MDER flea I
HORT... 53.6 I
FumERex (WBC) 8.52 I

 

 

 

REFAIR%(Neu) *

77.9 I

7 92% =)

19.4

33,.3

18.4
eooee AT&T LTE 10:33 AM 7 92% =)

< 3006449-1 ES / = coe

11/12/14 @ 5:48... BERG
AYIVAKRDx, FAUT KDx

 

 

 

 

MRFARE

> 10/23... 10/20... 10/18
4.92 6.09 5.6 5.6

28.0 35.4 31.7 31.7

 

9.6 11.8 10.7 10.7

tamMERA... 56.9 58.1 56.6 56.6
StAmRMERAE... §=8919.5 19.4 19.1 19.1

 

 

 

 

 

SAIQARMMERAE... 3.4.3 33.3 33.8 33.8
AROERD Fh a 20.5 18.4 19.2 19.2
HK A ER 1.1 0.3 0.5 0.5

ay

iAP MERM... 53.6 18.3 30.2 30.2

 

 

Aimee (WBC) 8.52 8.57 9.08 9.08

 

 

 

GFFAERG(Neu) * 77.9 *79.3 *81.8 *81.8
ecocoee AT&T LTE

<

1

1/12/14 @ 5:48

10:33 AM

3006449-1 EF/S5

 

 

AVYUAKDx, VOGT KDx

MRARE
ARMERKX (RBC)

N

N

q

q

Why MHCT)

£7 Ok VBE...

FIAT MRA...

FSA oR IDERA...

 

 

FIZIK MERA...

PRIMERA TH ta
PMA AR ODER

3

RAR LDERAL....

 

Fi mERRX (WBC)

 

 

4.92 I

28.0 I

9.6 [nT

 

 

 

 

 

 

8.52 I

7 92% =)

 
eooee AT&T LTE 10:33 AM 7 92% =)

< 3006449-1 ES / = coe

11/12/14 @ 5:48... BEA
AYUAKDx, FAUT KDx

 

 

 

 

MRFARE

> 10/23... 10/20... 10/18

4.92 6.09 5.6 5.6

28.0 35.4 31.7 31.7

 

9.6 11.8 10.7 10.7

PSJOROMERA... 56.9 58.1 56.6 56.6

ESQ OROOERAE... 8919.5 19.4 19.1 19.1

 

PIQJAROMERAE... 34.3 33.3 33.8 33.8
ARMERT 45 20.5 18.4 19.2 19.2
WHA AR MER 1.1 0.3 0.5 0.5
TAPRODERR... 53.6 18.3 30.2 30.2

as

 

FAumERRX (WBC) 8.52 8.57 9.08 9.08
ecooee AT&T LTE 10:33 AM 7 92% =)

< 3006449-1 ES VEE eee

11/12/14 @ 5:48

AYIVAKDx, FAUT KDx

 

 

 

 

 

RARE

PROMERA (RBC) 4.92 6.09 5.6 5.6

 

 

 

 

 

 

AYMYyNHCT) 28.0 35.4 31.7 31.7

At7 Ob VIBE... 9.6 11.8 10.7 10.7
tg MERA... 56.9 58.1 56.6 56.6

SSR OOERAE... 8919.5 19.4 19.1 19.1

 

PLAROMERAT... 34.3 33.3 33.8 33.8

 

PRODERD Ah A 20.5 18.4 19.2 19.2

HK A OER 1.1 0.3 0.5 0.5

ay

iAP MERM... 53.6 18.3 30.2 30.2

 

 

FUmEReX (WBC) 8.52 8.57 9.08 9.08

 

 
 

 

 

 

 

 

 

 

ecooee AT&T LIE 10:33 AM
< 3006449-1 EGY SS
11/12/14 @ 5:48
AYUVAKDx, FAV KDx

RFRE
PROERR (RBC) 4.92 | | fo.
AVM yMHCT) 28.0 [| HT
tT Ok VRE... 869.6 1.
FGRMERA... 56.9 | F)
SFIQARIMERAE... © 19.5 I
IPMN... 34.3 I
PRIMERA Th ta 20.5 1
aA TR MDER 1.1 I
HEATRIOMERA... 53.6 I
FMERAX (WBC) 8.52 I

 

 

 

 

 

 

 

 

 

 

 

 

7 92% =!)

10/23... <

6.09

35.4
 

 

 

 

 

 

ecoocee AT&T LIE 10:33 AM

< 3006449-1 ES JSS
11/12/14 @ 5:48

AYUVAKDx, FAUT KDx
MRARE

AROMERAL (RBC) 4.92 I
AYKIYYMHCT) 28.0 I
ET Ot VRE... = 9.6 I
FigmMERA... 56.9 I
SFIQARIMERAE... © 19.5 I
IPMN... 34.3 I
PRIMERA hha 20.5 I
PAA TR MDER Lal I
HAA TR ODERAK... = 53.6 I
FumEReX (WBC) 8.52 I

 

 

 

 

7 92% =)

6.09

35.4

Ue

58.1

19.4

3363

18.4

0.3

18.3

8.57
0000 AT&T = 10:06 PM % 100% cz

< Poco Davidson ooo

Today @ 11:58am - 12:20pm Details
ProCyte Dx, Catalyst Dx, IDEXX VetLab UA, Han...

HEMATOLOGY W815 1/11/15 10/23/14 4/7/13 <
6.9 6.16 6.5 6.5 6.15

39.1 42.7. 42.7. 42.7. 41.3

 

13.6 14.9 14.1 14.1 | 14.1

MCV 69 69 68 68 69

MCH 23.9 24.2 23.9 23.9 24.1
MCHC 34.8 34.9 34.8 34.8 34.8
WBC 5.01 6.4 6.6 6.6 5.07

% Neutrophil 55 74 75 75 71
% Lymphocyte 13 16 15 15 14

% Monocyte 6 7 7 7 6

SY ERncinnnhi)! QO ° ° ° a
0000 AT&T = 10:06 PM % 100% cz

< Poco Davidson eee

Today @ 11:58am - 12:20pm Details
ProCyte Dx, Catalyst Dx, IDEXX VetLab UA, Han...

HEMATOLOGY 18/15 1/11/15 10/23/14 4/7/13
RBC 6.9 6.16 6.5 6.5 6.15
Hematocrit 39.1 42.7. 42.7 42.7 41.3

Hemoglobin 13.6 14.9 14.1 14.1 14.1

MCV 69 69 68 68 69

MCH 23.9 24.2 23.9 23.9 24.1
MCHC 34.8 34.9 34.8 34.8 34.8
WBC 5.01 6.4 6.6 6.6 5.07

% Neutrophil 55 74 75 75 71
% Lymphocyte 13 16 15 15 14

% Monocyte 6 7 7 7 6

SY ERncinnanhi)! Q ° ° ° oO
©0000 AT&T = 10:06 PM % 100% cz

< Poco Davidson eee

Today @ 11:58am - 12:20pm Details
ProCyte Dx, Catalyst Dx, IDEXX VetLab UA, Han...

 

HEMATOLOGY

RBC 6.9 Co
Hematocrit 39.1 [| | ri am
Hemoglobin 13.6 (Po) 14.9
MCV 69 CTP 69
MCH 23.9 ~ | HLH | 24.2
MCHC 34.8 i 34.9
WBC 5.01 I | 6.4
% Neutrophil 55 ib 74
% Lymphocyte 13 Lt 16
% Monocyte 6 Lb 7

SY ERncinnnh;| QO |g °
0000 AT&T = 10:06 PM % 100% cz

< Poco Davidson coe

Today @ 11:58am - 12:20pm Details
ProCyte Dx, Catalyst Dx, IDEXX VetLab UA, Han...

 

 

 

 

 

HEMATOLOGY 1/8/15. <
RBC 6.9 ee 6.16
Hematocrit 39.1 | J bo 42.7
Hemoglobin 13.6 (Fo) 14.9
MCV 69 CP 69
MCH 23.9 I 24.2
MCHC 34.8 I 34.9
WBC 5.01 I 6.4
% Neutrophil 55 I 74
% Lymphocyte 13 I 16
% Monocyte 6 I 7

SY ERcinnnh;)! QO J °

 

 
0000 AT&T = 10:06 PM % 100% cz

< Poco Davidson eco

Today @ 11:58am - 12:20pm Details
ProCyte Dx, Catalyst Dx, IDEXX VetLab UA, Han...

HEMATOLOGY

RBC 6.9 I 6.16
Hematocrit 39.1 I 42.7
Hemoglobin 13.6 I 14.9
MCV 69 I 69
MCH 23.9 I 24.2
MCHC 34.8 I 34.9
WBC 5.01 I 6.4
% Neutrophil 55 I 74
% Lymphocyte 13 I 16
% Monocyte 6 I 7

O&O Eneinanhil a J °
 

 
DEXX VetConnect P| |/S
 
0000 AT&T = 10:06 PM % 100% cz

< Poco Davidson eee

Today @ 11:58am - 12:20pm Details
ProCyte Dx, Catalyst Dx, IDEXX VetLab UA, Han...

HEMATOLOGY

RBC 6.9 I

Hematocrit 39.1 I 42.7
Hemoglobin 13.6 I 14.9
MCV 69 I 69
MCH 23.9 I 24.2
MCHC 34.8 I 34.9
WBC 5.01 I 6.4
% Neutrophil 55 I 74
% Lymphocyte 13 I 16

% Monocyte 6 I 7
0000 AT&T = 10:06 PM $ 100% cz

< Poco Davidson eee

Today @ 11:58am - 12:20pm Details
ProCyte Dx, Catalyst Dx, IDEXX VetLab UA, Han...

HEMATOLOGY W8/15 1/11/15 10/23/14 4/7/13

39.1 42.7. 42.7) 42.7 41.3

13.6 14.9 14.1 14.1 | 14.1

 

MCV 69 69 68 68 69

MCH 23.9 24.2 23.9 23.9 24.1
MCHC 34.8 34.9 34.8 34.8 34.8
WBC 5.01 6.4 6.6 6.6 5.07

% Neutrophil 55 74 75 75 71
% Lymphocyte 13 16 15 15 14

% Monocyte 6 7 7 7 6
0000 AT&T = 10:06 PM % 100% cz

< Poco Davidson eco

Today @ 11:58am - 12:20pm Details
ProCyte Dx, Catalyst Dx, IDEXX VetLab UA, Han...

HEMATOLOGY 18/15 1/11/15 10/23/14 4/7/13
RBC 6.9 6.16 6.5 6.5 6.15
Hematocrit 39.1 42.7. 42.7 42.7 41.3

Hemoglobin 13.6 14.9 14.1 14.1 14.1

MCV 69 69 68 68 69

MCH 23.9 24.2 23.9 23.9 24.1
MCHC 34.8 34.9 34.8 34.8 34.8
WBC 5.01 6.4 6.6 6.6 5.07

% Neutrophil 55 74 75 75 71
% Lymphocyte 13 16 15 15 14

% Monocyte 6 7 7 7 6
0000 AT&T = 10:06 PM % 100% cz

< Poco Davidson coe

Today @ 11:58am - 12:20pm Details
ProCyte Dx, Catalyst Dx, IDEXX VetLab UA, Han...

HEMATOLOGY

RBC 6.9 I 6.16
Hematocrit 39.1 I 42.7
Hemoglobin 13.6 I 14.9
MCV 69 I 69
MCH 23.9 I 24.2
MCHC 34.8 I 34.9
WBC 5.01 I 6.4
% Neutrophil 55 I 74
% Lymphocyte 13 I 16

% Monocyte 6 I 7
0000 AT&T = 10:06 PM % 100% cz

< Poco Davidson rr)

Today @ 11:58am - 12:20pm Details
ProCyte Dx, Catalyst Dx, IDEXX VetLab UA, Han...

HEMATOLOGY

RBC 6.9 I 6.16
Hematocrit 39.1 I 42.7
Hemoglobin 13.6 I 14.9
MCV 69 I 69
MCH 23.9 I 24.2
MCHC 34.8 I 34.9
WBC 5.01 I 6.4
% Neutrophil 55 I 74
% Lymphocyte 13 I 16

% Monocyte 6 I 7
 
 
_
y.
< Diagnostics Poco Davidson

 
RLA9—tyye

SRMUIRBE (RBC
NoHHCT)

NEY Oe YR (HG.

AOR MRE AM
SSR OURNEY 0.

FMR Oo.

arm

 
 
 
a
af
 
 
 
 
 
 
 
 
 
                                 Apache License
                           Version 2.0, January 2004
                        http://www.apache.org/licenses/

   TERMS AND CONDITIONS FOR USE, REPRODUCTION, AND DISTRIBUTION

   1. Definitions.

      "License" shall mean the terms and conditions for use, reproduction,
      and distribution as defined by Sections 1 through 9 of this document.

      "Licensor" shall mean the copyright owner or entity authorized by
      the copyright owner that is granting the License.

      "Legal Entity" shall mean the union of the acting entity and all
      other entities that control, are controlled by, or are under common
      control with that entity. For the purposes of this definition,
      "control" means (i) the power, direct or indirect, to cause the
      direction or management of such entity, whether by contract or
      otherwise, or (ii) ownership of fifty percent (50%) or more of the
      outstanding shares, or (iii) beneficial ownership of such entity.

      "You" (or "Your") shall mean an individual or Legal Entity
      exercising permissions granted by this License.

      "Source" form shall mean the preferred form for making modifications,
      including but not limited to software source code, documentation
      source, and configuration files.

      "Object" form shall mean any form resulting from mechanical
      transformation or translation of a Source form, including but
      not limited to compiled object code, generated documentation,
      and conversions to other media types.

      "Work" shall mean the work of authorship, whether in Source or
      Object form, made available under the License, as indicated by a
      copyright notice that is included in or attached to the work
      (an example is provided in the Appendix below).

      "Derivative Works" shall mean any work, whether in Source or Object
      form, that is based on (or derived from) the Work and for which the
      editorial revisions, annotations, elaborations, or other modifications
      represent, as a whole, an original work of authorship. For the purposes
      of this License, Derivative Works shall not include works that remain
      separable from, or merely link (or bind by name) to the interfaces of,
      the Work and Derivative Works thereof.

      "Contribution" shall mean any work of authorship, including
      the original version of the Work and any modifications or additions
      to that Work or Derivative Works thereof, that is intentionally
      submitted to Licensor for inclusion in the Work by the copyright owner
      or by an individual or Legal Entity authorized to submit on behalf of
      the copyright owner. For the purposes of this definition, "submitted"
      means any form of electronic, verbal, or written communication sent
      to the Licensor or its representatives, including but not limited to
      communication on electronic mailing lists, source code control systems,
      and issue tracking systems that are managed by, or on behalf of, the
      Licensor for the purpose of discussing and improving the Work, but
      excluding communication that is conspicuously marked or otherwise
      designated in writing by the copyright owner as "Not a Contribution."

      "Contributor" shall mean Licensor and any individual or Legal Entity
      on behalf of whom a Contribution has been received by Licensor and
      subsequently incorporated within the Work.

   2. Grant of Copyright License. Subject to the terms and conditions of
      this License, each Contributor hereby grants to You a perpetual,
      worldwide, non-exclusive, no-charge, royalty-free, irrevocable
      copyright license to reproduce, prepare Derivative Works of,
      publicly display, publicly perform, sublicense, and distribute the
      Work and such Derivative Works in Source or Object form.

   3. Grant of Patent License. Subject to the terms and conditions of
      this License, each Contributor hereby grants to You a perpetual,
      worldwide, non-exclusive, no-charge, royalty-free, irrevocable
      (except as stated in this section) patent license to make, have made,
      use, offer to sell, sell, import, and otherwise transfer the Work,
      where such license applies only to those patent claims licensable
      by such Contributor that are necessarily infringed by their
      Contribution(s) alone or by combination of their Contribution(s)
      with the Work to which such Contribution(s) was submitted. If You
      institute patent litigation against any entity (including a
      cross-claim or counterclaim in a lawsuit) alleging that the Work
      or a Contribution incorporated within the Work constitutes direct
      or contributory patent infringement, then any patent licenses
      granted to You under this License for that Work shall terminate
      as of the date such litigation is filed.

   4. Redistribution. You may reproduce and distribute copies of the
      Work or Derivative Works thereof in any medium, with or without
      modifications, and in Source or Object form, provided that You
      meet the following conditions:

      (a) You must give any other recipients of the Work or
          Derivative Works a copy of this License; and

      (b) You must cause any modified files to carry prominent notices
          stating that You changed the files; and

      (c) You must retain, in the Source form of any Derivative Works
          that You distribute, all copyright, patent, trademark, and
          attribution notices from the Source form of the Work,
          excluding those notices that do not pertain to any part of
          the Derivative Works; and

      (d) If the Work includes a "NOTICE" text file as part of its
          distribution, then any Derivative Works that You distribute must
          include a readable copy of the attribution notices contained
          within such NOTICE file, excluding those notices that do not
          pertain to any part of the Derivative Works, in at least one
          of the following places: within a NOTICE text file distributed
          as part of the Derivative Works; within the Source form or
          documentation, if provided along with the Derivative Works; or,
          within a display generated by the Derivative Works, if and
          wherever such third-party notices normally appear. The contents
          of the NOTICE file are for informational purposes only and
          do not modify the License. You may add Your own attribution
          notices within Derivative Works that You distribute, alongside
          or as an addendum to the NOTICE text from the Work, provided
          that such additional attribution notices cannot be construed
          as modifying the License.

      You may add Your own copyright statement to Your modifications and
      may provide additional or different license terms and conditions
      for use, reproduction, or distribution of Your modifications, or
      for any such Derivative Works as a whole, provided Your use,
      reproduction, and distribution of the Work otherwise complies with
      the conditions stated in this License.

   5. Submission of Contributions. Unless You explicitly state otherwise,
      any Contribution intentionally submitted for inclusion in the Work
      by You to the Licensor shall be under the terms and conditions of
      this License, without any additional terms or conditions.
      Notwithstanding the above, nothing herein shall supersede or modify
      the terms of any separate license agreement you may have executed
      with Licensor regarding such Contributions.

   6. Trademarks. This License does not grant permission to use the trade
      names, trademarks, service marks, or product names of the Licensor,
      except as required for reasonable and customary use in describing the
      origin of the Work and reproducing the content of the NOTICE file.

   7. Disclaimer of Warranty. Unless required by applicable law or
      agreed to in writing, Licensor provides the Work (and each
      Contributor provides its Contributions) on an "AS IS" BASIS,
      WITHOUT WARRANTIES OR CONDITIONS OF ANY KIND, either express or
      implied, including, without limitation, any warranties or conditions
      of TITLE, NON-INFRINGEMENT, MERCHANTABILITY, or FITNESS FOR A
      PARTICULAR PURPOSE. You are solely responsible for determining the
      appropriateness of using or redistributing the Work and assume any
      risks associated with Your exercise of permissions under this License.

   8. Limitation of Liability. In no event and under no legal theory,
      whether in tort (including negligence), contract, or otherwise,
      unless required by applicable law (such as deliberate and grossly
      negligent acts) or agreed to in writing, shall any Contributor be
      liable to You for damages, including any direct, indirect, special,
      incidental, or consequential damages of any character arising as a
      result of this License or out of the use or inability to use the
      Work (including but not limited to damages for loss of goodwill,
      work stoppage, computer failure or malfunction, or any and all
      other commercial damages or losses), even if such Contributor
      has been advised of the possibility of such damages.

   9. Accepting Warranty or Additional Liability. While redistributing
      the Work or Derivative Works thereof, You may choose to offer,
      and charge a fee for, acceptance of support, warranty, indemnity,
      or other liability obligations and/or rights consistent with this
      License. However, in accepting such obligations, You may act only
      on Your own behalf and on Your sole responsibility, not on behalf
      of any other Contributor, and only if You agree to indemnify,
      defend, and hold each Contributor harmless for any liability
      incurred by, or claims asserted against, such Contributor by reason
      of your accepting any such warranty or additional liability.

   END OF TERMS AND CONDITIONS

   APPENDIX: How to apply the Apache License to your work.

      To apply the Apache License to your work, attach the following
      boilerplate notice, with the fields enclosed by brackets "{}"
      replaced with your own identifying information. (Don't include
      the brackets!)  The text should be enclosed in the appropriate
      comment syntax for the file format. We also recommend that a
      file or class name and description of purpose be included on the
      same "printed page" as the copyright notice for easier
      identification within third-party archives.

   Copyright {yyyy} {name of copyright owner}

   Licensed under the Apache License, Version 2.0 (the "License");
   you may not use this file except in compliance with the License.
   You may obtain a copy of the License at

       http://www.apache.org/licenses/LICENSE-2.0

   Unless required by applicable law or agreed to in writing, software
   distributed under the License is distributed on an "AS IS" BASIS,
   WITHOUT WARRANTIES OR CONDITIONS OF ANY KIND, either express or implied.
   See the License for the specific language governing permissions and
   limitations under the License.                                 Apache License
                           Version 2.0, January 2004
                        http://www.apache.org/licenses/

   TERMS AND CONDITIONS FOR USE, REPRODUCTION, AND DISTRIBUTION

   1. Definitions.

      "License" shall mean the terms and conditions for use, reproduction,
      and distribution as defined by Sections 1 through 9 of this document.

      "Licensor" shall mean the copyright owner or entity authorized by
      the copyright owner that is granting the License.

      "Legal Entity" shall mean the union of the acting entity and all
      other entities that control, are controlled by, or are under common
      control with that entity. For the purposes of this definition,
      "control" means (i) the power, direct or indirect, to cause the
      direction or management of such entity, whether by contract or
      otherwise, or (ii) ownership of fifty percent (50%) or more of the
      outstanding shares, or (iii) beneficial ownership of such entity.

      "You" (or "Your") shall mean an individual or Legal Entity
      exercising permissions granted by this License.

      "Source" form shall mean the preferred form for making modifications,
      including but not limited to software source code, documentation
      source, and configuration files.

      "Object" form shall mean any form resulting from mechanical
      transformation or translation of a Source form, including but
      not limited to compiled object code, generated documentation,
      and conversions to other media types.

      "Work" shall mean the work of authorship, whether in Source or
      Object form, made available under the License, as indicated by a
      copyright notice that is included in or attached to the work
      (an example is provided in the Appendix below).

      "Derivative Works" shall mean any work, whether in Source or Object
      form, that is based on (or derived from) the Work and for which the
      editorial revisions, annotations, elaborations, or other modifications
      represent, as a whole, an original work of authorship. For the purposes
      of this License, Derivative Works shall not include works that remain
      separable from, or merely link (or bind by name) to the interfaces of,
      the Work and Derivative Works thereof.

      "Contribution" shall mean any work of authorship, including
      the original version of the Work and any modifications or additions
      to that Work or Derivative Works thereof, that is intentionally
      submitted to Licensor for inclusion in the Work by the copyright owner
      or by an individual or Legal Entity authorized to submit on behalf of
      the copyright owner. For the purposes of this definition, "submitted"
      means any form of electronic, verbal, or written communication sent
      to the Licensor or its representatives, including but not limited to
      communication on electronic mailing lists, source code control systems,
      and issue tracking systems that are managed by, or on behalf of, the
      Licensor for the purpose of discussing and improving the Work, but
      excluding communication that is conspicuously marked or otherwise
      designated in writing by the copyright owner as "Not a Contribution."

      "Contributor" shall mean Licensor and any individual or Legal Entity
      on behalf of whom a Contribution has been received by Licensor and
      subsequently incorporated within the Work.

   2. Grant of Copyright License. Subject to the terms and conditions of
      this License, each Contributor hereby grants to You a perpetual,
      worldwide, non-exclusive, no-charge, royalty-free, irrevocable
      copyright license to reproduce, prepare Derivative Works of,
      publicly display, publicly perform, sublicense, and distribute the
      Work and such Derivative Works in Source or Object form.

   3. Grant of Patent License. Subject to the terms and conditions of
      this License, each Contributor hereby grants to You a perpetual,
      worldwide, non-exclusive, no-charge, royalty-free, irrevocable
      (except as stated in this section) patent license to make, have made,
      use, offer to sell, sell, import, and otherwise transfer the Work,
      where such license applies only to those patent claims licensable
      by such Contributor that are necessarily infringed by their
      Contribution(s) alone or by combination of their Contribution(s)
      with the Work to which such Contribution(s) was submitted. If You
      institute patent litigation against any entity (including a
      cross-claim or counterclaim in a lawsuit) alleging that the Work
      or a Contribution incorporated within the Work constitutes direct
      or contributory patent infringement, then any patent licenses
      granted to You under this License for that Work shall terminate
      as of the date such litigation is filed.

   4. Redistribution. You may reproduce and distribute copies of the
      Work or Derivative Works thereof in any medium, with or without
      modifications, and in Source or Object form, provided that You
      meet the following conditions:

      (a) You must give any other recipients of the Work or
          Derivative Works a copy of this License; and

      (b) You must cause any modified files to carry prominent notices
          stating that You changed the files; and

      (c) You must retain, in the Source form of any Derivative Works
          that You distribute, all copyright, patent, trademark, and
          attribution notices from the Source form of the Work,
          excluding those notices that do not pertain to any part of
          the Derivative Works; and

      (d) If the Work includes a "NOTICE" text file as part of its
          distribution, then any Derivative Works that You distribute must
          include a readable copy of the attribution notices contained
          within such NOTICE file, excluding those notices that do not
          pertain to any part of the Derivative Works, in at least one
          of the following places: within a NOTICE text file distributed
          as part of the Derivative Works; within the Source form or
          documentation, if provided along with the Derivative Works; or,
          within a display generated by the Derivative Works, if and
          wherever such third-party notices normally appear. The contents
          of the NOTICE file are for informational purposes only and
          do not modify the License. You may add Your own attribution
          notices within Derivative Works that You distribute, alongside
          or as an addendum to the NOTICE text from the Work, provided
          that such additional attribution notices cannot be construed
          as modifying the License.

      You may add Your own copyright statement to Your modifications and
      may provide additional or different license terms and conditions
      for use, reproduction, or distribution of Your modifications, or
      for any such Derivative Works as a whole, provided Your use,
      reproduction, and distribution of the Work otherwise complies with
      the conditions stated in this License.

   5. Submission of Contributions. Unless You explicitly state otherwise,
      any Contribution intentionally submitted for inclusion in the Work
      by You to the Licensor shall be under the terms and conditions of
      this License, without any additional terms or conditions.
      Notwithstanding the above, nothing herein shall supersede or modify
      the terms of any separate license agreement you may have executed
      with Licensor regarding such Contributions.

   6. Trademarks. This License does not grant permission to use the trade
      names, trademarks, service marks, or product names of the Licensor,
      except as required for reasonable and customary use in describing the
      origin of the Work and reproducing the content of the NOTICE file.

   7. Disclaimer of Warranty. Unless required by applicable law or
      agreed to in writing, Licensor provides the Work (and each
      Contributor provides its Contributions) on an "AS IS" BASIS,
      WITHOUT WARRANTIES OR CONDITIONS OF ANY KIND, either express or
      implied, including, without limitation, any warranties or conditions
      of TITLE, NON-INFRINGEMENT, MERCHANTABILITY, or FITNESS FOR A
      PARTICULAR PURPOSE. You are solely responsible for determining the
      appropriateness of using or redistributing the Work and assume any
      risks associated with Your exercise of permissions under this License.

   8. Limitation of Liability. In no event and under no legal theory,
      whether in tort (including negligence), contract, or otherwise,
      unless required by applicable law (such as deliberate and grossly
      negligent acts) or agreed to in writing, shall any Contributor be
      liable to You for damages, including any direct, indirect, special,
      incidental, or consequential damages of any character arising as a
      result of this License or out of the use or inability to use the
      Work (including but not limited to damages for loss of goodwill,
      work stoppage, computer failure or malfunction, or any and all
      other commercial damages or losses), even if such Contributor
      has been advised of the possibility of such damages.

   9. Accepting Warranty or Additional Liability. While redistributing
      the Work or Derivative Works thereof, You may choose to offer,
      and charge a fee for, acceptance of support, warranty, indemnity,
      or other liability obligations and/or rights consistent with this
      License. However, in accepting such obligations, You may act only
      on Your own behalf and on Your sole responsibility, not on behalf
      of any other Contributor, and only if You agree to indemnify,
      defend, and hold each Contributor harmless for any liability
      incurred by, or claims asserted against, such Contributor by reason
      of your accepting any such warranty or additional liability.

   END OF TERMS AND CONDITIONS

   APPENDIX: How to apply the Apache License to your work.

      To apply the Apache License to your work, attach the following
      boilerplate notice, with the fields enclosed by brackets "{}"
      replaced with your own identifying information. (Don't include
      the brackets!)  The text should be enclosed in the appropriate
      comment syntax for the file format. We also recommend that a
      file or class name and description of purpose be included on the
      same "printed page" as the copyright notice for easier
      identification within third-party archives.

   Copyright {yyyy} {name of copyright owner}

   Licensed under the Apache License, Version 2.0 (the "License");
   you may not use this file except in compliance with the License.
   You may obtain a copy of the License at

       http://www.apache.org/licenses/LICENSE-2.0

   Unless required by applicable law or agreed to in writing, software
   distributed under the License is distributed on an "AS IS" BASIS,
   WITHOUT WARRANTIES OR CONDITIONS OF ANY KIND, either express or implied.
   See the License for the specific language governing permissions and
   limitations under the License.
                                 Apache License
                           Version 2.0, January 2004
                        http://www.apache.org/licenses/

   TERMS AND CONDITIONS FOR USE, REPRODUCTION, AND DISTRIBUTION

   1. Definitions.

      "License" shall mean the terms and conditions for use, reproduction,
      and distribution as defined by Sections 1 through 9 of this document.

      "Licensor" shall mean the copyright owner or entity authorized by
      the copyright owner that is granting the License.

      "Legal Entity" shall mean the union of the acting entity and all
      other entities that control, are controlled by, or are under common
      control with that entity. For the purposes of this definition,
      "control" means (i) the power, direct or indirect, to cause the
      direction or management of such entity, whether by contract or
      otherwise, or (ii) ownership of fifty percent (50%) or more of the
      outstanding shares, or (iii) beneficial ownership of such entity.

      "You" (or "Your") shall mean an individual or Legal Entity
      exercising permissions granted by this License.

      "Source" form shall mean the preferred form for making modifications,
      including but not limited to software source code, documentation
      source, and configuration files.

      "Object" form shall mean any form resulting from mechanical
      transformation or translation of a Source form, including but
      not limited to compiled object code, generated documentation,
      and conversions to other media types.

      "Work" shall mean the work of authorship, whether in Source or
      Object form, made available under the License, as indicated by a
      copyright notice that is included in or attached to the work
      (an example is provided in the Appendix below).

      "Derivative Works" shall mean any work, whether in Source or Object
      form, that is based on (or derived from) the Work and for which the
      editorial revisions, annotations, elaborations, or other modifications
      represent, as a whole, an original work of authorship. For the purposes
      of this License, Derivative Works shall not include works that remain
      separable from, or merely link (or bind by name) to the interfaces of,
      the Work and Derivative Works thereof.

      "Contribution" shall mean any work of authorship, including
      the original version of the Work and any modifications or additions
      to that Work or Derivative Works thereof, that is intentionally
      submitted to Licensor for inclusion in the Work by the copyright owner
      or by an individual or Legal Entity authorized to submit on behalf of
      the copyright owner. For the purposes of this definition, "submitted"
      means any form of electronic, verbal, or written communication sent
      to the Licensor or its representatives, including but not limited to
      communication on electronic mailing lists, source code control systems,
      and issue tracking systems that are managed by, or on behalf of, the
      Licensor for the purpose of discussing and improving the Work, but
      excluding communication that is conspicuously marked or otherwise
      designated in writing by the copyright owner as "Not a Contribution."

      "Contributor" shall mean Licensor and any individual or Legal Entity
      on behalf of whom a Contribution has been received by Licensor and
      subsequently incorporated within the Work.

   2. Grant of Copyright License. Subject to the terms and conditions of
      this License, each Contributor hereby grants to You a perpetual,
      worldwide, non-exclusive, no-charge, royalty-free, irrevocable
      copyright license to reproduce, prepare Derivative Works of,
      publicly display, publicly perform, sublicense, and distribute the
      Work and such Derivative Works in Source or Object form.

   3. Grant of Patent License. Subject to the terms and conditions of
      this License, each Contributor hereby grants to You a perpetual,
      worldwide, non-exclusive, no-charge, royalty-free, irrevocable
      (except as stated in this section) patent license to make, have made,
      use, offer to sell, sell, import, and otherwise transfer the Work,
      where such license applies only to those patent claims licensable
      by such Contributor that are necessarily infringed by their
      Contribution(s) alone or by combination of their Contribution(s)
      with the Work to which such Contribution(s) was submitted. If You
      institute patent litigation against any entity (including a
      cross-claim or counterclaim in a lawsuit) alleging that the Work
      or a Contribution incorporated within the Work constitutes direct
      or contributory patent infringement, then any patent licenses
      granted to You under this License for that Work shall terminate
      as of the date such litigation is filed.

   4. Redistribution. You may reproduce and distribute copies of the
      Work or Derivative Works thereof in any medium, with or without
      modifications, and in Source or Object form, provided that You
      meet the following conditions:

      (a) You must give any other recipients of the Work or
          Derivative Works a copy of this License; and

      (b) You must cause any modified files to carry prominent notices
          stating that You changed the files; and

      (c) You must retain, in the Source form of any Derivative Works
          that You distribute, all copyright, patent, trademark, and
          attribution notices from the Source form of the Work,
          excluding those notices that do not pertain to any part of
          the Derivative Works; and

      (d) If the Work includes a "NOTICE" text file as part of its
          distribution, then any Derivative Works that You distribute must
          include a readable copy of the attribution notices contained
          within such NOTICE file, excluding those notices that do not
          pertain to any part of the Derivative Works, in at least one
          of the following places: within a NOTICE text file distributed
          as part of the Derivative Works; within the Source form or
          documentation, if provided along with the Derivative Works; or,
          within a display generated by the Derivative Works, if and
          wherever such third-party notices normally appear. The contents
          of the NOTICE file are for informational purposes only and
          do not modify the License. You may add Your own attribution
          notices within Derivative Works that You distribute, alongside
          or as an addendum to the NOTICE text from the Work, provided
          that such additional attribution notices cannot be construed
          as modifying the License.

      You may add Your own copyright statement to Your modifications and
      may provide additional or different license terms and conditions
      for use, reproduction, or distribution of Your modifications, or
      for any such Derivative Works as a whole, provided Your use,
      reproduction, and distribution of the Work otherwise complies with
      the conditions stated in this License.

   5. Submission of Contributions. Unless You explicitly state otherwise,
      any Contribution intentionally submitted for inclusion in the Work
      by You to the Licensor shall be under the terms and conditions of
      this License, without any additional terms or conditions.
      Notwithstanding the above, nothing herein shall supersede or modify
      the terms of any separate license agreement you may have executed
      with Licensor regarding such Contributions.

   6. Trademarks. This License does not grant permission to use the trade
      names, trademarks, service marks, or product names of the Licensor,
      except as required for reasonable and customary use in describing the
      origin of the Work and reproducing the content of the NOTICE file.

   7. Disclaimer of Warranty. Unless required by applicable law or
      agreed to in writing, Licensor provides the Work (and each
      Contributor provides its Contributions) on an "AS IS" BASIS,
      WITHOUT WARRANTIES OR CONDITIONS OF ANY KIND, either express or
      implied, including, without limitation, any warranties or conditions
      of TITLE, NON-INFRINGEMENT, MERCHANTABILITY, or FITNESS FOR A
      PARTICULAR PURPOSE. You are solely responsible for determining the
      appropriateness of using or redistributing the Work and assume any
      risks associated with Your exercise of permissions under this License.

   8. Limitation of Liability. In no event and under no legal theory,
      whether in tort (including negligence), contract, or otherwise,
      unless required by applicable law (such as deliberate and grossly
      negligent acts) or agreed to in writing, shall any Contributor be
      liable to You for damages, including any direct, indirect, special,
      incidental, or consequential damages of any character arising as a
      result of this License or out of the use or inability to use the
      Work (including but not limited to damages for loss of goodwill,
      work stoppage, computer failure or malfunction, or any and all
      other commercial damages or losses), even if such Contributor
      has been advised of the possibility of such damages.

   9. Accepting Warranty or Additional Liability. While redistributing
      the Work or Derivative Works thereof, You may choose to offer,
      and charge a fee for, acceptance of support, warranty, indemnity,
      or other liability obligations and/or rights consistent with this
      License. However, in accepting such obligations, You may act only
      on Your own behalf and on Your sole responsibility, not on behalf
      of any other Contributor, and only if You agree to indemnify,
      defend, and hold each Contributor harmless for any liability
      incurred by, or claims asserted against, such Contributor by reason
      of your accepting any such warranty or additional liability.

   END OF TERMS AND CONDITIONS

   APPENDIX: How to apply the Apache License to your work.

      To apply the Apache License to your work, attach the following
      boilerplate notice, with the fields enclosed by brackets "[]"
      replaced with your own identifying information. (Don't include
      the brackets!)  The text should be enclosed in the appropriate
      comment syntax for the file format. We also recommend that a
      file or class name and description of purpose be included on the
      same "printed page" as the copyright notice for easier
      identification within third-party archives.

   Copyright [yyyy] [name of copyright owner]

   Licensed under the Apache License, Version 2.0 (the "License");
   you may not use this file except in compliance with the License.
   You may obtain a copy of the License at

       http://www.apache.org/licenses/LICENSE-2.0

   Unless required by applicable law or agreed to in writing, software
   distributed under the License is distributed on an "AS IS" BASIS,
   WITHOUT WARRANTIES OR CONDITIONS OF ANY KIND, either express or implied.
   See the License for the specific language governing permissions and
   limitations under the License.
%
 
 
 
CB
