 
 
 
|
 
 
 
 

You can go to the shop
and disable ads
Tem oye CaK Mt] EMER 0
eee ee Lear LVNE
 
 
 
 
 
 
 
 
 
 
 
>
>
 
 
 
 
 
 
 
 
 
 
 
 
 
 
 

 
 
 
 
 
 
 
 
 
 
 
 
ry
 
y |

a.
 
 
 
 
 
I
 
 
y

=

y
y

=

y
 
 

You can go to the shop
and disable ads
eT ey ca et KT
enh e LOL
) oo]
@
 
 
143
44
\17
9292
93
24
o7
44
 
 
Piss)
 

 
 
€
A AT ae

 

q
Spy
a «a

 

 
 
44
117
9292
o7
44
Ce
38
 
 
 
 
 

 

 

 

 
 
 
 
 
>
>
117
25
o7
44
 
 
 
 
 
 
 
 
 
 
 
 
 
 
r

. J
 
 
25
o7
44
117
 
 
You can go to the shop
ay and disable ads
STM Coy ca k= ect: |B MEL eel al
monn aio he lau am elcl dale LYNZ
 
 
 
 
 
 
 
 
 
 
 
 
 
 
~~
a
 
 
 
 
 
 
 
 
 
 
 
a)

| ADS
DZ)

QO
 
 
 
 
“NO g
>
 
 
 
 
 
 
 
 
 
 
a

A,
 
7

Af
 
 
 
 
 
 
 
.
»
 

You can go to the shop
and disable ads
Cee aCe)
Ree aod
 
iss)
 
 
 
 

 

 

 

 
 
 
s F
-_ —
 
 
 
 
 
 
 
 

You can go to the shop
and disable ads
Tem oye CaK Mt] EMER 0
eee ee Lear LVNE
 
 
 
 
 
 
 
 
 
 
 
>
>
 
 
 
 
 
 
 
 
 
 
 
 
 
 
 

 
 
 
 
 
 
 
 
 
 
 
 
ry
 
y |

a.
 
 
 
You can go to the shop
ay and disable ads
STM Coy ca k= ect: |B MEL eel al
monn aio he lau am elcl dale LYNZ
 
 
 
 
 
 
 
 
 
 
 
 
 
 
~~
a
 
 
 
 
 
 
 
 
 
 
 
a)

| ADS
DZ)

QO
 
 
 
 
“NO g
>
 
 
 
 
 
 
 
 
 
 
a

A,
 
7

Af
 
 
 

You can go to the shop
‘and disable ads.
 

CE a er
Pre erin
 
 
a
 
 
 
 
 
 
 
 
 
 
ZY
 
m
Cl
a
 
 
 
I
 
 
y

=

y
y

=

y
 
 

You can go to the shop
and disable ads
eT ey ca et KT
enh e LOL
) oo]
@
 
 
143
44
\17
9292
93
24
o7
44
 
 
Piss)
 

 
 
€
A AT ae

 

q
Spy
a «a

 

 
 
44
117
9292
o7
44
Ce
38
 
 
 
 
 

 

 

 

 
 
 
 
 
>
>
117
25
o7
44
 
 
 
 
 
 
 
 
 
 
 
 
 
 
r

. J
 
 
25
o7
44
117
 
 

You can go to the shop
and disable ads
Tem oye CaK Mt] EMER 0
eee ee Lear LVNE
 
 
 
 
 
 
 
 
 
 
 
>
>
 
 
 
 
 
 
 
 
 
 
 
 
 
 
 

 
 
 
 
 
 
 
 
 
 
 
 
ry
 
y |

a.
 
 
 

You can go to the shop
‘and disable ads.
 

CE a er
Pre erin
 
 
a
 
 
 
 
 
 
 
 
 
 
ZY
 
m
a
Cl
 
 
 
 
 
.
»
 

You can go to the shop
and disable ads
Cee aCe)
Ree aod
 
iss)
 
 
 
 

 

 

 

 
 
 
s F
-_ —
 
 
 
 
 
 
 
 
 
|
 
 
 
 

You can go to the shop
and disable ads
Tem oye CaK Mt] EMER 0
eee ee Lear LVNE
 
 
 
 
 
 
 
 
 
 
 
>
>
 
 
 
 
 
 
 
 
 
 
 
 
 
 
 

 
 
 
 
 
 
 
 
 
 
 
 
ry
 
y |

a.
 
 
 
You can go to the shop
ay and disable ads
STM Coy ca k= ect: |B MEL eel al
monn aio he lau am elcl dale LYNZ
 
 
 
 
 
 
 
 
 
 
 
 
 
 
~~
a
 
 
 
 
 
 
 
 
 
 
 
a)

| ADS
DZ)

QO
 
 
 
 
“NO g
>
 
 
 
 
 
 
 
 
 
 
a

A,
 
7

Af
 
 
 
 
You can go to the shop
ay and disable ads
STM Coy ca k= ect: |B MEL eel al
monn aio he lau am elcl dale LYNZ
 
 
 
 
 
 
 
 
 
 
 
 
 
 
~~
a
 
 
 
 
 
 
 
 
 
 
 
a)

| ADS
DZ)

QO
 
 
 
 
“NO g
>
 
 
 
 
 
 
 
 
 
 
a

A,
 
7

Af
 
 
3.0.3
