 
S ie

S
 
 
 
 
 
 
 
 
 
 
 

14 TOILET
 
 
 
 
 
 
 
 
 
 
 
 
 
 
 
 
 
 
—_— =

com sqoenrumptn Caen nuaye fungi Oowekneurptn

— @

sera mgs a
 
 
 
 
 
 
 
 
 
 
 
 
 

Pe
 
 
 
 
 
 
 
 
 
 
 
 
 
 
 
 
.
»
 
 
 
 
I
 
 
y

=

y
 
y

=

y
 
 
|
 
 
 
 
Cl
 
 
a
