 
G)
ole

Or
Ure
yy) met
 
 
Loading...
 
 

©

EA Tn)
MU fete L oy
 
 
  

Body Mass Index AM eYa le Marie)
Classification

FET haey a)

<18.5 Underweight
18.5-24.9 Healthy Weight
25.0-29.9 Overweight

30+ Obese
IDEAL BOD

 

Description
Essential fat
Athletes
Fitness
Average

Obese

(American Council on Exercise)

Men
2-5%
6-13%
14-17%
18-24%

25%+

AT PERCENTAGE CHART

Women

10-13%

14-20%

21-24%

25-31%

32%+
Te
AR ANE AR Toy
 
 
 
 
Sedentary] Moderate | Sedentar
ooo | 1000 | 000

1400 1000
[1400 [1200

 

Peeandup | 2
ES
PAM

Tamil Apps

 
 
ees ALO

 

ie
 
“

Aeveneo
we oSSO
a
mecca

S
NG

 
oa)

iS:
