 
 
 
 
C
oo
+
 
 
Food
|

i;
on
Se Standard | 30 dni)
3 Standard | 30 dage]
>

3 Standard | 30 tage |
P , 1
ee: Kavovikn | 30 Hpép |
3 Standard | 30 days |
3 Estandar | 30 dias |
£3 Vakio | 30 paivaa }
£3 Standard | 30 jours |

sy
€: Standard | 30 dana |
Py iN
£93 Standard | 30 giorni |
P wf
£93 Standard | 30 dager |
Py >
£93 Standaard | 30 dagen |
3 Standard | 30 dni}
3 Padrao | 30 dias |
é& Standard | 30 zile |
P + -
£3 CraHfapTHbli | 30 HEN |
3 Standard | 30 dni}
£3 Standardno | 30 dana |
Py >
£93 Standard | 30 dagar |
£3 Standart | 30 giin |
Ps ~ .
£3 Crangaptunii | 30 AHiB |
 
a
 
ial
iat
Contour.

diabetes app
 
Meds
LS
Qe
_ wf
Day
Notes
Photo
an
 
 
 
 
 
gl
 
 
 
 
IO
 
 
G)
 
 
 
 
 
a

 
 
Cl
a
Contour

diabetes app
 
 
 
 
 
a

 
 
Contour

diabetes app
a
Cl
gl
 
 
 
 
 
 
 
C
oo
+
 
 
Food
|

i;
on
Se Standard | 30 dni)
3 Standard | 30 dage]
>

3 Standard | 30 tage |
P , 1
ee: Kavovikn | 30 Hpép |
3 Standard | 30 days |
3 Estandar | 30 dias |
£3 Vakio | 30 paivaa }
£3 Standard | 30 jours |

sy
€: Standard | 30 dana |
Py iN
£93 Standard | 30 giorni |
P wf
£93 Standard | 30 dager |
Py >
£93 Standaard | 30 dagen |
3 Standard | 30 dni}
3 Padrao | 30 dias |
é& Standard | 30 zile |
P + -
£3 CraHfapTHbli | 30 HEN |
3 Standard | 30 dni}
£3 Standardno | 30 dana |
Py >
£93 Standard | 30 dagar |
£3 Standart | 30 giin |
Ps ~ .
£3 Crangaptunii | 30 AHiB |
 
a
 
ial
iat
Contour.

diabetes app
 
Meds
Qe
_ wf
Day
LS
Notes
Photo
an
 
 
 
 
 
IO
 
 
G)
 
Copyright (c) 2007-2014 IOLA and Ole Laursen

Permission is hereby granted, free of charge, to any person
obtaining a copy of this software and associated documentation
files (the "Software"), to deal in the Software without
restriction, including without limitation the rights to use,
copy, modify, merge, publish, distribute, sublicense, and/or sell
copies of the Software, and to permit persons to whom the
Software is furnished to do so, subject to the following
conditions:

The above copyright notice and this permission notice shall be
included in all copies or substantial portions of the Software.

THE SOFTWARE IS PROVIDED "AS IS", WITHOUT WARRANTY OF ANY KIND,
EXPRESS OR IMPLIED, INCLUDING BUT NOT LIMITED TO THE WARRANTIES
OF MERCHANTABILITY, FITNESS FOR A PARTICULAR PURPOSE AND
NONINFRINGEMENT. IN NO EVENT SHALL THE AUTHORS OR COPYRIGHT
HOLDERS BE LIABLE FOR ANY CLAIM, DAMAGES OR OTHER LIABILITY,
WHETHER IN AN ACTION OF CONTRACT, TORT OR OTHERWISE, ARISING
FROM, OUT OF OR IN CONNECTION WITH THE SOFTWARE OR THE USE OR
OTHER DEALINGS IN THE SOFTWARE.
