ab
 

 

|

 

 
 

 

|

 

 
3+ |
I+1
ee
ee
3+ |
&
po
 

 

pe

 

 
 

 

po

 

 
 

 

&

 

 
J4+1,
 
O41
 

 

&

 

 
 
 
an
 

 

| 3+

 

 
 

 

| 3+

 

 
 
ee
 
re
Lan]
 
poe
 
Momentum

EMERGENCY MANAGEMENT SYSTEM
3+ |
 

 

|

 

 
rt
ee
a
3+ |
 

 

|

 

 
+1
WD
 
 
WIND.
 
WIND
WIND

NiVALES
 
﻿[
  {
    "id": 0,
    "name": "menu_store",
    "image": "icon_menu_store"
  },
  {
    "id": 1,
    "name": "menu_library",
    "image": "icon_menu_libreria"
  },
  {
    "id": 4,
    "name": "menu_website",
    "image": "icon_menu_website"
  },
  {
    "id": 5,
    "name": "menu_facebook",
    "image": "icon_menu_facebook"
  },
  {
    "id": 6,
    "name": "menu_faq",
    "image": "icon_menu_faq"
  },
  {
    "id": 7,
    "name": "menu_credits",
    "image": "icon_menu_credits"
  }
]﻿[
  {
    "id": 0,
    "name": "menu_store",
    "image": "icon_menu_store"
  },
  {
    "id": 1,
    "name": "menu_library",
    "image": "icon_menu_libreria"
  },
  {
    "id": 2,
    "name": "menu_subscriptions",
    "image": "icon_menu_abbonamenti"
  },
  {
    "id": 3,
    "name": "menu_restore",
    "image": "icon_menu_restore"
  },
  {
    "id": 4,
    "name": "menu_website",
    "image": "icon_menu_website"
  },
  {
    "id": 5,
    "name": "menu_facebook",
    "image": "icon_menu_facebook"
  },
  {
    "id": 6,
    "name": "menu_faq",
    "image": "icon_menu_faq"
  },
  {
    "id": 7,
    "name": "menu_credits",
    "image": "icon_menu_credits"
  }
]