 
 
 
|
 
 
 
 
 
 
 
 
 
 
 
 
 
 
 
 
 
 
 
 
 
 
 
 
 
G)
 
 
 
 
 
 
 
 
 
 
 
 
 
 
 
.
»
 
tog
Se
rom
 
 
 
I
 
 
y

=

y
y

=

y
 
 
a

 
 
(~~
 
f™
 
 
 
PO
yy
ie
 
 
 
a
Cl
 
 
 
I
 
 
y

=

y
y

=

y
 
 
a

 
 
(~~
 
f™
 
 
 
PO
yy
ie
 
 
 
a
Cl
 
 
 
 
 
.
»
 
tog
Se
rom
 
 
 
|
 
 
 
 
 
 
 
 
 
 
 
 
 
 
 
 
G)
 
 
 
 
 
 
 
 
 
 
 
 
 
 
 
 
 
 
 
git.version=eb8d5626ff8b7781e3a2ec6c3990785697adb99f
