 
 
 
 
|
 
 
.
 
»
 
 
 
 
y

=

y
 
 
y

=

y
 
 
I
 
a
 
 
 
 
 
 
 
 
 
 
Tale
noon

 
 
 
 
 
 
 
aEaEeE

“Cabeza y columna

|
 
 
 
 
 
 
 

bs VT fos= articulaciones
 
 
 
' Abd ig ee _|
seo
 
 
 
 
 
 
 
 
 
 
Cl
 
