IBM
Micromedex
NeoFax
ft=})
ert (4
Utz 4

 
Micromedex’
NeoFax°®

© Copyright IBM Corporation 2018
Micromedex?
Pediatrics

© Copyright IBM Corporation 2018
ft=})
ert (4
Utz 4

 
Micromedex’
NeoFax°®

© Copyright IBM Corporation 2018
Micromedex?
Pediatrics

© Copyright IBM Corporation 2018
 
.
»
 
 

t=}
Micromedex’
Pediatrics
 
 
 

IBM

Micromedex’
NeoFax°
 
y

=

y
 

Micromedex®
NeoFax°

 
 
I
 

IBM
Micromedex®
Pediatrics
y

=

y
 
 
 
 
 
 
 
 
 
18M
eed
rey
Micromedex’
NeoFax°
IBM
Micromedex
NeoFax
Micromedex’?
Pediatrics
|
Micromedex’
NeoFax°
Micromedex’
Pediatrics
aC
Rico e
Neng

 
 
a
Micromedex?
Pediatrics

© Copyright IBM Corporation 2018
Micromedex’
NeoFax°®

© Copyright IBM Corporation 2018
 

IBM
Micromedex®
Pediatrics
 

Micromedex®
NeoFax°

 
Micromedex’
NeoFax°
Micromedex’
Pediatrics
Micromedex?
Pediatrics

© Copyright IBM Corporation 2018
Micromedex’
NeoFax°®

© Copyright IBM Corporation 2018
Micromedex’?
Pediatrics
Micromedex’
NeoFax°
 

t=}
Micromedex’
Pediatrics
 

t=}
Micromedex’
NeoFax°
Cl
po 8

gti
lcd ela
Lag
po 8

gti
ited ele
Tait

 
TE ee oy
Perioue cas

   

Biologicals
Cardiovascular Drugs
ens

Diuretics

GI Drugs
Miscellaneous Drugs

Nutritionals

Respiratory Drugs
      
  
     
   
  
  
  
  
  
 
 
   

TE ee oy
Perioue cas

Toray

   

Type Category Name

Biologicals
Cardiovascular Drugs
ens

Diuretics

GI Drugs
Miscellaneous Drugs

Nutritionals

vvvvvvvvy

Respiratory Drugs

Drugs Eee
   

Cancel

Type Drug Nam })

Abelcet® (Amphotericin B Lipid
Acyclovir

AmBisome”

‘Amikacin

Amikin®

Amphotericin B

Amphotericin B Lipid Complex

NeSe+emezerezensce>

Amphotericin B Liposome

Albuterol
        
   

  

Pues
ee

Abelcet® (Amphotericin B Lipid, ,
Acyclovir
AmBisome”
‘Amikacin
Amikin®
Amphotericin B

Amphotericin B Lipid Complex

NeoSetemezerezencoere

Amphotericin B Liposome

vvvvvv ve

Albuterol
 

Pe ute
orcas

 

 

Cea ea emia} @>

Tap a section to see
the details

 

 

Eee

 
  

eee
Oca

   

 

  
 
   
  
   
 
 
 
    
  

0 to 12 months of age: 1 dropperful (1 mL) orally once
daily (P| AquADEKS® liquid, 2006).

1 to 3 years of age: 2 dropperfuls (2 mL) orally once
daily (P| AquADEKS® liquid, 2006).

Percentages of the Reference Daily Intakes (%RDIs)
are listed in the tables below.

‘AqUADEKS™ Pediatric Liquid (pediatric)
AQuADEKs™ Pediatric Liquid
PPL AQUADEKs(R) liquid, 2006

- ‘Amount! 006 | 7to
Alu) | 5751 | 432
Cima) | 45 | 113

   

Flick up of down to
see entire

   
   

D3(lu) | 400 | 200 monograph
E (IU) 50 839
E(mg) | 15 |

Ki (meg) | 400 | 20,000 | 16,000 | 1333,

   
    

or Eee

     
  
 
aay recurs

 

cl
Zine(mg) | 5 | 250 | 167 | 167
Selenium | 10 | 67 | 50 | 50
Beta- 3 . . .
Coenzyme Q| 2 : . .

* Daily value not established; I

 

Muttvitamin supplement for infants and children with
cholestasis and other conditions associated with malab-
sorption of fat soluble vitamins. Specifically formulated
to meet the needs of cystic fibrosis patients (PI
‘AquADEKs®, 2006).

    

Flick up or down to see

Cystic fibrosis: Monitor beta-cardtene) WRemInn A
(retinol, vitamin D (25-OH-D), vitamin E (alpha-
tocopheral), and iron (hemoglobin, hematocrit) status
annually (Borowitz et al, 2002)

 

oe atric Enteral Formulas

 
Eee ®
Drug Monographs -

Type drug name

Abelcet® (Amphotericin B Lipid.
Acetaminophen

ActHIB® (Heamophilus B Conjug

Actigal® (Ursodiol)

Activase® (Alteplase, Recombin.
Acyclovir

Adenocard® (Adenosi"e)

Slide index - tap &
Adenosine hold, then slide

 
  

Eee
Drug Monographs

SFC
Abelcet® (Amphotericin B Lipid.
Acetaminophen

ActHIB® (Heamophilus B Conjug.

Actigal® (Ursodiol)

  
 
  

Activase® (Alteplase, Recombin.
Acyclovir

Adenocard? (Aden! stide index - tap

& hold, then
slide up/down in
the list

vvvvrvvvvy

NeoSetemezerezensoereves

    

‘Adenosine

  
   

     
     
   
  
   
 

Eee
Drug Monographs

 

Calcium - Oral
Calcium chloride 10%

Calcium gluconate 10%

CUGWUMOOUL
eh et ata

 

 
   

 
CPS ea aia} @>

Tap a section to
see the details

 

 
Crea aa)

 
 

Pe ured
orcas

 

CPS ea aia} @>

Tap a section to see
the details

 

 

Eee

 
Liquid:
0 to 12 months of age: 1 dropperful (1 mL) orally once
daily (P| AQuADEKS® liquid, 2006).

1 to 3 years of age: 2 dropperfuls (2 mL) orally once
daily (P| AquADEKS® liquid, 2006).

Percentages of the Reference Daily Intakes (%RDIs)
are listed in the tables below:

AQuADEKs™ Pediatric Liquid (pedi
ADEKs™ Pediatr
PI AquADEKs(R) liquid, 2006

~ Amount] 0to6 | 7t012| 103
Alu) | 5751 | 432 | 345 | 576

Fi

 

k up or down to
view entire
monograph

 

 

 

 

 

 

Cima) | 45 | 113| 90 | 300
paqiu) | 400 | 200 | 200 | 200
E(u) 50 | 839 | 671 | 559
E(mg) | 15 . * .

 

Kt (meg) | 400 | 20,000 | 16,000 | 1333

 

 

 

 

 

 

 
  
     
 
 
 
 
 
 
 

Liquid:
0 to 12 months of age: 1 dropperful (1 mL) orally once
daily (P| AQuADEKS® liquid, 2006).

1 to 3 years of age: 2 dropperfuls (2 mL) orally once
daily (P| AquADEKS® liquid, 2006).

Percentages of the Reference Daily Intakes (%RDIs)
are listed in the tables below:

AQuADEKs™ Pediatric Liquid (pediatric)
AquADEKs™ Pediatric Liquid
PI AquADEKs(R) liquid, 2006

Amount) 0 to6
S751 | 432,
45 | 113
4o0_| 200
50 | 839
15 .

400 | 20,000

   

 
       
     
  
   
 
   
 

710124
Flick up of down to
see entire
monograph

  
 

  
 

  
   
  
  

AU)
(ma)
D3(U)
E(U)
E (mg)
Ki (meg)

 

  
   

   
    
   

    
   
 

    
  

              

1333

        

  

16,000

    
     
aay recurs

 

cl
Zine(mg) | 5 | 250 | 167 | 167
Selenium | 10 | 67 | 50 | 50
Beta- 3 . . .
Coenzyme Q| 2 : . .

* Daily value not established; I

 

Muttvitamin supplement for infants and children with
cholestasis and other conditions associated with malab-
sorption of fat soluble vitamins. Specifically formulated
to meet the needs of cystic fibrosis patients (PI
‘AquADEKs®, 2006).

    

Flick up or down to see

Cystic fibrosis: Monitor beta-cardtene) WRemInn A
(retinol, vitamin D (25-OH-D), vitamin E (alpha-
tocopheral), and iron (hemoglobin, hematocrit) status
annually (Borowitz et al, 2002)

 

oe atric Enteral Formulas

 
      
 
  
 

  

Pe udu a
eats J

Cancel

      
      
    

  

5 I
EleCare’ Type formula name
Enfamil AR. as

A

Enfamil LIPIL® de
é

Enfamil PREMIUM? Infant ae
Enfamil PREMIUM? Newborn >4
Enfamil? EnfaCare” ot
N

Enfamil EnfaCare® + :
Enfamil® LIPIL® Concentrate 24 :
T

Enfamil? EnfaC index); tap 4
LIPIL® Concent = hold, then .
slide up/down in 3

   
 
  

  

Enfamil® Gentiease the list

 

 
    

yd

pes Eee

 
  
   
   
     

Similac Go and Grow® Milk-Base...
Similac Go and Grow® Soy-Base...

  
  

ajwje}r}r}yjuy ifolP|
4}s]o} Fic] 4] 4]
* Gbe0bno =

 
       
     
   
  
 
 
 
 
 
 
 
 
  
    

  

Pe udu
Enteral Formulas

Energy, Cal

Volume, mL 148 1000
Protein, 9 34 206
% of total calories * 15 15
Fat, 48 327
%oftotal calories 42 42
Linoleic acid, mg 840 5680
Carbohydrate, 9 10.7 724
% of total calories § 43 43
Water, 9 132.5 895
Minerals
Calcium, mg (mEq) 116 (5.8) | 784 (39.2)
Phosphorus, mg (mEq) | 84.2 (2.7) |569
Magnesium, mg a4 57

Iron, mg

Eee
     
   
  
   
     
     
   
 

  

Pe ud eecul a
Enteral Formulas J

 

Nucleotide fortification,
mg
Renal Solute Load, mOsm |28
Osmolality, mOsm/kg H20 | 350
Osmolarity, mOsm/L

Flick to see
Product Notes

      
    
    
   
 
   
   
   

Leet

Enfamil® EnfaCare® + Enfamil® LIPIL®
Concentrate 24

24 Calf oz (see footnotes for preparation)

“The addition of iron to this formula conforms to the
recommendation of the Committee on Nutrition of the
‘American Academy of Pediatrics.

t Protein Source: Whey protein concentrate 60%
nonfat milk 40%.

tt Fat Source: High oleic vegetable oil 34%, soy oil
29%, MCT oil 20%, coconut ail 14%, and single-cell oil

yd

Pes Eee
     

Eee

Pou raid Y

         
     
 

Calcium - Oral
Calcium chloride 10%

Calcium gluconate 10%

ope}elT) yjul fol]
rE Tee od
Drug Monographs

Abelcet® (Amp) Search-by Drug or

Category
Acetaminophel

ActHIB® (Heamophilus B Conjug
Actigal® (Ursodiol)

Activase® (Alteplase, Recombin.
Acyclovir

Adenocard® (Adenosine)

Adenosine

omezerezencsoereves

Nese

 
     
   
  
  

Eee
Drug Monographs

orig

5-FC’

Abelcet® (Amp) Search-by Drug or
Category

  

Acetaminophel
ActHIB® (Heamophilus B Conjug
Actigal® (Ursodiol)

Activase® (Alteplase, Recombin.
Acyclovir

Adenocard® (Adenosine)

vvvvvvyvvy

NeoSetemezerezensoereves

Adenosine

  
EleCare®
Enfamil A.R®

Enfamil LIPIL®

Enfamil PREMIUM® Infant
Enfamil PREMIUM® Newborn
Enfamil® EnfaCare®

Enfamil® EnfaCare® +
Enfamil® LIPIL® Concentrate 24

Enfamil® EnfaCare® + Enfamil®
LIPIL® Concentrate 27

Enfamil® Gentlease®

NeSedenezerezen

 
  

be ee )
eat x7)

 
   
    
      

   

EleCare®

Enfamil AR

Enfamil LIPIL®

Enfamil PREMIUM® Infant
Enfamil PREMIUM® Newborn
Enfamil® EnfaCare®

Enfamil® EnfaCare® +
Enfamil® LIPIL® Concentrate 24

vvvvvvye

NeSejenezerezensoereves

Enfamil® EnfaCare® + Enfamil®
LIPIL® Concentrate 27

v

Enfamil® Gentlease®

yd

pes eee
NeoFax Essentials
Pr eae

      
  

forty

    
 
  
  

      

Type category name

Biologicals
Cardiovascular Drugs
CNS

Diuretics

Gl Drugs
Miscellaneous Drugs

Nutritionals

iv VeVvVevVevrvwvye

Respiratory Drugs

 
   
  

NeoFax Essentials
ee

5-FC (Flucytosine) _s—
Type drug name

AmBisome® (Amphotericin B Lip...

     
     

Abelcet® (Amphoterici

  

Acyclovir

Amikacin

Amikin® (Amikacin)
Amphotericin B

Amphotericin B Lipid Complex

Amphotericin B Liposome

N<40n000ZErx-O1m00

vv vv vvvye

Ampicillin
Dose
Uses
Monitoring

Xe Batic)

Pharmacology

Special Considerations/Preparation
Solution Compatibility

Solution Incompatibility

 

Enteral Formulas
 

25 to 50 mg/kg per dose by IV slow push, or IM.

Group B streptococcal infections: Some
experts recommend using 150 to 200 mg/kg per
day for bacteremia and 300 to 400 mg/kg per
day for meningitis, in divided doses at more
frequent intervals. The addition of an
aminoglycoside for initial therapy is also
recommended.

Antibiotic Dosing Chart:
Renal function and drug elimination are most
strongly correlated with Postmens'i/-) 5-1 =
(PMA; equivalent to Gestational A we ae
Postnatal Age). PMA is the prima’) “monograph
of dosing interval, with Postnatal

secondary qualifier.

4

  
    

Dosing Interval Chart (Cefotaxime)
Dosing Interval Chart
     
   
 

NeoFax Essentials
eae ei

5-FC (Flucytosine)

a

Abelcet® (Amphotericin B Lipid...
Acetaminophen

ActHIB® (Haemophilus b (Hib)...
Actigal® (Ursodiol)

  
 
    

Activase® (Alteplase)
Acyclovir

Adenocard® (Adé Slide index
hold, then sli
up/down in the list

 
  

iv VVeVyvVvvvwe

   

Adenosine

 

Type drug name

   

Ne Ne<e 4ene veze xore neCewen

  
Cancel

Amphotericin B A
Amphotericin B Lipid Complex

Amphotericin B Liposome

‘icin inid F
‘ojwle}R]T]y}u] Jo} P|
4}s}o}F a} ] Jk)
* BBG0000 =

 
Dose
Uses
Monitoring

Xe Batic)

Pharmacology

Special Considerations/Preparation
Solution Compatibility

Solution Incompatibility

 

Enteral Formulas
 

25 to 50 mg/kg per dose by IV slow push, or IM.

Group B streptococcal infections: Some
experts recommend using 150 to 200 mg/kg per
day for bacteremia and 300 to 400 mg/kg per
day for meningitis, in divided doses at more
frequent intervals. The addition of an
aminoglycoside for initial therapy is also
recommended.

Antibiotic Dosing Chart:
Renal function and drug elimination are most
strongly correlated with Postmens'i/-) 5-1 =
(PMA; equivalent to Gestational A we ae
Postnatal Age). PMA is the prima’) “monograph
of dosing interval, with Postnatal

secondary qualifier.

4

  
    

Dosing Interval Chart (Cefotaxime)
Dosing Interval Chart
    

Tap to open keyboard

       
     

Amphotericin B
Amphotericin B Lipid Complex

Amphotericin B Liposome
ojwjelalr|viu to)
‘ORe0o00=
vo

 
    

NeoFax Essentials
Pe cutriccd

  
  

Drug iy

SFC (Flucytosin

Search by drug or.

  
     

   

   
 
 

> 5

8

Abelcet® (Ai Seat > 8
Acetaminophen > :
ActHIB® (Haemophilus b (Hib)... > :
Actigal® (Ursodiol) > 4
Activase® (Alteplase) > $
°

Acyclovir > :
Adenocard® (Adenosine) > 2
> 2

Adenosine

 
 
   

od Eee
     
  
  
  
  
  
  
  
  
  
 
    

NeoFax Essentials
Erected

EleCare® >
Enfamil A.R.© >
Enfamil LIPIL® >
Enfamil PREMIUM® Infant >
Enfamil PREMIUM® Newborn >
Enfamil® EnfaCare® >
Enfamil® EnfaCare® + Enfamil®... >
Enfamil® EnfaCare® + Enfamil®... >
Enfamil® Gentlease® >

>

Enfamil® Premature 20

a Peotone
      
  
  
  
  
  
  
   
         
    

NeoFax Essentials
Erected

EleCare®
Enfamil A.R.®
Enfamil LIPIL®
Enfamil PREMIUM@® Infant
Enfamil PREMIUM® Newborn
Enfamil® EnfaCare®
Enfamil® EnfaCare® + Enfamil®..

Enfamil® Enf side index -tap

& hold, then
Slide up/down in
the list

Enfamil® Ge

vvvvvvvye

Enfamil® Pri

a Peotone
NeoFax Essentials
are en

     
  
 
  
 
 
   
 
 

  

Energy, Cal

Volume, mL
Protein, g

% of total caloriest ‘9 9
Fat, 9 53 (358

% of total caloriestt
Linoleic acid, mg
Carbohydrate, g
% of total caloriesS
Water, g
Minerals

  
 
 
        
   
   
   
 
 
 
    

 

Calcium, mg (mEq) (82 (4.1) [554 (27.7)
Phosphorus, mg (mEq) \46(1.5) [311
Magnesium, mg ‘8 (54

Iron, mg (1.8* 12.2*

Zinc, mg 1 68
Manganese, meg [75 104
Copper, meg

Molybdenum, meg IF

erent
NeoFax Essentials
are en

     
  
   
        
          
    
  
 
  
  
  
    

THOSHNOL, Ty a ka

L-Carnitine, mg 2 13.5

Taurine, mg 44

Nucleotide fortification, mg |- -
Renal Solute Load, mOsm —_|20 (140

Osmolality, mOsm/kg H2O [220

Osmolarity, mOsm/L 200

Flick to see
Product Notes

Lceke Kelemen
Enfamil® Gentlease®

20 Cal/fl oz
Available as powder and ready-to-feed.

The addition of iron to this formula conforms
to the recommendation of the Committee on
Nutrition of the American Academy of
Pediatrics.

Pat erent
TRUVEN-

HEALTH ANALYTICS.
 
 
EleCare®

Enfamil A.R®

Enfamil LIPIL®

Enfamil PREMIUM® Infant
Enfamil PREMIUM® Newborn
Enfamil® EnfaCare®

Enfamil® EnfaCare® +

Enfamil® LIPIL® Co

Slide index - tap
& hold, then

fe up/down in
the list

Enfamil® EnfaC
LIPIL® Concent

Enfamil® Gentl

rs
c
r
4
t
N
R
T
w
z

 
Energy, Cal
‘Volume, mL
Protein, g
% of total calories *
Fat,
% of total calories *F
Linoleic acid, mg
Carbohydrate, 9

% of total calories §
Water, 9
Minerals
Calcium, mg (mEq)
Phosphorus, mg (mEq)
Magnesium, mg
Iron, mg

Nutritional informatio:

15
48
42
840
107
43
1325

116 (68)
84.2 (27)
a4
18

15
327
42
5680
724
43
895

784 (39.2)
569
57

 
Ee are eee

 

Nucleotide fortification,
mg

Renal Solute Load, mOsm Flick to see
Osmolality, mOsmikg H20 Praguct Notas)
Osmolarity, mOsmiL =

 

 

 

 

 

 

 

 

 

 

exer CS

Enfamil® EnfaCare® + Enfamil® LIPIL®
Concentrate 24

24 Calf oz (see footnotes for preparation)

“The addition of iron to this formula conforms to the
recommendation of the Committee on Nutrition of the
American Academy of Pediatrics.

+t Protein Source: Whey protein concentrate 60%,
nonfat milk 40%.

tt Fat Source: High oleic vegetable oil 34%, soy oil
28%, MCT ol 20%, coconut oil 14%, and single-cell oil

 
THOMSON REUTERS

 
 

 

 

 

 
 

 

 

 

 
 
 
 
 
-
 
   

madcap

WEBHELP |
   

7
8
madcap

HTML Help

    
 
 
 
