 
 
 
 
vo
Pe
q
 
a
hl

cH
 
pe
Powered by Amila
 
 
 
I
a

 
De
 
 
 
y

=

y
Powered by Amla
y

=

y
 
pe
 
 
 
»
.
 
 
et te

WAM
 
 
 
pe
 
 
|
Powered by Amia
G)
 
Powered by Amila
vo
iy]
a4
a4
a
Cl
 
 
 
a
TNA
a
 
 
 
 
 
 
 
 
 
 
 
 
 
 
 
 
 
 
HTT

Habs,

 
 
 
 
 
 
 
 
 
 
 
 
 
 
 
 
 
 
 
 
 
 
 
 
 
 
 
 
 
 
 
 
&

, Ye
)

 
 
 
 
 
 
 
 
 
ax
 
 
 
 
 
 
 
 
 
 
 
 
 
 
 
 
 
 
 
 
 
 
 
 
 
 
 
 
 
 
 
 
 
 
 
 
 
 
wT Oe
a ae =i,
 
 
 

  
 

    

eens -
- 4
Se

3
a
—
 
 
LST ;
JF)

if

\ » ‘
a mt’. j
 
 
 
 
 
 
 
 
 
 
—

 
 
 
 
 
 
 
 
 
WLS »w
 
 
 
 
 
 
 
 
 
 
AIT]

| J

j

\ »
“ Ag

> =

 
 
 
 
 
 
 
 
 
 
 
 
= \\y

M4

|
 
 
 
——_ —_ ee

 
 
 
 
 
 
 
 
 
 
 
Yer)

it
 
 
 
 
 
 
 
 
 
 
‘6
u, a
4 ae: ws

} ]
fh)
ay

 
 
 
 
 
 
 
 
 
 
 
 
 

 
git.version=ce3551a92c8cf91f925232f93a88b3048fecd9ac
