 
y

=

y
 
 
 
 
 
 
 
y

=

y
 
 
ff
f
 
I
 
~ 4
 
sec
 
a
a

 
a

 
 

 
a
a
 
 
Le
 
 
 
a
 
a
606
|
 
 
 
rT
G)
a
-
 
>
 
4
 
a
ae.
 
a
 
J
 
 
 
 
 
 
 
 
 
 
 
 
 
 
 
TT
»
 
 
 
.
aT a
 
 

  

ae |
SS

oe

    

roshetto
   

   

 

 

 

 

 

 

 

 

 

 

 

 

Es nn ee
Cer ects ee eee eee ee er er ]
oe LCs No proxy 6
Ala ASU ®
Cee ie a Peres Cored Fa
ot ee ont
oreo
2 ested 9
eae eee Fi
= Peeters ces &
a ® Manual prony configuration ea
a Pees Seer) eS) 2
_ Perera nt Rote aE
3 [operat Es
s eee u |
Z “eels eae He ed
& Poe Eo
®
No proxy for %
Ee ee |
ih Apter)
fe eae) a
ee een
ACC
2 eee
s
od
OS ar rd ere) (eRe er
epee eer oe et en)
5 Cen
tf oN i
a er ee ec ~  ) ant

 
fe fe eveenaece bg reantts) Prs]
: Caan Al reva-Clbe
eaneer-) ol VebS Chouosd

CRS,

R
DYoxor cols ° Pharmacist
FAH Cone PC Cen es)
CCE SBCA Be eP
 

 

INVITE

YOUR FRIENDS NOW

 

 

 
pout

29

ae
9 4d45> (yo pISI SSL Yo

Ol Jou
Br gee ew ergy Leet
SA Cee Ger trey hen
oY TOBY Pres ee e by Sa)
CAPSR YEE ERC PE DYE

Ve

Marketplace
_°
4
PN
a
oTote
 
4
a
Cl
git.version=ce3551a92c8cf91f925232f93a88b3048fecd9ac
