»
 
 
.
 
Oo
 
 
 
 
 
 
 
 
 
 
@
 
a
NI]
 
W
a
“a
a
a
a)
 
a
sO)
a
 
 
“a
WwW
 
NI]
 
{|
“a
 
a
a
 
WwW
 
 
a
“a
“a
“a
“a
a
Ry
a
|
 
 
 
 
 
 
 
 
 
7]
J
WT
|
|
WT
ey)
Re
sO)
_
WT
y

=

y
 

7
pede”
Ai, “te

 
 
XA
 
ATTEN Im Say a ea

= Branches Cue w
a) ca Bt i)

AIMSA Uttar Pradesh
0 Pos!

AIMSA Rajasthan

 
y

=

y
 

 

 
I
>)
 
A
 
 
 
7]
|
 
 
A
a

 
WORD
 
o
 
 
SO
 
(5+
 
EXCEL
 
aC)
Vodafone IN @: © 940 12:11

 

 

PASTA

All India Medical Students’ Association is a representative
EUAN Up Aone SLO ee NT EU as ce)
professionals. Allindia MedicalStud

 

a)
Office Bearers Contact Us

eA

  
 

Events Messages
 
yg )
Vodafone IN ©: ©

 

AIMSA

All India Medical Students’ Association is a representative
national voluntary organisation of medical students and medical
professionals. AllindiaMedicalStud

=p

v4) an =)

All India Medical Students’
Association (AIMSA) sx
All India Medical Students’

2 days ago

iS2Hola Amigos @iic #9 @It gives us immense
pleasure to open the calls for National Team of
Officials & State Executive Board of All India Medical

Students’ Association for the term ‘sa
quick brief for you all: Each year
there will be an open call for application for the
selection of National Executive Board, Nationas
Team of Officials,State Board & State Team o

 
 
a
a
a
we
EY
WT
 
a
~\
a
[I

 
|
EY
~
a
a
te)
we
-(@
a
a
G)
we
we
a
>
a
Te
a
<<
_
~\
|
“a
.
“a
le
WT
>
WT
~\
a
a
i
a
a
Cl
git.version=eb8d5626ff8b7781e3a2ec6c3990785697adb99f
