 
 
 
 
DynaMed Plus
 
 
 
DynaMed
 
 
DynaMed
©
 
 
 
 
 
y

=

y
 
Ir
 
 
 
DynaMed
a

 
 
I
 
a
 
 
y

=

y
 
 
G)
|
 
P<
S
DynaMed
S|
DynaMed
DynaMed
mii}
 
 
 
 
 
DynaMed
YN
4

p
 
 
 
—
— 2
 
 
ic
 
 
ac |
 
 
|
 
 
DynaMed
|
 
 
 
 
ro
7

<
 
 
DynaMed
DynaMed
 
 
 
 
 
DynaMed
©
 
 
 
 
>

ee

©
3

@® o
 
4
“aA
; vad
(
 
 
 
DynaMed
By arliitael
DynaMed
@<® 0
 
DynaMed
re
<<
 
mii}
 
tt)
seces
rrr)
 
 
 
in
»
—
—— A
a
DynaMed
DynaMed
 
 
DynaMed
 
 
 
.
 
oom |
pric)
DynaMed Plus
NO IMAGE
 
 
 
 
 
4
 
 

 

 

 

 
 
 

 
 
 
 
> @® oO
6. 09
“Ot
 
 
 
 
.
 
 
Oe
ey
 
 
 
 
 
 
DynaMed
 
 
 
oi
7
 
 
 
 
 
 
DynaMed
»
 
 
a
DNiarelV(crel
a
PY Tar-lNsel
a
Cl
an
DVarel\Viciel
a
Ce
an
Ve
iitele(-a a cleclarel ei

This image will load automatically
eee one
Image Unavailable

CO

We are unable to load this image as
the device is currently offline
git.version=eb8d5626ff8b7781e3a2ec6c3990785697adb99f
