wy
 
 
 
 
 
 
|
powered by Google
 
 
a
powered by Google
Tn a
 
C
a
 
 
powered by Google
en = i
 
 
 
en =.
 
 
powered by Google
 
 
 
 
powered by Google
ee a
a
Cl
 
 
a
