 
Oe
BC
 
.
 
 
 
 
 
 
C
3

3
»
 
 
   
 
Q Search

FOLDERS

Guidelines

Policies

Rotas

Forms

Teaching

 
Enable Face ID

se Face ID for:

lock Induction Messaging

 
Junior Docs Dermatology

TeamSpace

Invite to TeamSpace

Access Request GE)

Invites

 
Directory Quick Dial Links Favourites

Q Search

My mental health career

Meeting the needs of older people

Becoming nurse leaders

Changing our thinking on antibiotics

 
Messages

York District General Hospital (7
Ward Patients

lam just seeing a gentlema...

Theodore Welch

Sure | am just in A&E and will be there in...

Lucile Holloway

Hi Mrs Clark, | need your advice a...

Abbey Carrick Glen Hospital (7
Paging Group - Surgery

When vision becomes clou

 
 
 
 
|
 
 
Hb is back nowy, it is 98 (119), so ill
call the bleed spr to let them know.

 
mixpanel
@ee-
 
 
y

=

y
 
 
I
Pt
xy
 
mixpanel
@ee-
 
 
y

=

y
a

 
 
 
 
Oo
OO
 
 
 
 
G)
mixpanel
@ee-
 
 
r oy’
sd
Cl
a
