 
 
 
C
 
 
 
 
 
 
C
 
 
 
 
 
 
y

=

y
y

=

y
y

=

y
 
 
y

=

y
 
 
 
 
 
 
 
 
 
 
.
»
 
»
.
 
 
 
 
Cl
Cl
a
a
 
 
 
 
 
y

=

y
y

=

y
a
Cl
 
 
 
 
 
.
»
 
 
 
C
 
 
 
Hand bones
She Looks Too Pretty, Try To Catch Her

 
 
    
    

S: Scaphoid-1
L: Lunate-2,°;
T: Triquetral-3 \S
P: Pisiform-4
T: Trapezium-5
T: Trapezoid-6
C: Capitate-7
H: Hamate-8

 
Tarsal bones
Tiger Cub Needs MILC

 
 
 

T: Talus

C: Calcaneum
N: Navicular
M: Medial cuneiform

l: Intermediate cuneiform
L: Lateral cuneiform

C: Cuboid
Nerve supply of scalp

GLASS

G: Greater occipital/
Greater auricular
L: Lesser occipital

A: Auriculotemporal

 

S: Supratrochlear

S: Supraorbital
Rotator cuff muscles

SITS

ANTERIOR POSTERIOR

   

S: Supraspinatus
I: Infraspinatus
T: Teres minor
S: Subscapularis
Subclavian artery branches

VITC &D

V: Vertebral artery
|: Internal thoracic artery ~~
T: Thyrocervical trunk

C: Costocervical trunk

 

D: Dorsal scapular artery
Foramen ovale: Structures passing

MALE

M: Mandibular Nerve (CN V3)/
Motor root of trigeminal nerve
A: Accessory meningeal:nerve
L: Lesser petrosal nerve

E: Emissary veins
Foramen Spinosum: Structures passing

MEN

M: Middle meningeal artery
and vein (posterior trunk)

E : E m is sa ry ve i ns @mednomics

 

N: Nervus spinosus
External jugular vein tributaries

TAPS

T: Transverse cervical vein

   

A: Anterior jugular vein
P: Posterior external
jugular vein

S: Suprascapular vein
Internal jugular vein tributaries

Movie CLIPS

M: Middle thyroid

   
 
 

C: Common fac

L: Lingual a

I: Inferior petrosal sinus MM
P: Pharyngeal

S: Superior thyroid
Posterior mediastinum contents

DATES

D: Descending aorta
A: Azygos and

hemiazygos veins

 

T: Th ora Ci Cc d uct’ nomics
E: Esophagus
S: Sympathetic trunk,

ganglia
Femoral canal contents:
lateral to medial

NAVEL
N: Nerve

A: Artery
V: Vein

 

E: Empty space
L: Lymph canal
Tributaries of inferior vena cava
| Like To Rise So High

  
  

I: Iliac vein - 1
L: Lumbar vein - 2
T: Testicular
(Gonadal) vein - 3
R: Renal vein - 42mednomics
S: Suprarenal vein - 5

H: Hepatic vein - 6
Thoracoacromial artery branches

Cadavers Are Dead People

C: Clavicular

A: Acromial

 

D: Deltoid

P: Pectoral
Descending abdominal aorta branches

Sometimes Intestines Get Really
Stretched Causing Leakage

S: Suprarenal [paired]
I: Inferior mesenteric
G: Gonadal [paired]
R: Renal [paired]

S: Superior mesenteric

 

C: Celiac trunk

L: Lumbar [paired]
Superior thyroid artery branches
May | Softly Squeeze Chubby Grapes

M: Muscular

I: Infrahyoid

S: Superior laryngeal
S: Sternomastoid

C: Cricothyroid

 

G: Glandular
Subclavian (supraclavicular)
triangle contents

BEDS

B: Brachial plexus (trunks)
E: External jugular vein

D: Deep cervical fascia

 

S: Subclavian artery
Branchial (Pharyngeal) apparatus
CAP

C: Branchial Cleft

A: Branchial Arch

 

P: Branchial Pouch
Hand intrinsic muscles:
innervated by median nerve

LOAF

L: Lateral 2 lumbricals

O: Opponens pollicis

 

A: Abductor pollicis brevis

F: Flexor pollicis brevis
Wolffian duct derivatives: male

DEERS

   

D: Ductus deferens
E: Efferent ducts

E: Epididymis

R: Rete testis

S: Seminal vesicles
Flexors of hip

TRIPS

T: Tensor fascia latae
R: Rectus femoris
I: Iliopsoas (iliacus

and psoas major)

 

P: Pectineus e

S: Sartorius
BRACHIAL PLEXUS

ROOTS TRUNKS DIVISIONS CORDS

ee ANTERIOR
«= POSTERIOR

L Lateral pectoral nerve
Mi Musculocutaneous nerve

UPPER ATERAL L. Lateral root of median nerve

.

POSTERIOR U Upper subscapular nerve

L Lower subscapular nerve

MIDDLE

Z

T Thoracodorsal nerve
R Radial nerve
A Axillary nerve
@me gnomic M Medial pectoral nerve

M Medial cutaneous nerve of arm

LOWER

M Medial cutaneous nerve of forearm

v M Medial root of median nerve

U Ulnar nerve

MEDIAL

1

=} 18) LS} (8) 18
   
        
 

Muscle insertions on bicipital groove
Lady between two majors
Teres major (Medial lip)

@mednomics

Latissimus dorsi (Floor)

     

fm Pectoralis major (Lateral lip) aan
Suprahyoid muscles

Duplicate My Gentle Style

  

S: Stylohyoid
Infrahyoid muscles

o)

_ +, T: Thyrohyoid
Bet O: Omohyoid

“ §: Sternohyoid
S: Sternothyroid
External carotid artery branches

Some Anatomists Love frightened
Faces Of Poor Medical Students

Tell me the

S: Superior thyroid
eee A: Ascending
= - pharyngeal
L: Lingual

F: Facial
O: Occipital

P: Posterior auricular
M: Maxillary
S: Superficial temporal
Brachial plexus hierarchy
Remember To Drink Cold Beer

R: Root
T: Trunk
D: Division
C: Cord

B: Branches

 
Structures passing through
lesser sciatic foramen

PINT

P: Pudendal nerve
I: Internal
pudendal vessels
- Nerve to
obturator internus
T: Tendon of
obturator internus

 
 
  
  
 
Anticipate difficult bag-mask
ventilation

MOONS

M: Mask seal (e.g. beard)
O: Obstruction

O: Older Age

N: No teeth (replace
dentures )

S: Stiff lungs ((Asthma,
COPD, ARDS, term
pregnancy)

  
Assessment of airway
MOUTH

M: Mallampati classification,

  

Mandibular space

O: Obesity, Openings:
mouth and nose

U: Upper lip bite test
T: Teeth

H: Head and neck
movements
BURP maneuver: to improve glottic
view during laryngoscopy

BURP

Backward, Upward,
and Rightward

Pressure on the

 

larynx
Causes of raised ICP
THIN Bleeding Boy

T: Trauma

H: Hydrocephalus

 

I: Infection

N: Neoplasia
B: Bleeding 4
B: Benign intracranial <

hypertension
Propofol: constituents
GELS

G: Glycerol

EL: Egg lecithin

 

S: Soybean oil
Electron status in
Oxidation vs Reduction

OiL RiG

OL: Oxidation is Loss of electrons
trons

yr

  
Stop codons
U go away; U are away; U are gone
U go away: UGA
U are away: UAA
U are gone: UAG

    
Fat soluble vitamins
All Doctors Know English

   

A: Vitamin A. get's 3
D: Vitamin D
K: Vitamin K
Cystinuria: amino acids
excreted

COLA

C: Cysteine
O: Ornithine

L: Lysine

 

A: Arginine
KREB’S CYCLE

Citrate Is Kreb’s Starting Substrate

For Making Oxaloacetate

C: Citrate

I: Isocitrate Can you convert this

to oxaloacetate ?

   

K: Ketoglurate
S: Succinyl CoA
S: Succinate

F: Fumarate

M: Malate

O: Oxaloacetate
Tuberculids: hypersensitivity reactions to
M. tuberculosis

PEEL
P: Papulonecrotic
tuberculid/ Phlebitic
tuberculid
E: Erythema induratum of

Bazin (EIB)

 

E: Erythema nodosum

L: Lichen scrofulosorum
Skin lesions in Behcet’s syndrome
CENT

C: Cutaneous
hypersensitivity

EN: Erythema nodosum

 

T: Thrombophlebitis

(Subcutaneous)
Behcet's syndrome: Diagnostic Criteria

Pink ROSE
P: Pathergy test
R: Recurrent genital

ulceration

  
 

O: Oral ulceration (recurrent)
S: Skin lesions
E: Eye lesions (e.g.

iridocyclitis, chorioretinitis)
Generalised skin hyperpigmentation

SPREAD
S: Sunlight
P: Pregnancy
R: Renal failure
A: Addison's disease

E:- Excess iron

 

(haemochromatosis)

D: Drugs
Angioid streaks: associations
PEPSI

P: Pseudoxanthoma

elasticum

E: Ehler-Danlos syndrome

P: Paget's disease of bone

S: Sickle cell disease and

 

other hemoglobinopathies

I: Idiopathic
Laryngeal muscles: nerve supply

All muscles of larynX: Supplied by vagus(X) nerve

SCAR — Superior laryngeal nerve :
Cricoarytenoid

All others: Recurrent
laryngeal nerve

Crying child: alone and

tensed

Cry: Cricoarytenoid muscle
Alone: supplied by a
different nerve

Tensed: Only tensor of vocal
cords

 
   
Meniere's disease symptoms
FATE

Q ew FATE!!!
F: Fluctuating hear "

    

loss
A: Aural fullness
T: Tinnitus

E: Episodic vertigo
Adductors of vocal cords
LOT :

L: Lateral cricoarytenoid
(prinicpal)
O: Oblique cricoarytenoid

T: Transverse cricoarytenoid A

Abductors of vocal cords

A single Person

Posterior cricoarytenoid
Nasopharyngeal carcinoma:
classical symptoms

NOSE

N: Neck mass
O: Obstructed nasal
passage

S: Serous otitis media

  

externa
E: Epistaxis, discharge 6
Vocal nodules: features

Female Singers have Both
Hard and Hoarse voice

F: Female (MC seen)
S: Singer’s nodule
B: Bilateral

H: Hard nodules

 

H: Hoarseness (MC

compliant)
Gunshot residue tests
HANDS

H: Harrison and Gilroy Test

A: Absorption spectrometry

N: Neutron activation

analysis a
D: Dermal nitrate test

S: Scanning electron

microscopy
Abrasion vs Contusion
ABCD

   

Abrasion: Both epidermis and
dermis can be involved

 

Cc’

Contusion: only Dermis is involved

 

DB.
Forensic tests to detect seminal stain

ABCDEF

A: Acid phosphatase test

B: Barberio test

C: Creatinine phosphatase test

D: Demonstration of intact spermatozoa
E: ELISA

F: Florence test

 
Types of fingerprints
CLAW

C: Composite
L: Loop Cp,
A: Arch
W: Whorl

 
Gustafson’s criteria for age
estimation: criteria

PC ARTS

P: Periodontal

 
 
    

attachment loss
C: Cementum apposition
A: Attrition

R: Root resorption

S: Secondary dentine

T: Transparency of roo
Pheochromocytoma features
Rule of 10s

. | follow these rules of 10!!!
10% malignant

10% bilateral
10% extra adrenal
10% calcified
10% children

10% familial

 
Pleural fluid: decreased glucose levels
LETTER

L: Lupus pleuritis
E: Empyema
T: Tumor (malignant)

T: Tuberculous pleuritis

 

E: Esophageal rupture

R: Rheumatoid pleuritis
Horner syndrome features
Horny PAMELA

P: Ptosis

A: Anhidrosis

M: Miosis

E: Enophthalmos

L: Loss of ciliospinal

reflex

 

A: Anisocoria
Multiple myeloma: Common
presenting features

CRAB
C: Calcium (elevated)
R: Renal

complications

 

A: Anemia

B: Bone lesions
Reactive arthritis: classical triad
CAN

C: Conjunctivitis
A: Asymmetric

oligoarthritis

 

N: Nongonococcal

urethritis
Pulsus paradoxus: causes
CAPS

C: Constrictive pericarditis/
Cardiac tamponade/
Cardiogenic shock/ COPD
A: Asthma (severe)

P: PE/ Tension

 

pneumothorax
S: Superior vena caval

obstruction
Collapsing pulse: causes
SHARP

S: Systolic hypertension

  
 

H: Hyperdynamic circulation
A: Aortic regurgitation
R: Ruptured sinus of valsalva

P: Patent Ductus Arteriosus
Hyperkalemia: EKG signs
PAWS

P: Peaked or tall T waves,

Prolongation of PR interval

    
  

       

 

RD)
F
. Vers _,

y

A: Absent/ decreased P |

 

@mednomics

wave, Asystole
W: Widening QRS Complex

S: Sine Wave
Continuous murmurs
CRAP

C: Combination murmurs

   

R: Ruptured sinus of Valsalva

aneurysm

A: Arteriovenous fistulae

P: Patent ductus arteriosus (PDA)
Chronic liver failure signs found
on the arms

CLAPS
C: Clubbing

L: Leukonychia

A: Asterixis

 

P: Palmar erythema

S: Scratch marks
Cushing's Syndrome: Clinical features

Oo Fr T1 2 O OO 8

mM

: Menstrual changes
: Osteoporosis
: Obesity

- Neurosis

MOON FACE

 

: Facial plethora (moon face, hirsutism)
- Altered muscle
: Calor of skin

: Elevated blood pressure
Enzymes elevated in MI

TALC

T: Troponin
A: AST

L: LDH

 

C: CKMB
Symptoms of hyperthyroidism
SWEAT THING

S: Sweating | |
W: Weight loss

E: Emotional lability

A: Appetite increased

T: Tremor

T: Tachycardia

H: Heat intolerance

I: Irregular menstruation,
Irritability

N: Nervousness

G: Goitre and GI problems
(diarrhoea)

 

 
Symptoms of hypothyroidism
MOM IS SO TIRED

M: Memory loss

O: Obesity

M: Malar flush, Menorrhagia,
Myalgia

I: Impaired fertility

S: Slowness (mentally and
physically)

S: Skin and hair dryness
O: Onset gradual

T: Tiredness

I: Intolerance to cold

R: Raised BP

E: Energy levels dip

D: Depression

 
Parkinsonism essential features
STRAP

S: Stare (blank)
T: Tremor (resting)
R: Rigidity

A: Akinesia

 

P: Postural changes

(stooped)
Thickened nerves causes
HANDS

H: Hansen's disease (Leprosy)
A: Amyloidosis
N: Neurofibromatosi

D: Diabetes mellitus

 

S: Sarcoidosis
Wernicke-Korsakoff Syndrome
classical triad

can

C: Confusion
A: Ataxia

N: Nystagmus

 
Peripheral cyanosis: causes

COLD

A

C: Cold

environment

   
 
   

\\
O: Obstruction

L: LVF and shock
\

D: Decreased

cardiac output
Central cyanosis: causes
PALMS

P: Polycythemia

A: Altitude

   

L: Lung disease““"?"’

 

M: Methemoglobinemia

S: Shunt
Transudative ascites: causes
CHALK

C: Cirrhosis/ Constrictive pericarditis/
Cardiac failure

H: Hepatic failure/ Hepatic venous
occlusion

A: Alcoholic hepatitis

L: Liver metastasis

 

K: Kwashiorkor
Causes of splenomegaly
CHINA

C: Congestion, Cellular
infiltration

H: Haematological:
haemolytic anaemia, SCD
I: Infections: malaria, EBV,
CMV, HIV

N: Neoplasms: CML,
myelofibrosis, lymphoma

 

A: Autoimmune: RA,

sarcoidosis, amyloidosis
Third degree heart block: causes

DIAL

D: Drugs: digitalis/ beta-
blockers

I: Inferior wall Ml

  

A: Ankylosing spondylitis
L: Lenegre’s disease/

Lyme disease
Clinical features of tuberous sclerosis

ASH

A: Ash leaf shaped macules,
adenoma sebaceum

S: Shagreen patches,
subungual fibromas

H: Hypopigmented skin

 

lesions, hamartoma (retinal)
Bell’s palsy: features
BELLS Palsy

B: Blink reflex abnormal

E: Earache

  
 

L: Lacrimation: usually excess
L: Loss of taste
S: Sudden onset

P: Palsy of Vil nerve muscles
Normocytic anemia: causes
NORMAL SIZE

N: Normal Pregnancy
O: Overhydration

R: Renal Disease

M: Myelophthisic

A: Acute Blood loss
L: Liver Disease

S: Systemic Infection
I: Inflammation

Z: Zero production - Aplastic

E: Endocrine: Hypothyroid, decreased
androgen

 
Microcytic anemia: causes

TICS

T: Thalassemia

I: lron Deficiency Z

C: Chronic Disease

 

S: Sideroblastic anemia
Macrocytic anemia: causes

You now belong to
“FAT RBCS” gang

  

F: Folate deficiency
A: Alcohol
T: Thyroid disease(ie hypothyroidism)
R: Reticulocytosis
B: B12 deficiency
C: Cirrhosis and chronic liver disease
S: Splenectomy
Mitral stenosis: clinical findings

LORD

L: Loud S1

O: Opening snap after S2

  
 

R: Rumbling late diastolic
murmur

D: Double atrial shadow (X ray)
Typical Infective Endocarditis:
causative organisms

CHESS

C: Coxiella burnetii

H: HACEK group

kakagRad

4aeaaba
Ketan
we

E: Enterococci

  

S: Streptococci viridans/ bovis

S: Staphylococcus aureus
Features of tetany

CENT

C: Chvostek's sign
positive

E: Excitability

 

N: Numbness
T: Trousseau's sign

positive
Features of tetany

CENT

C: Chvostek's sign
positive

E: Excitability

 

N: Numbness
T: Trousseau's sign

positive
Types of emphysema
Cigarette Is Primary Problem

C: Centrilobular

I: Irregular /|

 

P: Pancinar

P: Parasepta
Causes of eosinophilia
CHINA

C: Connective tissue
disorders

H: Helminths

I: Idiopathic hyper

  

eosinophilic disorder,
N: Neoplasia (AML/
CML etc)

A: Allergies
Common causes of massive
pleural effusion

MIC

M: Malignancy
I: Idiopathic

 

Malignancy: MC exudative PE

Cirrhosis: MC transudative PE
Hemothorax causes
The Bad Bleeding Pulmonary Malignancy

T: Tuberculosis, Trauma

B: Bullous emphysema

  

B: Blood dyscrasias including
anticoagulation

P: Pulmonary embolism with
infarction

M: Malignancy
Acid fast organisms

My Leg Is Now Creepy Red
& Bruised

M: Mycobacterium

L: Legionella
:Isospora.
N: Nocardia
C: Cryptosporidium
R: Rhodococcus

 

B: Brucella
IgA protease-producing
bacteria

Nice Strip of Ham

N: Neisseria
gonorrhoeae /

meningitidis

 

S: Streptococcus
pneumonia
H: Haemophilus

influenzae
Naked DNA viruses
A Pretty Poor Pal

A: Adenoviridae
P: Parvoviridae
P: Polyomaviridae

P: Papovaviridae

 

(Papilloma virus)
Enveloped DNA viruses

High Profile Host
H: Herpresviridae

P: Poxviridae

  
 

@mednom

H: Hepadnaviridae
DNA viruses
HHAPPPPy

H: Herpresviridae
H: Hepadnaviridae

A: Adenoviridae

   

P: Poxviridae
P: Parvoviridae @mednom
P: Polyomaviridae

P: Papovaviridae

(Papilloma virus)
ae CUES
_SPACE

.} a cca

aureus

   
  
  
 

Zz SD
A ROU |
x ; ror Candida :

 
 

 E: Enterobacte

@mednomics 9) aemme

 
Urease positive organisms
PUNCH

P: Proteus (leads
to alkaline urine)

 
 
 

U: Ureaplasma
(renal calculi) em:
N: Nocardia

C: Cryptococcus
H: Helicobacter

pylori
Constituents of
MacConkey’s agar

PLANT
P: Peptone
L: Lactose
A: Agar
N: Neutral red
T: Taurocholate
(bile salts)

 
Cowdry Type A inclusion
bodies: conditions

HAY

H: Herpes viruses

A: Cowdry type A

 

Y: Yellow fever virus
Obligate anaerobes
CAB

C: Clostridium

 

A: Actinomyces

B: Bacteroides
Non-bile stained eggs
A HEN

A: Ancylostoma
duodenale

H: Hymenolepis nana
E: Enterobius

   

vermicularis @mednomics
N: Necator
Americanus
Parasites causing autoinfection

CHEST

C: Cryptosporidium
parvum/ Capillaria
philippinensis

H: Hymenolepis nana
E: Enterobius
vermicularis

S: Strongyloides
stercoralis

 

T: Taenia solium
Bacteria with polar flagella

HCL is a Very Powerful Solution

H: H pylori \{/

   

C: Campylobacter
L: Legionella

V: Vibrio

P: Pseudomonas

S: Spirochetes
Types of flagella
LAMP

L: Lophotrichous
A: Amphitrichous

M: Monotrichous

 

P: Peritrichous
Trichomoniasis: features
5F

F: Flagella contaning
protozoan: 5 flagella
F: Fishy odor smell

F: Frothy discharge

 

F: Fornication (STD)

F: Flagyl (Rx: metronidazole)
Spore forming bacteria

SCAB

S: Sporolactobacillus

 

C: Clostridium/
Coxiella
A: Actinomyces

B: Bacillus
Bacteria containing
Metachromatic/ Volutin/
Babes Ernst granules

MY Corny Babe

M: Mycobacterium
Y: Yersinia pestis
C: Corynebacterium

diphtheria

 
Spirochetes

BoLT

Bo: Borrelia species

L: Leptospira species

 

T: Treponema species
Absolute contraindications for IUCD
Please Dont Ever Provide Contraceptives
P: Pregnancy

D: Dysfunctional uterine {|

bleeding

 

E: Ectopic pregnancy
P: Pelvic inflammatory
disease

C: Ca cervix
Acute Pelvic Pain: Differentials

A ROPE

A: Appendicitis/ Abscess/
Abortion

R: Ruptured ovarian cyst
O: Ovarian torsion

P: PID (tubo-ovarian
abscess)

E: Ectopic pregnancy
Combined oral contraceptives: side effects
CONTRACEPTIVES

C: Cholestatic jaundice

O: Oedema

N: Nausea

T: Tenderness of breasts

R: Raised blood pressure

A: Acne/ anemia

C: Cerebrovascular disease
E: Elevation of blood sugars
P: Pigmentation/ porphyria
T: Thromboembolism

I: Intracranial hypertension, Myocardial Infarction
V: Vomiting

E: Erythema nodosum

S: Swings in mood and weight

 
Postpartum collapse causes
HEPARINS

H: Hemorrhage

E: Eclampsia

P: Pulmonary embolism
A: Amniotic fluid
embolism

@mednom

R: Regional anaesthetic

 

complications

I: Infarction (Ml)

N: Neurogenic shock
S: Septic shock
Forceps delivery prerequisites
FORCEPS

F: Fully dilated

O: Occiput presentation
and optimum pelvimetry
(no CPD)

R: Ruptured membranes
C: Contractions present
and consent

E: Engaged

P: Pain relief should be
adequate

S: Space/Scissors
(episiotomy)

 
Pain abdomen in pregnancy:
differential diagnosis

Lovely ART and CRAFT

L: Labour

A: Abruptio placentae

R: Rupture (eg. ectopic, | -
uterus) 0 1 AX \
T: Tumour (ovarian) =

C: Cholestasis

R: Rectus sheath
haematoma

A: Abortion

F: Fibroids

T: Torsion of uterus

 
Causes of Postpartum hemorrhage

CAR TIP

C: Coagulation defect
A: Atony of uterus

R: Rupture of uterus
T: Trauma

I: Implantation site
bleeding

P: Placenta retained

 
Effect of fibroid on pregnancy

MAIL

M: Malposition of
fetus

A: Abortion, Abruptio

 

placenta
I: Infertility

L: Labor: obstructed
Effect of pregnancy on fibroid

REDDIT

Redd: Red degeneration

@

|: Infection/ Increas

ednomics

m m
e in size

 

T: Torsion
Chronic Pelvic Pain: Differentials

PEALING
P: PID
E: Endometriosis/
Endometritis
A: Adhesions/

Adenomyosis i
/

L: Leliomyoma

  

NN

I: Infections (other than
PID)
N: Neoplasia

i
\

G: Gastrointestinal
Retinal layers: inner to outwards

In Newer Generations, It ls Only Ophthalmologist
who Examines Patient’s Retina

I: Inner limiting membrane

N: Nerve fiber layer

  

G: Ganglion cell Only ME
I: Inner plexiform layer

I: Inner nuclear layer

O: Outer plexiform layer

O: Outer nuclear layer

E: Exterior limiting membrane
P: Photoreceptors: rods cons

R: Retinal pigment epithelium
lridocorneal angle structures
(Posterior to Anterior)

| Can See Till Schwalbe’s line

I: Iris
C: Ciliary body

S: Scleral spur

  

T: Trabecular meshwork

S: Schwalbe’s line
Congenital cloudy cornea
STUMPED

S: Sclerocornea

T: Tears in Descemet's
membrane

U: Ulcer

M: Metabolic conditions
(Some lysosomal metabolic
disorders/glycogen storage
diseases)

P: Peters anomaly

E: Endothelial dystrophy

D: Dermoid

 
Features of Keratoconus

C: Central scarring, C O Ni E S

Fleischer ring

  

O: Oil drop reflex, Oedema
N: Nerves (prominent)
E: Excessive bulging of
lower lid on downgaze
(Munson’s sign)

S: Striae (Vogt’s)
Cherry red spot on Retina: Causes
Cherry Trees Never Grow Tall

C: Central retinal artery
occlusion

T: Tay-Sachs disease
N: Niemann-Pick

disease

   

G: Gaucher's disease
I’m always

T: Trauma (Berlin's short!!!

edema)
Monoarthritis differentials

GHOST
G: Gout

H: Haemarthrosis

O: Osteoarthritis

 

S: Sepsis

T: Trauma
Posterior dislocation of hip:
presenting position

ADD FiRe

ADD: Adduction

F: Flexion

 

IR: Internal rotation
Order of correction of CTEV:
Ponseti method

CAVE

C: Cavus

@ I Y e d I ] ¢C ) i A

 

V: Varus

E: Equinus
Diaphyseal lesions

FEMALE

F: Fibrous dysplasia

  

E: Eosinophilic Granuloma

M: Metastasis

A: Adamantinoma

L: Leukemia,Lymphoma

E: Ewing's Sarcoma
Decreased alkaline phosphatase:
conditions

CRASH

C: Cretinism

R: Radioactive

  

substance deposition

A: Achondroplasia

S: Scurvy
Increased alkaline
phosphatase: conditions
High Fibre CROP
H: Hyperparathyroidism

(primary)
F: Fibrosarcoma

  

C: Carcinoma/ metastasis
R: Rickets
O: Osteomalacia/

osteosarcoma
Anterior instability of knee joint: Tests

L: Lachman’s test

A: Anterior drawer test
@mednomics

 

P: Pivot shift test
Colle’s fracture: features

DDD

D: Distal end of radius
D: Dorsal displacement

D: Dinner fork deformity
Smith’s fracture: features

Dr. PG

Dr: Distal radius

  

P: Palmar displacement
@mednomics

G: Garden spade deformity
Pseudoarthrosis: causes
FiNe COAT

F: Fracture, Fibrous/

cleidocranial dysplasia

fi y
VIC"

N: Neurofibromatosis

@mednomics

C: Congenital

  

O: Osteogenesis imperfecta
A: Ankylosing spondylitis

T: Triple arthrodesis
Negative acute phase reactants

His rich TRAP

 

H: Histidine rich glycoprotein

T: Transferrin, Transcortin,

~ mednomics Transthyretin

R: Retinol binding protein
A: Albumin

P: Prealbumin
Macrocytic anemia: causes

You have become
a “FAT RBC”

 

 

F: Fetus (pregnancy)
A: Alcohol
T: Thyroid disease: hypothyroidism
R: Reticulocytosis
B: B12 and folate deficiency
C: Cirrhosis and chronic liver disease
Positive acute phase reactants

CHATS

C: CRP, Complement
proteins, Coagulation

  

proteins

H: Haptoglobin
A: Alpha 1 acid emer
glycoprotein

A: Alpha 1 anti-
Tripsin

S: Serum amyloid A
Common carcinomas causing
bony metastasis

Bony Projections To Locate
Real Metastatis

B: Breast
P: Prostate
T: Thyroid
L: Lung

R: Renal

 

M: Melanoma
Causes of target cells
HOT LIPS

(

H: Hemoglobinopathy

O: Obstructive jaundice

  
 

T: Thalassemia

L: Liver abscess

I: Iron deficiency anemia
P: Polycythemia

S: Sideroblastic anemia
Morphological types of necrosis

Life Can Get Complicated with
Fat and Fibrosis

L: Liquefactive
You have massive
C: Coagulative pulmonary me Th)

G: Gangrenous

  

C: Caseous
F: Fat
F: Fibrinoid
Causes of basophilic stippling
TAIL

T: Thalassemia
It is all because
A: Anemia of chronic\._ of the TAIL

disease x4

    

I: Iron deficiency
L: Leukemia, Lead
poisoning (Heavy

metals)
Glomerular diseases commonly
presenting as nephritic
syndrome

PARIS

P: Post-streptococcal

   
  
  
 
    
 

A: Alport syndrome
R: RPGN incudin
Goodpasteurs syndrc
I: lgA nephropathy

S: OLE
Types of hypersensitivity reactions

ACID

A: Anaphylaxis/ Angioedema-
Antigen mediated: Type | \1 7

C: Cytotoxic-mediated: Type II

  

I: Immune complex mediated:
Type Ill

D: Delayed hypersensitivity:
Type IV
Vasculitis associated with
granulomas ©

The Great Wall of China

T: Takayasu’s
arteritis |
G: Giant cell =
arteritis emednomies ,
W: Wegener's Y
granulomatosis
C: Churg-Straus
syndrome

   

 

 
Infections causing congenital abnormalities

TORCH

T: Toxoplasmosis
O: Others (syphilis,
varicella-zoster,
parvovirus B19)

R: Rubella

 

C: Cytomegalovirus
(CMV)

H: Herpes infections
Craniotabes (soft cranium): causes

SHORT
S: Syphilis

H: Hydrocephalus

    

O: Osteogenesis = You are shor
and soft !!!
imperfecta

R: Rickets

T: Thalassemia
Kwashiorkor: clinical triad
GEM

G: Growth

retardation ap

@mednomics

E:- Edema

 

M: Mental changes
Trinucleotide repeat disorders
My Husband’s Fragile Spine

M: Myotonic dystrophy

 
  

H: Huntington disease
F: Fragile X syndrome w,
Ww

S: Spino cerebellar

 

ataxia
Rashes onset in febrile patient

Very Sick Person Must Take Double Tablets

Day 1:
Day 2:
Day 3:
Day 4:
Day 5:
Day 6:
Day 7:

Varicella
Scarlet fever
small Pox
Measles

Typhus

 

Dengue

Typhoid
CLOZAPINE ADVERSE
EFFECTS

MASS GAIN
Myocarditis
Agranulocytosis
Seizures
Sialorrhea

Gain (weight)

 
Enzyme inducers
GPRS Cell Phone Signal

: Griseofulvin

: Phenytoin

: Rifampicin

: Smoking

: Carbamazepine

- Phenobarbitone

 

Yn 0O W VD V QG)

- St John's wort
Cholinergic
overdose

     
 
     

DUMBBELLS

D: Diarrhoea
U: Urination
M: Miosis, muscle weakness

B: Bronchorrhea

B: Bradycardia

E: Emesis
L: Lacrimation
S: Salivation/sweating
Cardioselective beta blockers

Cardioselective Beta blockers Act At
Nothing But Myocardium Exclusively

 

exclusively for me
B:
A
A
N
B
M
E

Celiprolol
Bisoprolol

: Atenolol

- Acebutolol
: Nebivolol

: Betaxolol

: Metoprolol
- Esmolol
Non-selective beta blockers
Leave Cardiac and Proceed To
Periphery Soon

Enough blocking me;
Go to periphery

 

L: Labetalol
C: Carvedilol
P: Propranolol
T: Timolol

P: Pindolol

S: Sotalol
Acute gout Rx
Nice Cold Compressions

N: NSAIDS
Col: Colchicine

 
Beta blockers with intrinsic
sympathomimetic activity

PALPitations
Sf P: Pindolol

ae,

   

py

A: Acebutolol
L: Labetalol

P: Penbutolol
Triptans relieve A BaD
headache

 

A: Acute relief of migraine
BaD: 5HT1B/D agonists
Drugs causing hyperuricemia
PAINED
¢ Pyrazinamide
¢ Aspirin (low dose) 6
¢ Immunosuppresants:
tacrolimus, cyclosporine
° Niacin
¢ Ethambutol
¢ Diuretics: thiazide & loop diuretics
Phase 1 metabolic reactions

Red H20
R: Reduction
H: Hydrolysis

O: Oxidation

 
Phase 2 metabolic reactions

Methane GAS
M: Methylation

G: Glucuronide/
Glycine conjugation

@simplify.dr
A: Acetylation

 

S: Sulfation
Heparin: Monitoring and

     

I: Intrinsic pathway
affected
Extrapyramidal effects of
typical antipsychotics

A TRAP for Neuron

A: Acute dystonia

T: Tardive dyskinesia
R: Rabbit syndrome
(Perioral tremor)

A: Akathisia

implify.drugs
Papa cae tS

   

N: Neuropleptic

malignant syndrome
Atypical antipsychotics:
partial D2 agonist

CAB

C: Cariprazine

 

A: Aripiprazole

B: Brexpiprazole
| WEPT when | was confused about
the difference b/w warfarin &
heparin monitoring

W: Warfarin :

E: Extrinsic pathway affected

PT: Prothrombin time (INR ratio) for
simpliry.drugs

monitoring
Potassium sparing diuretics

Do NOT allow potassium to run away from the :
body but SEATs it inside the body

SEAT
Spironolactone
Eplerenone
Amiloride
Triamterene

(c

 
Potassium (K) levels
increasing agents
J K-TANK
K: K-sparing diuretics
T: Trimethoprim.
A: ACE inhibitors/ ARBs
N: NSAIDs ,

K: K-supplements eg

  
Diuretics classes

- Leak Over The CAN

    
 

Loop diuretics —_
Osmotic diuretics
Thiazide diuretics

Carbonic anhydrase inhibitors

Aldosterone antagonists

Na (epithelial) channel blockers
Setrons: 5-HT3 receptor antagonists

How do! remember this ? Remember about 3 Ants...

 

5-HT3 receptor Antagonist
Antiemetic
Antipruri
 

 

 

CELLS: 50s ribosomes
C: Chloramphenicol
E: Erythromycin (Macrolides)

L: Lincosamodes

L: Linezolid

S: Streptogramins

Ais right next to CELLS ATe: 30s ribosomes

Aminoglycosides also A Aminoglycosides
act at 30S-50S interface Te Tetracycline

 

 
Carbamazepine adverse effects

PATCH

P: Potentiates ADH action: water

eg

retention and hyponatremia

A: Aplastic anemia,

 

agranulocytosis

T: Transient leukopenia,
Teratogenic ®simplify.drugs
C: CNS effects: dizziness,

headache, ataxia, diplopia,
Bell-Magendie Law
Doctor's Study Very Much

DS: Dorsal horn: Sensory
VM: Ventral horn: Motor

 
Neural control of breathing

DIVE

DI: Dorsal respiratory group:
Inspiration

VE: Ventral respiratory group:
Expiration

 
CLOTTING FACTORS

Foolish People Try Climbing Long Slopes
After Christmas; Some People Have Fallen

F: Fibrinogen: |

P: Prothrombin: Il

T: Tissue thromboplastin: Ill
C: Calcium: IV

L: Labile factor: V

S: Stable factor: VIl

A: Anti-hemophilic factor: VIII \\ oe
>

lam a fool!!!

   
  

C: Christmas factor: IX

S: Stuart power factor: X

P: Plasma thromboplastin
antecedent (PTA): XI

H: Hageman factor: XIl

F: Fibrin stabilising factor: XIll
White blood cell concentrations
[in descending order]

Never Let Monkeys Eat Bananas
N: Neutrophils [40-80%]

L: Lymphocytes [20-40%]

   

M: Monocytes [2-10%] :
BUT WHY !!!i@

E: Eosinophils [1-6%]

B: Basophils [<1-2%] — 7
Hormones secreted by
Ovaries
PET Is Relaxing
P: Progesterone
E: Estrogen

T: Testosterone

 

I: Inhibin

R: Relaxin
Diseases transmitted by
Culex mosquito

West Bans Japan

W: West nile fever

B: Bancroftian

filariasis

 

J: Japaneses encephalitis
Types of vaccines

TRACKS
T: Toxoid
R: Recombinant

A: Attenuated (live)

C: Conjugated

 

K: Killed (inactivated)
S: Subunit
Diseases/viruses transmitted by
Aedes aegypti

Yellow Colored Different Zebra

Y: Yellow fever
C: Chikungunya
D: Dengue

Z: Zika

 
Type 1 vs Type 2 errors
Type 1 is alpha males and type 2 is beta males

Alpha males are overconfident; Type 1: That's
_. _.____ always right

Say something is true even if it is

actually false.

They speak only POSITIVE

irrespective of the reality...

 

Beta males are scared with Type 2: ’m
always wrong

no confidence;

Say something is false even if

it is actually true

 
Stages of demographic cycle (DP Blaker)

Go to HELL & Die

 

H: High stationary
E: Early expanding
L: Late expanding
L: Low stationary

D: Declining

 
Subtypes of schizophrenia

Perfect CURD

P: Paranoid
C: Catatonic

U: Undifferentiated

 

R: Residual

D: Disorganised
Tetrad of narcolepsy

CHeSS
C: Cataplexy

H: Hypnagogic

hallucinations

 

S: Sleep paralysis

S: Sleep attacks
Kubler-Ross stages of reactions to dying

Death Always Brings Great Acceptance

D: Denial

A: Anger

B: Bargaining

 

G: Grieving

A: Acceptance
PTSD: Diagnostic criteria

TRAUMA

T: Traumatic event

R: Re-experiences

A: Avoids the situation

U: Unable to function or lack of

interest in usual activities

 

M: Month (1 or more months of
symptoms)

A: Arousal is increased or insomnia
Hallucination: Types

Victorious King’s OATH
V: Visual
K: Kinesthetic
G: Gustatory
O: Olfactory
A: Auditory
T: Tactile

 

H: Hypnagogic
Conditions associated with
Wormian bones

PORKCHOPS

P: Pyknodysotosis

O: Osteogenesis imperfecta
R: Rickets

K: Kinky hair syndrome

C: Cleidocranial dysostosis
H: Hypothyroidism /
Hypophosphatasia

O: Otopalatodigital Syndrome
P: Progeria /
Pachydermoperiostosis

S: Syndrome of Downs

  
Pulmonary upper zone involvement

Berry RESTS

B: Berylliosis
R: Radiation
»

E: Extrinsic allergic

alveol iti Ss @mednomics

 

S: Sarcoidosis
T: Tuberculosis

S: Silicosis
Plain radiograph: Osteoarthritis signs

LOSS

L: Loss/ narrowing of
joint space

O: Osteophytes

 

S: Subchondral sclerosis

S: Subchondral cysts
Egg shell calcification of lymph nodes
PASS

P: Post irradiation
lymphoma/
Pneumoconiosis (Coal
workers)

@mednomics

A: Amyloidosis

 

S: Sarcoidosis

S: Silicosis
Codfish vertebrae causes

SORT

S: Sickle cell keg
O: Osteoporosis oe

   

R: Renal osteodystrophy

T: Thalassaemia major
Cholelithiasis: risk factors

SF

F; Fat: BMI >30
F: Female
F: Fertile: one or
more children
F: Forty: age >40
F: Faulty drainage
of bile

 
Abdominal assessment
To assess abdomen, palpate all 4
quadrants for DR. GERM

D: Distension: liver
abnormalities, bowel
obstruction

R: Rigidity (board like):
bleeding

G: Guarding: muscular
tension when touched
E: Evisceration/ Ecchymosis
R: Rebound tenderness:
infection

M: Masses

 
Causes of acute pancreatitis
GET SMASHeD PancreaS

G: Gall stone
E: Ethanol

T: Trauma

S: Steroid

M: Mumps

A: Autoimmune
S: Scorpion bite
H: Hypercalcaemia

D: Drugs (sulfonamides, GLP analogs)
P: Post splenectomy

   
   
 
 

(fe

-Appendectomy
~ complications

WRAP IF HOT

W: Wound infection
R: Respiratory (atelectasis, pneumonia)

A: Abscess (pelvic)

P: Portal pyemia

I: Ileus (paralytic)

F: Fecal fistula
H: Hernia (inguinal)
O: Obstruction (intestinal from adhesions)

T: Thrombosis (DVT)
Cold abscess: Causes

TABLE

T: Tuberculosis
A: Actinomycosis
B: Blastomycosis

L: Leprosy

  

E: hyperimmunoglobulin E

syndrome
Transillumination positive
swellings

Certain Water Heads Primarily Mediate
Excessive Radiation

C: Cystic hygroma
W: Water head (hydrocephalus)
H: Hydrocele

P: Pneumothorax,

 

Pneumoperitoneum
M: Meningocele, Meningomyelocele
E: Epididymal cyst

R: Ranula
Familial adenomatous
polyposis: benign associations

Cheap SODA
C: Congenital hypertrophy of the

retinal pigment epithelium
S: Sebaceous cysts
O: Osteomas of skull, mandible

D: Desmoid tumors’*/ dental

 

abnormalities

A: Adrenal adenomas
Anal cancer: risk factors
CHILLS

C: Chronic fistulas,
Condyloma accuminata
z infection

H: HPV infection
I: Irradiated anal skin
L: Leukoplakia
L: Lymphogranuloma
venereum infection

S: Smoking

Vtdos

 
Painful skin lesions
Blue ANGEL

B: Blue rubber bleb
nevus
A: Angiolipoma
N: Neurofibroma or
neuroma
G: Glomus tumour
E: Eccrine
spiradenoma
L: Lelomyoma

 
Cushing’s ulcer
Crushing the brain

 
   
  

Traumatic head injury, brain tumors,
infections and other process

Increase in intracranial pressure
Overstimulation of vagus nerve
Increase in sai acid secretion

Gastroduodenal ulcer: Cushing’s
ulcer
CURLING'S ULCER

Curly hairs on fire
I Severe burns

  
 

Reduced plasma volume

Gastric ischemia and
cell necrosis

Acute gastric mucosal
erosion
     

Causes of chronic
pancreatitis
Alcohol and CHIPS
A: Alcohol
C: Cystic bros (22
H: Hereditary
I: Idiopathic
P: Pancreas divisum/
annular pancreas
S: Stenosis of ampulla of
Vater
Elevated amylase levels
PARROTID

P: Pancreatitis, Parotitis,
Pregnancy, Perforated bowel
A: Abdominal trauma, Acute
burns

R: Ruptured ectopic pregnancy
R: Renal failure

O: Obstructed intestines

T: Tumor of pancreas, lung,
ovary, esophagus

I: Infarcted bowel

D: Diabetic ketoacidosis

 
Neck swellings that move with swallowing
Never “SETTLEE” with swallowing

S: Subhyoid bursitis

E: Ectopic thyroid

T: Thyroid enlargement
T: Thyroglossal cyst and
fistula

L: Laryngocele

E: Extrinsic Ca of larynx
E: Enlarged pretracheal/
paratracheal lymph node

 
Peptic ulcer disease:
risk factors ((/

    

Tobacco HANGS Men
T: Tobacco (nicotine)
H: H. pylori

A: Alcohol

N: NSAIDS

G: Gastrinomas

S: Steroids

Men: MEN type 1
