 
MyChart
AM@ aleln)
 
http://
 
Ly
G)
tS
5
 

powered by
*
 
 
 
Ea
WwW
rT
mer,

ae
ae

a
a
a
—
t /y)
 
 
 
 
1234
 
 
 
|
 
 
MyChart
 
http://
 
a
4
 
a
 

powered by
 
 
 
at
Ea
a
<[>
eco

a»
ae

a
a
D
PYG
a
a
[—
r_/y)
2)
3)
 
a
 
 

 

|

 

 
 
1234 ;
| |
| |
| |
MyChart
 
http://
 
 
Ls
123

AZ
=I
 

powered by
 
 
 
WW
<[>
e05co

a
a

a
a
Ls
Yo
a
ee
a
mz
«|
pa
ry
t /
a
 
 
 
1234
 
 
 
I
 
 
y

=

y
y

=

y
MyChanrt
Ae grelai
http://
 
zm,
a

 
 )
—

 
 
AN
 
 
a
 
VISA
ad
 
B:
 
 
ay

2
 
a
<[>
rier)

as
an

oe
a
 
ne
an
C7
=
ry)
 
 
A
 
 

 

|

 

 
 
<
1234 j
a <
a <
a <
 
 
 
ry Ca Ca Ca Ca Ca Ca Ca Ca Ca Ca Ca
eee ee eee ee eee ee eee ee eee ee ee ee ee ee eee ee eee ee eee ee ee ee ee
 
 
 
 
 
.
»
MyChart
A @ialela
hittp//
 
Lr §
 
 
 
 
 
 
 
 
 
 
cr rcs
 
 
1
ier)

ae
a

a
 
fa
a
oe
ry)
 
 
 
3}
3}
 
 
 
 
 
.e
1234 |
| oT |
| |
| |
powered by

 
Cl
powered by |
ele oe ey
a
 
Decal

(Epic)

 
 
 
 
 
 
 
I
 
 
y

=

y
y

=

y
MyChanrt
Ae grelai
http://
 
zm,
a

 
 )
—

 
 
AN
 
 
a
 
VISA
ad
 
B:
 
 
ay

2
 
a
<[>
rier)

as
an

oe
a
 
ne
an
C7
=
ry)
 
 
A
 
 

 

|

 

 
 
<
1234 j
a <
a <
a <
Decal

(Epic)

 
a
 
Cl
powered by |
powered by

 
ele oe ey
 
 
 
 
 
.
»
MyChart
A @ialela
hittp//
 
Lr §
 
 
 
 
 
 
 
 
 
 
cr rcs
 
 
1
ier)

ae
a

a
 
fa
a
oe
ry)
 
 
 
3}
3}
 
 
 
 
 
.e
1234 |
| oT |
| |
| |
ry Ca Ca Ca Ca Ca Ca Ca Ca Ca Ca Ca
eee ee eee ee eee ee eee ee eee ee ee ee ee ee eee ee eee ee eee ee ee ee ee
 
 
 
|
 
 
MyChart
 
http://
 
a
4
 
a
 

powered by
 
 
 
at
Ea
a
<[>
eco

a»
ae

a
a
D
PYG
a
a
[—
r_/y)
2)
3)
 
a
 
 

 

|

 

 
 
1234 ;
| |
| |
| |
 
MyChart
AM@ aleln)
 
http://
 
Ly
G)
tS
5
 

powered by
*
 
 
 
Ea
WwW
rT
mer,

ae
ae

a
a
a
—
t /y)
 
 
 
 
1234
MyChart
 
http://
 
 
Ls
123

AZ
=I
 

powered by
 
 
 
WW
<[>
e05co

a
a

a
a
Ls
Yo
a
ee
a
mz
«|
pa
ry
t /
a
 
 
 
1234
