CC nas
 
rn

Mon

a

ree}

city

a

cag
‘Sun

‘Mon Tue Wed

‘Thu

Fri

‘Sat
 

 

Gs

 

(Seeaced

 
 
4

AX Doctor Appointment

,
4

AX Doctor Appointment
~~
Sa

 
 
Eicie)

Pat
©

Other
©

Other
4

6m Prescription Reminder

7 ,
4

oe Prescription Reminder

- a
al Spanish
shire.

Cares

www.shirecares.com
Satie Ren tc)
 
 
 
I
CC nas
 
rn

Mon

a

ree}

city

a

cag
‘Sun

‘Mon Tue Wed

‘Thu

Fri

‘Sat
 

 

Gs

 

(Seeaced

 
 
4

AX Doctor Appointment
4

AX Doctor Appointment

,
 
 
 
I
~~
Sa

 
 
Eicie)

Pat
©

Other
©

Other
4

oe Prescription Reminder

- a
4

6m Prescription Reminder

7 ,
al Spanish
shire.

Cares

www.shirecares.com
Satie Ren tc)
2.1.1
com.fasterxml.jackson.core
jackson-core
2.1.1
com.fasterxml.jackson.core
jackson-databind
