 
 
 
 
 
.
»
 
)
Vi
 
 
 
 
 
 

wt
eezeay
rt
a
“e.
LI
ame
rT)
oe,
-¢)
phere
 
 
 
|
 
 
eh
at
rd
rt)
-)
had
 
 
pga
 
 
 
 
I
 
 
y

=

y
y

=

y
 
002
rt)
wee
>»)
hed
 
CED
 
SWITE
 
 
 

 

 

 

yt
 
 
 
 
 
 
 
 
 
Dm

Hours)
 
 
 
 
 
 

4 leer
 
 
 
 
 
 
 
a
Cl
 
 
 
I
 
 
y

=

y
y

=

y
 
002
rt)
wee
>»)
hed
 
CED
 
a
Cl
 
 
 
 
 
.
»
 
)
Vi
 
 
 
 
 
 
 

 

 

 

yt
 
 
 
 
 
 
 
 
 
Dm

Hours)
 
 
 
 
 
 

4 leer
 
 
 
 
 
 
 
SWITE
 
 
 
|
 
 
eh
at
rt)
rd
-)
had
 
 
pga
 
 
 

wt
eezeay
rt
“e.
a
LI
rT)
ame
oe,
-¢)
phere
