 
COFIDOC

<—?

Bienvenue dans votre application
Cofi’Docs Kinés

Mes seances

Ordonnance 1

Séances faites 3/3 | Bilan o/1

MAI 2018

J

M Vv
e© @ ©

Facturé(e)
En attente d’envoi

O Enregistré(e)

Modifier Archiver

 
ee a
powered by Google
Ne
COFIDOC

<—?

Bienvenue dans votre application
Cofi’Docs Kinés

Les séances partagées

Ordonnance 1

Séances faites 3/3 | o/1

MAI 2018

J

M Vv
oe + ©

Facturé(e)
En attente d’envoi

Enregistré(e)

 

Modifier Archiver
Ne
COFIDOC

<—?

Bienvenue dans votre application
Cofi’Docs Kinés

Pour commencer

Création
c< MAI 2018
L M
0e 2
e@ Faites un appui court sur une date pour créer
une séance

Faites un appui long sur une date pour créer
un bilan

Cofi’Docs

Allez dans le menu, cliquez sur Envoi facturation
puis sélectionnez les séances que vous souhaitez
envoyer et cliquez sur le bouton Envoi facturation

 
(—?

Cofi’Docs

 

By Cofidoc
 
en = i
COFIDOC

<—?7
 
COFIDOC

<7

Bienvenue dans votre application
Cofi’Docs Taxis

Retrouvez la signalétique suivante dans votre app :

[ Trajets facturés / Trajets prévus |

Details Ajouter un trajet Facturer

 

Gérez votre bon Ajoutez Facturez vos
de transport vos trajets trajets
 
 
a
Lr
|
powered by Google
 
Pp
ee
TAG
lal
(—?

Cofi’Docs

By Cofidoc
 
INFI
 
 
»
ad)
ed |
 
 
powered by Google
 
.
Cl
— |
 
G)
Tn a
powered by Google
10]
hla
a

 
10]
 
y

=

y
 
<—?

Cofi’Docs

By Cofidoc
LP
 
10]
 

 

 

 
powered by Google
y

=

y
en =.
 
are
I
 
roe |
 
oe,
oe
re
a
7
oe
