G)
a

 
 
 
20
fans
Avec le soutien institutionnel de ca

CPLF
VAWZ0

En partenariat avec

 

ELSEVIER
Avec le soutien institutionnel de ca

e785
DO

En partenariat avec

 

Sie

Bed
Pareto

ELSEVIER
20
20
20
    

Avec le soutien institutionnel de eS
 
 
Avec le soutien institutionnel de ca

CPLF
Ve

 
   
   

Avec le soutien institutionnel de Ga
 
20
 

Asthmatiques dans l’année précédente : contréle de l’asthme, exacerbations, hospitalisations et recours aux
corticoides oraux selon les niveaux de traitement

 

 

 

 

 

 

 

Pas d
Total casae GINA1 | GINA2 | GiINA3 | GINA4 | GINAS | Autres
traitement
Nb d’asthmatiques* 993 47 435 56 145 209 33 a7
Proportion 47% 43,8.% 57% 14,6 % 21.1% 33% 48%
Score ACQ-6 dans les 4 derniéres semaines, proportion d’asthmatiques
ACQ-6 <0,75 52,3 % 68,8 % 64,2.% 49,3 % 49,6 % 33,1% 22,8 % 45,4 %
ACQ-6 ]0,75-1,5] 24,6 % 21,1% 21,3% 27,5% 29,7% 26,7% 36,8 % 19,9 %
ACQ-6 > 1,5 23,1% 10,1 % 14,5 23,2.% 20,7 % 40,1% 40,4 % 348%
Evaénements dans la derniére année, proportion d’asthmatiques
21 exacerbation** 47,6 % 30,6 % 41,6% 43,4% 46,2 % 61,6 % 65,4 % 60,1%
21 visite aux urgences | 14,3 % 5.2% 78% 10,9 % 12,7 % 25,5 % 39,0.% 20,5 %
21 hospitalisation 3,1% 0,0% 14% 0,0% 3,4% 44% 12,4% 9.1%
Corticoides oraux 14,5 % NA 15,0 % 11,4% 10,2 % 21,9 % 20,3 % 8.0 %

 

 

 

 

 

 

* Pour 21/993 patients, il n’a pas été possible de déterminer leur traitement : ces patients ont été exclus de cette table.
=* Défini comme des épisodes/périodes oti les symptémes (toux, crachats, essoufflements) étaient pires que d’habitude pendant plusieurs jours

 
Age (année) *

Proportion Homme #

IMC (ke/m2) *

Tabagisme (PA) *

Fumeur actifs #

Mode de vie rural #
Exposition #

Age de début des symptomes
respiratoires *

Exacerbations/an *

Score mMRC *

Nombre d’hospitalisations sur
la derniere année *
Nombre de Comorbidités *
Cardiovasculaires #
Ostéoporose#

Diabéted

RGO#

SAS#

Dépression/anxieté #
Cancer #

VEMS (8 valeur prédite) *
Réversibilite du VEMS (%) *
KCO (% valeur prédite) *
SpO2 (%) *

VR (4 valeur prédite)*

Eosinophilie (Giga/l) *
Emphyséme sur le scanner #

re rerieg
1(6)

52,70
33,3
33,30
40,30
50
16,70
33,30
13,30

4.20

220
0,60

3,00
50
33,3
50
66,7
33,3
50
16,7

30,30
11,40
68,00
94.0
170.20

0.20
66,7

16,7

Cluster
27)

50,00
100

24.40
10,20

0,90
143
143
143
28,6
0

143
0

72,60
4.10
90,00
97,3
169,00

0,70
28,6

71,4
85,7
42.9
0

forniog
3 (9)

68,70
55,6

29,30
70,20
33,3

33,30
33,30
10,90

3,60
2,80
0,60

3,30
55.6
55,6
444
778
11,1
77,8
11,1

41,90
8,80
88,00
93,0
163,30

0,60
55,6

88,9
88,9
88,9
444

Pores
Bat)

55,5
62,5
24.6
17,3
25

37,5
37,5
46,1

18

0.6

0.9
25

12,5
12,5

85,6
54
88,8
95,8
146

03

25

87,5
75
50
12,5

[own
5 6)

70,9
37,5
25,9
35,1
37,5
313
125
51.2

2.6
62,5
31,3
25

43,8
18,8
43,8
313

618
63
7235
93.8
1542

04
36,3

93,8
93,8
93,8
12,5

POL stig
6 (9)
69

55,6
24.3
28,5
22,2
222

55.6
53,8

3,1
07
03

12
223
999

11,1
222

22,2

22,2

83,7

NS
=<0.0001
NS

0.0002

NS
NS

=0.004
NS

=0.0001
NS

=0.05
NS

NS

NS
NS
=0.02
NS

* = moyen, # = pourcentage de patients présentant cette caractéristique, IMC: indice de masse corporelle; PA:

paquets année; mMRC:

modified Medical Research Council; RGO:

reflux gastro-oesophagien; CSI:

corticostéroides inhalés; LABA: bronchodilatateur beta-2 mimétques; LAMA: bronchodilatateur anti-

cholinergique.
Pourcentage de survie

Survie selon la commande ventilatoire a la sortie d'hospitalisation
1004:,

   
  

— Utilisation de la commande ventilatoire < 15% a la sortie

+++ Utilisation de la commande ventilatoire = 15% ala sortie

p=0,008

 

 

Temps (années)
 

Risque faible

0.6

04

Risque intermédiaire

0.2

 

Survie sans transplantation

Risque élevé

0.0

 

 

 

I | I
0 20 40 60 80
Temps (mois)
Nombre de patients :

Risque faible 11 10 9 8
Risque intermédiaire 21 17 12
Risque élevé 31 16 6 2 1

©
a
Tableau : Intensite des soins recus selon l’intensité prévue, chez les patients ayant présente une
défaillance d’organes (n= 173)

n=17 (12%) n=49 (28%) n=107 (62%)

maximaux (n=104)

 
Déficits immunitaires Idiopathiques et
infectieuses

Autres

Taux

Variation
Variation
Variation
Variation
Variation

 
Variables

csHR [IC 95%]
pour l’arrét de la
lére ligne de
chimiothérapie

csHR [IC 95%]
pour le déces

 

EIG infectieux (variable
dépendante du temps)

Sexe masculin
Age (par année)

Performance status a
linclusion

- 0
- 1
- 2-3
Histologie
- Adénocarcinome
- Epidermoide

- CBNPC autre

1.47 [1.26-1.71]

1.15 [1.03-1.27]
0.99 [0.99-1.00]

1
1.19 [1.07-1.31]
1.72 [1.43-2.07]

1
1.02 [0.88-1.18]
1.37 [1.18-1.59]

6.50 [4.65-9.08]

1.52 [1.06-2.18]
1.00 [0.98-1.03]

1
1.58 [1.08-2.29]
2.96 [1.79-4.89]

1
1.21 [0.83-1.77]
0.89 [0.54-1.45]

 
 
   
  

 

 

 

 

 

 

 

100-5 —— EPIMMUNE positive
—— EPIMMUNE negative
80- Log-rank p<0-0001
ze HR=0-010 (95% Ci 0-000-0-028);
a p=0-0067
2
g 60-
£
§ 40+
P
2 20-7
0
= T T T T T
) § 10 is 20 25
Number at risk
EPIMMUNE positive 10 10 7 5 4 4
EPIMMUNE negative 24 1 0 0 0 0
100 Log-rank p<0-0001
HR=0-080 (95% Cl 0-017-0-373);
p=0-0012
80-4
z
3 60-
2
z
a
t 40-
6
20-
0 T T T T T
) 5 10 15 20 25
ancien vai Time since immunotherapy (months)
EPIMMUNE positive 10 10 10 10 8 7
EPIMMUNE negative 24 ii 7 5 5 5
 

Characteristics in female
Height, mean, cm (SD)

BMI, mean, kg/m2 (SD)
Antero-posterior diameter of chest, mean, em (SD)

Lateral diameter of chest, mean, cm (SD)

Patients with pNTM (n=45) Control subjects (n=90) p value

163.53 (6.96) 161.78 (7.15) 0.18
20.21 (1.98) 25.63 (5.23) <0.0001
10.78 (1.63) 11.90 (1.80) 0.006
23.40 (2.12) 24.27 (1.75) 0.046

 

Characteristics in male
Height, mean, cm (SD)

BMI, mean, kg/m2 (SD)
Antero-posterior diameter of chest, mean, cm (SD)

Lateral diameter of chest, mean, cm (SD)

Patients with pNTM (n=5) Control subjects (n=10) p value

174,00 (4.18) 171.18 (6.30) “a
21.82 (1.73) 26.11(4.12) ai
12.54 (1.47) 14.89 (2.44) _
25.46 (1.10) 27.49 (2.18)

0.057

 
« OVA-Corticoides IV » « OVA-Contréle »
Lapin Seuil RT au repos Seuil RT a Vexercice | Lapin Seuil RT au repos Seuil RT a l’exercice

 
 

 
41 (31)

d'exercice principal, n (%)

générales concernant les patients FP! (N = 103)

familiale des patients FPI, n (%)

FPI

selon l'échelle modifiée MRC", n (5%)

suivis dans 2 centres pneumologiques
centre & 1 centre de n

 
En faveur de UC

En faveur de FFIVI Proportion de répondeurs (%)

 

 

 

 

 

 

 

OR (95% Cl)

FFM uc
Score total —— 1.79 (1.55+2.06) 7] 55 43
Stimuli environnementaux a 1.51 (1.31-1,73) 59 50.
fies uous Symptémes — 4,81 (1.58208) aco 59 a7
Limitation d'activité —— 1.58 (1.36-1.82) 47 38
Emotional function —— 1.64 (1.42-1.89) _| 54 44
Siete | ————___ 492 (150-245) ] 55 42
Stimuli environnementaux ——— a 1.87 (1.24=1.99) 58 49
— Symptémes —_»—_—4 4.76 (1.39-2:23) Po 58 46
mi 1.66 (1.29-2.14) 44 35
Fonction Emationnelte a 1.80 (1:40-2.30) _J 53 43
Score total pr 1,79 (1,51-2,13) 7] 56 44
Stimuli environnementaux os 1,84 (1,29+2,14) 60 Si
oa Symptomes —— 192(1,61-2.20) | Joo, 58 46
Limitation d'activité — — 1,60 (1,34-1,91) 4g 40
Fonction Emotionnelie — 1,89 (1,33-1,91) _| 55 45

oO 3
 

 

 

Questionnaire ACQ-6
Bien contralé
ACQ-6 < 0,75

Partiellement contrélé
ACQ-6 ]0,75-1,5]

Non contrélé
ACQ-6 >1,5

Bien contrdlé

4 questions GINA

Partiellement contrélé

Non contrélé

 

 

 

 

Aucun "Qui" lou2 "Oui" 30u4 "Oui"
43,6% 9.3% 1,7%
8,9% 12,7% 2,6%
0.8% 7,7% 12,8%

 

 

 

 
 

 

 

 

 

 

 

 

 

 

Global Groupe Simeox Groupe Kinésithérapie

Variables (n=10) (n=5) manuelle (n=5)
Baseline Fin d’étude Baseline | Fin d’étude
CVF (L) 1,97+0,89 | 2,01+0,82 2,19+0,77 1,93+1,05 1,99+0,90
CVF (%) 55,7417,5 | 55,5+18,4 60,6+15,9 55,9+18,7 60,1418,0
VEMS(L) | 1,1440,59| 1,1240,44 | 1,27+0,54 | 116+0,77 | 1,12+0,66
VEMS (%) 42,2+19,0| 39,5+13,5 44,6+15,8 45,0+24,8 44,8+24,9
VEMS/CVF (%) | 53,9+7,5 52,5+2,4 58,0+12,1 55,4+10,7 51,7+14,1

 

 

 

 
CARDIOVASCULAR COMORBIDITIES
( AND/OR DIABETES

co ‘| Cc OR |

mMRC3-4 mMRCO-1 _— Other mMRC milane
and and mMRC/FEV, 0-2
FEV,S35 % FEV,260% combinations

AGE AGE
[ $70 yrs } [ >70 ve |
BMI BMI FEV,250 % FEV,<50 %
<30kg/m? = 230 kg/m? |

 

 

 

Class
Patients, n 35 63 271 76 92
6MWD, m 295 506 410 404 308
median (IQR) | (236-397) | (458-548) (340-480) (331-450) (226-385)
% with 69% 3% 28% 32% 65%
6MWD<350m

 

 

 

 

 

 

 
0.25 0.50 0.75 1.00

0.00

 

Patients stoppant leur traitement a 3 mois

= —___

 

T

0 20 40 60 80 100

analysis time

—— Groupe STD ——— Groupe Télé
Age (années)

Indice de Masse Corporelle (kg/m2)

AVAPS-AE (n:30)

62 [51 - 71]

46,8 [36,4 - 52,8]

ST (n:30)

60 [52 - 71]

41,6 [38,4 - 45,5]

Genre (masculin) | 15 (50%) 13 (43%)
Dyspnée (mMRC) | 2,3+1,4 2,0 + 1,1
PaO2 (kPa) | 8,9+1,5 8,6 + 1,4
PaCOQ2 (kPa) | 6,5 + 0,7 6,7 +0,7
pH 7,39 + 0,03 7,39 + 0,03
Bicarbonates (mmol/L) | 28,6 + 2,1 30,4 + 3,1
Score de somnolence d’Epworth (/24) | 9,4+5,9 8,.9+4,8
Index de qualité du sommeil de Pittsburgh (/21) | 7,8+4,2 99+49
Index Apnées-Hypopnées (/h) | 43,5 [28,1 - 78,0] 54 [24,7 - 82,5]
Temps passé avec une saturation 02 < 90% (%) | 78 [52 - 95] 35 [10 - 96]

VEMS (L) | 1,75 [1,56 - 2,35} 1,74 [1,23 - 2,35]

CVF (L) | 2,25 [1,84 - 3,06] 2,20 [1,55 - 2,72]

VEMS/CVF 80+7 80 +6
-Tabiteau-i: Effets secondaires-
Rougeur oculaire
Rhinorrhée
Sécheresse buccale
Raucité de la voix
Ballonnements gastriques
Douleurs liés au masque
Escarre(s)

Fuites notables
Dyspnée de déventilation
Perception d’asynchronismes patient-ventilateur

Tout grade
76 (17%)
137 (31%)
329 (75%)
74 (27%)
89 (20%)
377 (86%)
209 (48%)
267 (61%)
83 (19%)
75 (17%)
     
  

A- Scanner B- Conception assistee
. par ordinateur
> ; = Segmentation 3D des voies
—: aériennes
i ee, . Résolution virtuelle de la sténose
: a * Design de la prothése virtuelle

D- implantation C- Fabrication

? >

Implantation sous bronchoscopie

rigide de la prothése 3D .
parfaitement adaptée a l'anatomie du moule en Ertacetal puis de la
~< Y du patient prothése en silicone

 

Production

 
 

Sensibilité

 

AUC = 0.83

 

0,2

04 0.6
1-Spécificité

08

Score (points)

Score (risque)*, %
Sensibilité, %

Spécificité, %

Valeur prédictive positive, %
Valeur prédictive négative, %

Rapport de vraisemblance positive du test

Rapport de vraisemblance négative du test

Index de Youden

 

 
 

Tumeur endobronchique |

 

 

 

 

 

Résection
Tumorale +
TTT du pied
Carcinoide typique Carcinoide atypique

 

 

TDM
Haute résolution \ =
+ Echoendoscopie NN Lesion }

 

 

 

 

 

 

 

 

: Ss . Epargne parenchymateuse
Ou résection incomplete Marge résection >5mm
>| Curage médiastinal

 

extrabronchique : : se
yf nar Hie SY Résection chirurgicale

 

 

Lésion

 

 

endobronchique L ----~~ ae
stricte < 5cm?
centrale

t ; BS + TDM/6 mois : 2ans
= 1 Dendosconiqne puis 4 fois/an : 5 ans ++ Récidive |
Complémentaire

puis au Cas par cas

 

 

 

 

 

 

 

 

 
 

 

 

Variables Population globale Groupe ambulatoire Groupe hospitalisation valeur p
(n=213) (n=181)
Caractéristiques
Age (années) 317 30.8 36.5 p=0,0734
Sexe masculin (%) 773 76.8 844 p=0,3405
Taille (cm) 175.8 1759 175.8 p=0,9631
Poids (kg) 64.3 64.0 66.7 p=0,2044
Tabagisme (%) 72.6 74.4 62.5 p=0,1625
PSS (%) 13.6 12.2 219 p=0,1613
Coté droit (9%) 64.8 64.6 65.6 p=0,9144
ATCD pneumothorax (9%) 15.0 15.5 12.5 p=0,7935
Suivi
Utilisation de palier 3 (%) 14.6 i113 31.3 p=0,010
Complications (%) 14.6 11.0 34.4 p=0,002
Saignement (%) 24 17 63 p=0,165
Nombre de RX 46 38 55 p<0,0001
Succes J7 % [IC-95%] 79.3 [73.3-84.6] 79.0 [72.3-84.7] 81.3 [63.6-92.8] p=0,7725
Récidive a 1 an (5) 32.8 32.9 32.0 p=0,9267

 
 
   

PaCO, < 30 mmHg avec pH > 7,45
et D(A-a)O, de repos normale

Nijmegen 2 25

Temps de récupération de 90% de
la P.;CO, de base = 5 minutes
et/ou P-;CO, de base < 30mmHg

Symptémes déclenchés au cours
lV laa NV

Teta) et ventilation
anormale au cours du THV

Sensibilité %

Ny etetal ial < ied

Valeur prédictive
positive %

Valeur prédictive
st \ Bea
Inhalateurs

Diskus + Handihaler

Turbuhaler + Handihaler

Diskus + Handihaler

Turbuhaler + Handihaler

 
 

adifférence de variation du VEMS par rapport a l’inclusion (MMC), (mL) ;

‘patients présentant une augmentation de >100 ml par rapport aux valeurs initiales du VEMS résiduel ; ‘odds ratio
IC, Intervalle de confiance ; VEMS, Volume expiratoire forcé en 1 seconde ; N/A, Non Applicable ; ET, Ecart Type ;
ES, Erreur Standard ; TIO/OLO, tiotropium/olodaterol ; UMEC/VI, umeclidinium/vilanterol ; MMC, moyenne des
moindres carrés.
35%

30%

25%

20%

15%

0%

Répartition du résultat au CAT pour chaque
catégorie de mM

CAT CAT CAT CAT CAT CAT CAT CAT
O-4 59 10-14 15-19 20-24 25-29 30-34 35-39
—O—MMROO emMMRC] —G=mMRO2 —@emMRCS —OemMRCS

 

Répartition du résultat au DIRECT pour chaque
catégorie de MMR

DaECT RECT Deer DIRECT DIRECT DIRECT DIRECT DIRECT DIRECT
12-15 16-19 20-23 24-27) 28-3) 32-34

Se mMRCO —=mMRC1 —O=mMRC2 —eemMRCS —e=mMRC 4
 

 

 

 

 

 

DESCRIPTIF DES IP (N=17)

Optimisation du dispositif d’inhalation, N (%) 12 (70.6%)
Type d’inhalateur 5 (29.4%)
Nombre d’inhalateur 5 (29.4%)
Instauration d’une chambre d’inhalation 1 (5.9%)
Substitution par un systéme de nébulisation 1 (5.9%)

Optimisation pharmaco-thérapeutique, N (%) 5 (29.4%)
Redondance de classe pharmacologique 2 (11.8%)
Conciliation médicamenteuse a l’admission* 2 (11.8%)
Adaptation posologique 1 (5.9%)

*Processus formalisé interactif et pluri-professi |permettant de garantirla continuité des soins en

 

prenanten compte les traitements en cours et habituellement pris parle patient lors de l’élaboration
d’une nouvelle prescription au cours del’hospitalisation.

 
Evolution de la charge thérapeutique entre la visite
initiale et le suivi (moyennes globales)

40% 38% 37%
35%
30% 26%
25% 7 a
pone i 20%
15% 12% 119 9
10% n% 11% g%
= fil i
0%
A B Cc D E
Aucun 1BD long 2 BD long Association _Trithérapie
BD long (AC ou B2) (AC et B82) B2+Cl (AC+B2+Cl)

mFiche initiale m Fiche de suivi

Stabilité, Renforcement ou Diminution de la charge thérapeutique
entre la visite initiale et le suivi

E
fe Trithérapie
A 1BD long 2 BD long D (AC+B2+Cl)
Aucun (AC ou 82) (AC et B2) Association
BD long B2+Cl

Stabilité Stabilité Stabilité sea S
r (

KS 86% y she

  

 
 

 

 

 

2 Age Ss ‘ i ‘ Numéro ‘ aid
Patient (années) Sexe Indication Traitement | Effet indésirable du cycle Symptémes | ECG Paraclinique Source
= e Bloc de ibe Base
ae ne pulmonaire Dyspace branche ; yakinesis nationale de
1 72 Masculin aictartatiTue Nivolumab | aigu avec syndrome | 1 oon gauche avec ees, pharmaco-
* (cerveau, coronarien aign douleur Elévation ST apicale. élévation vigilance
thoracique antérieure troponine ie
Ond Base
Lymphome de Troubles de Oppression Gace en | Troponine aahonale de
2 53 Féminin . Nivolumab De 2 < 7 pharmaco-
Hodgkin repolarisation thoracique | D1, D2, normale viailance
aVL. ie aie
7 ‘ Elévation
Adénocarcinome 2 :
3 61 Masculin | pulmonaire Nivolumab | S¥#drome ul Dealewr Hoppaine, Tomita et al
‘ coronarien aigu thoracique occlusion artére 168]
métastatique coronaire droite
Elévation
Adénocarcinome Elévation troponi
4 60 Féminin | pulmonaire Nivolumab a a 1 . ST ypokinésie eo
métastatique eu 4 antérieure antéro-septo-

 

 

 

 

 

 

 

 

 

 

 

 
Best PL/SNIP

 

seuil (val abs cmH20) Se% Spe% VPP VPN LR+ LR-

69 40 100 100 66,7 +Inf 0,600
71 60 91.7 85.7 73,3 7,200 0.436
82 80 58,3 61,5 77.8 1,920 0.343

 

Le test est positif si best PL/SNIP < 4 la valeur seuil
Bas
?

Shunt estime (%) = -2,872 * TLCOc/VA + 21.5
RR? = 0,18; p = 0,004

©

Shunt estime (%)
3.8

 

 

oO

i U | t

0 2 4 6 8
TLOOc/VA, mLi(min-mmHa-L)
N  Décés Sous-groupe

 

 

 

299 20 65 ans 2 age <75 ans ‘ -eo—

128 10 Age>75ans' /-—_@——

31 4 Fumeur actuel 2 2S.

493 25 Ancien fumeur 2 t

180 19 CVF % ps 66,2° _—  —___—.

181 8 66,2 < CVF % p< 77,43 3 4o—

181 10 77,43 < CVF %p < 90,72 2 ;-e@———_

180 19. Dlco % p $ 37,8 4 ———

181 12 37,8 < Diogo % p $ 46,22 4 j-@

181 7 46,22 < DLco Mp < 55,11 4 4e——

147 14 5 <déclin de laCVF %p<10°5 |,-@——

109 12 Déclin de la CVF % p> 105 —————

33 10 Exacerbation -—__ o> ___
t t t t t t
0 5 10 15 20 25

Note: HR par rapport a la valeur de référence

1 : Comparativement a la valeur de référence, Age < 65

2 : Comparativement a la valeur de référence, Non-fumeur

3 : Comparativement a la valeur de référence, CVF % p > 91,05

4: Comparativement a la valeur de référence, DL ceo % p > 53,97

5 : Comparativement a la valeur de référence, Déclin de la CVF %p <5

HR

2.09
3.03

7.53
0.92

3.54
1.65
2.49

3.69

1.67

3.33
3.94

IC 95 %

1.00, 4.37
1.22, 7.51

2.21, 25.63
0.46, 1.85

1.23, 10.20
0.52, 5.23
0.84, 7.42

1.19, 11.40
0.83, 8.70
0.48, 5.82

1.56, 7.09
1.78, 8.70

3.5, 16.93
% de patients

Pourcentage estimé de patients atteints de PI non FPI développant une fibrose progressive*

50%
36%
ent a2 28% IN ig 28% es es g 2% 29% ome
25% N N 21% V \ \ 21% <a 21% Re abs ss
Ni GN BN PN EN FY) PS TS
N N N
N nwa N

 

PLPR PI-SeS Autres PLMS PINSi Pll inclassable PHS Pl sarcoide Autres PI non-FPI

@Pneumologue ORhumatologue @interniste OTotal

*La fibrose progressive a été définie comme une fibrose détectée par TDM-HR (a savoir, opacités réticulaires avec
bronchectasies de traction avec ou sans rayon de miel) qui était progressive en termes d’aggravation de la fonction pulmonaire
(CVF et/ou DL.) et/ou de symptémes respiratoires et/ou d’images thoraciques
 

 

 

 

 

 

 

 

Stade GAP Décés observés en
proportion des décés

Nombre de patients | ul Ml Total prédits
Nintédanib 150 mg 2 fois/jour 349 330 43 722

Décés prédits 19,5 53,5 16,9 89,9 46,7 %

Décés observés 11 27 4 42

Placebo 248 221 37 506

Décés prédits 13,9 35,8 14,5 64,2 63,9 %

Décés observés 8 24 9 41

 

 

 

 

 

 

 
Période randomisée en double

aveugle

Nintedanib 150 mg - 2 X/ jour

 

 

Période ouverte

Nintédanib 150 mg - 2 X/ jour

 

Screening
Placebo
Visite
O14 2 3 4 5 6 f 8 9 10
L__| | | | | | | | | | J
| I | T I I | I I I |
Semaine 0 4 8 12 16 20 24 36 52 56

R : randomisation
Nintédanib 150 mg - 2 X/ jour + sildenafil 20 mg - 3 X/ jour

 

Screening Suivi
Nintédanib 150 mg - 2 X/ jour + placebo

 

 

 

Visite 1 2 3 4 5 6 7 8
Il I | | | | | ]
I I T T T T T 1
Semaine 0 4 8 12 18 24 28

R- randomisation
Résultats du questionnaire aupres des médecins : principales raisons pour lesquelles les
patients atteints de PI-FP non-FPI ne recoivent pas de traitement

N’ont pas répondu a un traitement antérieur

 

 

Aucun traitement efficace disponible

 

Ont une pneumopathie au stade terminal

 

Incapables de tolérer le traitement

 

Une maladie légére ne nécessite pas de traitement

 

0% 10% 20% 30% 40% 50% 60%

@Pneumologue mRhumatologue
 

     

Taux d’événements indésirat

ales pour 100 patient-an

nées d'exposition

 

  
 
 

Population groupée
traitée par le

Essais INPULSIS

 

 

 

 

 

 

 

 

   

 

   

respiratoires supérieures

 

 

 

nintédanib eas oa a

(n=1 126) Nintédanib (n = 638) Placebo (n = 423)
Diarrhée 76,5 112.6 25.6
Nausées 18,0 34.9 7.0
Rhinopharyngite 15.1 19.6 22.0
Bronchite 14,5 155 15.0
13,2 16.1 16,2
ression de la FPI* 12.9 11.8 177
Vomissements 11:2 171 27
Infection des voies 10.1 124 13.3

 

de la FPI.

 

Les événements indésirables avec un taux > 10 pour 100 patient-années d'exposition dans la
population groupée sont présentés.
*Correspond au terme MedDRA « FPI », qui incluait 'aggravation de la maladie et les exacerbations
 

 

eS oe & 1
SNHOMOHOMONHD
a OPE SP

(Ww) OWL np
souuefow sinajeA sep
sioW 9g e sjuawebueYyD

=52)

Placebo (n

=55)

Nintédanib (n
Qu’est-ce qui vous motive a utiliser
Colibri-PID ?

aves cre _—= <1
d’avis 4 une DMD

Simplifier la demande
d’avis 4 un expert

84%
imho TE 77%
démarche diagnostique
Participer & la Recherche |
clinique rie

0% 20% 40% 60% 80% 100%

Qu'est-ce qui vous dissuade
d'utiliser Colibri-PID ?

Temps de saisie SN s+
Double-saisie (RN ix

0% 20% 40% 60% 80%

Diriez-vous que Colibri-PID améliore
votre pratique clinique ?

a
3%
=
Tout afait Beaucoup Unpeu Pas du tout

A quelle fréquence créez-vous des
fiches de suivi pour les patients dont
le diagnostic est validé ?

42%

FI

Souvent Parfois Jamais
 

J15
M2
M3

Observant
81%
79%
82%
78%

Observant mineur
18%
18%
18%
17%

Non observant
1%
3%
0%
5%
 

 

 

 

Groupe MUCO Groupe peviloc
{n-8) Canréle
(H=18)
Marche 4 vitesse moyenne:
- WO2 mitiale (ml) 274.9 (21104) HGS (£70,4) | LTH
- VO? amplitude (nL) 288.7 (276.6) | T8b9(H147) O89
= VO2 platew {mL} $63.6 (4161.7) | S674 (4109.5) | 1.822
- ‘Tau Tiphase I) (5) 32,1 (214.2) 20.7 (216.1) | O.044
> Woentilstion Minute (VE) (L‘min) 19.5 (25.9) 178 (2.8) 0.716
-  Fréquerce Respiratoire (opm) 19,7 (23,45 17 (21,0) 0.549
- ¥CO2 (iL) 489.2 (£177.5) | S183 (298.6) | 0.675
- VEVO. 3S, (21,29 24.5 (41.7) O27!
- WEWOO2 32,9 (32:3) 29.0 (£7.4) WOU
= Volume Courant (mL) J99.8 (4260.8) | 9492 (4146.15 IhGR9
-- Dyspede (Borg) 0.7 (HIG) 1.1 (20.9) th245
Reécuptraiaon mumbdiate :
= Tow? (réeopémtinn) {s) 124.4 343} At (31.2) 0.026
-  Deml-vie(s) BSH (223.8) | 563 (221.7) | 0.042

 

 

 

 

BELT: adstesconts arias muccvisciiose : YOR

VCOd : dingyde de carbine expere 5 p=D0S consid2té conutie sulinyuetceal significant

 eonsomimenvan d’oxypere : Tau: corsizme de romps ;

 
 

 

 

7 Référence Variation sur 12 mois,
Résultat " 7
moyenne (écart-type) moyenne des MC (écart-type)
. 72,6 (2,45) 8,5 (1,1)*
VEMS (%prédit)
n=99 n=91
IMC (kg/m?)? 21,92 (0,38) 0,99 (0,22)*
n=46 n=43
-0,42 (0,14) 0,29 (0,06)*
Z-score de I'IMC®
n=53 n=51

 

 

 

 

*P <0,0001. #age = 20 ans.

>&ge < 20 ans. MC: moindres carrés; n : nombre de patients.

 
 

 

 

 

 

 

 

 

 

 

 

 

 

 

 

 

 

 

 

 

 

 

Répondeurs ACT, n/N (%)
Tu FF/VI OR®
(N=1514) (N=1512) (95% Cl)
Symptémes de I’asthme dans la semaine précédente”

Population globale PEA

<2 questions, réponse ‘oui’ 48/73 (66) 57/80 (71) 1,38 (0,69-2,75)

22 questions, réponse ‘oui’ 736/1326 (56) 920/1293 (71) 2,04 (1,73-2,40)
CSI a l’inclusion

<2 questions, réponse ‘oui’ 24/35 (69) 20/28 (71) 1,20 (0,40-3,57)

22 questions, réponse ‘oui’ 235/419 (56) 304/412 (74) 2,23 (1,66—2,99)
CSI/LABA a l’inclusion

<2 questions, réponse ‘oui’ 23/37 (62) 37/52 (71) 1,53 (0,62-3,79)

22 questions, réponse ‘oui’ 488/879 (56) 600/856 (70) 1,97 (1,61-2,41)

Exacerbations sévéres dans les 12 mois précédents*

Population globale PEA

0 461/809 (57) 602/850 (71) 1,86 (1,52—2,29)

21 323/590 (55) 375/523 (72) 2,20 (1,71-2,84)
CSI a V’inclusion

0 182/324 (56) 242/326 (74) 2,25 (1,61-3,14)

21 77/130 (59) 82/114 (72) 1,83 (1,06-3,15)
CSI/BALA a l’inclusion

0 270/469 (58) 350/507 (69) 1,71 (1,31-2,23)

21 241/447 (54) 287/401 (72) 2,26 (1,69-3,03)

 

 

 

 

 

“Pour la population globale PEA, les ORs ont été calculés en utilisant la régression logistique ajustée pour le
traitement randomisé, sous-groupe (symptémes d'asthme la semaine précédente ou exacerbations [0
versus 21]}) l'année précédente, traitement de fond de I'asthme a l’inclusion par stratification aléatoire,
score total ACT &l’inclusion, ACT au carré, sexe, age et interaction randomisée du traitement par sous-
groupe. Pour les sous-groupes CSI et CSI / BALA, les ORs ont été calculés en utilisant la régression logistique
ajustée pour le traitement randomisé, sous-groupe (symptdmes d'asthme la semaine précédente ou
exacerbations [0 versus 21] l'année précédente), score total ACT a |’inclusion, score total ACT a!’inclusion
au Carré, sexe, age et interaction randomisée du traitement par sous-groupe; t Symptomes d’asthme de la
semaine précédente sur la base du rappel des patients a l'inclusion (randomisation) et définis comme des
symptomes diurnes plus de deux fois par semaine, béta2-agoniste bronchodilatateur a action courte utilisés
plus de deux fois par semaine, toute limitation des activités dues aux symptomes de l'asthme la semaine
précédente, ou tous symptémes nocturnes / réveils de la semaine précédente; + Les exacerbations sévéres
sont définies comme toute aggravation des symptémes respiratoires traités par des corticostéroides
systémiques, des antibiotiques ou conduisant a une hospitalisation.

 

 
Tableau — Description des patients asthmatiques sévéres selon le type de traitement de fond

 

Biothérapie avec

 

 

 

 

 

 

 

 

 

 

 

 

 

 

 

 

 

 

ou sans Corticothérapie Teens
corticothérapie orale =
aul uniquement
Patients : nombre (%) 231 (31,4) 72 (9,8) 433 (58,8)
Corticothérapie orale : nombre (%) 11 (4,8) 1 (1,4) Sans objet
Corticothérapie orale : dose moyenne (ET) 15,6 (10,9) 16,2 (11,4) Sans objet
Traitements inhalés * 212 (91,7) 71 (98,6) 433 (100,0)
Age : moyenne (ET) 48,9 (15,9) 54,3 (14,7) 48,0 (16,9)
Poids : moyenne (ET) 73,8 (13,7) 76,8 (17,4) 71,6 (15,0)
Patients non contrélés (ACT<20) : nombre (%) 205 (88,7) 65 (90,3) 408 (94,2)
Asthme allergique : nombre (%) 172 (74,5) 32 (44,4) 297 (68,6)

Eosinophilie au sence : moyenne (ET) / 408 (285) 331 (301) 362 (249)

Patients T2 (éosinophiles > 300 / mm? avant
traitement) = nb/nb de patients avec 118/ 192 (61,5) 26/61 (42,6) 171/291 (58,7)

éosinophiles disponibles (%)

Exacerbation ES esas : moyenne 22(2,9) 2,7 (1,9) 1,8 (1,5)
me, re — : 0,6 (0,9) 1,1 (1,1) 0,6 (0,9)
Passage en réanimation : nombre (%) 53 (23,0) 39 (54,2) 63 (14,5)

Education thérapeutique : nombre (%) 92 (39,8) 38 (52,8) 105 (24,2)

 

ACT : Asthma control test, ET : écart-type

* association de corticoide inhalé / B2-mimétique a longue durée k'action
7%

 

 

M@ Hemoptysie

BM AEG

“ Toux
chronique
 
GO Nintedanib OPlacebo

Perte de poids
>10%

n=71  n=28

 

 

 

 

Pas de perte de Perte de poids Perte de poids
poids >0% 455% >5% 4 210%
n=191 n=192 n=218 n=146 n=155 n=55
na T T
w
Se
os
=e
Bn -111,2 -90,3
gs
22
. 3 -250 -199,9 -200,9
2 m 300 4
23 3504 aa
3 -400
re aso 4
500
Différence: Différence: Différence:

61,2 mL/an 89,7 mL/an 173,1 mL/an
(IC 95% 4,7, 117.7) (IC 95% 35,8, 43,5) (IC 95% 91,0, 255.3)

P-value d'interaction pour le traitement par sous-oroupe selon le lamps = 0.0017

-115,1

 

-404,5
Différence:

289,1 mL/an
(IC 95% 139.1, 439,7)
iy Gy Ww & & GE) & &)

c Ww UBS Www Oo GO

vn Oo Mm Oo TN OH F ©

_ — '

(anbi09y} eB] ep %) SAD B] OP yeas juswebueyD

D 8,

RS

©

 

p= 0.001

-12

-14

-16

 

p= 0.25

 

p = 0.009
Années

 

 

 

T T T T T
2 0 © t oy
= oo a) oo o

uoIssaidoid ap ayiqeqoid
PAPm (mmbhg)

100

80

60

40

20

 

 

y = 2,19x - 0,42
——TO Non Exposé

y = 1,98x - 10,66
——T1 Non Exposé

2

 

 

 

 

>
- A
a ah
an “La
2,5 3 3,5

Index cardiaque (Lmin-'.m)

y = 2,15x - 0,55 y= 1,64x - 4,92
———TOExposé ——T1 Exposé
 

 

 

100 -

SIAINS ap %

Mois
Prévalence des PPP : N (%)

4 an avant 5 ans avant

Sarcoidose

Intervention

Facteurs associés

  

BPCO:
TB : Tuberculose

MNT : Mycabactérie non tuberculause
IRC : Insuffisance respiratoire chronique
Erreur au cours

 

 

Erreurs a Erreurs a la
admission ae sortie
Phospitalisation

Type d’erreurs N (%) N (%) N (%)
Posologies
inadéquates 20 (40,8) 3 (17,6) T (22,6)
Vore/administration 12 (24,5) 8 (47,1) 9 (29,0)
inappropniée
Indication non traitée
ou médicament non 6 (12,2) 3 (17,6) 2 (6,5)
indiqué
Traitement non regu 11 (22,4) 1 (5,9) 8 (25,8)
Autre (contre-
indication, effet
indésirable, 0 (0) 2 (11,8) 5 (16,1)
interaction, Suivi
thérapeutique)
Erreurs concernant N (%) N (%) N (%)
les médicaments a 19 (38,8) 5 (29,4) 9 (29.0)

visée respiratoire

 
 

 

 

 

 

 

 

 

Total 2 3 flacons de B2-CDA | < 3 flacons de B2-CDA Valeur de p
par an par an
Nb d’asthmatiques 993 281 712
Proportion 28,3 % 71,7%
Score ACQ-6 dans les 4 derniéres semaines, proportion d’asthmatiques
n=969 n=272 n=697
ACQ-6 $0,75 52,3 % 25,3 % 62,9 % p<0,001
ACQ-6 ]0,75-1,5] 24,6 % 25,7 % 24,2 % NS
ACQ-6 >1,5 23,1% 49,0 % 12,0% p< 0,001
Evénements dans la derniére année, proportion d’asthmatiques
2 1 exacerbation* 47,6 % 65,6% 40,5 % p< 0,001
2 1 visite en urgence 14,3 % 25,0% 10,0 % p<0,001
2 1 hospitalisation 3,1% 6,9% 1,6 % P<0,001

 

 

* Défini comme des épisodes/périodes ot les symptdmes (toux, crachats, essoufflements) étaient pires que d’habitude pendant plusieurs jours.

 
VEMS (% a Pinclusion)

90-
85 -
80-
757
70-
65 +
60-

 

 

 

55

Durée du suivi (années)

— <150 cells/uL
---- 2150, <300 cells/uL
—_— 2300 cells/uL
 

 
       

   

    

   

 

  

 

 

 

 

Les années

 

 

 

Ait
iM)
ny
NIN
LN
VN
ve
: i)
NE
NA |
| NG
: Nh
Ki

La fréquence des
exacerbations
 
       
     
     
   
       
 

PMz,5, 5 ug.m>
Modéle multivarié (n=130 694)
Chez non fumeurs (n=61 769)} 1,03 [0,99-1,08]
Chez les moins de 45 ans (n =57 152) [0,975—-1,05]
Chez les plus de 45 ans (n=73 542) [1,02 - 1,10]

1,04 [1,01-1,07] 0,02 0,03

    
 

Modéle multivarié (n=130 694)
Chez non fumeurs (n=61 769) [0,994-1,07]
Chez les moins de 45 ans (n =57 152) [0,991 — 1,06]

Chez les plus de 45 ans (n=73 542) [1,01 - 1,09]

[1,01 - 1,06]

  
 
Niveau d’activité physique

 

Jamais Occasionnelle Réguliére Fréquente/Compétition

 

Patients atteints de SAHOS 67 (45%) 51 (34%) 26 (18%) 4 (3%)

 

 

 

 

 

Population totale 440 (32%) 528 (38%) 323 (23%) 99 (7%)

 

 
Survival Probability

 

 

 

10 ASRS Sa a A em meee : 104
a8 a8 r
2 “af
5
08 § oe-
o
e
i
a4: 3 aa.
z
>
7]
a2 a2)
+ Censored + Censored
0.0. Legrank p0.0051 og Logrank p=0.0039
a 20 40 a eo 100 o 20 40 a a0 1c0

 

3 months, Death or 3 months, Death from any cause, unplanned hospitalization for any cause
Tableau 1 : Résumé de la réduction de 0,5 points ou plus du score a l‘ACQ-7 et a l‘ACQ-5 par rapport au score a I’inclusion (Partie B)

 

Nombre (%) de sujet
Mépo SC 40 mg Mépo SC 100 mg Mépo SC 40/100 mg*
(Poids <40 kg) (Poids 240 kg)
(N=16) (N=10) (N=4)
ACQ-7
Visite 12 (Semaine 32) 10/15 (67) 3/10 (30) 2/4 (50)
Visite 15 (Semaine 44) 7/15 (47) 4/10 (40) 2/3 (67)
Visite 18 (Semaine 56) 10/15 (67) 6/10 (60) 3/4 (75)
Visite 21 (Semaine 68) 11/15 (73) 4/10 (40) 3/4 (75)
Visite de fin d’étude (Semaine 72) 9/15 (60) 4/10 (40) 3/4 (75)
Visite de Suivi (Semaine 80) 9/12 (75) 3/9 (33) 0/2
ACQ-5
Visite 12 (Semaine 32) 11/15 (73) 4/10 (40) 2/4 (50)
Visite 15 (Semaine 44) 8/15 (53) 4/10 (40) 2/3 (67)
Visite 18 (Semaine 56) 11/15 (73) 6/10 (60) 3/4 (75)
Visite 21 (Semaine 68) 11/15 (73) 5/10 (50) 3/4 (75)
Visite de fin d’étude (Semaine 72) 9/15 (60) 4/10 (40) 4/4 (100)
aa de suivi (Semaine 80) 8/12 (67) 3/9 (33) 0/2
: la valeur de référence est définie comme la derniére valeur istré tla d la partie A

a le temps est affiché en tant que temps de la partie B (nombre amulet de semaines depuis la premiére dose de la partie A)

1. Sujets inscrits a < 40kg 4 la visite 9 sont résumés dans le groupe 40/100mg SC s’ils avaient un poids 240 kg a toute visite ultérieure.

ACQ-5 = Asthma control questionnaire-5; ACQ-7 = Asthma control questionnaire-7

Mépo SC
(N=30)

15/29 (52)
13/28 (46)
19/29 (66)
18/29 (62)
16/29 (55)
12/23 (52)

17/29 (59)
14/28 (50)
20/29 (69)
19/29 (66)
17/29 (59)
11/23 (48)
 

Typologie

 

Groupe 1 : Patients ayant
adhéré aux traceurs
d’activité connectés et
ayant été motivés a
marcher davantage

- Accorde une importance aux résultats chiffrés
-Volonté de tenir un historique, surveiller sa
moyenne, atteindre son objectif ou battre record
-Intérét dans |’informatique et les technologies

 

Groupe 2 : Patients n’ayant
pas adhéré aux traceurs
d’activité connectés et
n’ayant pas été motivés a
marcher davantage

-Accorde une plus grande importance aux signes
cliniques

-Habitudes de vie ou routine ancrée

-Pathologies autres impactant la marche ou
l'utilisation des traceurs d’activité : rhumatologiques,
ophtalmologiques, neurologiques...

-Peu ou pas d’intérét dans les nouvelles technologies

 

 

Groupe 3 : Patients
amoindris physiquement

 

Ont la motivation de pratiquer de I’activité physique,
mais pas la capacité de la réaliser

 

 
Overall survival (75)

 

 

 

 

 

 

 

 

100 te Median OS
The ee, <3 mo: 13.1 months [95%Cl: 11.2-18.4]
ant *, Te 3-6 mo: Not reached [95%CI: 19.9-WA]
- , el 26 mo: Not reached [95%Cl: NAW A]
he a +s
60 . rare
- “4 po =0.005
1b
40 . {Logranktest)
20 -
0 ‘ | 1 I 1 | 1 | \ I
0 5 12 18 24 30
. Time since start of 10 rechallenge (months)
Patients at risk
210 129 70 38 8 <3 mo
94 58 27 14 - 3-6 mo

86 38 2 - - “6 mo
 

 

 

 

 

 

 

BRAFV600E |BRAFnonV600E] — HERZ MET RET
n=26 n=18 n=23 n=30 n=9

Taux de réponse 26% 33% 27% 38% 38%

Durée médiane | 5 711.7-81) | 31492) | 38(is-7.7) | 33(24-7.71 | 41[0-15)

de traitement

ssP 4[1.9-9.2] | 5.4(18-12.9) | 2.2[1.7-7.3]) | 3[18-7.3) | 7.4[0.1-16.2]

SG 22.1(7.5-26] | 11.4[5.4-20.3] | 20.1 [8.3-29.6] | 13.1[6.7-18.4] | 7.4 [0.2-NA]

 

 

 

 

 

 

 
 

au scanner
sont la moyenne + type oun avec
au moins une dose du médicament a l'essai.

* Les catégories indiquées sont celles fournies en tant qu'options du cahier d'observation.
+ Tel que rapporté par l'investigateur sur le cahier d'observation; 1 catégorie pouvait
étre cochée.

+ Répondre aux critéres A, B et C, Aet C ou B et C comme suit: (A) présence certaine
dune destruction en rayon de miel avec prédominance basale et périphérique; (B)
Présence d'anomalies réticulaires et de bronchectasies de traction compatibles avec une
fibrose avec prédominance basale et périphérique; (C) Absence de caractéristiques
atypiques, en particulier nodules et condensations. Si des opacités en verre dépoli sont
présentes, elles devaient étre moins étendues que les opacités réticulaires.

   
Asiatique
Noir/Afro-Américain
Région

urope
US et Canada
Asi

ie
Reste du monde

ATI status
Positif
Négatif

ScS sous type
Cutanée diffuse
Cutanée limitée

Traité par mycophenolate
Non

Oui

Nintedanib Placebo

 

Ditference ajustee
du taux de déclin
de la CVF sur 52

semaines (IC 95%)

34,6 (-9,3, 78,4)
58,6 (-18,0, 135,1)

44,4 (1,4, 87,4)
28,1 (-54,2, 110,4)

45,8 (-0,83, 92,5)
44,5 (-32,9, 121,9)
-20,4 (176.7, 136,0)

397 (-16,6, 95,9)

3 (65,6, 86,1)
acard 123.8)
178,4 (28,1, 328,7)

29,9 (19,1, 78,8)
57,2 (-3,5, 118,0)

56,6 (3,2, 110,0)
25,3 (-28,9, 79,6)

55,4 (2,3, 108,5)
26,3 (-27.9, 80,6)

 

analysés
220 212 Hi@H
67 76 ++—e—
224 229 a
63 59 “+e
200 186 +-@—
62 81 —}—#—
20 16 ——
139 126 He
69 73 —e—
59 71 -+—e—
20 18 oo
173 177 ten
114 111 [—e—
153 146 /+-—e—
134 142 Hen
149 148 }-—e—
138 140 ew
-400 -300 -200 -100 0 100 200 300
En faveur du placebo En faveur de nintédanib

400

P pour interactior

= traitement et
sous-groupes en

fonction du temps

0,59
 

 

FPI (N=25)?

PID non-FPI (N=13)°

 

Age moyen (ET), années

 

 

 

 

 

70,7 (5,6) 62,8 (8,5)
Homme, n (%) 17 (68,0) 8 (61,5)
Pourcentage moyen (ET) de CVF prédite 85,2 (14,1) 77,5 (19,9)
TM6, moyenne, m (ET)! 468,0 (86,8) 378,1 (100,7)
Toux moyenne, EVA (ET) 29,5 (21,9) 26,8 (21,2)
Fatigue moyenne, EVA (ET) 37,3 (23,7) 39,0 (24,1)

 

 

 

215 patients (centres généralistes) et 10 patients (centres spécialisés).
8 patients (centres généralistes) et 5 patients (centres spécialisés).
cMesuré a I'hépital par spirométrie;

SEvalué chez 23 patients FPI et 11 patients PID non-FPI.

EVA : échelle visuelle analogique ; ET : écart type
 

Pathologie initiale

Trouble ventilatoire

 

Opacités

 

Stade CLAD

 

Type CLAD

 

 
100 -

757

507

297

 

 

24

48

72

96

120 144 168 192 216 240
Months
cardiopulmonary

double lung

 

 

 

 

 

 

 

 

 

 

 

 

 

 

 

 

 

 

 

 

 

 

 

 

 

 

 

 

 

 

 

transplant, n=15 transplant, n=6 P
before transplantation
Female gender, n (%) 10 (67%) 6 (100%) 1
Time on waiting list, day , mean [sd) 11.6 (414.9) | 13.3 (412.6) 0.61
ayopneascateny 2(13%) 4(67%) 0.031
me 4 13 (87%) 2 (33%) .
isolate ASD+PAH | 7 (50%) 6 (100%) 0.051
Pathology, n (%) complex cardiac
malformation 7 (50%) 0 (0%)
Cardiac index, L/min/m2 , mean (sd) 2.86 (41.01) | 3.41 (41.88) 0.8
Mean pulmonary arterial pressure, mmlg, mean (sd) 71.6 (424.9) | 76.8 (+22.0) 0.56
Pulmonary capillary pressure , mmHg, mean (sd) 9.00 (45.50) 6.00 (+4.36) 0.5
Right atrial pressure, mmllg, mean (sd) 8.30 (45.79) | 6.00 (+3.56) 0.57
6 minutes walking test, meter, mean (sd) 366 (475.1) | 416 (+85.4) 0.48
Pre transplant ECMO, n (%) 1 (11%) 1 (17%) 1
after transplantation
CMV donor + / recipient -, n (94) 3 (30%) 3 (50%) 0.61
Age at tranplant, mean (sd) 37.3 (410.3) 30.5 (410.2) 0.18
Emergency transplant, n (94) 7 (47%) 3 (50%) 1
Extracorporal circulation, minute , mean (sd) 214 (444.8) 190 (+0) 0.58
UCI stay, day, mean (sd) 18.0 (414.7) 16.2 (+6.97) 0.93
Primary graft dysfunction grade III , n (%) 4(31%) 3 (50%) 0.62
Post transplant ECMO, n (5) 2 (14%) 5 (83%) <0.01
Post transplant ECMO duration, days , mean (sd) 0.714 (+2.16| 5.00 (+3.63) <0.01
Ventilation time, days, mean (sd) 11.4 (412.8) | 11.5 (46.25) 0.41
Tracheotomy, n (9%) 3 (21%) 2 (33%) 0.61
Dialysis in ICU, days , n (96) 6 (43%) 0 (0%) 0.11
Hemothorax, n (%) 5 (36%) 0 (0%) 0.26
CLAD,n (95) 2 (15%) 0 (0%) 1

 
 

Kaplan-Meier survival estimates from the date of listing according to transplantation occurrence

Rates of survival estimates were 53%, 43%,

 

100 and 36% and 83%, 72%, and 62% at 1, 3.and 5
years in children transplanted before or after
2006 respectively, logrank P = 0.04
75
50
25
0 =
Le . . . . . .

 

U 46 96 144 192 249 256 336 344
Months

insorption2OOG = 1 |

 

insoniptionZ006 = 0
Nacl

 

 

Respimer
4 semaines 8 semaines 4semaines 8 semaines
Score global QoL -9,1+11,3** -11,7413,1*** 0,9+16,2 -3,9+15,3
Symptomes rhinologiques -3,743,8***t = -4,444,3***+ 0,3+5,2 -1,1+4,9
-0,8+1,4*t -0,8+1,6 0,5+1,5 0,3+1,4

 

Toux
Moyenne + écart-type, * p<0.05, **P<0.01 et ***p<0.001 vs baseline ; t p<0.05 différence intergroupe
   

 

 

 

 

 

 

 

 

 

 

 

 

 

 

 

 

 

 

 

 

 

 

 

 

Total population Nasal HFOT Tracheostomy
(n = 71) (n = 43) HFOT
(n = 28)
Patients characteristics |
—  Age(year) 67(55.5-735) |. 7048144 [3 55.0+15.1 |
Gender (male) (n (%)) 52 (73,1) 36 (83.7) 17 (60.7)
BMI (kg/m2) (n = 71) 24 [21,6 - 27,2] 25.4 $4.8 24.2 +5.9
Tobacco (Pack-years) (n = 71) 28 [0 - 40] 30.8 + 29.7 22.0 +23.6
Previously established on home 29 (40,8) 12 (28%) 19 (68%)
mechanical ventilation (n, (%))
Lung function tests
FEV1 (L) (n = 42) 2 [0.8 - 2.3] 1.9408 | 1.2+0.7
as FEV1 (%) (n = 46) 52 (73,1) 6884276 | 35.0201 |
FVC (L) (n = 43) 2 [1.2 - 3.0] 2.3411 1.9+1.0
FVC (%) (n = 46) 65 [47.5 — 82.6] 76.0 + 23.0 45.2 + 26.6
FEV1 / FCV (n = 43) 75 [60.6 - 80.0] 69.9 + 17.6 65.8 + 20.8
TLC (L) (n = 38) 5 [4.2 - 6.8] 5.6+1.9 5.1+2.1
TLC (%) (n= 40) a9 (74.8-109.3] | 91.0425.1 | 9154380
KCO (%) (n = 24) 58 [39.0 - 71] 54.2 [30.4 - 73.03] | 67.4 [50.5 - 100.3]
Echocardiography i
TRV (m/sec) (n = 28) 3 [2.8 - 3.8] 3.6 0.6 erties
scinc PASP (mmHg) (n=25) | 62(46.0-77.0] | 59.7418.63 | 41.4413.99
eee LVEF (%)(n=24) | 55(47.8-600) | 56.1108 52.1293
Arterial blood gas on HFOT during
inpatient stay
pH (n = 44) 7.44 [7.42 - 7.48] 7.45 + 0.05 7.46 + 0.04
PaCO; (kPa) (n = 44) 5.56 [4.90 - 6.50] 5.78 £1.41 6.11 + 1.40
PaO? (kPa) (n = 44) 9.60 [8.80 - 10.60] 9.3041.31 11.23 + 5.00
Bicarbonate (mmol/L) (n = 44) 29.6 [25.9 - 34.9] 29.96 + 6.66 32.17 + 7.36
24.7 £11.2 32.4 +12

 
Femmes (%)

Age en années au suivi (moyenne + écart-type)

Asthme vie (%)
Conjonctivite allergique vie (%)
Eczéma vie (%)

Age de début de la rhinite en année (moyenne + écart-type)

Persistance des symptémes (%)
Traitement pour la rhinite (%)
Aucun

Antihistaminique oral seul
Corticoide intranasal seul

Les deux

Sympt6mes déclarés (%)
Rhinorrhée
Congestion/obstruction nasale
Prurit nasal

Eternuements

Symptémes oculaires associés
Sévérité des symptémes définition ARIA (%)
Rhinite légére

Rhinite modérée/sévére
Déclencheurs déclarés (%)
Acariens ou poussiéres de maison
Animaux

Pollution atmosphérique
Changement de temps

Tabac

Pollens

Air froid

Autre(s)

Ne sait pas

RNA actuelle (n=2 008) RA actuelle (n=6 157)

(n=1 967)
(n=1 805)
(n=1 838)
(n=1 195)
(n=1924)
(n=1 922)

(n=1 823)
(n=1 794)
(n=1 703)
(n=1 786)
(n=1 747)
(n=1 596)

55,1
52,4 +13,3
6,51
18,9
25,3
35,0417,6
25,4

75,2
4,58
14,9
5,31

59,2
61,9
37,9
51,0
34,1

74,5
25,5

8,81
59)
11,4
Dell
00
9,06
28,1
12,0
50,5

(n=6 036)
(n=5 894)
(n=5 421)
(n=2 998)
(n=5 889)
(n=5 949)

(n=5 710)
(n=5 552)
(n=5 439)
(n=5 677)
(n=5 672)
(n=5 008)

57,5
51,7 +12,8
23,7
46,3
59,8
24,7 £15,5
31,4

35,6
20,9
12,7
30,9

74,3
75,7
66,1
75,0
67,6

58,2
41,8

32,7
11,4
26,4
Ont
6,11
50,3
24,5
12,8
2/,9

P
0,07
0,04
<10*
<10*
<107%
<107%
<10%
<107

<10¢
<10*
<10*
<10*
<107
<10%

<10*
<107
<10*
<10¢
0,0003
<10¢
0,001

<104
BSI
IC 95%
Age . 0.45-0.97
Sexe Fé 0.22-2.48
Tabagisme . 0.32-5.39
Comorbidités . 0.24-6.92
Asthme 7 1.75-17.89

 

 

 

 

 

 

 

 

 

 

 

 

 
IPs imputées a la TCO

N (%)

 

Interactions
Antiacides, IPP
Phytothérapie
Hypolipémiants

Autres médicaments

74 (49,7)
28 (18,8)
26 (17,4)
4 (2,7)
16 (10,7)

 

Gestion des effets indésirables

20 (13,4)

 

Suivi therapeutique (dosages)

8 (5,4)

 

Voies / administration inappropriée

3 (2,0)

 

Posologies inadéquates

3 (2,0)

 

Autres (contre-indication, traitement non
indiqué ou non recu)

 

7 (4,7)

 
Evolution de l’activite physique...
Nombre de pas moyen/jour

12 000

11000

10000 Moy. pendant challenge: 9 742 pas/jour (*) \

9000 V \

 

 

 

 

 

 

 

 

8000
- 2
Moy. avant challenge: 6 962 pas/jour (*) °
7 000 WZ CIs S &
s g 2
6000 6 2 z o
3 a = a ¥
2 & oa o> c
@ 2 = gg =
5000 a °o a o re
>. re — ——— — nr
17 janv. 22 janv. 27 janv. 1 févr. 6 févr. 11 févr. 16 févr.
(*) moy globale des moy ns icipant sur la durée de la périod idérée (peut étre aiftérente de la moy 4

 

).
 

+++ IRC et soins de support

— IRC et traitement actif

*** Absence d'IRC et

soins de support

 

 

 

 

—- Absence d'IRC et traitement actif

 

 

 

 

 

 

 

  

ad
ecbecsocecoe?

seeeeee

 

eeeeteeee

ree eeee

 

 

 

 

s 3 §&

@IUNs ap aFeqUaDINOg

10+

Temps (années)

IRC: Insuffisants Respiratoires Chroniques
Chan (1996)
Gawenda (1996)
Valentine (1998)

Katz (1999)
Catalano (2005)
El Sakka (2005)

Blochle (2008)
Truijers (2009)
Tan (2010)
Harthun (2011)
Kasirajan (2012)
Shoji (2013)
Nicolajsen (2015)
Mazzei (2017)
Overall

0.0

 

 

 

 

Proportion LCI UCI Weight
0.027 0014 0044 3.1%
0.007 0.004 0011 154%
es 0.102 0.066 0.146 1.6%
0.000 0.000 0003 43%
0.021 0.010 0036 33%
k = 0204 0.101 0.330 0.3%
0.068 0.054 0084 76%
a 0.192 0.060 0370 02%
0.006 0.000 0.024 1.3%
+———_{ 0054 0021 0.101 0.9%
0.025 0.008 0.049 1.7%
0.027 0015 0.041 44%
0043 0.038 0047 546%
0.050 0.022 0.087 1.3%
0.033 0.030 0.036 100.0%

 

0.1

0.2

0.3

04

 
i De, Eres INI ALA

   

PIKBCA___—ROSL—_g 0% 0% 2%
436 mer O% “
A
pea
KRAS
22%

27%

RAF

39g = ALK

= BRAF

= EGFR
FWT

= HER2

= INDET

= KRAS

= MET

= PIK3BCA

=» ROS1

mSTK1L

mMAP2K1

mERB4
iaite ds calves
Cyloplasme abondaat
ASPEC des mayaux
présence de mitoses
tallies on bagee 4 chston
KT

cxeo

TTFI

chromagraning A
synaptoohysing

co56

Pad

HIG? (06 shes cetluing iumorgics)
PDLt EtL3N)

ALK fdore 5A4)

didgnastic distuté

T
moyenne & grande

naa
volumineux, 4 chiremnatine fing
quelques
aul
e+
négatit
négalit
oe
+++
ret
negalit
20-30%
néyatit

Vive POST
CNE a GC og cartinalde atypque

2
celules fusifornes
madésdrment
ovalaire d cheomatine Ene

pou

nad

++4

négalif

+

+44
++

fon rbaligd (NAY
19-20%
NR

vive posal:
CNE & GO ou cartinaida

Ss.

moyenne

modértrnent
vung
NomDreuses

oui

négatd
NR
err

*
+

nogatd

nagal

50%
MR

+e

-CNE de haut grade aves contingent 4 GC
 

plume
Y
5 °4

3.04

Pression

[KPA]
r 10

 

 

 

 
 

 

 

 

 

 

Facteur de risque d' HTP n
HTAP dugroupe 1 8 (42.1%)
Cardiopathie congeénitale 1
Hypertension portale 2
Prise d'anorexigene 2
§Sc / connectivite 3
HTP du groupe 2 2 (10.596)
Cardiopathie gauche 2
HTP du groupe 3 9 (47.3%)
PID fibrosante
BPCO 1
HTP du groupe 4 2 (10.5%)
MTEV 2
HTP du groupe 5 3 (15.796)
Sarcoidose 1
Polyangeéite microsco pique 1
Drépanocytose 1
 

 

 

 

 

 

 

 

 

 

CHU CH Libéral
PHS 4,3% 4,5% 3,9%
PID Médicamenteuse 4,9% 4,8% 3,2%
PID infectieuse 1,2% 0,3% 1,0%
Professionnelle 2,2% 2,8% 3,2%
Autre PID de cause connue 1,3% 0,8% 1,2%
Connectivite 11,5% 4,3% 6,7%
Vascularites 1,2% 0,3% 0,2%
Sarcoidose 9,2% 81% 9,9%
Autre granulomatose 0,9% 0,0% 0,7%
Histiocytose X 0,9% 2,3% 2,5%
Autre PID de causes autres 2,7% 2,0% 1,7%
FPI 26,3% 28,5% 21,2%
POC 2,3% 2,3% 2,7%
PINS 2,3% 6,1% 5,9%
Syndrome emphyséme-fibrose 1,8% 1,5% 1,5%
DIP 0,5% 1,5% 0,7%
Autre Pl idiopathique 1,2% 1,8% 1,5%
Pl inclassable 9.6% 15,7% 17,7%
Plusieurs diagnostics retenus 9,0% 10,4% 8,9%
Autre diagnostic 3,6% 1,8% 1,7%
Absence de PID 3,1% 0,5% 3,9%
TOTAL 100% 100% 100%

 

 
Duree d’endurance (sec)

660-

6004

540-4

480"

4205

3607]

3007

24074

18075

 

3113.5

366.5

 

 

4L02
Condition du test

T
AIRVO.
[ eitorekantids PID idiopathique Connectivite IPAF
n=134 n=53 n=49 Lite

Epidémiologie
Age (an)

Sexe
Tabac (PA)

CYC en lere ligne, n (%)
Hospitalisation en
réanimation, n (%)
Comorbidités

BPCO, n (%)
Cardiopathie, n (%)
Diabéte, n (%)
Fonction respiratoire
CVF (L)

CVF (% théorique)
DLCO (% théorique)
Oxygénothérapie, n (%)
Pattern TDM

PIC, n (%)

PINS, n (%)

PO, n (%)
PINS/PO, n (%)
PIA, n (%)

PHS, n(%)

Perdu de vue, n (%)
Décés, n (%)
Transplantation, n (%)
Médiane de survie (mois)

64,0

56F/80H
16

78 (58,0)

28 (20,9)

6 (4,5)
57 (43,0)
42 (31,3)

1,87
61,5
35,9

53 (39,6)

32 (23,9)

67 (50,0)
2 (1,5)
14 (10,4)
4 (3,0)
10 (7,5)
5 (3,7)

13 (9,7)
58 (43,3)
8 (6,0)
16

66,6

8F/47H
25

25 (47,0)

18 (34,0)

2 (3,8)
25 (47,0)
9 (17,0)

1,91
57,5
35,8

27 (51,0)

22 (41,5)

21 (39,6)

1 (1,9)

2 (3,8)

4(7,5)

0 (0)

1 PPFE, 2 inclassables (5,7)

3 (5,7)
35 (66,0)
5 (9,4)
11

60,0

32F/17H
9

35 (71,0)

7 (14,3)

2 (4,1)
20 (41,0)
21 (43,0)

1,83
61,6
39,9

16 (33,0)

7 (14,3)

28 (57,1)

1 (2,0)

11 (22,5)

0 (0)

0 (0)

2 inclassables (4,1)

5 (10,2)
15 (30,6)
2 (4,1)
29

64,3 67,5
7F/10H  9F/6H
17 10
10
(59,0) 8 (53,0)
1(5,9) 2(13,3)
2(118) 0 (0)
2(11,8) 10 (66,7)
2 (11,8) 10 (66,7)
185 1,895
62,7 69,6
28,3 34,5
3(17,6) 7 (46,7)
3 (17,6) 0(0)
13
(76,5) 5 (33,3)
0 (0) 0 (0)
1 (5,9) 0 (0)
0 (0) 0 (0)
0(0) 10 (66,7)
0 (0) 0 (0)
1(5,9) 4(26,7)
6 (35,3) 2 (13,3)
1 (5,9) 0 (0)
16 7
     
      

(n=2650) 7,8 (0,14) 8,5 (0,14)

  

 

 

 

 

 

inclusion par

 

 

 

 

 

 

é és 4 12 mois).
Abréviations de l’abstract : ACT, Asthma Control Test; ANCOVA, AEP, inhalés ; DMP, dossier mé intervalle
de confiance ; eCRF, electronic case report form ; ET, écart-type ; ES, erreur : i ité bet: i é i di i é R,
i i é é les patients)

 
 

 

 

 

 

 

 

Taux annuel Taux d'éoslnophiles sanguins (EoS}
d'exacerbatlons
(AAER}
<150 2150-<300 | 2300-<450 = 450.
Quartiles d' IgE Of (<64} 0,69 0,67 404 1,21
(hers ne178 nero n=68 ner
G2 (261- 0,32 0,34 0,84 1,44
<170] n=135 n=146 n=a8 n=100
Q3 (2170 - 0,32 1,03 1,25. 1,06
456] n=104 M=342 W=iiS N=i21
4 (2456} 0,60 0,75 0,77 0,99
N=79 N=261_ N=91 N=165

 

 

 

 

 

 

 
 

IgE Ql IgE (2 IgE (3 IgE 4
(<62 KUL) (262-<176kKU/L) (2176-<453 KLVL) (2453 kLL)
ne216 e330 n=330 n=403

@ Placebo BS Benralizumab 30 mg OS W
Auto injecteur Seringue préremplie

 
Meta-analyse (MENSA + MUSCA)

 

Présence de polypes nasaux a l’inclusion

 

 

 

Rapport de taux (95% IC) 0,20 (0,11, 0,35)
Absence de polypes nasaux a |’inclusion
Rapport de taux (95% IC) 0,51 (0,41, 0,64)

 

Intolérance a l’aspirine/AINS a l’inclusion

 

Rapport de taux (95% IC)

0,66 (0,37, 1,18)

 

Absence d’intolérance a l’aspirine/AINS a l’inclusion

 

Rapport de taux (95% IC)

0,43 (0,35, 0,55)

 

Présence d’une MREA a l’inclusion

 

Rapport de taux (95% IC)

0,66 (0,24, 1,79)

 

Absence de MREA a l’inclusion

 

Rapport de taux (95% IC)

 

0,45 (0,36, 0,56)

 

 

AINS : anti-inflammatoires non stéroidiens ; IC, intervalle de confiance ; MW : Maladie de Widal
Capteur
(n =92)

Proportion moyenne couverts,

 

Données de Il’enquéte a 6 mois

Sans capteur
(n =42)
47

 

 

 

 

 

 

(n =115) (n =39)
Changement moyen du score ACT* +0,52 (3,80) -0,30 (4,97) 0,361
Pourcentage d’augmentation de |’ACT 23 points ou passage a un
asthme contrélé (>20)* 27,4% 18,9% 0,304

 
Exacerbation

S-5 S-4 S-3 S2 S-1 S+H S42 $43

 

 

° °
oO oO
tc oO
SOUBLUJOJJad Jayawobsa ajoAD

400-
0

Sessions
UMEC/VI vs. UMEC

Variation des paramétres de la fonction pulmonaire en MMC (IC 95%)
VEMS résiduel, ml
VEMS résiduel, %
CVF résiduelle, ml
CVF résiduelle, ml
Variation des paramétres rapportés par le patient en MMC (IC 95%)

TDI 0,37 (0,06 ; 0,68), P=0,018
Score total SGRQ 0,25 (-1,07 ;1,57), P=0,709
0,00 (-0,60 ; 0,60), P=0,891
-0,53 (-0,95 ; -0,11), P=0,013

66 (43 ; 89), p<0,001
104,6 (103,0 ; 106,3), p<0,001
79 (42 ; 116), p<0,001
41 (4; 77), p=0,028

Score total E-RS, semaines 21-24

Salbutamol semaines 1-24 (bouffées/jour) -0,33 (-0,48 ; -0,18), P<0,001

Jours sans recours au salbutamol, semaines 1—24 (%) 5,84 (2,84 ;8,84), P<0,001

Odds ratio (IC 95% Cl) des répondeurs

TDic 1,43 (1,17 ; 1,75), P<0,001

Score total SGRQ. 1,21 (0,99 ; 1,48), P=0,063
1,35 (1,11 ; 1,65), P=0,003

Score total E-RS, semaines 21-24 1,52 (1,22 ; 1,89), P<0,001

SGRSI 1,38 (1,14 ; 1,67), P=0,001
Survenue de la lére exacerbation modérée/sévére (IC 95%)

Pourcentage de réduction du risque avec UMEC/VI 19 (-5 ; 38), P=0,114

UMEC/VI vs. SAL

141 (118 ; 164), P<0,001
110,7 (109,0 ; 112,5), P<0,001
189 (152 ; 225), P<0,001
116 (80 ; 152), P<0,001

0,45 (0,15 ; 0,76), P=0,004
-1,69 (-2,99 ; -0,39), P=0,011
-0,5 (-1,1 ; 0,1), P=0,074
-0,83 (-1,25 ; -0,42), P<0,001

-0,28 (-0,43 ; -0,14), P<0,001
4,71 (1,72 ; 7,70), P=0,002

1,48 (1,21 ; 1,81), P<0,001
1,49 (1,22 ; 1,83), P<0,004
1,23 (1,01 ; 1,50), P=0,37
1,53 (1,23 ; 1,90), P<0,001

1,38 (1,14 ; 1,68), p<0,001

36 (17 ; 50), P<0,001

A Calculé comme 100 * (VEMS résiduel a la semaine 24 / VEMS de base). B Un répondeur au TDI a été défini comme présentant une augmentation > 1
unité par rapport aux valeurs initiales. Un répondeur E-RS a été défini comme présentant une diminution = 2 unités par rapport aux valeurs initiales. Un
répondeur au SGRQ a été défini comme présentant une diminution = 4 points par rapport aux valeurs initiales. Un repondeur au CAT a été défini comme
présentant une diminution > 2 unités par rapport aux valeurs initiales. Rapport de cotes SGRSI d’une meilleure catégorie de réponses par rapport aux
valeurs initiales. C évalué en utilisant une version informatisée auto-administrée.

IC, intervalle de confiance.
n
(FF/UMECI/VI, FF/VI)
4145, 4133.

Traitements de la BPCO 4a l’inclusion*

Population ITT

CSI+LAMA+LABA 1671, 1647
LABA+LAMA 387, 349
CSI+LABA 1351, 1339
LAMA 304, 365
n
(FF/UMEC/VI, UMECI/VI)

Population ITT 4145, 2069
Traitements de la BPCO a l’inclusion*
CSI+LAMA+LABA 1671, 864
LABA+LAMA 387,195
CSI+LABA 1351, 647
LAMA 304, 162

Taux annuel modélisé (IC a 95%)

 

 

En Faveur En faveur Rate ratio
FF/UMECIVI FFIVI FF/UMECIVIFFIVI :

_— —> (IC 495% ); valeurde P
0,91 (0,87 ; 0,95) 1,07 (1,02 ; 1,12) 0,85 (0,80 ; 0,90) ; P<0,001
1,21 (1,13 ; 1,28) 1,43 (1,35 ; 1,53) —— 0,84 (0,77 ; 0,92) ; P<0,001
0,84 (0,73 ; 0,98) 1,11 (0,95; 1,29) + ___. 0,76 (0,62 ; 0,94) ; P=0,012
0,70 (0,64 ; 0,77) 0,85 (0,78 ; 0,92) ee 0,83 (0,74 ; 0,93) ; P=0,002
0,65 (0,54 ; 0,78) 0,75 (0,64 ; 0,89) —_—_+—__}— 0,87 (0,68 ; 1,11) ; P=0,253

06 os 10 12 16

Rate ratio (IC a 95%)

Taux annuel modélisé (IC a 95%)
En faveurEn faveur

FF/UMECIVI UMECIVI eeSancienec| lca Pd ie de P
0,91 (0,87 ; 0,95) 1,21 (1,14 ; 1,29) | 0.75 (0.70, 0.81); P<0.001
1,21 (1,13 ; 1,28) 1,72 (1,58 51,87) = -—*—4 0.70 (0.63, 0.78); P<0.001
0,84 (0,73 ; 0,98) 1,05 (0,86 ; 1,29) |= +———*——_} 0.80 (0.62, 1.03); P=0.081
0,70 (0,64 ; 0,77) 0,94 (0,83; 1,06) = ——*—— 0.75 (0.65, 0.87); P<0.001
0,65 (0,54 ; 0,78) 0,61 (0,47 ; 0,80) ——;-+ 1 1.06 (0.77, 1.46); P=0.712

 

06 08 1,0 12

Rate ratio (IC 4 95%)

16

*Entre le jour de l'inclusion - 3 jours et le jour de inclusion (inclus). Les zones grises représentent l’effet du traitement

(IC a 95%) dans la population ITT.
 

Internes Strengths : Forces Weaknesses : Faiblesse

- Mortalité - Qualité de vie

- _Amélioration fonctionnelle - _ Effets indésirables
Externes Opportunities : Opportunités Threats : Menaces

- Prestataire du service

-observance

 

 

Positifs

 

Négatifs

 
 

ee a
== TMB>20 + Ras
== TMB<20 Ras+
= TMB<20 Ras -

=6
n=

 

 

 

 

NM
-

ul
4

:

S ~ wo ™

=

(%) uoisseiBoid sues alAins

co
=

il
e

Temps (semaines)
SEMAINES

Délai apparition toxicité grade III ou IV

25

Médiane 6 semaines
20

15
i Fowriri

GB TOPOTECAN
10

  

Meédiane 2 semaines

Le délai d'apparition de la toxicité grade III/IV est nettement plus tardif avec FOLFIRI (délai médian
de 6 semaines) qu'avec TOPOTECAN (délai médian de 2 semaines)
 

 

 

 

 

 

 

 

Patient | Tumeur Géne de Meilleure Durée de la | Référence
fusion NRG1| réponse réponse
(mois)

i ANM SLOZAZ RP 12 Gay, et al. / Thoracic Oncol
2017

ii AMI cpy4 RP 10 Gay, et al. J Thoracic Oncol
2017

ili ANM S5DC4 RP 12 Jones, et al. Ann Oncol 2017

iv AMI cord RP 6.5 Cheema, et al. J Thoracic
Oncol 2017

v AMI CD74 MS 3 Drilon, et al. Concer Discov
2018

vi AMI SBC4 MP - Drilon, et.al. Cancer Discov
2018

vii | ANI Ccor4 MP - Drilon, et al. Cancer Discov
2018

 

 

 

 

 

 

 

ANM, adénocarcinome non mucineux; AMI, adénocarcinome mucineux invasif; MP, maladie progressive; MS,
maladie stable

 

 
 

 

 

 

 

 

 

 

 

Bras Estimation Erreur DDL Valeur Pr> |t] Alpha Inférieur Supérieur Moyenne Erreur Moyenne Moye
type det type de inférieure supérieure
la
moyenne
Chimiothérapie | -1,7997 0,2434 4 -7,39 0,0018 0,05 -2,4756 -1,1238 0,1419 0,02964 0,07759 0,2453
-2,6555 0,2495 4 -10,64 0,0004 0,05 -3,3484 -1,9627 0,06565 0,01531 0,03395 0,1232

Inhibiteur de
VALK

 

 

 

 

 

 
CheckMate 817, données de
sécurité

Cohort A1

CohortA

 

Tous les
patients traités
(n=198)

ECOG PS2
(n=139)

APS?
(n=59)

Tous les patients
traités'
(n=391)

 

EILT n, (%)
Tous grades
Grade 3-4

132 (67)
54 (27)

86 (62)
34 (24)

46 (78)
20 (34)

295 (75)
123 (31)

 

EILT entrainant l'arrét du traitement,

n (%)
Tous grades
Grade 3-4

30 (15)
23 (12)

20 (14)
16 (12)

10 (17)
7 (12)

69 (18)
52 (13)

 

Décés liés au traitement, n

pe

 

pe

 

0

2d

 

CheckMate 817, données
d'efficacité

Cohort A1

Cohort A

 

Taux de réponse objective
n/N

%
95% IC

50/198
19.4-31.9

28/139
13.8-27.8

22/59
37
25.0-50.9

136/391
30.1-39.7

 

Mediane de SSP mois (95% IC)*
Global
TMB élevé (210 mut/Mb)
TMB faible (<10 mut/Mb)
250% PD-L1
21% PD-L1
<1% PD-L1

 

3.9 (2.8-5.4)

3.9 (2.6-6.9)

 

3.6 (2.8-5.4)
4.2 (2.6-NR)
2.8 (1.8-5.4)
8.2 (1.4-14.8)
2.8 (1.9-3.7)
3.9 (2.7-8.3)

 

4.2 (2.6-9.6)
9.5 (0.4-15.4)
2.8 (1.5-4.2)

2.6 (1.4-15.4)

 

6.0 (4.7-8.1)
10.9 (6.6-14.8)
4.2 (2.7-7.8)
8.4 (5.4-NR)
8.1 (5.4-10.9)
5.3 (3.7-6.3)

 

'Paz-Ares L, et al. Poster presentation at the 19th World Conference on Lung Cancer; September 23-26, 2018; Toronto,

Canada. Poster P1.01-79

@Suivi median était de 9.1 mois (cohort A1) and 11.3 mois (cohort A); » Sous groupen APS inclu les patients avec : metastases
cérébrales 75% (n=44), insuffisance rénale 14% (n=8), insuffisance hépatique 7% (n=4), ou VIH 7% (n=4); © Suite a une
pneumopathie interstielle diffuse et polymyosite; “Suite 4 une insuffisance cardique grade 5, secondaire a une rhabdomyolyse
immunomédiée de grade 3 du coeur et des autres muscles, et un sydrome de Guillain-Barré; “TMB a été évalué par
FoundationOne CDx™ assay. TMB était évaluable chez 43% (n=86) de la cohort A1 et 39% (n=151) de la cohort A: 19% (n=37)
et 19% (n=73) avait TMB élévé (210 mut/Mb), respectivement. L'expression du PD-L1 était evaluable chez 84% (n=166) de la
cohort A1 and 91% (n=356) de la cohort A; 38% (n=76) et 45% (n=176) avaient I'experession PDL-1 =1%, et 17% (n=33) et
17% (n=65) avaient 'experession PDL-1 =50%, respectivement.

APS, autres populations spécifiques; Cl, confi idence interval; NR, not reached; PD-L1, programmed death ligand 1; PS,
performance status; TMB, tumor mutational burden; TRAE, treatment-related adverse events

 
Caractéristiques et efficacité

QOurée médiane de nivolumab (Q1-03)

870 (8,8 %)

12,4 mois (6,7-24,0)

2,8 mois (1,4-8,7)

<0,001

<0,001

33 (6.4%)

14,2 mois (7,9-29,9)
2,8 mois (1,5-6,5)

 
 

 

480 mg Q4S 240 mg Q2S
(n = 166) (n = 163)
Taux de SSP stratifiée post-randomisation (par
histologie et réponse pré-randomisation)
Mediane, mois 12.1 12.2

HR (IC 95%)
Taux, %

6 mois

1 an

 

0.96 (NA-1.29)

75
53

 

80
53

 

NA: non applicable

 
STRATEGIES THERAPEUTIQUES n=411 (%)

Chirurgie de premiére intention 141 (34)
Radio chimiothérapie de premiére intention 72 (17)
- Concomitante 26 (36)
- Séquentielle 43 (59)
- Suivie d’une chirurgie 4(5)
Patients prévus pour recevoir une chimiothérapie néo adjuvante

gs an 60 (15)
suivie d’une chirurgie
-Chimiothérapie néo adjuvante suivie d’une chirurgie 37 (62)
-Conversion en radio chimiothérapie (concomitante/séquentielle) 13 (22)(6/7)
-Conversion en chimiothérapie exclusive 10 (16)
Radiothérapie exclusive 24 (6)
Traitement systémique exclusif ( chimiothérapie ou thérapie
ciblée) 68 (17)

Soins de conforts exclusifs 45 (11)

Décés (%)

77 (55)
60 (82)
20 (80)
36 (84)
3 (75)

39 (65)
19 (51)
10 (83)
9 (90)

22 (92)

59 (87)
37 (82)

Survies(jours) [IQR

761 [311;1180]
496 [363;1089]
449 [319;913]
641 [390;1242]
309 [273;528]

482 [257;720]
509 [449;926]
503 [315;648]
257 [190;361]
376 [175;588]

341 [206;552]
134 [43;251]
Nombre des exacerbations

Séverite des exacerbations

 

 

 

 

 

 

 

 

 

 

 

 

OR IC 95% P OR IC 95% P
Age 1.01 0.72-1.40 0.94 0.97 0.70-0.97 0.86
Sexe 1.15 0.35-3.72 0.81 1.30 0.41-4.08 0.64
Tabagisme 0.56 0.13-2.29 0.42 1.00 0.25-3.91 0.99
Comorbidités 1.25 0.25-6.19 0.77 2.00 0.46-8.70 0.35
Asthme 1.23 1.08-1.69 0.008 5.6 1.07-9.18 0.03

 
BNintedanib OPlacebo

     

 

 

 

IMC =27 kg/m? 4 linclusion IMC <27 kg/m24 inclusion
n=360 n=215 n=278 n=208

0 a
S +50 4
oO
==
os
© z -100 +
oa
> oO -108,48
z : -150 4 -117,69
Bs
 & -200 +
25 -183,06
= w
5-250 |
ic

-300 4 -266,24
Différence: Différence:
65.4 mL/an 157,8 mL/an
(IC 95% 17,8, 112.9) (IC 95% 109.1, 206,4)

P-value d'interaction pour le traitement par sous-groupe selon le temps = 0.0074
 

 

J0

M3

M9

 

SCORE CAT moyen (écart type)

15,76(+ 7,97)

44.98 (4 8.28)

46.81 (4 9,12)

 

SCORE DIRECT moyen (écart type)

10.87 (+ 7.29)

41.02 (+ 7,38}

11,26 (+ 5,98)

 

SCORE HAD/Anxiété moyen (écart type)

5,63 (£ 3.99)

5.32 (4 4.45)

5.48 (+ 3.69)

 

SCORE HAD/Dépression moyen (écart type}

 

5,72 (+ 4:20)

 

5,65 (+ 4.44)

 

6.16 (+ 3.08)

 

 
 

Frequencte mores =o

 

 

 

 

 

 

 

 

 

 

 

 

(Comzeds pour le changement de traitement

 

Sombre de patent: a4
Finnose pulmonaire ict 33
ie interstitielle diffase-Sclerodermie systemique 3
Aire 8
| Homme B (So) 31 (70%)
| Teiice oven corporel (em) Dos.
G
Ex-fumeur 28 (64%)
Won-fimeur 16 (364)
CVT, & 73 218
CPT, +17
DLCO, aa
Traitement initial, 1%
Porfenidone 16 (36°)
Nintadanih 28 (64%)
| Eifets indesirables, n (71)
Deeorhee 15 (20%)
‘Names 10 (1474)
Vomissement oS)
Erulure retrostemale 1 (1%)
Douleur abdomimale S74)
Pane d'appetit 9 (12%)
Vertiges 3 ay
Caphaless 1 (134)
Fatieue . 6 (8%)
Photosensitilits B (11%)
Exytheme cutanee 20%)
Sechere:se cutee 1 (1%)
Cytolyse hepatique (> 3 fois la limite supérieure} 3 4%)
Cytolyse hepatique severe (> 10 fois la lumite suparieure} 1 (1%)
Dryrepnee 3 (4%)
Derforation intestmale 1 (1%)
Type d'mitervention 2 chaque erenement, 5 (9)
Acdsee 9 (15%)
13 (21%)
‘Ajntenene del de la dose 12 (10%)
Traitement symptomatiqne 7 (11%)
Comes alimentaire: 2 (7%)
12 (19%)

5 (S4)

 

 
 

TM6
Distance (m)
Nijmegen
Dyspnée
Tétanie centrale
Tetanie péripherique
Tension
| Total
HAD
Anxiété
Depression
SF-36
Activité physique
Limitations liées a la
santé physique
Limitations liées a la
santé mentale
Energie/fatigue
Santé mentale
Bien-étre social
Douleur physique
Santé générale

Modification pergue
de l’état de santé

Pré

369 + 110

9.3 +3,1
10,3 + 3,6
10,1 + 3,2
9,5 + 2,9
39,0 + 8,1

10,3 + 4,1
7,8 + 3,8

47,1 + 15,4
12,0 + 17,9

50,7 + 46,3

25,4+ 11,0
55,0 + 19,5
45,0 + 28,4
23,5 + 19,5
28,2 + 13,5

31,0 + 29,1]

 

Post
417+ 120°

9,2 + 3,0
9,3 +33
10,2 + 3,3
9,3 + 3,3
38,0 + 10,4

11,1+5,]
6,9+4.0

47,9 + 18,2
15,4 + 12,4

49,3 + 48,2

38,7 + 13,9°
65,3 + 19,5"
54,3 + 27,4
21,6 +168
25,2 + 14.2

34,6 + 32,5

 

6 semaines
44] + 125°

8,3 + 3,2°
9,24+3,9
9.8+43,9

9,0 + 3,9
36,2 + 12,2

10,2 + 5,3
7,2 + 4,6

49.0 + 20,4
24,0 + 23,4°

47,4 + 47,3

38,7 + 16,9°
61,3 + 24,6
54,8 + 29,4
27,4 + 23,7
28,1 +4 17,8

40,4 + 39,4

 

Données sous la forme moyenne + écart-type. Avec « a » différence significa-
tive avec Pré ; « b » différence significative avec Post et « TM6 » = test de

marche de 6 minutes.

 
Taux Taux Taux Taux Taux
dincidence d’incidence d’incidence d’incidence d’incidence

    

TP 17,79/100000 13,31/100000 19,26/100000 11,88/100000 21,73/100000

TEP 4,21/100000 4,13/100000 7,61/100000 6,53/100000 09,72/100000
 
Ste

Pave

Lente
PeNK.

LS aretalate,
gre
y
ee
®e.-Connect
ied |}
O

aE

® . Connect
a
2020
CPLF
2O?O
6
DO?O
 
 
  
 
 
  
 
 
CPLF
2070
ea
riewie
eS
DOPO
(OD

W
 
 
 

 

 

-CPLF 2020 2mm As
Date de création 25/11/2019
Du 24 au 26 janvier 2020 Date de modification 25/11/2019

Paris Expo Porte de Versailles
Hall 7.3 Version 5 HE/MP |

 

 

\

 

 

 

 

 

 

 

 

 

 

 

 

 

 

 

 

 

 

 

 

 

 

 

 

 

 

    

19) 3up 20 3up 21) Sup 22 3up
HL: 2.40
\ — a
salad = WL
| 3IOA IF pencnsieesiis
\
~ Ge

| galles Salle 9 Salle 10

 

 

 

 

   
  

Espace Affichage dt.
PL aa = Po tt
=a) | |
418) 2up Ke T ¥ ft] |
4
t t t tr t

 

 

 

17) 2up ~

|, | Jf L. Zo fh Cyber ig

16) “Er - a -
po = oo

| Salle 7" 4 =

36.0m? 61 LTCEOICEA sme : | : S| 39 40

18.0m?

  

 

 

 

 

 

 

 

 

 

 

 

 

 

 

 

 

45 44

 

4 42
Local ouvrier |

18.0m? 18.0m?

 

 

 

 

41
18.0m7

18.0m?
60 90

|_| : Salle 6

18.0m?

29

 

=
:
:
:
m

 

- Salle 5

36.0m?
18.0m?
13 12
16
36.0m? 36.0m?
18.0m?

10 11

 

 

 

 

 

      
          
      
   
   

 

aw. Salle 4

(36.0m?

/
10 8up t

 

' Salle 3

9) 4up

f Ie]
Vestiaire sanPSH

mm
Dégagement
[or 03/10 |
SanPSH

most)
ir

07) 03/101 | Local déchet

 

Salle 2"

| Bart
|
|

 
    

Bornes CB Bornes Pré -Inscrits(8)

Wh = i

Paiments

Ty Es *

 

 

 

 

 

 

 

 

 

 

 

 

8)10up E 270m a
> /BORUE / / Y,

 

7) 2up

Espace
Restauration

   

% 255m? ei|47VW 7) *

7 *
7 | ; P| V ‘aal Espace
| 6)4 cE y EE
: “" ca a | ! — & == Rencontre —

 

 

Salle 1

5) 4upL

      

  
  

Dégagement =
| 07 | 03 | ao ||
or | oa] «oh

  
   

 

N
ENiREE Vj

 

 

Dégagement

[07 | 03 | 20" |

 

4) 2up

    
 

 

 

 

 

3) 3up sup 2

MN

iNT

 

 

 

 

 

 

 

 

 

 

 

 

 

 

 

 

 

 

 

 

 

 

 

 

 

 

 

 

 

 

 

 

 

 

PLAN NON CONTRACTUEL
 
‘espiratoires
Actualités

 
espiratoires
Actualités

2a ieumoLoG!

 
