 
 
|
 
 
 
i
E
 
 
 

‘SERIAL NUMBER
SN ] 20XXXXXXXX

CATALOG NUMBER BATCH CODE
REF] 37200 LOT} 0000000
R370-4xx/1

 

 

 

 

 

 

 

 

 

 

 

 

 

 

MADE IN AUSTRALIA |

 

 
 
 
»
 
 
 
 
 
.
Ez
 
 
G)
 
%
SERIAL NUMBER CATALOG NUMBER BATCH CODE DEVICE NUMBER.

[SN] 2OXXXXXXXXX [REF] 37000 ooo0000| [DN] XXX

 

 

“MADE IN AUSTRALIA IN AUSTRALIA ( 5

AN LU ANTTTATTT 3

 
 

 
ResMed myAir
 
ES
nd
 
 
 
 
 
y

=

y
I
 
   

R370-4ex/1

MADE IN AUSTRALIA
 
 
 
Ee
y

=

y
a

 
 
 
 
 

 
 
F
SERIAL NUMBER DEVICE NUMBER) CATALOG NUMBER BATCH CODE
[SN] 20XXXXXXXX || [DN] XXX 37200 0000000

| R370-4xx/1

 

 

 

 

MADE IN AUSTRALIA 4
Ee
 
 
 
 
 
 
 
ee oe MY
 
 
 
 
 
 
a k Only
 
 
 
 
 
 
a
Cl
Se Tee Sy

 
Meine Optionen

moe)

5
Cat Be) alot la) Pl

 
Cat Be) alot la) Pl

 
Tae) tory

isa)

c

5
My Options

 
My Options

 
emer ee

Niv. d’Humidité
eke tee

 
eke tee

 
Tal feite)
Minhas opgdes

Umidade
Minhas opgdes

< Inicio

T. rampa yA On
Mascara Nasal
PN (Ucie- Tate 1e-} >

Modo aviao pt]
Minhas opgdes

< Inicio

T. rampa yA On
Mascara Nasal
PN (Ucie- Tate 1e-} >

Modo aviao pt]
 
 
ye Toe) Pl
Cat Be) ato la) Py

 
Cia -Be) atoll) Pl

 
Meine Optionen

‘Rampe

30
My Options

 
My Options

 
My Options FT
ernie

30

Ta
eke tee

 
eke tee

 
emer ee

Pic

 
Tal feite)
Minhas opgdes

< Inicio

Umidade Co
Mascara Nasal
PN (Ucie- Tate 1e-} >

Modo aviao py]
Minhas opgdes

 
Minhas opgdes all

T.rampa

30

alae
 
 
 
LC Ae) (ola

 

oo

  
 

eee)

ellos}
 

My Options

Pcisaee)

>
 

My Options

Gen aay

30

Cla
 
 
 

Tackle)

Umidade
 

DT kolo

aa)
 
 

 
 
 
