 
 
 
 
 
 
Ree RonUe

ecu)

 
 
oe
 
De emg)

mes ey

 
 
 
 
 
 
 
Seem eas
volume for left or right
Deca aru

 

 

 

 

 
 
 
 
 
 
 
 
 
Tap here to change

feycele) e-laals

 
 
1/5
4/5
io)

Bee
2/5
 
5/5
 
 
Belotiond
3/5
 
 
2/5
 
3/5
 
Tap here to change

programs

 
rs.
Slide left or right to adjust
volume for left or right
hearing instruments only

 
A
poe ouckeen)

Eocene

 
Ce
 
 
Peters
Rega
Cty

 
 
 
“Tap hereto change

poe

 
 
