 
|
 
 
C
 
 
 
|
 
|
 
 
F} Cleveland Clinic
 
 

_
—_

 

 
|
 
 
 
 
 
 
Cl
a
 
 
 
 
 
 
a
Cl
 
|
 
 
 
F} Cleveland Clinic
 

_
—_

 

 
 
|
 
 
C
 
 
 
|
|
