a
$
 
ice}
ice}
 
a
$
 
 
 
 
 
 
 

PO
eee
 
 
 

C1

 
 

CT

 
 

C1

 
 

|
 

CT

 
 

CT

 
 
 
a

 
re
a
 
 
 
 
 
a
-
an
_~
 
=
oO
 
 
 
 
 
 
 
7
<1]
f*~,
. 4
 
 
 
 
V-yy
4
lay
ol
 
P
 
 
 
 
 
 
 
oO
 

CT

 
 
 
 
 
 
 
 
 
 

C1

 
 
 
ol
a
a

 
 
 
f*~,
. 4
7
 

C1

 
 
 
=
V-yy
4
 
 
 
lay
 
 
 
 

CT

 
 
 
 
 
 

CT

 
 
a
 
 
 

|
 
 
 
P
re
 
 
 

PO
eee
<1]
 
-
 
 
an
_~
 
|
 
 
 
 

| — |
ee
 
 
 

C1

 
 

CT

 
 

C1

 
 

|
 

CT

 
 

CT

 
ee
 
 
 
a
 
 
 
 
 
'
=
 
 
 
 
 
E
“
&
=
ab
co
jit
Bl
 
 
 
 
 
 
 
 
 
 
 
 
 
 
 

C1

 
“
 

C1

 
 
 
ee
|
 
 
 
 

CT

 
 
 
 
E
 

|
a
 
 

CT

 
 

CT

 
 
&
 
 

| — |
ee
 
=
ab
 
 
 
 
 
 
 
 
 
 
 
 
'
=
jit
 
 
Bl
 
 
 
 
co
 
 
|
4
hm
_
i's
(~
rr
aN
Van
N
k=
 
fay)
iw
oY
kK 4
CP
i's
 
hm
Van
fay)
iw
rr
CP
oY
kK 4
 
4
N
k=
(~
aN
|
_
 
|
 
 
C
 
 
 
 
 

C1

 
 

CT

 
 

C1

 
 

|
 

CT

 
 

CT

 
 
ee
>
7
 
 
 
 
 
 
 
 
 
 
 
 
 

 
 

 
 

 
 

 
 

 
a
[~
a
 
7
 
 
rN
 
VN
fay
iwi
4
«Pe
 
 
 
 
 

CT

 
 
 
fay
iwi
4
 

 
 
 
 
 
 
 
 
 
 
 
 
 

CT

 
 
 

 
 
 

 
VN
 
|
 
a
 

 
 
 
 
 

C1

 
 

|
 

C1

 
 
 

CT

 
[~
7
 
>
«Pe
 
 
C
 
 
ee
7
 
a
rN
 

 
 
|
|
a
a
Cl
Cl
a
 
 
 
 
 
 
 

PO
eee
 
 
 

C1

 
 

CT

 
 

C1

 
 

|
 

CT

 
 

CT

 
 
 
a

 
re
a
 
 
 
 
 
a
-
an
_~
 
=
oO
 
 
 
 
 
 
 
7
<1]
f*~,
. 4
 
 
 
 
V-yy
4
lay
ol
 
P
 
 
 
 
 
 
 
$
a
Cl
 
|
 
 
 
 

| — |
ee
 
 
 

C1

 
 

CT

 
 

C1

 
 

|
 

CT

 
 

CT

 
ee
 
 
 
a
 
 
 
 
 
'
=
 
 
 
 
 
E
“
=
&
ab
co
jit
Bl
 
 
 
 
 
 
 
 
 
 
 
 
 
 
ice}
 
|
 
 
C
 
 
 
 
 

C1

 
 

CT

 
 

C1

 
 

|
 

CT

 
 

CT

 
 
ee
>
7
 
 
 
 
 
 
 
 
 
 
 
 
 

 
 

 
 

 
 

 
 

 
a
[~
a
 
7
 
rN
 
 
VN
fay
iwi
4
«Pe
 
 
 
 
 
|
4
hm
_
i's
(~
rr
aN
N
k=
Van
 
fay)
iw
oY
kK 4
CP
|
