a
NI]
“a
 
a
a
a
a
“a
“a
a
 
“a
a
a
 
|
 
a
“a
a
“a
NI]
“a
 
a
 
 
os}
@®
CS
 
a
a
 
 
aa aa

sefmes
 
 
he
0
 
a
we
a
i
 
“a
>
~\
a
a
a
~\
we
“a
a
a
a
EY
_
a
we
a
~
a
Te
~\
a
we
>
EY
a
a
a
.
 
 
 
 
»
 
 
 
 
 
I
y

=

y
 
y

=

y
 
 
 
 
a
Cl
 
 

Type 1
Type 2
Type 3
Type 4
Type 5
Type 6

Type 7

Seperate hard lumps,
like nuts (hard to pass)

Sausage-shaped
but lumpy

Like a sausage, but with
cracks on its surface

Like a sausage or snake,
smooth and soft

Soft blobs with clear-cut
ediges (passes easily)

Fluffy pieces with ragged
does Simushy Stood

Watery, no solid pieces
ENTIRELY LIQUID

 
 
|
 
 
 
 
Lees
Th
 
 
     
 

  

Raising the hs fh assists
in relang cs piste

 
 
 
 

 
 
 

 

 

 

 
 
 
@y

ST
Roots

   
 

 
 
 
