 
a
@
G)
mixpanel
@ee-
mixpanel
@ee-
a

 
 
a
 
 
 
 
 
a
a
y

=

y
y

=

y
 
a
 
oe
i
 
 
mixpanel
@ee-
C
D>
 
 
Oo
OO
mixpane!
@e-
a
mybugs
 
 
 
 
»
a
.
 
 
 
 
 
 
Cl
