 
 
OS
Nees)
a ee
 
 
»
if
 
 
Ls
Ove
7 first
responder
1:13
 
 
a bileig
responder
A
a3
.
 
|
 
 
 
o responder
 
|
ile
. responder
 
7 first
i allel
CY Momentum

THE RESCUE NETWORK
Crp
 
I
 
 
first
Hen ae
BE
7 ei
ial
 
rz first
ied eal
a

 
y

=

y
\ rege |
C} Momentum

poeta aril s
 
y

=

y
 
 
 
 
 
DOS
 
a
 
a
4g first
al
5)
eles
7 te
ra elect
responder
 
G)
OY Momentum

THE RESCUE NETWORK
CY Momentum

THE RESCUE NETWORK
first
e te
oa leds
ia iealloaal
4g first
responder
Cl
 
a
 
﻿[
  {
    "id": 0,
    "name": "Ambulanz",
    "phoneNumber": "144",
    "image": "flag_144"
  },
  {
    "id": 1,
    "name": "Polizei",
    "phoneNumber": "117",
    "image": "flag_police"
  },
  {
    "id": 2,
    "name": "Feuerwehr",
    "phoneNumber": "118",
    "image": "flag_fire"
  },
  {
    "id": 3,
    "name": "TOX-Zentrum",
    "phoneNumber": "145",
    "image": "flag_skull"
  },
  {
    "id": 4,
    "name": "Rega CH",
    "phoneNumber": "1414",
    "image": "flag_rega"
  },
  {
    "id": 5,
    "name": "Rega INT",
    "phoneNumber": "+41 333 333 333",
    "image": "flag_world"
  },
  {
    "id": 6,
    "name": "Europa",
    "phoneNumber": "112",
    "image": "flag_eu"
  }
]﻿[
  {
    "id": 0,
    "layout": "element_guide_01",
    "icon01": "list_01",
    "icon02": "icon_call",
    "title": "uiHomeGuide_text_01_title",
    "detail01": "uiHomeGuide_text_01_detail_01",
    "detail02": "uiHomeGuide_text_01_detail_02",
    "button": {
      "enabled": true,
      "text": "uiHomeGuide_button_01_bern",
      "fileName": "first.pdf"
    }
  },
  {
    "id": 1,
    "layout": "element_guide_02",
    "icon01": "list_02",
    "icon02": "list_02_detail",
    "title": "uiHomeGuide_text_02_title",
    "detail01": "uiHomeGuide_text_02_detail_01",
    "detail02": "",
    "button": {
      "enabled": true,
      "text": "uiHomeGuide_button_02_bern",
      "fileName": "second.pdf"
    }
  },
  {
    "id": 2,
    "layout": "element_guide_02",
    "icon01": "list_03",
    "icon02": "list_03_detail",
    "title": "uiHomeGuide_text_03_title",
    "detail01": "uiHomeGuide_text_03_detail_01",
    "detail02": "",
    "button": {
      "enabled": true,
      "text": "uiHomeGuide_button_03_bern",
      "fileName": "second.pdf"
    }
  },
  {
    "id": 3,
    "layout": "element_guide_02",
    "icon01": "list_04",
    "icon02": "list_04_detail",
    "title": "uiHomeGuide_text_04_title",
    "detail01": "",
    "detail02": "",
    "button": {
      "enabled": true,
      "text": "uiHomeGuide_button_04_bern",
      "fileName": "fourth.pdf"
    }
  }
]﻿{
   "data":{
      "intervention":{
         "external_code":"1323",
         "type":"automatic",
         "place":"Lugano",
         "street":"Via Besazio",
         "estimated_time":"4",
         "creation_time":"2013-09-26T19:32:52Z",
         "latitude":"45.0",
         "longitude":"8.9",
         "observations":"Arresto cardiaco",
         "state":"active",
         "update_time":"2013-09-26T19:32:52Z",
         "civic_number":"2",
         "floor":"4",
         "name":"name",
         "surname":"surname"
      }
   },
   "message":"Records Retrieved Successfully",
   "success":true,
   "canBeHero":"true",
   "server_time":"2001-10-26T19:32:52Z"
}﻿{
   "data":{
      "interventions":[
         {
            "external_code":"1323",
            "type":"automatic",
            "place":"Lugano",
            "street":"Via Besazio",
            "estimated_time":"4",
            "creation_time":"2013-09-26T19:32:52Z",
            "latitude":"",
            "longitude":""
         },
         {
            "external_code":"1324",
            "type":"automatic",
            "place":"Mendrisio",
            "street":"via Gulliver",
            "estimated_time":"15",
            "creation_time":"2013-09-26T19:32:52Z",
            "latitude":"",
            "longitude":""
         }
      ]
   },
   "records":2,
   "message":"Records Retrieved Successfully",
   "success":true
}{
  "data": {
    "version": "0",
    "count": 0,
    "records": [
    ],
    "userMessages": [
      
    ]
  },
  "error": "",
  "success": true,
  "time": "2014-11-07T13:01:20Z"
}git.version=eb8d5626ff8b7781e3a2ec6c3990785697adb99f
