TSU eRe ate
Swipe for at forny
Se
eid ctUaAtsls (a) aie
 
AGU Amis)
G)
Allerede anmodet
Leegemidlet kan ikke fornyes via app
Lg
 
sundhed,dk
aes R Lae )
 
Deum Ri ania} )
i Re aes )
(>
 
y

=

y
 
 
POL Cita )
I
Tee ue Cun eee
y

=

y
 
 
a

 
 
Allerede anmodet )
 
 
Kan ikke fornyes )
Laegemidlet kan ikke fornyes via app )
 
 
 
 
Swipe for at forny )
Teas oR ne )
,
|
PUMA astm )
Allerede anmodet )
Taya te soma Laval
Kan ikke fornyes
Lg
Lzegemidlet kan ikke fornyes via app
Allerede anmodet
l= elar- lene] gn)
Privatmarkeret
.
ue )
eee )
 
Bes )
 
 
Leegemidletkan ikke fornyes via app)
ee )
(>
 
.
»
 
oe ed )
a
Cl
 
git.version=eb8d5626ff8b7781e3a2ec6c3990785697adb99f
