 
 
y

=

y
 
y

=

y
 
 
 
 
 
C
 
 
 
 
nl
|
 
»
 
.
 
 
 
a
Cl
