 
a
_
G)
 
 
“a
a
 
we
a
we
a
EY
a
EY
a
Te
a
we
a
>
a
>
a
~
a
we
a
~\
a
~\
a
~\
a
“a
a
i
_
 
 
 
ad
 
he
a
a
~
ad
we
a
_
a
 
~\
we
 
a
 
a
G)
we
a
 
“a
~\
 
a
i
 
>
Te
“a
a
a
a
a
a
>
~\
a
_
 
EY
a
he
a
EY
we
 
 
Image Placeholder
a
 
 
 
 
 
 
 
 
 
Nas
&% Xamarin
 
Nas
a
 
 
 
 
&% Xamarin
 
 
 
 
 
Image Placeholder
|
|
 
 
 
|
 
 
a
|
“a
a
“a
a
“a
a
NI]
a
NI]
a
“a
a
“a
a
“a
a
a
a
“a
a
Ua
gl
a
 
|
gl
“a
NI]
 
NI]
a
Ua
a
“a
a
a
“a
a
a
a
 
“a
a
a
“a
|
a
a
“a
“a
 
 
 
 
 
I
 
 
y

=

y
y

=

y
a
a

 
|
 
a
 
 
 
 
 
a

 
I
 
a
a
|
y

=

y
y

=

y
 
 
 
 
 
.
»
|
 
Cl
 
 
.
|
 
 
 
 
Cl
 
 
»
Cl
Cl
Scanning by SCANDIT
Scanning by SCANDIT
18934
 
a
a
 
Image Placeholder
a
 
 
 
 
I
 
 
y

=

y
y

=

y
a
a

 
|
 
a
 
a
Cl
 
 
 
 
 
 
.
»
|
 
Cl
 
 
 
 
 
 
 
Nas
&% Xamarin
 
 
 
|
 
 
a
|
“a
a
“a
a
“a
a
NI]
a
NI]
a
“a
a
“a
a
“a
a
a
a
“a
a
Ua
gl
 
a
_
G)
 
 
“a
a
we
a
we
a
EY
a
EY
a
Te
a
we
a
>
a
>
a
~
a
we
a
~\
a
~\
a
~\
a
“a
a
i
_
 
 
 
 
ad
 
he
|
