 
 
 
 
 
 
Q
GF BookDoc

=
RHB?|
asada ay ON

 
salle ea

 
6
bra ST=PZ
 
SSB
BS B QUICKBLOX
 
lho «
 
(8
 
 
 
 
iC)
 
Tn a
Q
 
6
,*
a
 
1@}
G)
gs
o>
 
>
se
aa
 
8+
YY
CF BookDoc

—©
bE
 
 
@
fa
oh
 
 
digi
Joined

A
 
@
bE
lho «
oN
powered by Google
(S41
<<
 
Ks]
 
 
poi
rey
ry
ry <
=
o
* \
| 1
‘@
¢ ”
|
1 ra +d
4
~ r *
=
Fs “
Sy
a
\ 7 Sign In with Facebook
  
 

eerie Tener

  
,
BERJAYA

ELS & RESORTS

”
cS
 
ey
mil
pF
sn a

”
© ©0008
ort] 4
 
Co
 

oF BookDoc
© Connect & Unite

 
COfelelelele)
EMAIL
 
 
=>
 
 
RHB Insurance
Live Activ

Powered by

GF | Boskboc

 
wy
 
po

Grae
,
rit
a
 
TRAVEL
 
io ne
><]
 
 
 
 
 
oF | BookDoc
Connect & Unite

= ©

WELCOME

Congratulations,
the Premium Programme has been activated
‘on this account!

You may now enjoy the full benefits of
BookDoc app.

EXCLUSIVELY FOR
 
 
_
 
 
RHB?|
asada ay ON

 
Q
 
 
GF BookDoc

=
 
 
 
git.version=a1f28028ba4e22c11cfaffe0e37ae27be1eea0c3
