 
 
 
s
 
 
NE
 
 
PLL

ON

Siri
 
    

Embolus (blood clot) =
In cerebral artery blocks blood flow.
to part ofthe brain
 
a
a -
 

 

 
   

Cae)
ern | hCG EOC
x i ee =~

     

eee
 
 
   
    

\
q CA
fen} aS

 

 

 

 

 

 
Ee AY
 
a2
 
 
 

 

 

 
 
 
 
 
 
 

  
 
 
First Degree Burn Second Degree Burn Third Degree Burn

    

7] epidermis 7] epidermis 7] epidermis

Dermis Dermis Dermis

‘Subcutaneous: ‘Subcutaneous: ‘Subcutaneous,

 

 

 

 
G)
(S41
(8
8+
 
2
 
git.version=eb8d5626ff8b7781e3a2ec6c3990785697adb99f
