/*!
 * Sizzle CSS Selector Engine v2.2.1
 * http://sizzlejs.com/
 *
 * Copyright jQuery Foundation and other contributors
 * Released under the MIT license
 * http://jquery.org/license
 *
 * Date: 2015-10-17
 */

/*!
 * Vue.js v2.6.11
 * (c) 2014-2019 Evan You
 * Released under the MIT License.
 */

/*!
 * jQuery JavaScript Library v2.2.4
 * http://jquery.com/
 *
 * Includes Sizzle.js
 * http://sizzlejs.com/
 *
 * Copyright jQuery Foundation and other contributors
 * Released under the MIT license
 * http://jquery.org/license
 *
 * Date: 2016-05-20T17:23Z
 */
/*!
 * Sizzle CSS Selector Engine v2.2.1
 * http://sizzlejs.com/
 *
 * Copyright jQuery Foundation and other contributors
 * Released under the MIT license
 * http://jquery.org/license
 *
 * Date: 2015-10-17
 */

/*!
 * Vue.js v2.6.11
 * (c) 2014-2019 Evan You
 * Released under the MIT License.
 */

/*!
 * jQuery JavaScript Library v2.2.4
 * http://jquery.com/
 *
 * Includes Sizzle.js
 * http://sizzlejs.com/
 *
 * Copyright jQuery Foundation and other contributors
 * Released under the MIT license
 * http://jquery.org/license
 *
 * Date: 2016-05-20T17:23Z
 */
