bs
 
a ))

Connect
bi
ACCU-CHEK*

Settings

9:53am
DE Tae)

Meee eRe em
lane

 
PS
ra
is |
3)
 
YE
7 eats @tls-@

ce ed

aiid

Enter code on
CoAT?

 
bs
Meal
Rise

Target Target

Range Range
After
meal rise
 
@)) ACCU-CHEK ‘Connect
 
PIN: #ese##

 
bi
hd
a
 
 
4
 

=} _ ©) ACCu-CHEK Connect

 
@h
bs
ry |
 
ee a 7

a
 
 
 
=
4
ACCU-CHEK*

Orr FARRELL

See ed

Cihaz Uzerindeki
ure mega

 
ACCU-CHEK’

9:38am
iE Adele

A
A

Ayarlar

Ayarlar

Kablosuz

ihazi eslestir
Eslestirilmis
cihaz yok.
Simdi eslestir?

 
 
 
 
 
 
 
@)
 
 
(>

Ky
 
 
 
ee
 
 
bE
 
 
 
 
   
 
   
   
     
 
       

yreatner ial

fee
rrr

eet
device,

ed
 
 
 
 
Of
 
 
@)) ACCU-CHEK"Connect
 
     
     
  
 
  

 
   

7 reatner rg
eo

9:53am
ae

Pair Device
erred
a
Meal
Rise

Target Target

Range Range
Aft
Me go.
 
 
 
Gil
©) ACCU-CHEK *Connect

 
 
 
 
 
 
ae
ae i 7
be
1
@)
ACCU-CHEK*

Pair Device
eee

Enter code on
device.

 
 
@)) ACCU-CHEK ‘Connect
1
NE
 
 
      
   
  
  

 
   

ACCU-CHEK*
Settings

  

9:53am
Main Menu

   
 

ah . -
4 a Wireless

     
   
   
  

Pair Device
No paired device.
lmao) a

    
 
ACCU-CHEK®
Guide Me

@e)

 
NE
NE
tr
 
oo
 
 

 
PIN: #ese##

 
Pd
 
= _ @) ACCU-CHEK Connect

 
Meal
Rise

Target Target

Range Range
After
meal rise
 
 
ACCU-CHEK*

Pair Device
eee ered

Enter code on
device.

 
 
    

 

PIN:F###HHF
ACCU-CHEK*

Settings

ie Metr- 184]
Main Menu

Wireless

Pair Device
No paired device.
rel maley ia

 
= ©) ACcU-CHEK Connect

 
 
      
   

ACCU-CHEK®
Guide Me

@é6@))
 
Meal
Rise

Target Target

Range Range
After
meal rise
 
f

PIN: #HHHH#

————————

 
7 eats @tls-@

Lier dispositif

itd

la
Tae see

 
7 (aaln Ota. P
RerEr eS

CRT UT
Menu principal

Ar
TCAs
eT tl ed

 

 
ACCU-CHEK*

SRC=)

Waa

Hactpotixu

eC eras

eri eae al
ycTpolicteo
Oa
Beinony. conp-e?

 
ACCU-CHEK*

Conpaxk.ycTp.

Std

eta em aa
Cees)

 
ACCU-CHEK*

EE RCEEE Lig)
wundn

aunsataud

soa cta tary
Ero pltt|

 
ACCU-CHEK*

Dilaera Glia)

Std

PCR GoN OC ang

 
 
ACCU-CHEK*

leelel-ak wy ol)44

Sed

eye rexeaK em COyn MTN
Ze Co

 
 
    
 
   
   
  

    

ACCU-CHEK’
Noctasku

  

9:53am
WiTt- ema)

,
Bes>KN4HO
+ OR Eee

NoctasKu

  
   
 
  

  
 

Hema cnapeH

Nos sate Ao)
cnapu cera?

 
  

 
 

 
ACCU-CHEK*

Upar. uredaja

Sed

UTS mat
uredaju.

 
 
    
    
    
   
  

 
   

ACCU-CHEK*
eS NC

  

9:53am
Glavni izbornik

,
+

par. uredaja

 
 
    

IN TeTaat mel es-Uccralla)
uredaja.
Upariti sada?
Porast
tijekom
obroka

Ciljni Ciljni

raspon raspon
Nakon porasta
tijekom obroka
 
   
 
    
  
 
  

ACCU-CHEK’

  

9:53am
ae

      

ll ae amt
eee ea
eNPA Em es

Oo

     

 
ACCU-CHEK’

Bal Woe

 
7 eats @tls-@

fal) A cd cid

itd

Soler
Ey Cea

 
ACCU-CHEK*
USSU CLF

PRET)
er
.

Es

Instellingen

eater) sly
Gy) CL

 
ACCU-CHEK*

esmaakd

 
ACCU-CHEK*

9:53am

pr eR acte
ee eT ak)
Neier

 
ACCU-CHEK’

PAN Ea cael be).

Seed

siCerehVe\ atom Ke)
KWOIKO OTN OUOK.

 
Avgnon
Tt yAuKotn¢
aipatoc

Evpoc Evpoc
OTOXOG OTOXOG

Meta thv avénon
yAuKotn¢ aipatoc
ACCU-CHEK’
ed )e] Bl Coraileg

9:53am
KUplo WEVOU

Aovpu. ovvd.

Aév umtdpxét
ouCevyvevn
(elec an

pA eae savored

 
 
      
   
   
  

 
   

V(X UN O13 a
KeXireli [olan]

  

9:53am
Galvena izvélne

lestatijumi

  
   
 
   
  

avienojums ar ierici

  

Nav savienotu
re vaU AVI
savienot tagad?

 
 

 
ACCU-CHEK’

Savienojums ar ierici

Seed

levadiet ierices
kodu.

 
ACCU-CHEK*

Resist
ag

eos ee TRO

 
ACCU-CHEK*

BREE
Bad ee ENE
ava) Tee

 
ACCU-CHEK*

Associa disp.

Std

tite ee
STB ey seeds

 
7 (aan 1/7, ;
Ti seer

ELL
Menu princip.

Wireless

Git serd iia)
EES
Associare ora?

 
 
  
    
    
     
      

yreatner ial

Eta cu
wanna

Ser
eos

ed
7 reatner rg
Instellingen

9:38am

ee CC

. 7

ey Draadtoo

Instellingen

 
T\vetner a

9:38am
ey

corey
Pca
Pasangkan
ee

 
yreatner ial

ee
aannae

Pec)
Coos

ay

 
BEO
me tF

Bee Bee
eso met
ACCU-CHEK*

AOA
aera

all I— Fe
INO AOE: Se)

 

 
ACCU-CHEK*

9:53am
x=1-

NPA

ND UY TEBE
Na ac ves
NPUYILETH?

 
y(xat Oise

9:53am
Same Nd

Rees

OP
DAVE Sale
OU PAU SNe

 
REO
mete

BRSA BRaA
aeomet
7 eats @tls-@

Aes
HARE

IC I-—Fe
COC

 
ACCU-CHEK*
Nastaveni

9:53am
Hlavni menu

parovat zarizeni

Zadné sparované
zatizeni. Chcete
je nyni sparovat?

 

 
ACCU-CHEK’

Sparovat zarizeni

Seed

Zadejte kéd na
zatizeni.

 
 
    
 
    
  

 
   

V(X UN O13 a
Innstillinger

  
 

9:53am
Hovedmeny

  

Tradlas

Koble enhet

Ingen koblet
alataim
Koble na?

  

 
 

 
ACCU-CHEK’

Koble enhet

Seed

Angi kode pa
enheten.

 
ACCU-CHEK*
el

Por
Cia)

 
ACCU-CHEK*

Seeman)

aneane

Peas
cots

 
ACCU-CHEK’

Seznani napra.

Seed

V napravo
vnestie kodo.

 
 
    
    
  

 
   

ACCU-CHEK*
Nastavitve

  

9:53am
Glavni meni

Beznani napravo

 
  

Ni seznanjene
naprave.
Seznanim zdaj?

 
 
 
Porast
po
obroku

Ciljno Ciljno

obmoéje obmoéje
Po porasti
po obroku
ACCU-CHEK*

PANE areola

See cd

Etoaydayete Tov
KWO5IKO OTN GUOK.

 
Avénon
tT yAUKOTNG
aipatoc

Evpoc Evpoc
OTOXOC OTOXOG

Meta thy abénon
yAuKotn¢ aipatog
 
   
  
  

 
   

ACCU-CHEK*
Pu®ypioeic

  
 

  

9:53am
Kupto pevod

CEU eeu ale

Aev urtdpxet
foes) eV)
ouoKEUr}.
PINEAU sa micelet

   
 
    
ACCU-CHEK*

ec ecteE Ta)

Rca eas

pit ee
Bra GE Sie

 
7 eats @tls-@

Pests
aiid

cca 2 eR

 
{of
ACCU-CHEK*

wwe
eee

Regs (CI—- Fe
ORO a

 
ACCU-CHEK*

9:53am

NTUYT

SD PP ns
Ae acaatn)
ASP PAU Ys

 

 
RRO
me LFA

AiR Bre

REO MBL
FR

 
Wzrost
po
positku

Zakres Zakres

docelowy docelowy
Po wzroscie
po positku
7 eats @tls-@

Powiaz urzadzenie

aiid

Wpisz kod w
urzadzeniu.

 
 
    
 
   
      

    

y(xat Oise
eS Ca)

  

9:53am
Menu gtowne

Ustawienia

Bezprzewodowe

  
   
  

  

Cae ere
Er

    
Porast

po
obroku

Ciljno | Ciljno _

obmocje obmoécje
Po porasti
po obroku
 
    
    
  

 
   

ACCU-CHEK’
Nastavitve

  

9:53am
Glavni meni

Beznani napravo

 
  

Ni seznanjene
naprave.
Seznanim zdaj?

 
 
 
ACCU-CHEK’

Seznani napra.

Seed

V napravo
vnestie kodo.

 
 
    
      
 
   
 
  

 
   

Tcoter ag 7
Sone

cr
Pease

ry

a

 
      

   

mun. ser fio

ars
RCs
ree

 
  

 
 
 
 
      
    
     
      

yreatner ial

 

Eecumcis
anna

Tee
Peace

ed
Toate

Uparite uredal
rr

iy
Pon

 
 
    
     
   
  

 
   

walneal
eo

9:53am

era

eee

een
ee
Benet

  
 
 
ACCU-CHEK’
Installningar

9:53am
Huvudmeny

Tradlést

Ingen kopplad
alataim
Vill du koppla nu?

 

 
ACCU-CHEK’

Koppla enhet

Seed

Ange koden
pa enheten.

 
ACCU-CHEK*

Pasangan Peranti

Sed

Masukkan kod
pada peranti.

 
an

 
 
  
 
    
   
   

ACCU-CHEK*

  

SEE]
Atal RO) Tate]

.
A Wayarles

   
   
  

  

asangan Peranti
Tiada pasangan
peranti.
Pasangkan
sekarang?

   
 
    
ACCU-CHEK*

1Uyek-Tai CMU lc-re fel}

Sed

LU lat-iitom cole mar-|
uredaju.

 
 
    
    
 
   
  

 
   

ACCU-CHEK’
Lecotel-tr-NZ-la) cl

  

9:53am
(ele Wial meal

Wireless

parite uredaj

  

Nijedan uredaj nije
lero
sada da ga uparite?

  
 

 
 
    
 
   
 
   
  

 
   

ACCU-CHEK*
Te Til

  

9:53am
Meniu principal

Wireless

sociati dispozitiv

 
  

Nu exista niciun
dispozitiv asociat.
Asociati acum?

 
 
 
ACCU-CHEK*

Asociati dispozitiv

Std

Introduceti codul
pe dispozitiv.

 
Crestere
glicemie

Interval Interval
tinta tinta
Dupa cresterea
glicemiei
ACCU-CHEK*

9:38am

Menu principal
a
EY

Réglages

Réglages

Sans fil

Lier dispo.
Aucun dispositif
TEPaate- all ¢
TET Ete wa

 
ACCU-CHEK*

Lier dispositif

See ed

Entrer le code
sur le dispositif.

 
7 eats @tls-@

eeu

iad

Masukkan kod
Peers

 
an
ACCU-CHEK*

ERLE
UVR Ture}

Pewee ued
Seer
et

Pere eu
Reena

 

 
ACCU-CHEK’

beets t= 1 af)

ea

. rT
. oe

HacTpowKn

HacTponKn

Becnp. ceasb

ee
ConpaxeHHoe
Para ee) (ai)
yeaa
BbinonH. conp-e?

 
ACCU-CHEK*

Conpaxk.ycTp.

See ed

a]:1-91 Gem np
B YCTpOMcTee.

 
ACCU-CHEK*

App. koppelen

Std

Voer code op
ENS CelaUn

 
ACCU-CHEK*

EEL
ia 2
EY

Instellingen

Instellingen

Draadloos

App. koappelen

Niets gekoppeld.
Nu koppelen?

 
ACCU-CHEK*

Seo seade
ened

Sisestage
seadmel kood.

 
 
    
    
     
    
     
 
   
  

 
   

ACCU-CHEK*
SST-lit te}

  

9:53am
mac CIALOL 0)

   
 

Satted

Juhtmeta

 

Seo seade

  

Seotud seadmeid
ei ole.
LC TEie Velo vg

 
 
ACCU-CHEK*

Pr)
EYE MUCH

eres
ra a
RTT erated

 

 
7 eats @tls-@

POE MRFiCrLUe

itd

Cihaz Uzerindeki
Cor a

 
ACCU-CHEK*

Savienojums ar ierici

eed

levadiet ierices
kodu.

 
 
      
   
  
  

 
   

ACCU-CHEK*
Rese) (lan

  

9:53am
Galvena izvélne

     
   
 
  

St aver
4 “u _Bezvadu

lestatijumi

  
 

Nav savienotu
(eA
savienot tagad?

  

 
 
ACCU-CHEK’ , »
ontiguracoes

TSE Tad)
hienu principal

+
all

Menhum disposi-
Aa iTe eed Tn oe Te
a

 
ACCU-CHEK*

Sincron. disp.

See ed

Insira o codigo
UU] STe eae ne

 
ACCU-CHEK*

BA HlO1Z

 
ACCU-CHEK*

9:53am
Ue

En Es ii

 
 
     
     
 
   
    
 
 
  
 

 
   

T\vetner a a
Perris

9:38am
eee

lEecnp. cease

rc
Paria

goes
ERnenien a
i
 
   
 
     
    
   
      

yreatner ial

eer
wanna

ea’
cn

ed
ead

 
RED
me

Bree BRA
REO E
Rie
yreatner ial
ReDPzA

rrr

eed
Pees

ay

 
 
     
 
   
 
      

 
   

7 (aan 1/7, ;
att eee

  

ERE)
Menu principal

a
A Sans fil

Réglages

   
   
  
 
     

  

  

Lier dispo.
Pee EMe STEAL
lié. Etablir

liaison ?
ACCU-CHEK*

Lier dispositif

Std

Entrer le code
sur le dispositif.

 
 
    
     
 
  
   
  
 
 

ACCU-CHEK*
eee

Poo
fen

    
 

*™
Langaton

 

P

  

err)
Pree
Rcd
ACCU-CHEK*

Sarees
aneane

Rycia
Pen

 
ACCU-CHEK*

Lecce AR ALAse |

Std

Indtast kode pa
enheden.

 
Maltids-

stig-
ning
Malomrade Mal-
omrade
Efter

stigning
 
     
   
   
   
  

 
   

ACCU-CHEK*
Indstillinger

  

9:53am
Lao Fett 1A 10]

melo =19

Ingen pardannet
enhed.
Pardan nu?

 
  

 
 
7 eats @tls-@

Sincron. disp.

aiid

me meL Ls)
Pee eee

 
 
    
  
   
  

 
   

ACCU-CHEK* Py
Ti Lee

  

EEE)
Menu principal

 
 
 
   

Nenhum disposi-
SOc
PCr 1g

agora?

 
ACCU-CHEK*

OTE Cs oe

See ed

Naet-1¢10= med ed
IPI RPE STe deh

 
ACCU-CHEK’

9:38am
ay
FY

Impostazioni

Impostazioni

Wireless

ely aera ig)
associato.
Associare ora?

 
ACCU-CHEK*

Rereieeucu

ad

Zadejte kod na
PTT

 
Veal O71 2.@ ;
DES CNT

9:53am
EWA]

Bezdratové

PEE

ZAdné sparované
Perce ey
je nyni sparovat?

 
 
     
 
    

 
   

ACCU-CHEK* Pa
Hactpoiikn

  

ETL)
Me
. ,

ey q

Hactpoiixn

  
    
   

sae cu
er een
ycTpovicteo
Ca
£=f S100) Pee

 
 
 
 
     

my

 
7 eats @tls-@

Conpax.ycTp.

itd

BUCY
CO Cae

 
ACCU-CHEK*
Installningar

9:53am
Huvudmeny

Tradlést

Ingen kopplad
aaa
Vill du kKoppla nu?

 
ACCU-CHEK*

Koppla enhet

eed

Ange koden
pa enheten.

 
yreatner ial

Prac
rrr

tea

ay

 
7 reatner rg

cr
Piruca

pom

Seren)

 
 
    
 
   
   
  

 
   

ACCU-CHEK’
reyevrelg|

  

co toyer (a8)
Meniu principal

:

«

    
 
  
 
 

  

Nu exista niciun
dispozitiv asociat.
Asociati acum?
Crestere
glicemie

Interval Interval
tinta tinta
Dupa cresterea
glicemiei
ACCU-CHEK*

Asociati dispozitiv

See ed

Introduceti codul
pe dispozitiv.

 
 
   
 
     
   
   
    
 
 
  

ACCU-CHEK*

por
Meniu principal

a

See

reno
Cera
eet
 

Crestere
glicemie

Interval
tint

Dupd crogtrea
Gap one
yreatner ial
Asociati dispozitiv

rrr

Introduceti codul
Pees

ay

 
 
    
  
   
  
 
 
 
   

 
   

ACCU-CHEK* , 7m
egal Lee eee}

  

EERSTE Lg)
Menu principal

  

incron. disp.
Nenhum disposi-
AEST Ce Do
STC rae

agora?
ACCU-CHEK*

Sincron. disp.

Ded

TET ec MOMPT® | T
no dispositiva.

 
yreatner a

Pesinees

aaa

Ne
Scr

 
Porast

po
obroku
Ciljno Ciljno
obmoéje obmoéje
Po porast

po obroku
 
    
 
   
   
    
 
 
   

ACCU-CHEK*
Resa

Po

feral

Sa)

Ni seznanjene
ces
ee
ACCU-CHEK’
NoctaBKu

9:53am
[naBHo mMeHu

:
Be3>KUYHO
Py etie

NoctaBKu

mse Mernt=\©\=) 5]
ypea. Ha ce
cnapn cera?

 

 
ACCU-CHEK’

Cnapete ypea,

Seed

sya lcLe-IKo Cova Maral
ypenorT.

 
 
    
    
   
 
 
   

    

y(xat Oise
CMA

9:53am
SE

  

PART TAMA OLE)

Sage}
oes
Seznanim zdaj?
ACCU-CHEK*

Rearend

id

V napravo
vnestie kodo.

 
Porast
po
obroku

Ciljno Ciljno

obmoéje obmoégje
Po porasti
po obroku
Toate

erent
rr

Coy
Pras

 
yTeatnerig

ra

9:53am
eee

 

 
Wzrost
po
positku

Zakres Zakres

docelowy docelowy
Po wzroscie
po positku
ACCU-CHEK*

Powiaz urzadzenie

Std

Wpisz kod w
urzadzeniu.

 
 
    
 
   
   
  

 
   

ACCU-CHEK*
OMT

  

9:53am
Menu gt6wne

.
r _ Bezprzewodowe

Ustawienia

  
   
  

  

owiaz urzadzenie
tele
fole\Vt-v4-la\Viern)
urzadzen.
Powiazaé teraz?

 
 
 
       
 
     
 
   
 
      

 
   

ACCU-CHEK*
ay CIs

  

3:38am
Ana meni

a
‘A Kablosuz

Ayarlar

   
   
  

  

ihazi eslestir
Sete
cihaz yok.

TT eta

  

 
 
 
ACCU-CHEK*

feiEran-F rie

Std

Cihaz Uzerindeki
cue as

 
ACCU-CHEK*

forse

aneane

Eo
Pad

 
ACCU-CHEK*
Scand

oy
fern

Ingen kopplad
ce
Rea

 
 
   
    
    
     
      

Treaera ag

Pree
HHH

pens
Pa

ed
Vzostup|
jediom

Cietové
rozpatie

 

Vzostup
po jedie
 
    
   
   
  

Vleatneri
Nastavenia

 

Poo
ered

Een’
Ease

peed

   
  
 
    
    
 
   
   
  

 
   

ACCU-CHEK*
Indstillinger

eer Ti
crea

  

Tradlos

eR

Ingen pardannet
ile
cee

 
  

 
 

 
7 eats @tls-@

Lickel UR CAALe)

aiid

Indtast kode pa
Cult ola

 
 
      
   
  
  

 
   

ACCU-CHEK*
Nustatymai

  

9:53am
Pagrindinis meniu

     
   
  

a “u _Belaidis ryys

Nustatymai

  

Susieti jrenginj

   
    

Nesusieta né su
vienu jrenginiu.
Susieti dabar?
ACCU-CHEK*

Susieti jrenginj

eed

Iveskite koda
jrenginio ekrane.

 
ACCU-CHEK’

Uparite uredaj

Seed

Unesite kéd na
uredaju.

 
 
   
 
    
  

V(X UN O13 a
PodeSavanja

  

9:53am
Glavni meni

parite uredaj

  

Nijedan uredaj nije
uparen. Zelite li
sada da ga uparite?

  
 

 
ACCU-CHEK*

ed

EUBLS ALB

 
ACCU-CHEK’

9:38am
peo

1.

re.

 
7 taaer

paca naras
rd

aad
rats

 
AbEnon
“yAuKotng
aiyaros

Evpoc Evpoc
OTOXOG OTOXOG
era ian
 
    
  
    
 
   
   

    

eer
% oe Li aad

Poy
[era

Adbpy. obv6.
sores

remy
Saal

  

 
 
ACCU-CHEK*

Bi aerar eva

See ed

Aeon GN ool ants

 
ACCU-CHEK*

EMCEE ag)
Wunan

.
afl

ANaBNEN

Pee

nena
EWrataoy treat] 6t

 
 
 
    
    
   
  

 
   

ACCU-CHEK*
SPEC

  

PTET
ETAT SLAC cL

Inalambri

Tre ees ees
SUC
éSincronizar

  

 
 

 
7 eats @tls-@

BTCC ee

itd

CD rn
Cor Pn os

 
ACCU-CHEK*

ilo Xacs

ad

Angi kode pa
CC

 
 
      
   
   
   
  

 
   

ACCU-CHEK*
ae diiare (om

  

9:53am
Prete NY

Tradlos

ole cxculilas

Ingen koblet
a
Koble na?

 
  

 
 
 
      
   
     
  

 
   

y(xat Oise
Lite) celal

9:53am
Kupto pevod

  

Pudpiceic

   

   
   
  

_Aupy. ouvd.

CEN aKa
‘Dev unapxer
roa
Crertiy
Puan

   
 
    
ACCU-CHEK*

PAC ss keea

Seed

ream]
Pmt kea tetera

 
Avénon
t yAuKotn¢
aipatog

Evpoc Evpoc

“ OTOXOG
OTOXOG Meta thy anon
yAuKdtn¢ aipatoc
ACCU-CHEK’

Indstillinger

9:53am
Hovedmenu

Pardan enhed

Ingen pardannet
enhed.
Pardan nu?

 
ACCU-CHEK*

Pardan enhed

See ed

Indtast kode pa
enheden.

 
Maltids-
stig-
ning

Malomrade Mal-
omrade

Efter
stigning
 
     
     
  
  
  

 
   

T\vetner a ,
enero

cer
Pease

  

enn
ony
Od
ied
 
   
 
     
      
      

yreatner ial

Lier disposit
wanna

Oar)
eee

ed
 
   
 
   
   
   
   
 
       

yreatner ial

Ete

 

is

 

wanna

ee
reas

ed
T\vetner a

9:38am
Perse

Enea

inakémbrico

eo

Bucs

ae
Tard

 
 
    
 
   
   
  

 
   

ACCU-CHEK’
Postavke

9:53am
Glavni izbornik

  

:
Beziéno
Ys or

     
    
  

par. uredaja

Nema uparenih
uredaja.
UJ ey-lalamst-lot- Wg

 
 
 
Porast
tijekom
obroka

Ciljni Ciljni

raspon raspon
Nakon porasta
tiiekom obroka
ACCU-CHEK*

Upar. uredaja

cg

Unesite Sifru na
uredaju.

 
7 eats @tls-@

Lier dispositif

itd

la
Tae see

 
ACCU-CHEK* 7
Réglages

CREE UF

pe lita
a

E!

Réglages

Rtn
TCAs
Tel ed

 

 
 
   
 
 
   
  

ACCU-CHEK’ ;
instellungen

  

beets t= 1 af)
Hauptment

a

A

Einstellungen

  
    
 
  

Tease

ARTE S108 1g
Gerat.
Jetzt verbinden?

  

 
 
ACCU-CHEK*

Gerat verb.

See ed

Code auf
Gerat eingeben

 
Anstieg
Tt nach
Mahlizeit

Zielbereich Zielbereich

Nach
Anstieg
Crestere
glicemie

Interval Interval
tinta tinta
Dupa cresterea
glicemiei
7 eats @tls-@

Peers ei)

aiid

Introduceti codul
xeon

 
 
    
 
   
 
 

 
   

y(xat Oise
Set

9:53am
Meniu principal

 
    
  

 

Wireless

ees)

Nu exist niciun
Cleese
Sree es

 
 
 
ACCU-CHEK’

Yhdista laite
eee esd

Syéta laitteen
koodi.

 
 
    
 
 

 
   

ACCU-CHEK’
Asetukset

9:53am
Paavalikko

  
  
   
  
 
 

Langaton

Yhdista laite

Ei yhdistettya
laitetta. Haluatko
yhdistaa?

  

 
ACCU-CHEK*

Sparovat zariadenie

Std

Zadajte kod v
zariadeni.

 
 
    
 
   
   
  

    

Vee U2 Oise
Nastavenia

  

9:53am
IEW atm Lela le eal

,

=

Nastavenia

  
   
 
   
  

Ae

 
  

Ziadne sparované
Pelle

Sparovat teraz?

   
Vzostup
jedlom

Cielové Cielové

rozpatie rozpatie
Vzostup
po jedle
ACCU-CHEK*

Koble enhet

eed

Angi kode pa
Taco

 
 
      
   
 
   
   
  

 
   

ACCU-CHEK*
Innstillinger

  

9:53am
Hovedmeny

Tradlos

Koble enhet

Ingen koblet
aaa
Koble na?

 
  

 
 
ACCU-CHEK*

BR] Moz
aneane

Ere

cone

 
PREue
Coror
Eee
Cee

 
 
    
    
 
 

 
   

ACCU-CHEK*
Los

 
  
    

9:53am
Paavalikko

 

Langaton

Yhdista laite

Ei yhdistettya
FETCne Ma ClO co}
yhdistaa?

  

 
 
ACCU-CHEK*

Yhdista laite
ened

RSe lk Meld 18]
koodi.

 
 
    
    
 
   
  
  
 

 
   

ACCU-CHEK*
PodeSavanja

  

9:53am
Glavni meni

Wireless

Perce

  

Nijedan uredaj nije
Meer
Peet cued

 
ACCU-CHEK*

Uencticec

ad

Unesite kéd na
uredaju.

 
T\vetner a

9:38am
Re

rr

‘Te

 
yreatner ial

Pee
wanna

ca ta Bac

 
ACCU-CHEK*

Sree ee ee

aa

Zadajte kod v
Zariadeni.

 
Vzostup

jediom
Cielové Ciefové
rozpatie rozpatie
Vzostup

po jedie
 
    
 
   
    
 

 
   

(xo Ors a
Nastavenia

9:53am
Hlavna ponuka

  

      
   
  

Bezdrotova komunikéci

Sec Cue!

Ziadne sparované
Pecan

  
  

Serger
Anstieg
iach,
Mahizeit

    

_

Zielbereich Zielbereich
Nach
Anstieg
    
     
     
 
     
     

T\vetner a

er
Sere

.
a
Einstellungen

acter
Kein verbundenes
crn

Jetzt verbinden?

iri
 
   
 
   
   
   
   
 
       

yreatner ial

earner}
wanna

Code aut
eee

ed
 
   
 
     
  
  
 
   

Weiner ag

Poy
fend

pe

‘Seotud seadmeid
rs
Reed
ACCU-CHEK*

Perec

aneane

SeeTy
Pesto

 
ACCU-CHEK*

Susieti irengini

ad

Iveskite koda
jrenginio ekrane.

 
 
      
   
  
 
   

 
   

ACCU-CHEK*
Nustatymai

  

9:53am
Sears ea

Belaidis ry’ys

Susieti jrenginj

SCE
ATs a0
ST Kolo led

 
 
 
ACCU-CHEK*

eer
Saeed

cea 2 et

 
 
ACCU-CHEK*

Rese
Bea Re SDL Sy
Rae aed

 
T\vetner a

9:38am
es

Impostazi

Cer
Pes

 
 
   
 
     
   
   
   
 
       

yreatner ial

Peer?
wanna

eet
Pours

ed
 
     
     
  
 
 
  

 
   

T\vetner a
Indstiinger

co

eur

ene

rece
ee
crud
yreatner ial

eee)

rrr

tore)
er

ay

 
Maltids-

   

Malomrade Mal-
omrade
Efter
‘stigning
seni
ACCU-CHEK*

PRET)
roa)

Pa Sial

SO ONE Ge
ENE roc DIT}

 
7 eats @tls-@

DY aba Gal
aiid

DCO ERLCO CCU’

 
ACCU-CHEK*

Rossekeauc

ad

Ange koden
fe R aac

 
 
    
  
  

 
   

ACCU-CHEK*
Installningar

  
 

  

9:53am
Pee aN

Ingen kopplad
a
Vill du koppla nu?

 
  

 
 
ACCU-CHEK’

Susieti jrenginj

Seed

|veskite koda
jrenginio ekrane.

 
 
      
   
   
  

 
   

V(X UN O13 a
Nustatymai

9:53am
Pagrindinis meniu

  

4 eu _Belaidis

Nustatymai

     
  

Susieti jrenginj

  

Nesusieta né su
vienu jrenginiu.
Susieti dabar?

 
 
 

 
ACCU-CHEK*

Lier dispositif

Std

Entrer le code
sur le dispositif.

 
 
     
 
   
 
      

 
   

7 (aan 1/7, ;
att eee

  

ERE)
Menu principal

a
A Sans fil

Réglages

   
   
  
 
     

  

  

Lier dispo.
PeUEOLEMe STEEL
lié. Etablir

TET etal avg
ACCU-CHEK*

Powiaz urzadzenie

See ed

Wpisz kod w
urzadzeniu.

 
Wzrost

po
positku

Zakres Zakres
docelowy docelowy

Po wzroscie
po positku
 
    
 
   
   
  

 
   

ACCU-CHEK’
Ustawienia

  

co toyer (a8)
Menu gt6wne

:
wy _ Bezprzewodowe

Ustawienia

     
   
  

owiaz urzadzenie
Biel

powiazanych
urzadzen.
Powiazacé teraz?

 
 
   
 
ACCU-CHEK*

ET
bao

eh!
Pe

 

 
7 eats @tls-@

Pes anest
itd

cae ee aL

 
ACCU-CHEK*

Seo seade

ad

Sisestage
seadmel kood.

 
 
   
 
    
    

ACCU-CHEK*

  

9:53am
eA)

Seo seade

Seotud seadmeid
rel
Kas siduda kohe?

  

 
 
ACCU-CHEK*

9:38am

Menu principal
a
|

Réglages

Réglages

Sans fil

Lier dispo.
Aucun dispositif
TEPaate-1 al ¢
liaison ?

 
ACCU-CHEK*

Lier dispositif

See ed

Entrer le code
sur le dispositif.

 
Nustatymai

eer
Neca an

 
ACCU-CHEK*

Rrecmien i

aneane

Rey
eee

 
 
     
 
   
  

 
   

ACCU-CHEK*
Impostazioni

  

PEEL)
Menu princip.

”

Bt

     
   
 
    

  

SS
Cre eee
Ete Coy

 
7 eats @tls-@

PSEC RCo

itd

ares Do
SM Pee

 
 
    
    
       
     
 
   
  

 
   

ACCU-CHEK’
Satted

  

9:53am
mdcrelanl=valel6)

Juhtmeta

Seo seade

  

Seotud seadmeid
ei ole.
Kas siduda kohe?

 
 

 
ACCU-CHEK’

Seo seade

Seed

Sisestage
seadmel kood.

 
ACCU-CHEK*

Seen

aneane

Oy
Peg

 
 
    
     
 
   
  

 
   

eae ;
Rea

oy
fie

Bezdritov

(eee
 
   
 
   
    
     
      

yleaerag

aed
wa

TnL)
Po

Se
ee)

Beziéno

ea
uredaja
ec

 
Ciljni Ciljni

raspon raspon
Nakon porasta
tiiekom obroka
Anstieg
tT nach
Mahlizeit

Zielbereich Zielbereich

Nach
Anstieg
 
     
 
   
  

 
   

7 (aan 1/7, ,
instellungen

  

ELL
(aD) SOLA

“

EY

Einstellungen

  
   
   
    
 
      

OT
RSE aE
Gerat.

Jetzt verbinden?
ACCU-CHEK*

eee

Std

font EI
Gerat eingeben

 
 
   
 
   
    
     
      

yreatner ial

Pieeenenta
wanna

Oren)
pera

ed
 
     
     
 
   
   
  

 
  

T\vetner a
ESE

9:38am

een)

Kablosuz

eran
pina
Seen

 
 
ACCU-CHEK*

Sparovat zarizeni

eed

Zadejte kod na
raclir oun

 
 
    
    
 
   
  

 
   

ACCU-CHEK*
Nastaveni

  

9:53am
Hlavni menu

Bezdratové

ee ler]

  
 
 

 
 

ZAdné sparované
yzl(7 a es
je nyni sparovat?

 
 
 
    
    
 
   
  

    

ACCU-CHEK*
aller TG)

9:53am
ero)

  

Besku4Ho

Hema cnapeH
ypen, Ha ce
fel) ke-Ve

 
  

 
 

 
ACCU-CHEK*

eens
Sead

Brecete kog Ha
ypegor.

 
ACCU-CHEK*

Ne B CU)
ad

Sele BC aco)
koodi.

 
 
    
 
   
   
 
 

    

ACCU-CHEK*
lg

  

9:53am
Paavalikko

]

=
Asetukset

  
   
   
  

 

Yhdista laite

ener)
PETC a Io)
Nee evs

  

 
 
 
     
     
  
  
  

 
   

T\vetner a ,
Réglages

cer
Menu principal

  

enn
nye
ol
io
 
   
 
     
      
      

yreatner ial

Lier disposit
wanna

Oar)
eee

ed
ACCU-CHEK*

ene al

ad

levadiet ierices
kodu.

 
ACCU-CHEK*
lestatijumi

xr la)
Galvena izvélne

NEVE aTe
(cela
savienot tagad?

 
ACCU-CHEK*

PEEL

TREC SLO
”
at

Einstellungen

 

 
7 eats @tls-@

fea
iad

Code auf
Gerat eingeben

 
ACCU-CHEK*

yee cla

See ed

Voer code op
apparaat in.

 
ACCU-CHEK’

beets tT af)

PLHCP L=daLe)
a
A

Instellingen

Instellingen

Draadloos

App. koppelen

Niets gekoppeld.
Nu koppelen?

 
ACCU-CHEK*

3:38am
Ets

, ee

 
ACCU-CHEK*

pes cane
Saeed

cae ee: RL)

 
 
    
  
  

 
   

ACCU-CHEK*
sud

   
 

oy
end

Preto
co
eed

 
  

 
 
ACCU-CHEK*

fone’
aneane

OL
eras

 
ACCU-CHEK*
Rees

CSTE if)

a
A Inalambrico

incron. disp.
Ninguin dispositivo
sincronizado.
é£Sincronizar
lala = Wed

 
ACCU-CHEK*

SC ee ao

See ed

Introduzca el
codigo en el disp.

 
7 eater Ot aa

Ure EIEN

Sed

Uesceimnr
Meeeitn

 
 
    
    
   
   
  

    

y(xat Oise
CVC

9:53am
ears eceltALS

  

TRU econ}
uredaja.
Oyen r-lol- We

 
  

 
 
Porast
tijekom
obroka

Ciljni Ciljni

raspon raspon
Nakon porasta
tiiekom obroka
ACCU-CHEK*

Sincron. disp.

Std

Tice eae 1)
Corer Te Te-1g =) yo

 
 
      
   
 
      

 
   

7 (aan 1/7, ,
Pee

  

ERT)
Mend principal
oy
EY

Ajustes

   
   
 
  
  
    

  

Inalambrico

  

incron. disp.
NTT lame es sTee ze
ETH aera Le
éSincronizar
ahora?
7 reatner rg

er
Pt

 
yreatner ial

esi
re

cot

ay

 
 
   
 
    
  

ACCU-CHEK*

  

SST SE na]
etal Oe Taare)

  
   
   
  

a
A Wayarles

asangan Peranti
Tiada pasangan
peranti.
Pasangkan
sekarang?

  

 
 
 
ACCU-CHEK*

Pasangan Peranti

See ed

Masukkan kod
pada peranti.

 
an
Wzrost

po
positku
Zakres Zakres
docelowy docelowy
Po waroscie

po positku
 
    
   
   
 
  
    

ACCU-CHEK*
Pecuca)

cor
ear cca)

    

Brak

Pr

teen
eee
yreatner ial
Led Asca d

rrr

Raed oh
eon

ay

 
ACCU-CHEK*

Sparovat zariadenie

See ed

Zadajte kéd v
zariadeni.

 
Vzostup
jedlom

Ciefové Ciefové

rozpatie rozpatie
Vzostup
po jedie
ACCU-CHEK’
Nastavenia

9:53am
Hlavna ponuka

P ee Bezdrétova komunikacia

Nastavenia

Sparovat zariadenie

Ziadne sparované
zariadenie.

Sparovat teraz?

 
2019.05.09;
-
,
,
re
i
aaa
4
oe
SB
aaa
Roche Diabetes Care GmbH
Sandhofer Strasse 116
68305 Mannheim, Germany
EU:
