 
 
 
 
eth
lo
 
 

ITT] ets) 1 en

oa
 
 
 
 
 
w &
Favorites
DSM-5 Handbook
of Differential Diagnosis

American Psychiatric Association Publishing

 
 
rN
‘ly
 
g
 
lL —_
lo
»
Talent ite foe aD ete ume a acs dala

MEDICINE
 
 
.
im

iB
 
@crasp
 
2 =7 unbound
KAIRIE
DSM-5

Handbook of Differential Diagnosis
 
— 4
ie)
ae Scere oe
 
Z
 
 
@ unbound
ia
 
6
i

ne
a UI MIAO UME!
MEDLINE
y

=

y
 
(By, re
@
Converted inside cells to carbovir
triphosphate, its active metabolite. Carbovir
triphosphate inhibits the activity of HIV-1
reverse transcriptase, which in turn terminates
viral DNA growth.

The copy NOTE GLIMPSE 3

e Stowe WIS PEG GreVvVIygiy GET v ISVs rT are

decreases the occurrence of its sequelae.

e Increases CD4 cell counts an@JecreasesD
viral load.
py Prime
 
of
 
 

por
IN
IN
Ea

ee

ee
4
Ww

ee
@
 
ca)
I
 
>

P< g
 
 
a)
DSM-5 Handbook
of Differential Diagnosis

American Psychiatric Association Publishing

 
Pinlorourmel (M4) UI NT
y

=

y
(By, unbound medicine’
@
 
Ea

ee

ee
ne
4

Get the most out of Unbound MEDLINE
LO)
a
a

 
LO)
 
G)
 
‘ly
 
 
 
 
 
 
 
 
|
 
 
 
DSM-5 Handbook
of Differential Diagnosis

American Psychiatric Association Publishing

 
a
PSE)
Pre
Pree
PSE)
Pre
Dro
DSM-5
Py urel|
Diagnosis
DSM-5
Pil
Pieeney
Dae}

 
Pe
Pl
on
DSM-5
Differential
Diagnosis
Poe
Pag
Cl
DISIMES

iene xaoleolnDineraaniol DikeKe Osis
 
CONFIDENCE AT YOUR FINGERTIPS

ee

ee

 
ae

ee
