//placeholder file to keep raw from disappearing randomly{
		"account": "username",
		"tests": [
			{
				"testType": "bloodPressure",
				"testNumber": 5,
				"testDate": "2015-01-07",
				"items":  [
				{
					"testItem": "systolic",
					"testValue": "5215"
				},
				{
					"testItem": "diastolic",
					"testValue": "235"
				},
				{
					"testItem": "pulse",
					"testValue": "100"
				}
				]
			},
			{
				"testType": "bodyTemp",
				"testNumber": 5,
				"testDate": "2015-01-07",
				"items":  [
				{
					"testItem": "temperature",
					"testValue": "37.5"
				}
				]
			},
			{
				"testType": "bodyWeight",
				"testNumber": 5,
				"testDate": "2015-01-07",
				"items":  [
				{
					"testItem": "weight",
					"testValue": "55.6"
				},
				{
					"testItem": "BMI",
					"testValue": "2.4"
				}
				]
			},
			{
				"testType": "O2Saturation",
				"testNumber": 5,
				"testDate": "2015-01-07",
				"items":  [
				{
					"testItem": "SpO2",
					"testValue": "55"
				}
				]
			}

		]
	}