 
 
 
 
 
.
»
 
 
 
|
 
 
 
 
 
I
 
 
y

=

y
y

=

y
a

 
 
 
G)
a
Cl
 
 
 
I
 
 
y

=

y
y

=

y
a

 
 
a
Cl
 
 
 
 
 
.
»
 
 
 
|
 
 
 
G)
