 
|
 
 
 
 
 
 
 
 
 
 
 
 
a
a
C
 
 
 
a
 
 
 
@ Doctor Profile
&, New Patient
 

‘CENTER

Quick Contact * & Vames Pet Shop Ho

Punjab National Bank

G 22-24, Citylight Complex Opp. ? Burrus aed ery
Science City Center, City Light Surat, ° S+Pevetne
help@drbhutra.com Finsdea Home Loan
(0261) 2212135
& Old Patient
A Bhutra's Poly Clinic
we are here to take care of you all

Lb

 
s Feedback
Cl
a
 
 
