 
»
 
 
 
OR cg
 
 
.
 
 
 
 

 

 

 

 

 

 

 

 

 

 

 

 

 

 

 

 

 

 

 

 

 

 

 

 
 

 
 
 
a
Posterior
Usu. sphenopalatine a.
=10% of epistaxis

Maxilla

 
Single Acute Acetaminophen Overdose Nomogram

 

pe/mL
500

400

300

200

150

100
90
80
70

60
50

40

30

20

ACETAMINOPHEN PLASMA CONCENTRATION

A GDA IwLCO

Rumack-Matthew Line

Treatment Line

Treatment should be administered
if level is above solid line

4 8 12 16 20
HOURS POSTINGESTION

24

28

 

32

36
Single Acute Acetaminophen Overdose Nomogram

 

be/mt

ACETAMINOPHEN PLASMA CONCENTRATION

500
400

300

100
90
80
70
60

30

B aor98©d

Rumack-Matthew Line

Treatment Line

Treatment should be administered
if level is above solid line

4 8 12 16 20
HOURS POSTINGESTION

 

24
Treat for any serum acetaminophen
level above the treatment line
for a single acute overdose

Acetaminophen Concentration (g/mL)

 

Time since overdose (hours)
 
  
    
 

Doe, John

1944 (70 yr)
Caucasia:

  

Technician:
Test ind:

I

 

 

Il

 

 

 

 

 

Pr

V5

25mm/s_ — 10mm/mV 100Hz

8.0 SP2

Vent. rate

PR interval
QRS duration
QT/QTc
P-R-T axes

aVL

aVF

12SL 86

       

52

 
 
 

O1-MAR-2015 17:46:00 2.

Sinus bradycardia with Ist degree A-V block
ST & T wave abnormality, consider lateral ischemia

1191 ms

100 ms Abnormal ECG
471/438 ms
* $2 2:

    

Referred by:

CID: 1

Vi

v2

v3

When compared with ECG of 16-SEP-2014 13:11, (unconfirmed)
Vent. rate has decreased BY 42 BPM

T wave inversion no longer evident in Inferior leads

T wave inversion less evident in Lateral leads

Unconfirmed

V4

v5

V6

BID: EDT: ORDE
05-JUL-2015 14:03:00 :

71 yr Vent. rate 80 BPM
Male PR interval 204 ms
QRS duration 88 ms
Room: QT/QTc 379/437 ms
Loc:8 P-R-T axes 80 84 94
Technician:
Test ind:

Referred by: Unconfirmed

aE (ESS SSe pa ae

 

    

 

 

 

 

 

 

 

 

 

 

 

 

 

 

 

 

 

 

 

 

 

 

 

 

 

 

 

 

 

 

 

 

 

 

 

 

 

 

 

 

 

 

 

 

 

 

 

 

 

 

 

 

 

 

 

 

 

 

 

 

 

 

 

 

 

 

OE

25mm/s 10mm/mV 100Hz 8.0 SP2 12SL 86 CID:1 EID: EDT: ORDER:

 

 

 

 

 

 

 

 

 

 

 

 

 

 

 

 

 

 

 

 

 

 

 

 

 

 

 

 

 

 

 

 

 

 

 

 

 

 

 

 

 

 

 

 

 

 

 

 

 

 

 

 

 

 

 

 

apeTse Bp

 
Posterior
Usu. sphenopalatine a.
=10% of epistaxis

Maxilla

 
 
 
  
    
 

Doe, John

1944 (70 yr)
Caucasia:

  

Technician:
Test ind:

I

 

 

Il

 

 

 

 

 

Pr

V5

25mm/s_ — 10mm/mV 100Hz

8.0 SP2

Vent. rate

PR interval
QRS duration
QT/QTc
P-R-T axes

aVL

aVF

12SL 86

       

52

 
 
 

O1-MAR-2015 17:46:00 2.

Sinus bradycardia with Ist degree A-V block
ST & T wave abnormality, consider lateral ischemia

1191 ms

100 ms Abnormal ECG
471/438 ms
* $2 2:

    

Referred by:

CID: 1

Vi

v2

v3

When compared with ECG of 16-SEP-2014 13:11, (unconfirmed)
Vent. rate has decreased BY 42 BPM

T wave inversion no longer evident in Inferior leads

T wave inversion less evident in Lateral leads

Unconfirmed

V4

v5

V6

BID: EDT: ORDE
05-JUL-2015 14:03:00 :

71 yr Vent. rate 80 BPM
Male PR interval 204 ms
QRS duration 88 ms
Room: QT/QTc 379/437 ms
Loc:8 P-R-T axes 80 84 94
Technician:
Test ind:

Referred by: Unconfirmed

aE (ESS SSe pa ae

 

    

 

 

 

 

 

 

 

 

 

 

 

 

 

 

 

 

 

 

 

 

 

 

 

 

 

 

 

 

 

 

 

 

 

 

 

 

 

 

 

 

 

 

 

 

 

 

 

 

 

 

 

 

 

 

 

 

 

 

 

 

 

 

 

 

 

 

OE

25mm/s 10mm/mV 100Hz 8.0 SP2 12SL 86 CID:1 EID: EDT: ORDER:

 

 

 

 

 

 

 

 

 

 

 

 

 

 

 

 

 

 

 

 

 

 

 

 

 

 

 

 

 

 

 

 

 

 

 

 

 

 

 

 

 

 

 

 

 

 

 

 

 

 

 

 

 

 

 

 

apeTse Bp

 
E

FP
TOZ
LPED
PECFD

EDFCZP
FELOPZD

www.eyechartmaker.com
