 
|
 
 
 
 
 
 
 
 
a

 
 
 
y

=

y
y

=

y
I
 
 
»
.
 
 
 
 
G)
BPS Se

 
 
Cl
a
BPS Se

 
 
BPS Se

 
 
 
BPS Se

 
 
BPS Se

 
 
BPS Se

 
