 

You can go to the shop
and disable ads
Tem oye CaK Mt] EMER 0
eee ee Lear LVNE
3+ |
3+ |
ee
 

 

&

 

 
 

 

&

 

 
yy
G-
(pa
oy

SF
LT
6
Sa
(St
 
>
>
>
powered by Google
powered by Google
Cy
<
in
ey
22 7
wey
227
a
a

—_
4
1)
8D
fe).
2p)
Wy
t
 

You can go to the shop
and disable ads
Cee aCe)
Ree aod
PN
rN?
 

 

&

 

 
&
 

 

&

 

 
 

 

| 3

 

 
 

 

| 3

 

 
 

 

po

 

 
po
 

 

pe

 

 
 
Ley.
CS)
©)
,
Cy
'»))
A)
 
iss)
 

 

22

 

 
 

 

23Q

 

 
 
 
 
‘Tel.
(a
q

i,
 

 

 

FS

 

 

Vey

 
>
s F
-_ —
Het th Ree ed
We th eee eld
 
 
 
 
Aa),
 
 
 
>)
Vs
qv)
cc J,
 
 
 
 
rp)

 
 
FQ"
Uy
ae
Ty
Cy
PQ!
Uy
 
 
S|
{oe},
Ezy
 

You can go to the shop
and disable ads
eT ey ca et KT
enh e LOL
 

 
poe
vy

7
<
Piss)
8+
y
‘
t
bl)

I
 
>
>
>
Rey
Ee 7
A
aS)

Ee
He
powered by Goog!
powered by Google
Cy
ety
<a
Co
Sy
TaN
ES)
t
Uy
—_

. J
UT
1y,
 
Si
ray’
le}
os
KD)
vy

7
_—_o
 

You can go to the shop
and disable ads
Tem oye CaK Mt] EMER 0
eee ee Lear LVNE
yy
G-
(pa
oy

SF
LT
6
 
>
>
>
Cy
<
in
ey
22 7
wey
227
a
a

—_
4
1)
8D
fe).
2p)
Wy
t
You can go to the shop
ay and disable ads
STM Coy ca k= ect: |B MEL eel al
monn aio he lau am elcl dale LYNZ
tC
ey
ie
a
aa,
a i
ae
>
(8
(S41
8+
To)
iq
 
>
~~
a
&)»

)

io 1]
eo
BD
 
ie
sete ty a Ox0l sod (a
powered by Google
a)

| ADS
yy
Z
‘@)
6
>
“NO g
>
“

bd
t
t
pF

4
7
1)
rN
Wy
w)
ie
You can go to the shop
ay and disable ads
STM Coy ca k= ect: |B MEL eel al
monn aio he lau am elcl dale LYNZ
tC
ey
ie
aa,
a i
>
To)
iq
 
>
~~
a
&)»

)

io 1]
eo
BD
 
ie
a)

| ADS
yy
Z
‘@)
6
>
“NO g
>
“

bd
t
t
pF

4
7
1)
rN
Wy
w)
ie
 

You can go to the shop
‘and disable ads.
 

CE a er
Pre erin
 
 
 
Uy,
 
 
 
 
Cy
 
 
Fe
A 5)
 
 
 
qv)
 
 
a
 
iy
a

:
 
 
 
 
 
 
 
 
 
‘a
1S
Oy
D)
at
 
 
 
 
 
7
o
++
So
 
 
 
 
 
 
 
 
f.

 
 
 
rn
80
 
a
_s-
 
 
 
 
 
 
pe ay
 
a
oon
B+
 

 

8+

 

 
 

You can go to the shop
and disable ads
eT ey ca et KT
enh e LOL
 

 
poe
vy

7
<
Piss)
8+
y
‘
t
bl)

I
 
>
>
>
Rey
Ee 7
A
aS)

Ee
He
powered by Goog!
powered by Google
Cy
ety
<a
Co
Sy
TaN
ES)
t
Uy
—_

. J
UT
1y,
 
Si
ray’
le}
os
KD)
vy

7
_—_o
 

You can go to the shop
and disable ads
Tem oye CaK Mt] EMER 0
eee ee Lear LVNE
yy
G-
(pa
oy

SF
LT
6
 
>
>
>
Cy
<
in
ey
22 7
wey
227
a
a

—_
4
1)
8D
fe).
2p)
Wy
t
 

You can go to the shop
‘and disable ads.
 

CE a er
Pre erin
 
 
 
Uy,
 
 
 
 
Cy
 
 
Fe
A 5)
 
 
 
qv)
 
 
a
 
iy
a

:
 
 
 
 
 
 
 
 
 
‘a
1S
Oy
D)
at
 
 
 
 
 
7
o
++
So
 
 
 
 
 
 
 
 
f.

 
 
 
rn
80
 
a
_s-
 
 
 
 
 
 
pe ay
 
a
oon
 

You can go to the shop
and disable ads
Cee aCe)
Ree aod
PN
rN?
 

 

&

 

 
&
 

 

&

 

 
 

 

| 3

 

 
 

 

| 3

 

 
 

 

po

 

 
po
 

 

pe

 

 
 
Ley.
CS)
©)
,
Cy
'»))
A)
 
iss)
 

 

22

 

 
 

 

23Q

 

 
 
 
 
‘Tel.
(a
q

i,
 

 

 

FS

 

 

Vey

 
>
s F
-_ —
Het th Ree ed
We th eee eld
 
 
 
 
Aa),
 
 
 
>)
Vs
qv)
cc J,
 
 
 
 
rp)

 
 
FQ"
Uy
ae
Ty
Cy
PQ!
Uy
 
 
S|
{oe},
Ezy
B+
 

 

8+

 

 
 

You can go to the shop
and disable ads
Tem oye CaK Mt] EMER 0
eee ee Lear LVNE
3+ |
3+ |
ee
 

 

&

 

 
 

 

&

 

 
yy
G-
(pa
oy

SF
LT
6
Sa
(St
 
>
>
>
powered by Google
powered by Google
Cy
<
in
ey
22 7
wey
227
a
a

—_
4
1)
8D
fe).
2p)
Wy
t
You can go to the shop
ay and disable ads
STM Coy ca k= ect: |B MEL eel al
monn aio he lau am elcl dale LYNZ
tC
ey
ie
aa,
a i
>
To)
iq
 
>
~~
a
&)»

)

io 1]
eo
BD
 
ie
a)

| ADS
yy
Z
‘@)
6
>
“NO g
>
“

bd
t
t
pF

4
7
1)
rN
Wy
w)
ie
You can go to the shop
ay and disable ads
STM Coy ca k= ect: |B MEL eel al
monn aio he lau am elcl dale LYNZ
tC
ey
ie
a
aa,
a i
ae
>
(8
(S41
8+
To)
iq
 
>
~~
a
&)»

)

io 1]
eo
BD
 
ie
sete ty a Ox0l sod (a
powered by Google
a)

| ADS
yy
Z
‘@)
6
>
“NO g
>
“

bd
t
t
pF

4
7
1)
rN
Wy
w)
ie
