 

np
|
a

 
><]
ip
Bs
y

 

. 4 h be
omen Limi Jownnind

_.NEW YORK STATE, ~

GZ
DRIVER LICENSE

ID: 012 345 678 CLASS D

DOCUMENT
SAMPLE, LICENSE . a o. y

2345 ANYPLACE AVE eg
ANYTOWN NY 12345 var
DOB: 06-09-85 oat
SEX:F EYES: BR HT: 5-09

&: NONE

R: NONE
ISSUED: 09-30-08 EXPIRES: 10-01-16 @AJ1207521
 
 
 
 
 
y

=

y
 
Zar
 
 
 
 

 

 

 

 
Fa‘
¢

OY
fey
a@)
 
a
 

 

 

 
er
 
 
 
 
a
mb
 
Po
 
CSsal

www.card-reader.com
 
im

ON
“
ov
a |
fe}
ro
 

nF
— Driver License —

 
oN
Yee?
_ ey
I
mb
 
 
y

=

y
zk
 

 

 

 
 
on)
a,
f—
P|
oy
 
a
aN
4)))
|
a
 
 
Ensure driver’s license is within the visible area.

www.card-reader.com

 

 

 

 

A1234567

JULIE N SMITH
2015 ALISON ROAD
LOS ANGELES CA 90025

SEX: F HAIR: BRN EYES: BRN
HT: 5-06 WT: 135 DOB: 05-10-73

 

 

°

 

 
 
 
 
 

a CALIFORNIA 2

DRIVER LICENSE CLASS: C
EXPIRES 05-10-11 D3011234

JANE S FOSTER
6167 BRISTOL PKWY 330
CULVER CITY, CA 90230

SEX:F HAIR: BLK
HT:5-08 WT: 130 DOB:

   

05-

 

06/25/2006 245 RB FD/12
te \
ro]
 
 

 

 

 

 
 

 

 

 
 
#*
 
 
CesT ity
 
 
©]
ree oe zoom
 
|
Po
 
Ton
 
 
 
a)
Humana
 
 
rN
[i
 
 

 

mv

 

 
>
()
 
a
 
sib]
 
ooo
BMI
oa
Sie aly aly aly a
revelgelele
(0
‘——
y—
ja
 

ip
a
 
 
=4)))
|
 
fos
Uf
>
UPL

 

 

 

 

 

 

 
 
re |
iy)
re
 
<
a
<
|
 
re
gD XX
rT]
 
_
ae
©]
 

ip
v
 
 
rT]
©]
@
Pa

Bra (shal ep
 
BLS
rN
>>
es
¥
15
es
0
 
 
0)
™
ND
ay
 
 
>>
 
 
 
 
 
 
a
nn « 6
 
entices
‘APP
 

ip
a
Lv
Lf ed
+
Se
Humana
a
Lg
Ba Gelato
 
1
 
 
uu

19
Ganesan celnitenes
re
 
G)
ells
Le]
a
‘The
 
AV G
BlueCross BlueShield 5 G
   
“APP
Le]
 
 
 
+
Le]
vo

19
32
+
 
GIF
+
—_—
en = 6
CODA
carbon
So)
>
ry
anes
pm
ce
BP
 
 
be
on
 
 
 
 
 
a
 
bd
 
cc
 
 
CT)
S
 
 
 
 
tT

4
 
foal gerelp
 
®
 
re]
|
»
 
 
 
 
 
br
BP
 
 
 
 
Lt
ee «
()
 
q
@
 
Sn
 
.
 
Sy
 
 
 
rd
 
|
ak
AR=e@
 
} f
—_
 
BP
 
 
_
 
 
 
 
6)
 
 
vals
 
 
Vi@,@ 00
in
 
‘trees ete
mi
he
 
 
b ]
 
 
“I
bi
 
pI
 
))
Hi there,

${userName} is inviting you to a scheduled Zoom meeting.

<#if meetingTime??>
Time: ${meetingTime}

</#if>
Join from a PC, Mac, iPad, iPhone or Android device:

    Please click this URL to start or join. ${meetingUrl}
    Or, go to ${webServer}/join and enter meeting ID: ${meetingNumber} <#if password??>and password: ${password}</#if>

<#if enablePSTN>
Join from dial-in phone line:

    Call ${usCallInNumber} (US/Canada only).
    For Global dial-in numbers: ${webServer}/teleconference)
    Meeting ID: ${accessCode}
    Participant ID: Shown after joining the meeting

</#if>
<#if enableH323>
Join from a H.323/SIP room system:

    IP Address: ${h323Gateway1}<#if h323Gateway2??> or ${h323Gateway2}</#if>
    Meeting ID: ${meetingNumber}

</#if>a
Cl
git.version=ce3551a92c8cf91f925232f93a88b3048fecd9ac
