il
©)
 
 
»
 
 
 
 
 
.
 
 
 
 
 
ee
 
 
 
 
 
a
 
iC)
a
7t2|7|
 
is
 
# Saubebe
sisis
ee

Saybebe
p<]
[o>
 
|
 
 
 
tree
ON

STA DENG y
 
p<]
 
 
->
—
MY
 
HOl7|
BEST
Co
rt
 
@u
—
re |
ot
_—
 
 
ab
a
a
 
@u
 
ee
 
cl
we ea ag

Les aes ak a

 
ff
ee
, oad
I
 
 
 
6
 
 

CT

 
 
 
 
“_
M4
 
~~
>
 

 

ESI SSS Mu|A

 

 
 
 
a
 
all
 
 
 
 
y

=

y
 
 
a

 
 
y

=

y
ms
COUPON
 
COUPON
G)
Cl
a
 
git.version=ce3551a92c8cf91f925232f93a88b3048fecd9ac
