 
 
 
I
 
 
y

=

y
y

=

y
 
 
 
|
 
 
 
 
 
 
 
 
.
»
a
Cl
 
 
 
I
 
 
y

=

y
y

=

y
a
Cl
 
 
 
 
 
.
»
 
 
 
|
 
 
 
