 
 
 
 
 
C
 
 
 
ES
»
 
 
.
 
 
 
 
 
 
y

=

y
y

=

y
 
 
Cl
 
hele
Ase
Expats

wets:
 
a
od
wees
y 24 s

£e
KF
 
 
3

fe
 
 
 

and Exotic Pets |.

Services for Dogs, Cats
 
 
a
 
ae
 
 
sd
