 
 
 
 
 
y

=

y
y

=

y
 
 
 
C
 
 
a
a
 
 
 
 
 
.
»
IO
 
 
gl
 
a
Cl
 
 
 
 
 
y

=

y
y

=

y
 
a
Cl
gl
 
 
 
 
 
.
»
 
 
 
 
C
 
 
a
a
IO
 
