Springer Pflege
a
 
a
 
gD) Springer Pflege
a
 
go) Springer Pflege
a
a
G)
a
»
.
a

 
 
 
a
 
a

 
 
9) Springer Pflege
ee
 
 
 
 
 
g) Springer Pflege
 
 
a
 
 
 
a
g) Springer Pflege
 
 
G) Springer Pflege
y

=

y
a
 
|
 
 
 
I
a

 
 
re
 
 
a
y

=

y
 
 
9) Springer Pflege
a
go) Springer Pflege
a
a
Springer Pflege
a
a
 
 
 
 
Z) Springer Pflege
 
a
 
 
ee
|
a
Z) Springer Pflege
i) Springer Pfleg
 
 
 
 
 
 
 
 
a
 
 
 
 
gD Springer Pflege
a
 
 
Q Springer Pflege
 
a
|
a
Cl
 

Lan ates
powered by

wrolkncwele
git.version=eb8d5626ff8b7781e3a2ec6c3990785697adb99f
