Lr 4
Te
 
 
cris

Bs res

 
Prectner a
Guide

106

 
 
Ly 4

Techniker
10:39 ara Uis|

 
Tale
rare

PTs eal Ee) |
a ui eee)

 
GOLD

Tal)
wu

 
 
 
ae
aN

Oo

.. 5

B|BRAUN

 
 
 
 
y

=

y
 
Te
 
y

=

y
 
a

 
 
 
 
Lr
C
 
 
TT;

16]
 
Ly 4
 
 
4
 
»
 
 
 
.
a
Cl
