 
 
|
 
 
 
 
I
a

 
y

=

y
 
 
 
 
 
y

=

y
.
 
 
 
»
 
 
a
ed
@
 
G)
 
 
 
Cl
 
 
05182
09273
09274
12717
25571
29936
31150
36357
38726
42325
43233
44617
44703
44731
46147
47884
48006
50848
51226
51227
51488
51495
51887
52110
53027
53028
59922
61364
61373
63302
None_of_the_above
git.version=a1f28028ba4e22c11cfaffe0e37ae27be1eea0c3
