 
y

=

y
I
 
 
 
y

=

y
 
peepee peps

Supe Sea

 

 

 

 

 

 

 

 

 
wa

 
Tide yd LL
Pl ll ph tpt yt

Th abel lal iy ta
hoy al)
He

a

Tp
 

 
pre le ee re a

es
Meret hr nd
|

=fopaey Tom df oe

 
ayia \ AAA,

Wd dlapyysysteaettall
RETA iit

NVA MA AAA AAA dled
puna a i

(es
ee |.

 

ve
h—h—_h—

 

 
 

QR

 

r

 

 

Qs

 

 

 

 

 
Localizacion Nodal

wallalarlash
maaNahahniahA
vm ahawalas ah
 

 
 

 

 

 

 

 

 

 

 

 

 

 

 

 

 

 
Nd cera ca r
PES ICSI Ein Cone PS 7 ry aoe

fra pf telt A
 

ieee iy
QRS.

 

Intervalo PR |+——+|

—+| | & iniervaio aRS

Intervalo QT
 
 
 
|
 
 
 
 
.
»
 
 
 
 
Cl
a
