 
 
 
 
ps |
les
 
 
 
 
 
 
 
 
 
 
 
 
 
 
bel
 
 
 
 
 
 
G)
CPG
CPG
fo C)
foie}
fete)
feted
CPG
fete)
CPG
CPG
CPG
CPG
CPG
CPG
CPG
CPG
fete}
ca
CPG
cPG
git.version=a1f28028ba4e22c11cfaffe0e37ae27be1eea0c3
