ma MyChart
a
2)
r_/y)
a
a
1234 ;
<[>
a
 
 
| |
 
 

 

|

 

 
http://
PYG
at
| |
a
|
 
 

 
 
 

 

ae MyChari

powered by

 

 
 
3)
 
D
 
Ea
 
a
eco

a»
| |
 
a
 
4
 
 

powered by
MyChart
 
[—
ae

a
B:
 
 
ay

2
 
 
MyChanrt
 
ry)
ad
<[>
 
=
 
http://
AN
rier)

as
 )
 
<
 

 

|

 

 
a

 
 
ne
an
 
I
a
 
zm,
qa MyChart
C7
an

oe
 
A
 
 
 
 
 
a
VISA
y

=

y
 
y

=

y
 

 

ca MyChart

 

 
—

 
a <
a <
 
a
a <
1234 j
rT
ca MyChart
 

powered by
t /y)
 
http://
 
 
*
a
WwW
 
 
mer,

ae
Ly
1234
 
tS
 
G)
 
—
a
 
5
ae

a
 
 

 

ca MyChari

 

 
MyChart
Ea
 
 
 
 
cr rcs
 
 
hittp//
1234 |
 
| |
 
 
 
fa
ry)
 
 
ier)

ae
 
 

 

ma MyChart
ves by EPIC

 

 
ma MyChart
.e
 
 
»
| |
| oT |
 
a

a
1
 
 
 
 
3}
 
 
 
MyChart
 
Lr §
 
 
.
3}
 
a
oe
 
 
 
ry Ca Ca Ca Ca Ca Ca Ca Ca Ca Ca Ca
eee ee eee ee eee ee eee ee eee ee ee ee ee ee eee ee eee ee eee ee ee ee ee
 
pa
 
 
<[>
a
Yo
Ls
http://
e05co

a
a

a
 
123

AZ
ry
 
ca MyChart
 
t /
1234
Ls
«|
 
WW
a
ee
a
a
mz
 

 

ca MyChari

 

 
=I
 

powered by
 

 
 
 
MyChart
 

 

 

 

 

 

 

 

 

 

 

 

 
 

 

ca MyChari

 

 
~—

Bi

 
  
 
1
 
1
. \* = Pe

 
 
ele oe ey
 

 

ca MyCnart

 

 
I) 6g9 a * 1099 2) 5 ee

 
*)
 
*)
<)
 

 

 

Sen OEE) = SN — = ee lees) Ve |=}

 

 

 

 
 

 

ca MyChari

 

 
Cl
powered by |
Decal

(Epic)

 
I ogy 7 EEEF aH o= aN =| |e ha

 

5
o
l

 

 

 

 

 

 

 

 

 

 

 

 

 

     
 

 

ca MyChari

 

 
powered by

 
a
 
|
<
 

 

 
 

 

 

 

 
