Bienvenido/a

Ion Sociedad Espanola ce
Reumatologia
 
 
 
 
 
a
.
 
 
»
 
 
 
 
C
 
-
G)
 
 
y

=

y
 
 
a

 
 
 
 
 
y

=

y
 
 

tN CO

Ceres
Reumatologia
Bienvenido/a

Eee
errr]
a
 
Bienvenido/a

ION Sociedad Espanola ce
Reumatologia
Bienvenido/a

Ion Sociedad Espanola ce
Reumatologia
ienvenido/a

 

Ion Sociedad Espanola ze
Reumatologia
Ey)

Io rere
emer)

 
Cl
Bienvenido/a

IO Sociedad Espanola ce
Reumatologia
   

Bienvenido/a

IOu Pree Ces ae
Reumatologia
 

 

 

 

 

 

 

 

 

 

 

 

 

 

 

 

 

 

 
Bienvenido/a

IO Sociedad Espanola ce
Reumatologia
   

 

a SOT |

Aon Sociedad Espanola ze
Reumatologia
  

 

ae |

Ion Sociedad Espanola ze
Reumatologia
 
 
 
 
SO ee eS
Reumatologia
isy ee eS ET
Reumatologia
 

“laCeina’ €

 

 

a
a
a
2 Lota Baruill
s 8170, Administracién..
3
= 2 |
5
Farmacia F Caballero a tee eral
S 10. Administracion de.
macchinine & ws Espacio barull 10
“ ™ Alquilar espacio para,
siton 44

 
   

eee 0)
 
 
 
Bienvenido/a

Ion Sociedad Espanola ce
Reumatologia
Bienvenido/a

Eee
errr]
 

 

 

 

 

 

 

 

 

 

 

 

 

 

 

 

 

 

 
Bienvenido/a

IO Sociedad Espanola ce
Reumatologia
Bienvenido/a

ION Sociedad Espanola ce
Reumatologia
Bienvenido/a

IO Sociedad Espanola ce
Reumatologia
   

Bienvenido/a

IOu Pree Ces ae
Reumatologia
Ey)

Io rere
emer)

 
 

tN CO

Ceres
Reumatologia
   

 

a SOT |

Aon Sociedad Espanola ze
Reumatologia
  

 

ae |

Ion Sociedad Espanola ze
Reumatologia
ienvenido/a

 

Ion Sociedad Espanola ze
Reumatologia
 
 
 
 
    

a, Blenvenido/a
+

TF lee ar
Reumatologia
 

 

IG Sociedad Espanola ce
Reumatologia
 

    

ey CeraNeda LoL ey As]

ION Sociedad Espanola de
Reumatologia
 

 

Bienvenido/a

In Sociedad Espanola ze
Reumatologia
Bienvenido/a

Ion Sociedad Espanola ce
Reumatologia

 
   

\

Seu ae

ZF le aero
Reumatologia
 

    

Bienvenido/a

In Sociedad Espanola ze
Reumatologia
Bienvenido/a

 

ZF el Ur
Reumatologia
   

 

Bienvenido/a

ton pelle Lel Ce ot Lael
Reumatologia
tS Leykc}

ZF Reece aoe
Reumatologia
=O) ieee
ou,

 

ienvenido/a

Ion Sociedad Espanola ze
Reumatologia
