 
 
 
 
 
|
 
 
 
 
 
|
 
 
 
 
 
I
 
 
y

=

y
y

=

y
y

=

y
 
 
I
y

=

y
 
 
 
 
 
 
 
 
.
»
.
 
 
 
»
 
 
Cl
Cl
a
a
 
 
 
 
 
I
 
 
y

=

y
y

=

y
a
Cl
 
 
 
 
 
.
»
 
 
 
|
 
 
 
