 
a
<<
 

 
a
Re
G)
“a
a
we
a
we
a
EY
a
EY
a
Te
a
we
a
>
a
>
a
~
a
we
a
~\
a
~\
a
~\
a
“a
a
i
_
a
 

 
~\
>
a
Te
EY
>
“a
a
 
we
a
~\
a
a
a
we
“a
<<
a
a
G)
a
a
EY
a
a
~\
Re
we
we
i
a
a
~
a
a
_
 
@?
@?
a
 
 
a
7
i
 
 
sd
 
 
 
 
 
 
rr

—
PY
_
sd
 
7
i
 
 
 
@?
 
 
 
 
 
@?
a
 
a
PY
_
 
 
rr

—
 
 
 
|
 
 
“a
a
“a
a
“a
a
NI]
a
NI]
a
“a
a
“a
a
“a
a
a
a
“a
a
“a
NI]
 
a
“a
|
 
a
a
a
a
“a
a
a
NI]
“a
“a
 
a
 
a
“a
“a
a
a
 
 
 
 
I
 
 
y

=

y
y

=

y
cy)
cy)
 

 
a

 
SO
 
SO
 
 
I
 

 
y

=

y
cy)
y

=

y
 
 
a

 
 
 
cy)
 
 
 
 
 
.
»
 
 
 
 
 
 
 
»
 
 
 
 
 
.
 
 
 
Cl
Cl
a
a
 
@?
@?
 
 
 
I
 
 
y

=

y
y

=

y
cy)
cy)
 

 
a

 
SO
 
a
Cl
a
 
 
 
 
 
.
»
 
 
 
 
 
 
 
a
7
i
 
 
sd
 
 
 
 
 
 
rr

—
PY
_
 
 
 
|
 
 
“a
a
“a
a
“a
a
NI]
a
NI]
a
“a
a
“a
a
“a
a
a
a
“a
a
 
a
<<
 

 
a
Re
G)
“a
a
we
a
we
a
EY
a
EY
a
Te
a
we
a
>
a
>
a
~
a
we
a
~\
a
~\
a
~\
a
“a
a
i
_
git.version=eb8d5626ff8b7781e3a2ec6c3990785697adb99f
