 
 
 
|
 
 
powered by Google
en = i
 
 
 
en = i
powered by Google
|
 
 
6 Donate

 

Donate Blood
save lives
1@
|
 
1)
 
Mm
I
 
 
G)
powered by Google
Tn a
G)
Tn a
 
powered by Google
 
 
 
 
 
.
»
 
powered by Google
 
 
 
 
»
powered by Google
 
.
 
 
 
 
 

 

 

 

;

 
 

 

 

 

;

 
Fs
 
Is)
EVERYONE
COULD BE

A HERO

Be adonor

 
WORLD | BLOOD
DONOR § DAY isk

6

<
vvyv
o>
 
 

 

 

 

;

 
 
 
Fs
Is)
EVERYONE
COULD BE

A HERO

Be adonor

 
o>
vvyv
WORLD | BLOOD
DONOR § DAY isk

6

<
 
 

 

 

 

;

 
 
 
 
I
 
 
y

=

y
y

=

y
a

 
 
powered by Google
en =.
powered by Google
 
 
 
 
 
y

=

y
I
a

 
 
en =.
y

=

y
©
ee
powered by Google
ee a
powered by Google
ee a
 

 

Donate Blood

\

Save Life

 

 
Cl
Cl
a
a
 
 

 

 

 

;

 
 

 

 

 

;

 
 
 
 
I
 
 
y

=

y
y

=

y
a

 
 
powered by Google
en =.
Fs
a
Cl
 
 
 
 
 
.
»
 
powered by Google
 
 
Is)
EVERYONE
COULD BE

A HERO

Be adonor

 
WORLD | BLOOD
DONOR § DAY isk

6

<
vvyv
o>
 
 
 
 
|
 
 
powered by Google
en = i
 
G)
powered by Google
Tn a
powered by Google
ee a
