 
 
 
 
 
|
 
 
 
|
 
 
 
 
 
G)
 
 
G)
 
 
 
 
 
 
.
»
 
 
 
 
 
 
 
 
 
»
.
 
 
 
 
 
I
 
 
y

=

y
y

=

y
a

 
 
 
 
 
y

=

y
I
y

=

y
 
a

 
 
 
0,
a a: 6° 6G Lh

\
a
a
Cl
Cl
 
 
 
I
 
 
y

=

y
y

=

y
a

 
 
 
a
Cl
 
 
 
 
 
.
»
 
 
 
 
 
|
 
 
 
G)
 
 
 
 

 
 
 

LONGrUDINAL
SAC SECTION

   

‘ANIAL SAC SECTION

fs.

oe

RS wS
Ss

Deeidual

Myometrium

4
\

  
 

Marginal Complete Low-lying
 

alths CET)

 
 
presen CONSULTANT GA(EDD)=3486D PS@ 6HHz E721
3

SS

 
Total Placenta Previa

    

Umbilical Cord

Cervix
gga in Pest mtg esc eat a) i kes 8

 

NI<e.4
 
 
  
 
  
   

2 eggs
2 sperms

Identical twins ~ Fraternal twins”
PO ee UG Ce gre eM
re aes >

SAG ML .
Ce

 

ac md
 

Healthy Baby Baby with
Omphalocele
 
 
 

 

ES

 

ey
 
Placenta Internal
separated from _/ Bleeding
the uterus g&

   

Bleeding
 

Lee Le

w
 
 
 
   

Barth

 
 

 
 
 
 

pas)
 
 
 
 
 
 

 
 
 
 
 
 
 

TRV
aaa

 
 
 
 
 
 

 
Multiple Gestation

 

 

 

 

 

 

 

 

 
 
 
 

 
 
 
 

 
 
 
 
 
 
 
“ i He
_——

> = ne

Sets ao

 
 
 
real ery

 
 
 
 
 
ce ar)

 
 

 
 
 
 
 

, =
 
 

 
Cy
 
mat

fs

 
 

 
 
 
 
Male gender Female gender

 
 

Another 3-lines sign at 20 weeks
 

 
 
 
 

 
 
 

 
 
ao 0) | ait)

  

pe a ed

CS Bet ead
ey * 99
po TT

a

a Fa
oe
oR CALIPER
 
