 
 
 
 
 
 
 
|
 
 
|
 
 
 
 
 
 
G)
 
G)
 
 
 
 
 
.
»
 
 
 
 
 
»
.
Cl
Cl
 
 
 
I
 
 
y

=

y
y

=

y
a

 
 
 
a

 
y

=

y
 
 
I
y

=

y
 
 
 
fd
a
a
 
 
 
 
I
 
 
y

=

y
y

=

y
a

 
 
a
Cl
 
 
 
 
 
.
»
 
 
 
 
|
 
 
 
G)
