 
 
 
|
 
 
ee
 
a
A
> 4
|
 
 
 
 
a
 
 
A
ee
> 4
 
—
G)
 
a
 
a
 
—
G)
 
 
IMAIOS

e-Anatomy

 
abe}

e7alarsl el aahy

 
 
abe}

e7alarsl el aahy

 
 
IMAIOS

e-Anatomy

 
 
 
 
I
 
 
y

=

y
y

=

y
 
a

 
re
 
 
a
>
a
y

=

y
 
>
 
y

=

y
re
 
a
 
I
 
a
 
 
 
a

 
 
 
 
 
 
.
»
 
ee
a
 
 
 
ee
 
.
 
a
 
»
 
 
Cl
Cl
 
a
a
IMAIOS

e-Anatomy

 
 
 
 
I
 
 
y

=

y
y

=

y
 
a

 
re
 
 
a
>
a
a
Cl
 
 
 
 
 
.
»
 
ee
a
 
abe}

e7alarsl el aahy

 
 
 
 
 
|
 
 
ee
 
a
A
> 4
 
—
G)
 
a
 
 
el
@®
”
 
 
RA
 
mA
NS
ee
Ce
O5
oo
4
 
Ww
Ue
Ue
Ww
 
 
 
 
 
 
 
 
 
 
 
 
 
 
 
 
 
 
 
 
 
 
iS
 
 
 
 
 
 
 
 
 
 
 
 
 
 
 
 
 
 
 
 
rd
 
 
 
 
ae
@g
 
A i
4
 
Sy
 
 
 
 
 
 
 
 
 
