HFHPu
@o2rrow
aa

 
 
  
HFHPu
@o2rrow
aa

 
 
  
 
 
 
-FHPu

 
-FHPu

 
 
FHPu
rOW
FHPu
rOW
PJ) 3

z
Lm
FHPU
=f OW
FHPU
=f OW
FHPu
COW
FHPu
COW
FHPu

 
FHPu

 
FHPu

 
FHPu

 
FHPU
etl OW
FHPU
etl OW
FHPu

 
FHPu

 
FHPU
el OW
FHPU
el OW
FHPu
GosFTow
-~
FHPu
GosFTow
-~
 
 
 
FHPU
etl OW
FHPu
GosFTow
-~
-FHPu

 
FHPu

 
FHPu

 
FHPu
COW
FHPU
=f OW
FHPU
el OW
FHPu
rOW
FHPu

 
HFHPu
@o2rrow
aa

 
 
  
 
 
 
 
 
 
 
com NT

SsooN i
qa
 
   

CORPORATE CARD
ADr.Agarwal's

 

 
 
 
 
ey
 
 
 
 
Oo
 
 
 
 
 
a
By woue

—We are your family —

 

   
 

EXPERT HEALTHCARE
 
 
 
 
 
 
@)
oy
 
 
 
 
 
—
 
 
 
ell
 
 
 
 

 
(eS
 
 
 
 

Himalaya Brahmi siotone capsule
- Tablets...

= 105.60 F133
img
= 200 min. order,
 

Dietary Richhelth
supplements gapsule
= 105.60 © 133

14mg

= 200 tii. order
   

St.Botanica Fish O... Lvate Capsule

% 999.00 4149.00 = 326.00 %350.0
13% OFF 7% OFF
Upto 40% Off on Health Products
Extra 15% Freecharge Cashback*

 
OUR TRUSTED

te aay Ap
HARMACY

‘A Promise Beyond Prescriptions

Bi

 
FREE HOME
DELIVERY

TaC Apply

Mi MD
OUR TRUSTED
Ute a 3

1H.
‘A Promise Beyond Prescriptions

 
i
 
Yidam
 
SS
———
——
——
——
—
—
—
—
—
a
—
