 
 
 
 
 
 
 
 
 
|
 
 
 
 
»
go
 
.
 
 
 
y

=

y
 
 
 
y

=

y
 
 
a

 
I
 
 
 
 
3S
 
 
 
 
 
 
 
 
Peo"
er
 
 
 
 
Cor
\ iF |
 
 
 
 
G)
 
 
 
 
 
 
 
Cl
a
 
z= Consentire a Il
Contatore di accedere
a foto, contenuti

multimediali e file sul
dispositivo?

NEGA | CONSENTI

 
 Zulassen, dass die App
Summator auf Fotos,
Medien und Dateien auf

Ihrem Gerat zuzugreifen
darf?

ABLEHNEN ZULASSEN

 
 
z= Allow Cell Counter to
access photos, media

and files on your device?

DENY {| ALLOW

 
 
 
By Zezwolic aplikacji
Sumator na: dostep
do zdjec¢, multimediow

i plikow na Twoim
urzqdzeniu?

ODMOW | ZEZWOL

 
 
