ad
aa 4

* EBPOIEACKAA
* IOPMAMYECKAS
* CAVXBA
x)
 
aE
MANMCTEFETE®
SHPABOOXKPANENMA
Pelee | eerste Nm,
100% Bone3Hb dapbepa

CosnagatoT 2 cumntoma n3 12 (16%)

 
G)
SANOFI GENZYME vg
 

f
3
z
“8

x
--

FeLi 6869

|) MOS

LOLA 86969 [9
yax206 UEWIEUN

Patient Surname *
folalmivinin al
Date of Birth*

0 |o [o lofolo)

Hospital Name® (HA) 38) H) MIE)
fa Address |

Country”

4 E-mail X XIX

Test Requested: “[] Fabry Pompe
Disease ~ Diseast
‘Top Copy: Requesti

 
a
 

 
> >

A
4<<G) >>>

 
 
Bl
ba
a Py
* EBPOTIEACKAA
* FOPHAMYECKAS
ere 477.4
 
 
LU
+

Cnuckom Ha Tene

 
i

| a a
 
MbIWLuUbI, MArKNe TKaHU

Koctu

Hepsbl

OpraubI

KpoBeHocHble Cocyfbl

Jiumdatuyeckve y3npl (1)

KoxKa

 
 
|
CTaHgapT CKOpoN MegANUNHCKON
NOMOLJM Npv NHeEBMOHUU

CTaHgapT CKOpoN MeANLNHCKON
NOMOLUM AeTAM Npu CTeHO3e ropTaHu

CTaHfapT CKOpon MeANLNHCKON
NOMOLIM 4eTAM Npu acTmMe

 
ai
ms
 
SANOFI! GENZYME vg
 
 
I
 
 
 

 

Patient Sumame!
O\A ajWia
Date of Birth*

(0 jo fo lo]o| 9)

LELAV PL 96909 259
206 VEWIEUM,

Patient Identification Number ®

[Loy] jens vewneU  GOLIOZ
1S M@Sm>>

——

Country?

|] Telephone

eq E-mail |
Test Requested: * [7] Fabry Oompa
Disease

LER PE e6869

—<

8g
38
us
i

5

 

i
Top Copy: Requesti
ae
 
Bl
Oo
 

 

 

 
ey

bal en ere
* IOPMAMYECKAS
* CAYXKBA
mn)
 
 
100% Bone3Hb dap6bepa

CopnagatoT 2 cumntoma u3 12 (16%)

 
LY
Cnuckom

 
”

x
* EBPOTLEACKASA
* IOPUANUECKAS
* CAVXBA
MURMCTEPCTB®
SHPABOOXPAHENUA
fF Onered (Nes OR MMC eda toy NIG
.
CTaHfapT CKOpON MeAULYHCKON
NOMOLY Np“ NHeBMOHUU

CTaHfZapT CKOpON MegAULVHCKON
NOMOLUWM JeTAM Npy CTeHO3e ropTaHu

CTaHfapT CKOpOU MeAULIVYHCKON
NOMOLUM feTAM Npu acTme

 
MbIWwtjbl, MArKNe TKaHU

Koctu

HepBbI

OpraubI

KPOBeHOCHbIe CocysbI

Jiumo@atuyeckue y3npl (1)

KoKa

 
Oo
|

rn
i?)

 
 
 
 
Ei
Mee ee
Be Sea
rs ase
 
 
 
 
er!
 
 
Bones dap6epa

 
 
ce
 
>>

a
Paw
 
mays
.
\
 
 
sie
 
 
»
Motuyp, Markie TkaHH

Koct

Hepsb!

Opranet

Kposenocutie ci

Simaarnveckne yan (1)

Koxa

 
Crannapr ckopoit meanynncKon
loMou\H np nHeBMOHAK

Cranapr cKopoit egnynucKoit
oMouyh qeTAM npH cTeHOse ropraHn

Crannapr ckopoit meqnunncxon
loMoUuyH qeTAM npH acTMe

 
 
 
SANOFI GENZYME wa
 
 

 

xo

 

 
 
anon
Pee se TN
Be Coe
 
 
 
 
 
 
Crargapt ckopom meanunHcKon
NOMOU\M NH NHeBMOHMK

Craraapt ckopor meanunHcKon
NOMOUIM AeTAM NPM CTeHOse FOpTaHU

CTaHgapT CKOpo MeqnuMHCKoOn
NoMou4M AeTAM npn acTMe

 
 
a

 
|
I
 

 

 

 

 
Ps

x
* EBPOTIEACKAA
EN hine <.
+ CAV KEA
 
100% Bone3Hb bap6epa

Cosnagator 2 cumntoma m3 12 (16%)

 
 
 
 
TT
 

 

Ao

 

 
 
y

=

y
 
 
 
i}
 
 
 
 
 

(oo [0 ofolo

Patient Weniication Number

ver 9566 6
nif06 nce

Tei push Orceeg

aw ogrem 010101010 0)0/0)0

emt — KXKXKX
Fearon“) Faby. 62 Barge
+ 0 Fisee 68
yop Coy eaves

seumnseoee|

 
MbIwup!, Markne TKaHK

Koctn

HepsbI

Opranb!

Kposenocnble cocyfbI

Sium@atuyeckne ysnbi (1)

Koka

 
 
 
ad
a Es
ee ets le «|
bam se) aPC e 5
ee 7
NK
 
 
SANOFI! GENZYME wa
 
>>

rn
4<<G) >>>
aa)
\

 
y

=

y
Palal

*
* EBPOIEMCKAA
* JIOPMAMYECKAS
Pees Ay
 
 
> i |
 
 

 
MbIwiub!, MarKve TKaHU

Koctu

Hepspl

Opraubi

KpoBeHocuble cocyfpbl

Jiumoatuvyeckue y3npl (1)

Koxa

 
 
a
 
 
 
 
Bl
 
100% Bone3Hb dap6epa

CosnagatoT 2 cumntoma u3 12 (16%)

 
 
 
|
 
ay
>>

ry
444) >>>
I
 
 
 
reed aga)
algo aa ie
facto lei ak sol eT
 
 
ai
aa
os
a a
* EBPOTIEACKAS
ee Oa ZEA OL eU:
* CAV KBEA
 

=
g
|
2
8

senyere696

OBA)
Lennvyi96e69 163

yu606 UEUTEUN

fs wo

Patient Sumame"

ola imi yin Mia

Date of Birth®

fo fofolojolo

Patient Identification Number®
Requesting Physician’

Hospital Name® H Al 3 8/A ie}

£4 Adsress

County”
B Telephone

1% E-mail X]X 1X |X ]X X |@ 1X 1X

Tost Requested: °[-] Faby XJ Pompe
TO Beco Disses

 
SANOFI GENZYME vg
 
 
CTaHgapT CKOpon MeANuMHCKON
NOMOLM4M Npv NHEBMOHUN

CTaHgapT CKOpon MeANuMHCKON
NOMOLMWM JeTAM Npu CTEHO3e rOpTaHu

CTaHfapT CKOpoi MeANuUNHCKON
NOMOLUM 4eTAM Npy acTMe

 
Cnuckom

 
 
 

 

xo

 

 
 
 
e
oI
E
fe)
=
=

 
 
 
 
 
 
 
g
g
e

 
 
AEA EEE I)

 
 
 
J
ae

y

q

la

NX

os

/ (/ H/44,

y

>

@

J
_W
“Sf NestigHealthScience
Alfaré. ,

Macca nerro 40

am Ge @

 
 
 
 
 
 
 
 
 
 
a
Cl
140° 180"
1107140"
<90"
_
-
low |
 
 
 
 
 
 
 
 
 
 
 
 
 
 
 
 
 
 
 
 
 
 
 
 
 
 
 
 
 
 
 
 
 
 
 
 
 
 
 
 
 
 
 
 
 
 
 
 
 
 
 
 
 
 
 
 
 
 
 
 
 
 
 
 
 
 
 
 
 
 
 
 
 
 
 
 
 
 
 
 
 
 
 
 
 
Angiokeratoma

 
 

‘a
yy nl
ee 3 Exiccreatt ened
 
Cardiomegaly

 
Ataxia/choreoathetoid movements

\ if

   
Ataxia/choreoathetoid movements

 
erie)

(A

Ce ey ny
lee Ecler

 
lee eM Ut la)

 

Sr orn iy
Mild coarse facial features

 
Me latter UCR Ter Wer

 
Corneal clouding

   

er TSS Te
Corneal clouding

e.
erat eet ra hie
Cerint-t-lmei ole liar)

 

Peep ere 1 Se ETT
fe map meee

*

 

Eee a ee
ely

 

ane ene St wn
ely

 
Enlarged frontal occipital

 
Erlenmeyer flask deformity

Pr are ey ee epee ee ner Ae
Floppy baby/muscle weakness

 
Gaucher cells (bone marrow)
=

x

 
Gaucher cell (peripheral blood)
Lumbar gibbus

 

eT EL a TY
Gowers sign
Hepatosplenomegaly

 
 
 
Lay LAC et N

A
_
Cee
—

   

Seen nt
La] LAC eA

 
Inguinal hernia
aa

   

a Se ST
Mel Ste RCN ta TS

.

 
Lens opacities

   

pe acer er rr ay Tens ee TTT

 
Lens opacities

 

Ty a as
Lymphadenopathy

   

ey rag
Macroglossia

  

ore era oe en Scns
 
Mild hepatosplenomegaly

   

pete aan
reel ete] ko 18

 
Melee el Me lttelce 18

 
eel lttolgel 18

 
= 7
com VD
Pom ole aes

 

ge
Retinitis pigmentosa

SS ET eS ea
Scapular winging

 
[Syl ee ecy

 

poms Meee oe ET
Micrognathia (small jaws)
 
Swollen joints

 

‘alge: courtesy af eMadicire.cor: 2004
Mel eer ICY

   

Porat emai eee a)
err IIIT Maal)

 
NU)

 

(

eee ee ae gr ere, meen eT
Tere) eat td

 
“Whorled" corneal opacity

 

prereset rn | ee
“Whorled" corneal opacity

 

pormegeeprrsny tet eee
AAT I pelntes aaa

*

Viegas EOUrieey Of Auta of Metabolic Diseamex CATO 1008

eT
 
 
 
 
 
 
 
 
 
git.version=ce3551a92c8cf91f925232f93a88b3048fecd9ac
