 
 
 
 
 
|
 
 
I
y

=

y
 
 
 
y

=

y
a

 
 
 
 
G)
 

   
 
 
 
 
 
.
»
 
 
a
Cl
git.version=a1f28028ba4e22c11cfaffe0e37ae27be1eea0c3
