Ct
Uy ad

VARDGUIDEN
y

=

y
 
 
alla

bd
y

=

y
 
 
 
>
~\
IO
we
~\
a
a
a
Te
we
EY
a
~
i
a
“a
“a
a
100% =)

bs
a
 
we
a
a
a
we
>
a
a
~\
a
a
EY
a
ia
 
 
.
 
»
 
 
a
“a
 
NI]
 
a
 
 
a
 
a
“a
a
a
a
NI]
a
“a
aloha)

bs
a
“a
a
a
“a
C
“a
“a
 
100% (=)
 
a
gl
VARDGUIDEN
SOUT a
VARDGUIDEN
Cl
 
