 
 
 
 
TelekomSlovenije

PRVA POMOC

V SODELOVANJU Z RDEGIM KRIZEM SLOVENWE

cee

 
   
Telekom

V SODELOVANJU Z RDECIM KRIZEM SLOVENIJE

 
 
Ov

—
 
eh.
 
 
 
 
 
 
 
 
 
 
 

= ucnarian? gy I

a"
|
a

a
 
 
 
 
 
 
 
 
 
 
 
 
 
 
 
