an
 
 
 

 

 

 

 
Ce
hax |
 

 
 
 
to
 
 
Re |
 
FF
y

=

y
he |
it,

icerige Erisim Yok
Pe)
 
 
 

 

 

 

 

 

 
 
a
 
 
y

=

y
 
 
3
ry
i
 
 
 
ie
‘Fy
NZ,
 
 
 
 
 
 
 
 
 
 
cy
 
 
gy
on)
 
>
S|
 
 
HH
 
re}
4
Ce
re!
2 |
»
 
 
 
 
 
.
 
 
 
re)
 
 
aN
aT
rT
 
 
 
Ce
 
 
 
 
 
 
C
NO IMAGE,

AVAILABLE

 
Ca ]
OY

o} , y
a
La C
>,
isis

(4 \\
,
\,

Z|
3
aC

7
Cl
a
