 
TP
 
 
 
 
 
 
 
 
 
G)
 
 
 
 
 
 
 
 
 
 
 
»
 
.
 
 
 
 
Ps
 
 
 
=

Se ea
Se ea
4

 
 
 
 
 
 
 
 
 
 
|
 
 
XY’
 
(3
oN
yan
 
yan
 

 

 

 

 

 

 

 

 

 

 
 
Immunization Schedule (Optional)

 

 

 

 

Recommended Age Vaccines Dose No.
>1 year (any time) Hepatitis A Vaccine [Ist
(6 months after Ist dose Hepatitis A Vaccine [Booster

 

 

Hepatitis B Vaccine

 

 

lany day Cas 1st
1 month from the Ist dose (hay 20? Jana
2 months from the Ist dose Hepatitis B Vaccine },,4

(Adult)

 

 

Hepatitis B Vaccine
12 months from the Ist dose (aqui) lath

 

 

 

 

 

 

 

 

 

 

 

 

 

 

 

 

 

 

 

 

 

 

 

 

 

 

 

 

 

 

 

 

 

 

 

 

 

 

 

 

 

 

 

 

 

 

 

 

 

 

 

 

 

 

 

 

 

 

 

 

 

 

 

 

 

 

 

 

 

 

 

 

 

 

 

 

 

 

 

 

 

 

 

 

 

 

 

 

 

 

 

 

 

 

 

 

[Haemophilus
linfluenzae
6 months-12months b (ib) Ist
[Haemophilus
linfluenzae
|4 weeks after the 1st dose b (ib) and
[Haemophilus
linfluenzae
|4 weeks after the 2nd dose b (ib) Sra
[Haemophilus
6 months after the 3rd dose influenzae Booster
ltype b (Hib)
[Haemophilus
1 year-5 years jinfluenzae 1 single dose
ltype b (Hib)
|Human
9-13 years female Papillomavirus (HPV) St
|Human
}6 months after the Ist dose Papillomavirus (HPV) [224
>15 years female Human Ast
y' Papillomavirus (HPV)
|Human
1 month after the Ist dose Papillomavirus (HPV) 24
|Human
}6 months after the Ist dose Pavillomavirus (HPV) S*4
Polysaccharide
>2 years-65 years Ipneumococcal 1 single dose
jvaccine
>65 years
Polysaccharide
pneumococcal Booster
jvaccine
(after every 5 years)
[Any Day Rabies Vaccine Tst
I7th day from the 1st dose [Rabies Vaccine and
21st day from the Ist dose [Rabies Vaccine Bra
28th day from the Ist dose [Rabies Vaccine Bra
T year after Rabies Vaccine Booster
[Then Every 5 years Rabies Vaccine Booster
|Any day (suspected contact day)
[Rabies Vaccine 1st
Brd day from the Ist day [Rabies Vaccine 2nd
7th day from the 1st dose [Rabies Vaccine ra
14th day from the 1st dose|Rabies Vaccine lath
28th day from the Ist dose|Rabies Vaccine Sth
5 years after last dose [Rabies Vaccine ‘Booster
2 years and above Ityphoid Vaccine 1 single dose
[Every 3 years after [Typhoid Vaccine _ [Booster
2-6 years (Oral Cholera vaccine|1st
1 week after Ist dose [Oral Cholera vaccine [2nd
1 week after 2nd dose [Oral Cholera vaccine [3rd
[Every 6 months (Oral Cholera vaccine |Booster
>6 years & above (Oral Cholera vaccine|1st
1 week after Ist dose [Oral Cholera vaccine [2nd
Every 2 years (Oral Cholera vaccine [Booster
|As primary immunization (at appropriate date) [Tetanus Toxoid Ist
1-2 months after Ist dose [Tetanus Toxoid 2nd
(6-12 months after the 2nd dose [Tetanus Toxoid Brd
Every 10 years Tetanus Toxoid Booster
12-15 months IMMR (Mumps, Measles, Rubella)|1st
3-5 years IMMR (Mumps, Measles, Rubella)|2nd
9 months and Above ivellow Fever 1 single dose
12-15 months ‘Chicken Pox Vaccine 1st
|4-6 years Chicken Pox Vaccine and
[> 13 years Chicken Pox Vaccine Ist
(6-10 weeks after Ist dose (Chicken Pox Vaccine 2nd
[>2 years [Meningococcal polysaccharide vaccine[Ist
3-5 years [Meningococcal polysaccharide vaccine [Booster
(9-23 months [Meningococcal Quadrivalent conjugate vaccines|Ist
'3 months after 1st dose [Meningococcal Quadrivalent conjugate vaccines |2nd
[>2 years [Meningococcal Quadrivalent conjugate vaccines|1 single dose
6 months-8 years ‘Seasonal Influenza (Inactivated Vaccine) ist
|4 weeks after 1st dose Seasonal Influenza (Inactivated Vaccine) and
9 years and above |Seasonal Influenza (Inactivated Vaccine)|1st
Every year [Seasonal Influenza (Inactivated Vaccine) [Booster

 

 

 

 

 
Try the Advance Search option
for more specific results!
 

PDM

Practical Diagnosis & Management

Intending for a rational
practice everywhere.

Delevoped by

"F medicus
" FOLLOW US

bdeKeey ny AelintsmianrteelColnisy
ee ere en ea
With New Features ! }
Pp o= L!

(Practical Diagonisis & Management)

 
 
Practical Diagnosis and Management (PDM)
ANTIBIOTIC RESISTANCE
WHAT CAN DOCTORS DO?
aD)

Practical Diagnosis & Management

Intending for a rational
practice everywhere.

Delevoped by
=: medicus
Cn
 
 
a

 
 
y

=

y
 
 
 
 
y

=

y
I
 
 
_=_s

Se ea
Se ea
= y

 
 
Ss
medicus
 

Different essential
Charts & Calculators
 
 
Tnstant
Hresoription

Writiar

 
 

PDMis

Practical Diagnosis & Management

Intending
for
a rational practice
everywhere

Delevoped by

= medicus
 

Check important interactions
of multiple drugs by
Drug Interaction Checker
le
Onean. ae
Drug Search

 
  
 
Patient Aid

Search Doctor
~ Take Appointment

A GETITON
f t ‘ Google Play
Rational approach of
managements
to the patients
 

Interactive linking of
Generic Drugs, Investigations,
D/D, Inside Topics
(resove
er Oey

Calchun Oveleie
 
 
+
yy
=
 
LIL,

Sea
Sea
i”

 
 
 
 
 
medicus
er Oey

Calchun Oveleie
(resove
 

PDMis

Practical Diagnosis & Management

Intending
for
a rational practice
everywhere

Delevoped by

= medicus
 
 
 
Patient Aid

Search Doctor
~ Take Appointment

A GETITON
f t ‘ Google Play
 
medicus
 
 

PDMis

Practical Diagnosis & Management

Intending
for
a rational practice
everywhere

Delevoped by

= medicus
er Oey

Calchun Oveleie
Patient Aid

Search Doctor
~ Take Appointment

A GETITON
f t ‘ Google Play
(resove
(resove
medicus
er Oey

Calchun Oveleie
 

PDMis

Practical Diagnosis & Management

Intending
for
a rational practice
everywhere

Delevoped by

= medicus
Patient Aid

Search Doctor
~ Take Appointment

A GETITON
f t ‘ Google Play
 
 
a
er Oey

Calchun Oveleie
Patient Aid

Search Doctor
~ Take Appointment

A GETITON
f t ‘ Google Play
Tnstant
Hresoription

Writiar

 
 

Check important interactions
of multiple drugs by
Drug Interaction Checker
ca
 

Different essential
Charts & Calculators
 
le
Onean. ae
Drug Search

 
  
medicus
 
 
 

Interactive linking of
Generic Drugs, Investigations,
D/D, Inside Topics
(resove
 

PDMis

Practical Diagnosis & Management

Intending
for
a rational practice
everywhere

Delevoped by

= medicus
Rational approach of
managements
to the patients
Cl
+New PDM.
+New Features!

 
Find out the availability of rare
uncommon investigations
Dx & Rx of most
common medical disorders.
 

e View Investigations
Normal Values & Interpretation
Very handy & useful for
GP & intern doctors
PDM

(Practical Diagnosis & Management)
DRUG INDEX.)

- Quick Drug Search

  

- View the Drug Details

- Generic Linking on the topic
PDM

(Practical Diagnosis & Management)

   
  

- 550+ Common Diseases Management
- Drug Index & Details
- Investigation values & Interpretations
- Calculator and Charts

- Drug to Drug Interactions

- Latest Medical News

- Instant Prescription Writing
 

 
 

DENGUE.
FEVER:

Dengue outbreak is now prevailing
with increased casualties.

Go through PDM for Dengue management plan.
" FOLLOW US

bdeKeey ny AelintsmianrteelColnisy
ANTIBIOTIC RESISTANCE
WHAT CAN DOCTORS DO?
Update Released
With New Features !

Pp _

(Practical Diagonisis & Management)

an:

 

Celene 6
en el
einer Sete
Cn
136.1

127.0

117.9

108.9

   
  

   

Normal 18-5)
--BMI18.5-28

Weight [Ibs ]
Weight [kg]

[=
per Underweight
BMI 18.5

28 8 2 8 8
RB 2 & & DT ®

45.4

 

+ 36.3,

4'8" 410" 5'0" 5'2" 5'4" 5'6" 5'8" 5'10" 6'0" 6'2" 64" 6'6" 6'8" 6110" 7'0"

142cm 147 152 157 163 168 173 178 183 188 193 198 203 208213cm
Height (no shoes)
CDC Growth Charts

Body mass index-for-age percentiles:
Boys, 2 to 20 years

 
_ CDC Growth Charts

Body mass index-for-age percentiles:
Girls, 2 to 20 years

 

‘Age (years)
‘Birth to 24 months: Boys

suzorz

 

Bw-ore
 
Birth to 24 months: Boys.

 

Head circumference-foraage and Nawe
Weightfordength percentiles RECORD

“Ee ace wonTes =

g wa

 

sze-mz
<q
cM

136
138
140
142
144
146
148
150
152
154
156
158,
160
162
164
166
168
170
172
174
176
178
180
182
184
186
188
190

HEIGHT
INCH

54
54.3
55
56
57
57.5
58
59
60
61
614
62
63
64
64.5
65
66
67
68
68.5
69
70
71
72
72.4
73
74
73

MIN
37
38
39
40
41
43

45
46
47
49
50
51
52
54
55
56
58
59
61
62
63
65
66
68
69
71
72

MALE
MAX
46
47
48
49
51
53
55
56
58
59
61
62
64
66
67
69
71
72
74
76
7
79
81
83
85
86
88
90

EXPECTED WEIGHT (KG)

IDEAL
415
42.5
43.5
44.5
46
48
49.5
50.5
52
53
55
56
57.5
59
60.5
62
63.5
65
66.5
68.5
69.5
71
73
745
76.5
775
79.5
81

MIN
35
36
37
38
39
41
42
43
44
45
46
47
49
50
51
52
54
55
56
58
59
60
62

FEMALE
MAX IDEAL
44 39.5
46 41
47 42
48 43
50 44.5
51 46
53 47.5
54 48.5
55 49.5
57 50.5
58 52
60 53.5
61 55
63 56.5
65 58
66
68 59
69 61
71 62
73 63.5
74 65.5
76 66.5
78 68

70
EPI Immunization Schedule (Routine Immunization)

  

 

 

 

 

 

 

 

 

 

 

 

 

 

 

 

 

 

 

 

 

 

 

 

 

 

Recommended] Vaccines Dee aCe
|At Birth BCG 1
|At Birth-14

days OPV(Oral Polio Vaccine) 0 Dose
BCG (If dose missed at birth) 1
Pentavalent Vaccine (DPT, Hepatitis B, 1st
Hib)

6 Weeks opv ist
Pneumococcal(conjugate)Pneumonia qst
|Vaccine(PCV)

Pentavalent Vaccine (DPT, Hepatitis B, 2nd
Hib)

10 Weeks OPV gna
Pneumococcal(conjugate)Pneumonia ‘gna
|Vaccine(PCV)

Pentavalent Vaccine (DPT, Hepatitis B, [3rd
Hib)
1 single

14 Weeks IPV
OPV gra

18th Weeks Pneumococcal (conjugate) Pneumonia gra
|Vaccine (PCV)

|After 9 qst

[Months Measles Rubella (MR)

15 Months __|Measles Rubella (MR) ‘gna
MR (Measles, Rubella) Child bearing qst
lwomen

15 Years
TT (Tetanus Toxoid) Child bearing women | 1st

|At Pregnancy [TT (Tetanus Toxoid) qst

4wks after |TT (Tetanus Toxoid) ‘gna
Tr

6 months gra

‘after TT-2 or

during ITT (Tetanus Toxoid)

subsequent

[pregnancy

lyear after [TT (Tetanus Toxoid)

ITE-3 Or during am

subsequent

[pregnancy

1 year after

ITE-4 Or during , th

subsequent {77 (Tetanus Toxoid) 5

[pregnancy

 

 

 

 

 
Immunization Schedule (Optional)

 

 

 

 

 

 

 

 

 

 

 

 

 

 

 

 

 

 

 

 

 

 

 

 

 

 

 

 

 

 

 

 

 

 

 

 

 

 

 

 

 

 

 

 

 

 

 

 

 

 

 

 

 

 

 

 

 

 

 

 

 

 

 

 

 

    

 

 

 

    

 

  

 

Recommended Age Vaccines Dose No.
>1 year (any time) Hepatitis A Vaccine [1st
6 months after 1st dose [Hepatitis A Vaccine _|Booster
Hepatitis B Vaccine
lany day (nay Ist
Hepatitis B Vaccine
1 month from the Ist dose (Rah and
Hepatitis B Vaccine
2 months from the 1st dose (APS Sra
Hepatitis B Vaccine
12 months from the Ist dose [(J°P31" lath
[Haemophilus
linfluenzae
6 months-12months b (ib) Ist
[Haemophilus
linfluenzae
|4 weeks after the 1st dose b (ib) and
[Haemophilus
linfluenzae
|4 weeks after the 2nd dose b (ib) Sra
[Haemophilus
6 months after the 3rd dose influenzae Booster
ltype b (Hib)
[Haemophilus
1 year-5 years jinfluenzae 1 single dose
ltype b (Hib)
|Human
9-13 years female Papillomavirus (HPV) St
|Human
}6 months after the Ist dose Papillomavirus (HPV) [224
>15 years female Human Ast
y' Papillomavirus (HPV)
|Human
1 month after the Ist dose Papillomavirus (HPV) 24
|Human
}6 months after the Ist dose Pavillomavirus (HPV) S*4
Polysaccharide
>2 years-65 years Ipneumococcal 1 single dose
jvaccine
>65 years
Polysaccharide
pneumococcal Booster
jvaccine
(after every 5 years)
[Any Day Rabies Vaccine Tst
I7th day from the 1st dose [Rabies Vaccine and
21st day from the Ist dose [Rabies Vaccine Bra
28th day from the Ist dose [Rabies Vaccine Bra
T year after Rabies Vaccine Booster
[Then Every 5 years Rabies Vaccine Booster
|Any day (suspected contact day)
[Rabies Vaccine 1st
Brd day from the Ist day [Rabies Vaccine 2nd
7th day from the 1st dose [Rabies Vaccine ra
14th day from the 1st dose|Rabies Vaccine lath
28th day from the Ist dose|Rabies Vaccine Sth
5 years after last dose [Rabies Vaccine ‘Booster
2 years and above Ityphoid Vaccine 1 single dose
[Every 3 years after [Typhoid Vaccine _ [Booster
2-6 years (Oral Cholera vaccine|1st
1 week after Ist dose [Oral Cholera vaccine [2nd
1 week after 2nd dose [Oral Cholera vaccine [3rd
[Every 6 months (Oral Cholera vaccine |Booster
>6 years & above (Oral Cholera vaccine|1st
1 week after Ist dose [Oral Cholera vaccine [2nd
Every 2 years (Oral Cholera vaccine [Booster

 

 

 

 

  

 

 

 

 

 

 

 

 

|As primary immunization (at appropriate date) [Tetanus Toxoid Ist

1-2 months after 1st dose [Tetanus Toxoid 2nd
(6-12 months after the 2nd dose [Tetanus Toxoid rd
[Every 10 years [Tetanus Toxoid Booster
12-15 months IMMR (Mumps, Measles, Rubella)|1st

3-5 years IMMR (Mumps, Measles, Rubella) |2nd

 

 

‘9 months and Above

 

[Yellow Fever

1 single dose

 

 

 

 

 

 

 

 

 

 

 

 

 

12-15 months Chicken Pox Vaccine Ist
|4-6 years Chicken Pox Vaccine 2nd
> 13 years Chicken Pox Vaccine ist
(6-10 weeks after Ist dose Chicken Pox Vaccine 2nd
[>2 years [Meningococcal polysaccharide vaccine|1st
3-5 years [Meningococcal polysaccharide vaccine [Booster

 

 

 

9-23 months

[Meningococcal Quadrivalent conjugate vaccines

‘Ist

 

‘3 months after 1st dose

[Meningococcal Quadrivalent conjugate vaccines

2nd

 

[>2 years

[Meningococcal Quadrivalent conjugate vaccines

1 single dose

 

 

[6 months-8 years

Seasonal Influenza (Inactivated Vaccine)

‘Ist

 

|4 weeks after 1st dose

Seasonal Influenza (Inactivated Vaccine)

 

 

2nd.

 

 

{9 years and above

Seasonal Influenza (Inactivated Vaccine)

‘Ist

 

 

 

[Every year

Seasonal Influenza (Inactivated Vaccine)

 

 

[Booster

 
git.version=a1f28028ba4e22c11cfaffe0e37ae27be1eea0c3
