 
 
(er
(er
(er:
(er:
G+
G+
 
 
 
 
(ong
 
 
(ong
(er
Anticoag
Ieee hness

 

Loop PANE ALOrLUN
“0:4e9:) COLLEGE of
<ass/ CARDIOLOGY

 
 
 

 

G+

 

 

 
[cry
 
[cry
 

 

G+

 

 
[cry
 

Anticoag
Evaluator

FON UT ACOA
B icct Ree O Bel oR
<is7 CARDIOLOGY

 
Anticoag
Evaluator

 

Lops LEU OrAUN
Bi () R@xO) 80 e) Oya
ces7 CARDIOLOGY

 
awanaleroytes
Evaluator

B icc) Ree) BB Kel RT
Cs O7.N:9B) (0) KOled's

 
 

Anticoag
EyeLeeNKoye

 
Anticoag
Evaluator

 

oe ONTO

 

“(2Q9:) COLLEGE of
Crt SOUNDS CO) ROLeD 4
Anticoag
Evaluator

 

oe ONTO

 

“(2Q9:) COLLEGE of
Crt SOUNDS CO) ROLeD 4
   
 

Anticoag

ICheUelcose
 

Anticoag
Evaluator

   

PID TON
CC ao

5 0
ees CARDIOLOGY
 

Anticoag
JIelbe hues

NUN UCONN!
“WQR) COLLEGE of
CeO UAB) (O)KOLer

  
 

Anticoag
JIeTICehaess

  

Lop OPN ALON. UN
“Qg) COLLEGE of
s7 CARDIOLOGY
Anticoag
Evaluator

 
 

Anticoag
Evaluator

 
 

Anticoag
Evaluator

   

PID TON
CC ao

5 0
ees CARDIOLOGY
ne
ne
re
ne
ne
ne
ne
ne
ne
ne
ne

a

ne

nn
en
OO
~
OOOO
TS
—
OOOO
OOOO
OOOO

—

OOOO

_
_—
ee
a
ee
ee
ee
—
ee
ee
ee
a
a

—

ne

—
—
7
-
OU
—
—
-
-

7

OU

7
_—
re
re
re
re
ee
re
re

BS

Bn

ee
OO
roy
eee | Se
Poy
BS

 
 
b <eee
 
@) ACC | Statin Intolerance
