G@ pocket prep

\ \
\ &
: %

~
>
~

Mastering Your
Multiple Choice Exam
 
 
a

 
 
 
 
 
y

=

y
I
 
y

=

y
 
 
wy
fate)
A

Tap to Play
pocket prep
 
r
a
Cl
 
 
 
»
 
.
 
pocket prep
7
 
 
Aa
i
 
A

Tap to Play
 
 
 
 
|
 
 
 
pave
 
A

Tap to Play
 
pocket prep
G)
 
 
 
five
 
A

Tap to Play
 
pocket prep
Ey
 
oe
> 4
 
1
 
 
pocket prep
(ad
G@ pocket prep

\ \
\ &
: %

~
>
~

Mastering Your
Multiple Choice Exam
G)
 
oe
> 4
 
five
 
A

Tap to Play
 
pocket prep
Ey
 
1
 
(ad
