TE1 G Ch TE2 Ye Men
Bal 483 mare ie AP] RM

HT9 Shao Chong =
Lb 485 ns

   
   
 

/TE3 Zhong Zhu
Pa Pa

TE4 Yang Chi
ie Part
LU5
Chize
Ri

 
KI2 Ran Gu
Re RE

KI3 Tai Xi
RK KE

KI6 Zhao Hai
RR 7 BR

   
   
     
Lill

Quchi
aie

 
GB34
Yang] ingquan

aR PAR

 

 
 
   
    

BL62 Shen Mai
FoR Rk

BL63 Jin Men
SP er
    
   
    

ST41 Jie Xi
FR RIK

ST42
Chong Yang

ith wha |
ST43 Xian Gu] »
Be meé

 
 
SP2 Da Du
KA KAP

SP3 Tai Bai
KAA KG

KI7 Fu Liu
ie 2

   
   
     
  
 

SP9 A
Yinlingquan \

SR
BA ER
 
SI1 Shao Ze — SJ3. Ho

x

u
Ay Ay 4B 5. Eek

S12 Qian Gu Ss
He He poe

       
 
 

4

‘S14 Wan Gu
mer me

SI5 Yang Gu
Be ms
p

 
 
 
 
    
  

° et

TE8 San Yang Luo
= Hs

~TE10 Tian Jing

Sf af RK RK

~ f TE5 Wai Guan # ar

os Sb RK TE6 Zhi Gou
XH RA
   
  

PC8 Lao Gong
ee Fe

PC9 Zhong Chong y
ne |)
SP1 Yin Bai
BG KSA

ST45 Li Dui
Bw AR

ST44 Nei Ting)
AR AR |)

   
   
   
   
    
   

BL64 Jing Gu

a =a

ne RE

BL65 Shu Gu
RF RF

BL66 Zu Tong Gu
   
    

BL60 Kun Lun
Be Be

BL61 Pu Can
 
   
   

LUT Lie Que
Alte Fite

LU8 Jing Qu
SBR BE
y N
    
     

SP4 Gong Sun

DR BH

SP5 Shang Qiu
Bae We
   
  
 

KI1
Yong Quan

BR aR
LUS Tai Yuan
Kivd AW

LU10 Yu Ji
SR BER

LU11 Shao Shang/
da Dm Ze

   
   
     
HT4 Ling Dao
3a Kw

HT3 Shao Hai
Db He he

   
      
   
 

ae PY PT]

HT8 Shao Fu
bP it
GB44 |
Zu Qiao Yin |
REE
RBA

BL67
Zhi Yin
BE

 
 
    
    
SI8 XiaoHai
1s 7]

 
LI1 Shang Yang LI5 Yang Xi

     
   
  
 

Bh Ara
LI2 Er Jian ay
= Fal — la L. CE oe =

A,13 San Jian
=k) =iq

LI4 He Gu
aE AB
   
    
    
  

LR1 Da Dun
RE KE
LR2 Xing Jian

4y fel = 47 TA] ,

LR3
Tai Chong

K&S AY

LR4
Zhong Feng,

Pat pat]
PC5 Jian Shi
Fal 4 da) 4@

  
  
  
    

  

PC4 Xi Men
ERP apr]

PC7 Da Ling

ABR AK PC6 Nei Guan

AR AK
GB40 Qiu Xu
we 3

    

GB43 Xia Xi
RE RE
 
 
 
a

 
 
 
 
 
y

=

y
I
y

=

y
 
SO
 
 
 
VISA
 
 
 
 
 
 
 
 
a
Cl
 
 
 
»
 
.
 
 
 
 
 
 
Visa
 
 
a
 
 
 
|
 
 

 
 
 
bSc@yrE
 
‘VISA
 
<<
G)
a

 
DISC: ver
DISC@VER
VISA
_ a
DISC ver)
VISA
— -

DISC@VER

. 7
Oo
Oo
 
<
a
c¢
yy
>a
>
TE1 G Ch TE2 Ye Men
Bal 483 mare ie AP] RM

HT9 Shao Chong =
Lb 485 ns

   
   
 

/TE3 Zhong Zhu
Pa Pa

TE4 Yang Chi
ie Part
LU5
Chize
Ri

 
KI2 Ran Gu
Re RE

KI3 Tai Xi
RK KE

KI6 Zhao Hai
RR 7 BR

   
   
     
Lill

Quchi
aie

 
GB34
Yang] ingquan

aR PAR

 

 
 
   
    

BL62 Shen Mai
FoR Rk

BL63 Jin Men
SP er
    
   
    

ST41 Jie Xi
FR RIK

ST42
Chong Yang

ith wha |
ST43 Xian Gu] »
Be meé

 
 
SP2 Da Du
KA KAP

SP3 Tai Bai
KAA KG

KI7 Fu Liu
ie 2

   
   
     
  
 

SP9 A
Yinlingquan \

SR
BA ER
 
SI1 Shao Ze — SJ3. Ho

x

u
Ay Ay 4B 5. Eek

S12 Qian Gu Ss
He He poe

       
 
 

4

‘S14 Wan Gu
mer me

SI5 Yang Gu
Be ms
p

 
 
 
 
    
  

° et

TE8 San Yang Luo
= Hs

~TE10 Tian Jing

Sf af RK RK

~ f TE5 Wai Guan # ar

os Sb RK TE6 Zhi Gou
XH RA
   
  

PC8 Lao Gong
ee Fe

PC9 Zhong Chong y
ne |)
SP1 Yin Bai
BG KSA

ST45 Li Dui
Bw AR

ST44 Nei Ting)
AR AR |)

   
   
   
   
    
   

BL64 Jing Gu

a =a

ne RE

BL65 Shu Gu
RF RF

BL66 Zu Tong Gu
   
    

BL60 Kun Lun
Be Be

BL61 Pu Can
 
   
   

LUT Lie Que
Alte Fite

LU8 Jing Qu
SBR BE
y N
    
     

SP4 Gong Sun

DR BH

SP5 Shang Qiu
Bae We
   
  
 

KI1
Yong Quan

BR aR
LUS Tai Yuan
Kivd AW

LU10 Yu Ji
SR BER

LU11 Shao Shang/
da Dm Ze

   
   
     
HT4 Ling Dao
3a Kw

HT3 Shao Hai
Db He he

   
      
   
 

ae PY PT]

HT8 Shao Fu
bP it
GB44 |
Zu Qiao Yin |
REE
RBA

BL67
Zhi Yin
BE

 
 
    
    
SI8 XiaoHai
1s 7]

 
LI1 Shang Yang LI5 Yang Xi

     
   
  
 

Bh Ara
LI2 Er Jian ay
= Fal — la L. CE oe =

A,13 San Jian
=k) =iq

LI4 He Gu
aE AB
   
    
    
  

LR1 Da Dun
RE KE
LR2 Xing Jian

4y fel = 47 TA] ,

LR3
Tai Chong

K&S AY

LR4
Zhong Feng,

Pat pat]
PC5 Jian Shi
Fal 4 da) 4@

  
  
  
    

  

PC4 Xi Men
ERP apr]

PC7 Da Ling

ABR AK PC6 Nei Guan

AR AK
GB40 Qiu Xu
we 3

    

GB43 Xia Xi
RE RE
Oo
Oo
<<
G)
_ a
DISC ver)
— -

DISC@VER

. 7
VISA
 
 
