g
&
_
Ret ieee
a8

CPMC Clinical
Protocols
*

CPMC Clinical
Protocols
c

Contra’
[efeln eclei4
Contact
tee
eee ean
Pall

Outreach
Locations
Eel

Outreach
Locations
=
ie TST a
Groups:
(a

Patient Support
Groups
Aa
oa

Patient Support
Groups
Prd
eeietucy
|

eae]
Programs
| a

CPMC
Programs
 

cciP al ey
 

Referral
Guidance
 

Referral
Guidance
De)
Peron
Research and
Education
%

Research and
Education
Resources
Resources
About
About
S

CPMC Liver Care
5S

CPMC Liver Care
ay

CPMC Liver Care
iS
 
a

 
 
 
Kcr)
 
 
y

=

y
y

=

y
 

 
 
a
Cl
gl
‘Sy Sutter Health

CPMC Liver Care
~S Pin) ga (reli tg)

CPMC Liver Care
‘Sy Sutter Health

CPMC Liver Care
‘Sy Sutter Health

CPMC Liver Care
‘ Sutter Health

CPMC Liver Care
i Sutter Health

CPMC Liver Care
‘Sy Sutter Health

CPMC Liver Care
iS PT id ali)

CPMC Liver Care
‘Sy Sutter Health

CPMC Liver Care
‘S STU ate (orci)

CPMC Liver Care
‘ Sutter Health

CPMC Liver Care
 
 
 
io)
 
»
 
.
 
 
 
 
 
 
‘Sy Sutter Health

CPMC Liver Care
Ss STV ncclg@ (orl it)

CPMC Liver Care
‘Sy Sutter Health

CPMC Liver Care
‘Sy Sutter Health

CPMC Liver Care
‘ Sutter Health

CPMC Liver Care
i Sutter Health

CPMC Liver Care
‘Sy Sutter Health

CPMC Liver Care
rs) pda)

oreo
Sy PSU (rel)

CPMC Liver Care
‘Sy Sutter Health

CPMC Liver Care
‘S STU ate (orci)

CPMC Liver Care
‘ Sutter Health

CPMC Liver Care
 
 
(cr)
 
 
C
 
IO
-
 
(93)
>)
((9))
iS
Sy PTV (ete)

CPMC Liver Care
 
 
g
&
_
Ret ieee
a8

CPMC Clinical
Protocols
*

CPMC Clinical
Protocols
c

Contra’
[efeln eclei4
Contact
tee
eee ean
Pall

Outreach
Locations
Eel

Outreach
Locations
=
ie TST a
Groups:
(a

Patient Support
Groups
Aa
oa

Patient Support
Groups
Prd
eeietucy
|

eae]
Programs
| a

CPMC
Programs
 

cciP al ey
 

Referral
Guidance
 

Referral
Guidance
De)
Peron
Research and
Education
%

Research and
Education
Resources
Resources
About
About
S

CPMC Liver Care
5S

CPMC Liver Care
ay

CPMC Liver Care
iS
-
((9))
 
 
