 
10)
 
 
aa
0%
 
(-
Qa
 
7
Cg
\\/)>
DG
(
a
 
oe.
y
10)
C
 
 
 
aN
 
 
 
 
   
  

 

tie
1 ar iN. .
te

rae (2
Peek ae

 
CcONnnexx

 
 
 
 
 
 
 
 
 
(
a
 
 
nail
©
Qe
©
Qa
 
n
©
Qa
0%
©
Qe
 
 
 
a
>
aS
 
©
®.
 
ey
 
1
i

(~
 
oh
 
 
©
Qa
 
 
ios
 
 
 
 

 
ay
te
 
» =
 
 
 
 
 
 
 
 
 
gf
re
 
 
a
Je
 
 
a
©
 
 
Oy
 
(oe
wa
 
 
 
=D
ai)
 
 
(os
ww
 
 
wal
 
< 30 cm/ 1 ft

 
(os
ww
 
>
©
 
=)
uy
 
=<)
 
 
 
'
4

or
(os
ww
 
IO
(oe
wa
 
 
 
-
 
=<)
 
CcOnnexxX

 
 
 
a
(os
ww
 
i

io
 
 
via
 
ce
 
‘ge
Sa
 
 
 
 
 
 

7
aN
| _
a
a

ww
 
>

Wey
 
(os
ww
 
 
 
 
 
 
 
 
<1)
on
 
-
oy
a
uy
 
 
 
3
rN
co
 
 
Wry
DG
oN
 
 
 
 
 
on
 
i

&
(aos
 
 
 
connexx

 

 

 

 

 
aa
 
 
 
 
 
 
Q’WZ
AX
<1)
 
 
 
So Pan
 
n
 
.
 
»
on
 
 
 
 
aia
» =
 
aN
or’
 
 
 
 
 
lao
 
‘oO.
a
MS
7 6
¥
 
el
 
 
r
.
 
 
mal
 
 
 
 
 
 
 
 
 
nf
 
on
oO
i eee &
 
oN
o>"
 
lao
 
 
Peek ae

 
 
 
 
 
 
 
 
 
 
 
 
 
 
 
 
 
 
 
 
 
 
 
 
 
 
 
 
 
 
 
 
 
oe.
y
 
 
 
 
 
 
< 30 cm/ 1 ft

 
 
 
 
 
 
 
 
 
 
 
 
 
 
 
 
 
 
 
 
 
 
 
 
 
 
 
 
 
 
 
 
 
 
 
 
 
 
 
 
 
 
 
 
 
 
Pete ae

 
 
 
 
 
 
 
 
 
 
 
 
 
 
 
 
 
 
Aa
y

=

y
ic
\
 
em
 
 
 
 
 
T.B-.D
 
 
 
>
Pete ae

 
 
>’
  
 
 
 
=
Sy
7
a

 
 
oe
 
TN
 
(™
 
DG
 
nnn
 
a
 
aN
®
connexx

 
i
 
i
 
 
 
 
a)
 
y

=

y
ic
\
 
 
 
aia
 
 
 
i
r3)
 
 
 
 
=<)
»
ca
r |

a
=<)
i)
 
 
 
a
. ©
 
 
 
 
 
 
row
2
» =
>
 
 
 
 
 
 
 
™
 

 
 
2p
 
a
 
 
 
 
 
 
 
 
 
 
 
 
 
 
 
 
 
 
 
 
 
 
 
 
< 30 cm/ 1 ft

 
 
 
 
 
 
 
 
 
 
 
 
 
 
 
 
 
 
oe.
y
 
 
 
 
 
 
 
 
 
 
 
 
 
 
 
 
 
 
 
 
 
Peek ae

 
 
 
 
 
 
 
 
 
 
 
 
 
 
 
 
 
 
 
 
 
 
 
 
 
 
 
 
 
 
 
 
 
 
< 30 cm/ 1 ft

 
 
 
 
 
 
 
Cl
gl
