BS
 
©
=
 
 
 
 
ie
 
aoe
yuan ana)
a
 
ia

ian
—

wn
 
.o
Va
Va

A
 
¢’)tytocare
 
><
ww
 
 
Google
C7
op
 
 
Bo
.
ee
NU
Dp.
pe
 

 
 
C7
¢l)tytocare
 
 
 
 
»
 
 
 
 

 

 

 

 
 
a
a4
 
 
 
—
v=

u—S
 
 
 
css
 
 
4@
AveraNow
S47
IN
 
 
IN
 
: a
 
 
Cold

Fever

Headache

Rash
 
 
 
/
 
¢’)tytocare
 
 
Cold

Fever

Headache

Rash
 
Ro
Paes)
 
a

 
ase
4q.
 
IN
2
Pp
 
SY
 
IN
NO
y
 
y

=

y
 
D><]
re
 
‘American
cranes
Association

 
 

 

 

 

 
Le Toff) [2
mi
Bo
a
 
 
t
 
”.
oS
 
y

=

y
 
i
AveraNow
I
y
 
Ys.
DIscovER
Cold

Fever

Headache

Rash
 
><]
NO
¢’)tytocare
 
 
 
 
IN
 
 
1)
 
i)
Google
AveraNow
 
 
 
vd
—

vd
 
 
~
a
 
a
 
|
Ys
DISCOVER
 
a
 
 
 
 

 

 

 

 

 

 
ee
a
—
Pa ns)
ro
rs
Lh
 
4
 
SY
IN
 
4

<
ab
a
 
XG
Ss
 
Yim cuss

jess)

i
2
Es
e

rN

 
a
 
 
op)
a
aS
AveraNow
 
 
|
@
 
DISCOVER
\)
 
 
Yoo—
yo

yo
a
a
 
 
Google
INO
KY
a
a
 
><
 
an
S
G)
 
IN
 
IN
a
 
¢’)tytocare
\)
 
SY
 
oe
o FILTER
| a
| a
THE LATEST
TREATMENT OPTIONS

 

Avera.org/cancer | Avera
 
Po >
20ee@e
| a
pe LARGEST CANCER CARE
- T TEAM IN THE REGION

Avera.org/cancer | Avera

 
THE REGION'S ONLY
BONE MARROW
TRANSPLANT PROGRAM

 

Avera.org/cancer | Avera
THE REGION'S ONLY
6} 24/7 CALL CENTER
FOR CANCER PATIENTS

 

Avera.org/cancer | Avera
pe LARGEST CANCER CARE
- T TEAM IN THE REGION

Avera.org/cancer | Avera

 
 
THE REGION'S ONLY
BONE MARROW
TRANSPLANT PROGRAM

 

Avera.org/cancer | Avera
p ON
 
Where Big Expectations

Meet Love at First Sight / y
ae 4

  

Avera.org/birthing Avera

 
THE REGION'S ONLY
6} 24/7 CALL CENTER
FOR CANCER PATIENTS

 

Avera.org/cancer | Avera
 
p ON
awe eh
| a
—

 
 
| a
GAMMA KNIFE:

GOLD STANDARD FOR
BRAIN CANCER TREATMENT

s

Avera.org/cancer | Avera ii

 
 
Where Big Expectations

Meet Love at First Sight / y
ae 4

  

Avera.org/birthing Avera

 
Where Caring Hands
Meet Tiny Feet

 

Avera.org/birthing Avera i

 
,0@
p ON
THE REGION'S ONLY
6} 24/7 CALL CENTER
FOR CANCER PATIENTS

 

Avera.org/cancer | Avera
GAMMA KNIFE:

GOLD STANDARD FOR
BRAIN CANCER TREATMENT

s

Avera.org/cancer | Avera ii

 
 
| a
Where Caring Hands
Meet Tiny Feet

 

Avera.org/birthing Avera i

 
GAMMA KNIFE:

GOLD STANDARD FOR
BRAIN CANCER TREATMENT

s

Avera.org/cancer | Avera ii

 
| a
THE LATEST
TREATMENT OPTIONS

 

Avera.org/cancer | Avera
THE REGION'S ONLY
BONE MARROW
TRANSPLANT PROGRAM

 

Avera.org/cancer | Avera
| a
Where Caring Hands
Meet Tiny Feet

 

Avera.org/birthing Avera i

 
pe LARGEST CANCER CARE
- T TEAM IN THE REGION

Avera.org/cancer | Avera

 
 
| a
Where Big Expectations

Meet Love at First Sight / y
ae 4

  

Avera.org/birthing Avera

 
 
    

End

pefreshvideo yomins Lett
 
 
Cl
a
Avera

Cy
 
 
 
 
 
 
 
 
awe eh
Avera
git.version=eb8d5626ff8b7781e3a2ec6c3990785697adb99f
