 
y

=

y
I
 
 
 
y

=

y
 
 
 

+5

Sample Rate

Default Settings

GREAT

TOO ® @ S
LOW oy
Pol @

 
Maximum Levels Input

Instructions: Enter the uppermost range
number for each category. Default is set to 39
dB for Low range and 70 dB for Good range.

mele oN a Ae urecunea)

GOOD level maximum

 
 
 

+5

Sample Rate

Default Settings

GREAT

TOO ® S S
Low gee
oy &

 
as
LiveWell

RERC for ICT ACCESS
     
 

16000 Hz

{| Ga

GREAT hy h =
ell0! , actice
= "Speak
Sup!
N

Livewejrns
39

AU
5
7
7 39
130
150
7

57 levels

Enter ID to delete

DELETE

 

High

70
70
70
70
70
70

Timestamp
2017-05-24 10:59:48
2017-05-24 10:59:57
2017-05-24 11:45:15
2017-05-24 12:36:25
2017-05-24 12:37:59
2017-05-24 13:50:12
20174 05-24 13:52:24

 

2017- 05-25 08: 8:24
2017-05-25 08:49:38
2017-05-25 08:53:05
2017-05-25 08:54:34
2017-05-25 09:04:28

DELETE ALL
 

+5

Sample Rate

Default Settings

GREAT

3

TOO © leno
Low oe

G.

 
 

GREAT

TOO ( Peer) } S
LOW 5 @

[ty

 
ws
LiveWell

RERC for ICT ACCESS

Pathology ana Audiology
 
Speech Projection
Tool

START!

USAGE TIPS

LOGS

 
 
 

Feedback:

Switch between layouts here!

Bee Layout S| @ Solid Layout

Sound Levels:

Min Threshold Value @®) dB
—
Max Threshold Value @) dB
V7

 
Level Input
Bee C Solid

Instructions: Enter the uppermost range
number for each category. Default is set to 39
dB for Low range and 70 dB for Good range.

Too wo Aaah d na Ua)

GREAT level maximum

 
 
DME
     
 

16000 Hz

{| Ga

GREAT hy h =
 

GREAT

“ea

TOO
LOW
 
 

Sample Rate

Default Settings

GREAT

TOO | a f @S S
LOW po
» oo &

 
 
 
 
 

GREAT

TOO |
Low oo
 
 

GREAT

 
 
 

GREAT

S

LOW &

 
 
 
 
 
.
 
»
 
 
 
 
 
 
 
|
 
Cl
 
ZN
ZN
iN
a
a
."
-
