 
 
 
GG)?
GG)?
GG.\ i?
CAPPS:
GG.)
GG?
GG)?
GG’ .\ 1?
COAPPS.
i CAPPS.
cl CAPPS.
Cl CAPPS.
CAPPS.
GG’.\ 1 U-?
GG)\ 2-5
 

 

GG)

 

 
CAPPS.
 

 

GG. 2s

 

 
CAPPS.
