 
 
 
|
 
 
 
 
 
 
|
 
 
 
 
 
 
 
 
.
»
 
 
 
»
.
 
 
 
 
 
I
 
 
y

=

y
y

=

y
 
 
 
 
I
y

=

y
y

=

y
 
a
a
 
 
 
Cl
Cl
 
 
 
 
 
 
I
 
 
y

=

y
y

=

y
a
Cl
 
 
 
 
 
.
»
 
 
 
|
 
 
 
ered

 

Cee
ea

  
Roe

 
Roel

 
ere

 

Cee
evn

    
eed

 
oes
are)

coe

 
eee e ed

   

Cee
ea
eee

   

ea
eed

 
eer

 
eee
array
cos

 
Roe

     

Cee
evn

 

 
eed
are)

 
oer eed
array

 
ered
array

 
ered

Cee
evn

 
eer aed
array

 
erred
array

 
eer
rae)
Pod

  
Poorer es
array
cod

 

Cee

  
eer
array
a Pod

 

Cee

 
   

Re oere ee!
Sree)
cos

 

Cee
Reoere ned

 
   

oeree ey
ara)
cod

Cee
   

eee
array
cos

Cee

 
eee
rae)
cos

   

Cee

 
 
Peoecreed
array
4

  
eoecr eed
array

   
Poe ceeed
array

  
  

Cee
ea
orcad
array
cod

   

Cee
= Read
ni ara)
ih cod

   

Cee
oes
Pm > array
- cos

   

Cee
oer eed
array

 
Roe
cree)

 
 
— Reoer raed

 
 
 
 
 
. Ror Rel

~ ceed
cos

Cee

ea

   
Peloer ed
array

 
 
   

oer eed
ara)
cod

Cee
= lore)

   
y . oer reed
array
cod

    

 

Ce

 
    

Reoreeeed
array
cod

en
ea
ore

 
 

Reoeee eed

 
   

Pore reed
array
Pod

~ Contrast tv
\

 
Reloerr aed

 
eoere eed

 
 
 
 
   

eloerre ed
array
cod

 
  

 

 

oer Cee
Cee
evn

  
  

 

   
    

= Rlorre ne)
> ara)

i
uo ey
: ear

nN

 
   

= eoeree
array
Pod

Cee
. ea
oer

 
 

ad

— Rloecraed
> Sree)
" Bo one cs

    
 
 
 
  

oes
arr)
cos
 
 
 
 
 
    

oer
arr)
cod

eee

ores

 
ore

 
       

oeCe ee
ree)
cod
3
E}

ie

a

 
   

Ponte
Sree)
cod

Cee
   

eee]
roe)
Pod

Cee

 
  
 
  

(Rene oer
rr)

 
   

Roe
ree)
Pod

Cee
Poetry
ree)

  
  
  

Cees
eves
ON
 
a ae Rory

roe)
cod

ore
Set)

    
       

Ronee)
ree)

cod
Cee
ea
    

3 | Loc: 164.73
or ~~

 
   

oetreed
array
cos

Cees
   

Ported
Sree)
cod

Cees
 
a Poet a es)

 
 
 
 
 
   
   

eoee eed
ree)
cos

Cen

 

 

 
Peoeee ee]

  
eed
% ard

    
     

Pore
ree)

Cee
 
Rony LOG: 131.73
Ene
y i

 

      

 
   

Poorer eed
array
cos

 

Cee
  

eoeer eed
array
Pr

Cee
 
rae)
Pr

coo

   
a See
= —— cereal

  
 
 
  

ua

Sa
 
aa oeeCe ey
a a Mla — rae)

> ca
y ; , oN ar

    
Portree
Sree)
Pr

   

Cee
Poe
art

  
oe Creed

 
eee
ree)
cos

 
 
ee oe aed
ni Sree)

On ead

 
= ened
_ — ree)

> Pod
in S

P oe

   

 
ened
Sree)
cod

 

Cee

 
aed

   
eae

   
ERE

wT ree)
- =,

   

cod

 

 
ee
ree)
cod

fi ° ee

   

 
eee
_ creed
vy Y Pos

  

Cee

 
 
eed
Sree)
oe — cod

Cee

     

oN
>

 
ead
array
—— Pos

Cee

 

 
od
Sree)
= Pod

Cee

 
lod
ree)
cod

 

Cee

 
 
Tod
rae)
cod

Cee

 

   
eed

 
 
ered

 
ere
array
cod

RR ESET ee

 
EES

 
lores
ree)

ce 0 ea

 
 
eed
array

ss Cee
< ea

 
 
 
Tet
ree)
cos

= Coe
eT)

 
eee]
ree)
cos

 

Cen
ar)

 
EERE]

 
ened
cree)
Pr

 
Reed
aro)

 
eee
ara)
Ps

 

Cen

  
Pio erd
ares
Pr

eae

 
oer
ares

 
froerery

cos

cor

ce
ov)

  
  

filer
cree
cos

eer
ev
  

homer
arrees
cod

Coe

 
omer
ares
Pr

CN
eva

    
frome
ares
F Pr

eres

    

   
   

oer ery
array
Pod

Ce

 

 
eer ery

 
 
  
  

 

Ce
, en

 

   
      

Contrast: 1V
Cane)

   

 
 
 
   

Voc: -39.26

 
 
   

ieee

 
 
 

eee
array
co

Cea
eva

 
 

eee
ares
cs

Cea
eva

i —— ~—=

 
 

eer
ares
a

 

Coed

 
 

eer
erry

 

cr

 

 
eZee
ares

 
 

eee
ares

 
 

eee
ares
cs

Cea
eva

 
eee
ores

 
 
eee
ores

 
 
eee
ores

aos

inn ee ead

 
 

eee
THK:

 

cr

 

 
eer
ores

 
 

eee
THK:

 

cr

i a)

 

 

 
 

oeeee
ores

 
 

eee
array
cs

Cea
ae eva

 
 

ore
ores

i
a es

   
 

ogee
ores

Le
SS ee eee
& i Se

   
 

oesee

i em
; fi <

rs
Coed
ova

       
 

oe zee
ores
cs

Cena
evo

 
 

ore
ares

 
 

ere
ores

aa pie
CE

aoUT)

 

   
 

erred
ares
cs

 
 

eee
ares

: fe
FL ee
* ow lover

   
 

erred
array

a
re maa ba ccsisl
aaa)

   
 

eet
ares

       

  
 

area
ares

 
 

eaecretd
ares

—— eee Et
Pr ger: ee
aCe)

 

    

   
 

aera
ares
cs

eae
nearav

 
 

oer
array

FE is
ey
: anc

     
     

oer
arreey

rs

oe 7
cv
 

eet

 
 

eee
ares

Pe —< Sane ca

   
eet
rey

e

 
 

aera

—— ares
cd

 
eee
array

   
 

eee
Sarees

cs

   

ced
rors)
 

aera
ares

 
 

eee

 
 

eee
Sores
cd

aon
x“ vat

   
 

eee

ares
ct
ar o

   
 

eee
ares

San is

   
 

   

eee
“Riel isis

  
— SS ota
ares

oe

 
 
 
 
     

rs

ares

 

Reece

—
~~

a

 
 
 
 
 
 
 
 

   

1c 642.16
ied . a
oe CO». oa)
 
 
 
 
ee
er

>,

 
Yi
g

 
eer
ares

 
oerratd
array

 
 
 
 
 
 
 
 
 
 

    

> Loc: 608.16
ree
‘ , 4
   

Pro Gin eco a
. ces

cs

   

Cane
clan
>.

  
 
Beer
er

oe
ra

 
Sere
ares

~—

 
 
     

oer
ares
cs

ve

 
     

foeeet
rey
 
    

 

—

tot
EB
oe

  
 
 

 

toot
ares

S
Cont 4

    
        

 

a

=

Coed

4
iy
 
 
 
 
 
 
 
 
 
 
 
 
 
 
Crea

 
 
ee
sae

 
 
 
 
 
 
 
 
 
 
 
 
 
 
 
 
 
 
 
 
 
 
 
 
 
 
 
 
 
 
 
 
 
 
 
 
 
 
 
 
 
 
 
 
 
 
 
 
 
 
 
 
 
 
 
 
an
ee

a

 
a

 
me:

EB
a

 
 
 
 
 
 
 
 
 
 
 
 
 
 
 
 
 
 
 
 
 
 

 
 
