 
 
 
[cry
[cry
 

 

G+

 

 

 
[cry
 

 

G+

 

 
 
 
 
powered by Google
ss Kg Ogle
 
ss Kg Ogle
 
powered by Google
[cry
 
[cry
[cry
 
 
 

 

G+

 

 

 
 
 

 

G+

 

 
(84
(er:
(er:
(S41
SH
powered by Google
Google
SH
(er:
(er:
Google
(84
(S41
powered by Google
 
 
(ong
(ong
 
 
(er
 
 
B+
 

 

8+

 

 
(er
 
 
B+
 
(ong
 

 

8+

 

 
 
 
 
(ong
 
G+
G+
Sa
(St
powered by Google
s,s Google
(St
s,s Google
G+
Sa
powered by Google
G+
 

 
(er
(er
 
 
8+
powered by Google
 , oogle
8+
 

 
 
(er
 
 , oogle
(er
powered by Google
powered by Google
Google
powered by Google
Google
wa
 

 
(er
(er
 
 
8+
powered by Google
 , oogle
 
 
[cry
[cry
 

 

G+

 

 

 
[cry
 

 

G+

 

 
 
 
 
 
powered by Google
ss Kg Ogle
 
 
(ong
(ong
 
 
(er
 
 
B+
 

 

8+

 

 
G+
G+
Sa
(St
powered by Google
s,s Google
(er:
(er:
(84
(S41
SH
powered by Google
Google
powered by Google
Google
 

 
(er
(er
 
 
8+
powered by Google
en =.
 
[cry
[cry
 

 

G+

 

 

 
[cry
 

 

G+

 

 
 
 
 
 
powered by Google
 
 
 
 
 
(ong
(ong
 
 
(er
 
 
B+
 

 

8+

 

 
G+
G+
Sa
(St
powered by Google
en = i
a
(er:
(er:
(8
(S41
8+
powered by Google
Tn a
powered by Google
ee a
 
 
 
 
 

 
 
A-Z
[gigorosa
SK —,

Make your food safety for the | a

 

next nine months

< Fruit, Vegetables and Herbs

 

 

Fruit, vegetables and
heros

Salads, fruits and vegetables are
fantastic for your health, but they need
to be thoroughly cleaned before
consumption.

Limit your consumption of soya or soy-
based preparations. They contain
phytoestrogens, which can interfere with
the hormonal system of the child.

(en ne Oe aa

 

 

 
 
