 

 

&

 

 
&
 

 

&

 

 
 

 

| 3

 

 
 

 

| 3

 

 
 

 

po

 

 
po
 

 

pe

 

 
 
J4+1,
O41
 
Cola
ighg
&
&
 

 

po

 

 
&
 

 

&

 

 
 
 

 

| 3

 

 
 

 

pe

 

 
Cola
ighg
O41
 

 

| 3

 

 
po
 

 

&

 

 
J4+1,
 
 
to
ae
 
 
 
 
Py |
at),
Cola
ighg
ky
 
 
 
 
Cola
ighg
ae
 
Py |
at),
to
ky
 
 
 
 
poe
 
 
 
Cola
ighg
&
 
&
poe
Cola
ighg
 
 
 
3+ |
3+ |
ee
 

 

&

 

 
 

 

&

 

 
 
I+1
RYT -ay

.9;
 
Cola
ighg
&
 

 

&

 

 
 
 
 

 

&

 

 
I+1
&
 
3+ |
ee
3+ |
Cola
ighg
RYT -ay

.9;
poe
 
 
 
Cola
ighg
&
 

 

&

 

 
&
 

 

&

 

 
 

 

| 3

 

 
 

 

| 3

 

 
 

 

po

 

 
po
 

 

pe

 

 
 
J4+1,
O41
 
Cola
ighg
&
3+ |
3+ |
ee
 

 

&

 

 
 

 

&

 

 
 
I+1
RYT -ay

.9;
 
Cola
ighg
&
to
ae
 
 
 
 
Py |
at),
Cola
ighg
ky
 
 
