 
 
 
 
 
y

=

y
y

=

y
 
 
y

=

y
 
 
 
y

=

y
 
 
 
C
 
 
 
 
C
 
 
 
IO
 
IO
 
gl
gl
 
 
 
 
 
.
»
 
.
»
 
 
 
 
WF
8

Malattie
Cura
WF
8

Malattie
Cura
Cl
Cl
a
a
 
 
 
 
 
y

=

y
y

=

y
a
Cl
gl
 
 
 
 
 
.
»
 
 
 
C
 
 
IO
 
WF
8

Malattie
Cura
WF
8

Malattie
Cura
A
“
¥ lattle
Cura
