 
 
 
 
 
.
»
 
 
 
»
.
 
 
 
 
 
I
 
 
y

=

y
y

=

y
Y

b

BASHAEDYYy?S
 
 
y

=

y
Y

b

BASHAEDYYy?S
 
I
 
y

=

y
 
 
 
 
|
 
 
 

Y

b

AASHAEDVyT
 
 
 
 
|
 

Y

b

AASHAEDVyT
 
a
a
 
 

0

4

HASEIAEDVyT
 

0

4

HASEIAEDVyT
 
 
Cl
Cl
AED
 
 

AED

 
 
 
 
 
I
 
 
y

=

y
y

=

y
Y

b

BASHAEDYYy?S
a
Cl
 
 
 
 
 
.
»
 
 
 
|
 
 
 

Y

b

AASHAEDVyT
 
 

0

4

HASEIAEDVyT
