 
 
 
 
 
|
 
G)
a

 
 
 
 
I
 
y

=

y
 
y

=

y
 
 
9
 
No Data Found !
 
 
 
»
.
 
 
 
a
 
 
Cl
 
 
git.version=eb8d5626ff8b7781e3a2ec6c3990785697adb99f
