 
 
 
|
 
 
“a
a
“a
a
“a
a
NI]
a
NI]
a
“a
a
“a
a
“a
a
a
a
“a
a
Sa
(St
powered by Google
en = i
 
 
 
 
 
.
»
 
 
 
powered by Google
 
 
 
 
 
 
 
 
I
 
 
y

=

y
y

=

y
 

 
a

 
 
8+
powered by Google
en =.
powered by Google
ee a
 
a
G)
“a
a
we
a
we
a
EY
a
EY
a
Te
a
we
a
>
a
>
a
~
a
we
a
~\
a
~\
a
~\
a
“a
a
(8
(S41
8+
i
_
Sn
powered by Google
Tn a
B+
 

 

8+

 

 
a
Cl
 
 
 
I
 
 
y

=

y
y

=

y
 

 
a

 
 
8+
powered by Google
en =.
a
Cl
 
 
 
 
 
.
»
 
 
 
powered by Google
 
 
 
 
 
B+
 

 

8+

 

 
 
 
 
|
 
 
“a
a
“a
a
“a
a
NI]
a
NI]
a
“a
a
“a
a
“a
a
a
a
“a
a
Sa
(St
powered by Google
en = i
 
a
G)
“a
a
we
a
we
a
EY
a
EY
a
Te
a
we
a
>
a
>
a
~
a
we
a
~\
a
~\
a
~\
a
“a
a
(8
(S41
8+
i
_
Sn
powered by Google
Tn a
powered by Google
ee a
git.version=eb8d5626ff8b7781e3a2ec6c3990785697adb99f
