 
—
Pa ns)
 
IN
 
><]
 

 

 

 

 

 

 
Sy
 

Iq
 
 

ed
Google
4

<
 
Ys
4
Yim cuss

jess)

i
2
Es
e

rN

 
a
 
 
DISCOVER
 
 
XG
Ss
Cold

Fever

Headache

Rash
 
|
 
 
 
~
 
 
ee
 
ab
Sy
 
a
 
(Clos
aeeean ae
Conte ny

of America’

Anywhere”

 
¢’)tytocare
 
 
ro
rs
 
Lh
 
a
 
 
Cold

Fever

Headache

Rash
ee
 
 
 
 
 
 
 
¢l)tytocare
 
me
os
 
.
 
 
»
a4
 
C7
IN
 
Aa pal 3
 
 
 

 
 
op
a
Bo
css
S47
>
 
 
 
va
a
 
 
 
4@
Dp.
pe
>
 
Google
 

 

 

 

 
 
Cold

Fever

Headache

Rash
Ys.
¢’)tytocare
D><]
2
Pp
 
 
 
 
re
/
Cae CTCA
Jie Rit

 
 
t
 
ad P :

 
 
a

 
 
Le Toff) [2
 
IN
Bo
 
 
y

=

y
‘American
cranes
Association

 
Ro
Paes)
I
 
 
 
DIscovER
 
y

=

y
i
ase
 
 
 
 
 
 

 

 

 

 
”.
oS
a
4q.
 
 
y
 
 
@ amwell
 
a
aS
 
|
 
@
op)
 
><
\)
¢’)tytocare
oe
o FILTER
a
S
 
 
 
 
Google
DISCOVER
 
 
G)
KY
 
 
CTCA
Centers Anywh so :

ee wai siec

 
 
a
IN
a
aoe
yuan ana)
.o
 
CTCA
pres

 
><
 
 

 

 

 

 
=
 
¢’)tytocare
 
 
p ON
 
 
  
   
 

Sneeze Ati 7

A single sneeze can

travel at 10O0mph and
distribute 100,000 germs
into the air.

A
Ly
hh
One ofaKind

Humans have different fingerprints, and »
each person also has a different tongue print.

 
p ON
| a
 
p ON
 
| a
 
 
 
 
,0@
 

The average American consumes 500 cans
of soda per year. That's 52 lbs of sugar.

| = oT; ar eee rrr
 
 
| a
 
 
| a
Po >
20ee@e
  

oh

The average adult needs 7-8 hours of sleep
per night. Babies require 12 hours.

vill) 2.

 
 
—

 
 
     
 

If you take 7500 steps per ae you'll
have walked about 216 million steps
by the age of 80.

   
   
 
 

~ so

a
*
. Yh

—e

~
| a
   
 
 
 
| a
 
 
 
  
  

respiratory system and can identify
over 10,000 scents.
ee ehOUcLe oe COU sd
   

Dog owners have been reported to
Lr live longer and have a lower risk
~ of heart disease than non-dog owners.

7

   
 
 
 
| a
 
 
 
 
 
 
| a
 
| a
 
 
 
Cl
    

End

pefreshvideo yomins Lett
 
   

Be CTCAG,
Centers Anywhere

‘of America

 
 
 
 
a
 
 
 
