a

 
 
 
 
 
 
 
 
 
|
 
 
 
 
 
 
C
|
 
 
G)
 
 
 
 
 
|
|
 
a
Cl
 
 
 
