 
 
 
 
 
.
»
 
 
 
»
 
 
 
.
 
 
 
 
 
 
I
 
 
y

=

y
y

=

y
a

 
 
PDF
 
 
I
 
 
y

=

y
y

=

y
 
a

 
 
PDF
 
G)
PDF
 
 
va
we
 
va
we
PDF
G)
 
 
PDF
 
 
Jia
PDF
Jia
 
 
 
 
 
|
 
 
 
ri
 

v=
vo
Ve
 
 
|
ri
 
 
 
 
 

v=
vo
Ve
 
 
Cl
Cl
a
a
 
 

< _— aspir x

ASPIRINA 325 mg compresse

c
ASPIRINA 400 mg compresse
effervescenti

€
ASPIRINA 400 mg granulato

c
ASPIRINA 500 mg compresse

c
ASPIRINA 500 mg granulato

c

ACDIDINIA NO! ORE FC INEIANMANATZTIONNE
 

ICD-10

Alcune malattie infettive e parassitarie

Tumori

Malattie del sangue e degli organi
ematopoietici ed alcuni disturbi del
sistema immunitario

Malattie endocrine, nutrizionali e
metaboliche
 

Tutti gli strumenti

ATC

Sistema di classificazione anatomico,
terapeutico e chimico

a BMI
Body Mass Index

gy BSA

Body Surface Area

Canadian Guidelines for MS

Treatment optimization in multiple
sclerosis

Caprini score

Stratifies risk of venous thrombembolism in
surgical patients
 
 

< _— aspir x

ASPIRINA 325 mg compresse

c
ASPIRINA 400 mg compresse
effervescenti

€
ASPIRINA 400 mg granulato

c
ASPIRINA 500 mg compresse

c
ASPIRINA 500 mg granulato

c

ACDIDINIA NO! ORE FC INEIANMANATZTIONNE
 

ICD-10

Alcune malattie infettive e parassitarie

Tumori

Malattie del sangue e degli organi
ematopoietici ed alcuni disturbi del
sistema immunitario

Malattie endocrine, nutrizionali e
metaboliche
 
 
 

Tutti gli strumenti

ATC

Sistema di classificazione anatomico,
terapeutico e chimico

a BMI
Body Mass Index

gy BSA

Body Surface Area

Canadian Guidelines for MS

Treatment optimization in multiple
sclerosis

Caprini score

Stratifies risk of venous thrombembolism in
surgical patients
#
# generated on 2014/07/03 12:45:07
#
# --table-start--
dataClass=com.mediately.drugs.data.entity.Atc
tableName=atcs
# --table-fields-start--
# --field-start--
fieldName=id
columnName=id
id=true
# --field-end--
# --field-start--
fieldName=code
columnName=code
indexName=atcs_code_index
# --field-end--
# --field-start--
fieldName=description
columnName=description
# --field-end--
# --field-start--
fieldName=drugCount
columnName=drug_count
# --field-end--
# --field-start--
fieldName=isTerminal
columnName=terminal
# --field-end--
# --table-fields-end--
# --table-end--
#################################
# --table-start--
dataClass=com.mediately.drugs.data.entity.AtcFts
tableName=atcs_fts
# --table-fields-start--
# --field-start--
fieldName=atcId
columnName=atc_id
# --field-end--
# --field-start--
fieldName=code
columnName=code
# --field-end--
# --field-start--
fieldName=description
columnName=description
# --field-end--
# --field-start--
fieldName=searchField
columnName=code_and_description
# --field-end--
# --field-start--
fieldName=drugCount
columnName=drug_count
# --field-end--
# --field-start--
fieldName=isTerminal
columnName=terminal
# --field-end--
# --table-fields-end--
# --table-end--
#################################
# --table-start--
dataClass=com.mediately.drugs.data.model.Drug
tableName=drugs
# --table-fields-start--
# --field-start--
fieldName=id
columnName=id
id=true
# --field-end--
# --field-start--
fieldName=registrationId
columnName=registration_id
# --field-end--
# --field-start--
fieldName=registeredName
columnName=registered_name
# --field-end--
# --field-start--
fieldName=activeIngredient
columnName=active_ingredient
# --field-end--
# --field-start--
fieldName=pharmaceuticalForm
columnName=pharmaceutical_form
# --field-end--
# --field-start--
fieldName=atc
columnName=atc
# --field-end--
# --field-start--
fieldName=producer
columnName=producer
# --field-end--
# --field-start--
fieldName=insuranceListCode
columnName=insurance_list
# --field-end--
# --field-start--
fieldName=prescribingNoteId
columnName=prescribing_note_id
# --field-end--
# --field-start--
fieldName=prescribingNote
columnName=prescribing_note_id
foreign=true
foreignAutoRefresh=true
# --field-end--
# --field-start--
fieldName=reimbursingNoteId
columnName=reimbursing_note_id
# --field-end--
# --field-start--
fieldName=reimbursingNote
columnName=reimbursing_note_id
foreign=true
foreignAutoRefresh=true
# --field-end--
# --field-start--
fieldName=spcId
columnName=smpc_id
# --field-end--
# --field-start--
fieldName=spc
columnName=smpc_id
foreign=true
foreignAutoRefresh=true
# --field-end--
# --field-start--
fieldName=smpcUrl
columnName=smpc
# --field-end--
# --field-start--
fieldName=pilUrl
columnName=pil
# --field-end--
# --field-start--
fieldName=atc1Id
columnName=atc1_id
# --field-end--
# --field-start--
fieldName=atc2Id
columnName=atc2_id
# --field-end--
# --field-start--
fieldName=atc3Id
columnName=atc3_id
# --field-end--
# --field-start--
fieldName=atc4Id
columnName=atc4_id
# --field-end--
# --field-start--
fieldName=atc5Id
columnName=atc5_id
# --field-end--
# --field-start--
fieldName=issuing
columnName=issuing_id
foreign=true
foreignAutoRefresh=true
# --field-end--
# --field-start--
fieldName=insuranceList
columnName=insurance_list_id
foreign=true
foreignAutoRefresh=true
# --field-end--
# --field-start--
fieldName=gluten
columnName=gluten
# --field-end--
# --field-start--
fieldName=lactose
columnName=lactose
# --field-end--
# --table-fields-end--
# --table-end--
#################################
# --table-start--
dataClass=com.mediately.drugs.data.model.SPC
tableName=smpcs
# --table-fields-start--
# --field-start--
fieldName=id
columnName=id
id=true
# --field-end--
# --field-start--
fieldName=pregnancy
columnName=pregnancy
# --field-end--
# --field-start--
fieldName=indications
columnName=indications
# --field-end--
# --field-start--
fieldName=contraindications
columnName=contraindications
# --field-end--
# --field-start--
fieldName=interactions
columnName=interactions
# --field-end--
# --field-start--
fieldName=dosing
columnName=dosing
# --field-end--
# --field-start--
fieldName=warnings
columnName=warnings
# --field-end--
# --field-start--
fieldName=driving
columnName=driving
# --field-end--
# --field-start--
fieldName=overdose
columnName=overdose
# --field-end--
# --field-start--
fieldName=undesirableEffects
columnName=undesirable
# --field-end--
# --field-start--
fieldName=pharmacodynamics
columnName=pharmacodynamic
# --field-end--
# --field-start--
fieldName=pharmacokinetics
columnName=pharmacokinetic
# --field-end--
# --field-start--
fieldName=disclaimer
columnName=disclaimer
# --field-end--
# --table-fields-end--
# --table-end--
#################################
# --table-start--
dataClass=com.mediately.drugs.data.model.DrugFTS
tableName=drugs_fts
# --table-fields-start--
# --field-start--
fieldName=drugId
columnName=drug_id
# --field-end--
# --field-start--
fieldName=registeredName
columnName=registered_name
# --field-end--
# --field-start--
fieldName=activeIngredient
columnName=active_ingredient
# --field-end--
# --field-start--
fieldName=searchField
columnName=name_and_ingredient
# --field-end--
# --field-start--
fieldName=insuranceListCode
columnName=insurance_list
# --field-end--
# --field-start--
fieldName=hasSmpc
columnName=has_smpc
# --field-end--
# --field-start--
fieldName=hasPdf
columnName=has_smpc_pdf
# --field-end--
# --table-fields-end--
# --table-end--
#################################
# --table-start--
dataClass=com.mediately.drugs.data.model.InsuranceList
tableName=insurance_lists
# --table-fields-start--
# --field-start--
fieldName=id
columnName=id
id=true
# --field-end--
# --field-start--
fieldName=code
columnName=code
# --field-end--
# --field-start--
fieldName=description
columnName=description
# --field-end--
# --table-fields-end--
# --table-end--
#################################
# --table-start--
dataClass=com.mediately.drugs.data.model.Issuing
tableName=issuings
# --table-fields-start--
# --field-start--
fieldName=id
columnName=id
id=true
# --field-end--
# --field-start--
fieldName=code
columnName=code
# --field-end--
# --field-start--
fieldName=description
columnName=description
# --field-end--
# --table-fields-end--
# --table-end--
#################################
# --table-start--
dataClass=com.mediately.drugs.data.model.Packaging
tableName=packagings
# --table-fields-start--
# --field-start--
fieldName=id
id=true
# --field-end--
# --field-start--
fieldName=drug
columnName=drug_id
foreign=true
# --field-end--
# --field-start--
fieldName=packaging
columnName=description
# --field-end--
# --field-start--
fieldName=reimbursingNoteId
columnName=reimbursing_note_id
# --field-end--
# --field-start--
fieldName=reimbursingNote
columnName=reimbursing_note_id
foreign=true
foreignAutoRefresh=true
# --field-end--
# --field-start--
fieldName=prescribingNoteId
columnName=prescribing_note_id
# --field-end--
# --field-start--
fieldName=prescribingNote
columnName=prescribing_note_id
foreign=true
foreignAutoRefresh=true
# --field-end--
# --field-start--
fieldName=price
columnName=price
# --field-end--
# --field-start--
fieldName=insuranceCover
columnName=insurance_cover
# --field-end--
# --field-start--
fieldName=patientCover
columnName=patient_cover
# --field-end--
# --field-start--
fieldName=issuing
columnName=issuing_id
foreign=true
foreignAutoRefresh=true
# --field-end--
# --field-start--
fieldName=insuranceList
columnName=insurance_list_id
foreign=true
foreignAutoRefresh=true
# --field-end--
# --table-fields-end--
# --table-end--
#################################
# --table-start--
dataClass=com.mediately.drugs.data.model.PrescribingNote
tableName=prescribing_notes
# --table-fields-start--
# --field-start--
fieldName=id
id=true
# --field-end--
# --field-start--
fieldName=code
columnName=code
# --field-end--
# --field-start--
fieldName=description
columnName=description
# --field-end--
# --field-start--
fieldName=url
columnName=url
# --field-end--
# --table-fields-end--
# --table-end--
#################################
# --table-start--
dataClass=com.mediately.drugs.data.model.ReimbursingNote
tableName=reimbursing_notes
# --table-fields-start--
# --field-start--
fieldName=id
id=true
# --field-end--
# --field-start--
fieldName=description
columnName=description
# --field-end--
# --field-start--
fieldName=descriptionExtended
columnName=description_extended
# --field-end--
# --table-fields-end--
# --table-end--
#################################
# --table-start--
dataClass=com.mediately.drugs.data.entity.Chapter
tableName=chapters
# --table-fields-start--
# --field-start--
fieldName=id
columnName=id
id=true
# --field-end--
# --field-start--
fieldName=set
columnName=codes
# --field-end--
# --field-start--
fieldName=name
columnName=name
# --field-end--
# --table-fields-end--
# --table-end--
#################################
# --table-start--
dataClass=com.mediately.drugs.data.model.Icd10
tableName=classifications
# --table-fields-start--
# --field-start--
fieldName=id
columnName=id
id=true
# --field-end--
# --field-start--
fieldName=chapter
columnName=chapter_id
# --field-end--
# --field-start--
fieldName=setId
columnName=set_id
# --field-end--
# --field-start--
fieldName=code
columnName=code
indexName=code_index
# --field-end--
# --field-start--
fieldName=name
columnName=name
# --field-end--
# --field-start--
fieldName=latName
columnName=name_latin
# --field-end--
# --field-start--
fieldName=morbidityId
columnName=morbidity_id
# --field-end--
# --field-start--
fieldName=including
columnName=including
# --field-end--
# --field-start--
fieldName=excluding
columnName=excluding
# --field-end--
# --field-start--
fieldName=comment
columnName=comment
# --field-end--
# --field-start--
fieldName=gender
columnName=sex
# --field-end--
# --field-start--
fieldName=genderReject
columnName=sex_reject
# --field-end--
# --field-start--
fieldName=ageReject
columnName=age_reject
# --field-end--
# --field-start--
fieldName=ageMin
columnName=age_min
# --field-end--
# --field-start--
fieldName=ageMax
columnName=age_max
# --field-end--
# --table-fields-end--
# --table-end--
#################################
# --table-start--
dataClass=com.mediately.drugs.data.entity.Icd10Fts
tableName=classifications_fts
# --table-fields-start--
# --field-start--
fieldName=id
columnName=code_id
id=true
# --field-end--
# --field-start--
fieldName=code
columnName=code
# --field-end--
# --field-start--
fieldName=name
columnName=name
# --field-end--
# --field-start--
fieldName=latName
columnName=name_latin
# --field-end--
# --field-start--
fieldName=searchField
columnName=name_and_code
# --field-end--
# --table-fields-end--
# --table-end--
#################################
# --table-start--
dataClass=com.mediately.drugs.data.entity.DiseaseGroup
tableName=morbidities
# --table-fields-start--
# --field-start--
fieldName=id
columnName=id
id=true
# --field-end--
# --field-start--
fieldName=name
columnName=name
# --field-end--
# --table-fields-end--
# --table-end--
#################################
# --table-start--
dataClass=com.mediately.drugs.data.entity.Set
tableName=sets
# --table-fields-start--
# --field-start--
fieldName=id
columnName=id
id=true
# --field-end--
# --field-start--
fieldName=set
columnName=codes
# --field-end--
# --field-start--
fieldName=name
columnName=name
# --field-end--
# --field-start--
fieldName=chapterId
columnName=chapter_id
# --field-end--
# --table-fields-end--
# --table-end--
################################# 
 
 
I
 
 
y

=

y
y

=

y
a

 
 
PDF
a
Cl
 
 
 
 
 
.
»
 
 
 
 

< _— aspir x

ASPIRINA 325 mg compresse

c
ASPIRINA 400 mg compresse
effervescenti

€
ASPIRINA 400 mg granulato

c
ASPIRINA 500 mg compresse

c
ASPIRINA 500 mg granulato

c

ACDIDINIA NO! ORE FC INEIANMANATZTIONNE
 

ICD-10

Alcune malattie infettive e parassitarie

Tumori

Malattie del sangue e degli organi
ematopoietici ed alcuni disturbi del
sistema immunitario

Malattie endocrine, nutrizionali e
metaboliche
 

Tutti gli strumenti

ATC

Sistema di classificazione anatomico,
terapeutico e chimico

a BMI
Body Mass Index

gy BSA

Body Surface Area

Canadian Guidelines for MS

Treatment optimization in multiple
sclerosis

Caprini score

Stratifies risk of venous thrombembolism in
surgical patients
 
 
 
 
|
 
 
 
ri
 

v=
vo
Ve
 
G)
PDF
 
 
va
we
PDF
 
 
Jia
Copyright 2010 to 2011 by Gray Watson

This file is part of the ORMLite package.

Permission to use, copy, modify, and/or distribute this software for any
purpose with or without fee is hereby granted, provided that the above
copyright notice and this permission notice appear in all copies.

THE SOFTWARE IS PROVIDED "AS IS" AND THE AUTHOR DISCLAIMS ALL WARRANTIES
WITH REGARD TO THIS SOFTWARE INCLUDING ALL IMPLIED WARRANTIES OF
MERCHANTABILITY AND FITNESS. IN NO EVENT SHALL THE AUTHOR BE LIABLE FOR
ANY SPECIAL, DIRECT, INDIRECT, OR CONSEQUENTIAL DAMAGES OR ANY DAMAGES
WHATSOEVER RESULTING FROM LOSS OF USE, DATA OR PROFITS, WHETHER IN AN
ACTION OF CONTRACT, NEGLIGENCE OR OTHER TORTIOUS ACTION, ARISING OUT OF
OR IN CONNECTION WITH THE USE OR PERFORMANCE OF THIS SOFTWARE.

The author may be contacted via http://ormlite.sourceforge.net/
This package provides the Android specific functionality.  You will also need to download the
ormlite-core package as well.  Users that are connecting to SQL databases via JDBC connections
should download the ormlite-jdbc package instead of this Android one.

For more information, see the online documentation on the home page:

   http://ormlite.com/

Sources can be found online via Github:

   https://github.com/j256/ormlite-android

Enjoy,
Gray Watson
Copyright 2010 to 2011 by Gray Watson

This file is part of the ORMLite package.

Permission to use, copy, modify, and/or distribute this software for any
purpose with or without fee is hereby granted, provided that the above
copyright notice and this permission notice appear in all copies.

THE SOFTWARE IS PROVIDED "AS IS" AND THE AUTHOR DISCLAIMS ALL WARRANTIES
WITH REGARD TO THIS SOFTWARE INCLUDING ALL IMPLIED WARRANTIES OF
MERCHANTABILITY AND FITNESS. IN NO EVENT SHALL THE AUTHOR BE LIABLE FOR
ANY SPECIAL, DIRECT, INDIRECT, OR CONSEQUENTIAL DAMAGES OR ANY DAMAGES
WHATSOEVER RESULTING FROM LOSS OF USE, DATA OR PROFITS, WHETHER IN AN
ACTION OF CONTRACT, NEGLIGENCE OR OTHER TORTIOUS ACTION, ARISING OUT OF
OR IN CONNECTION WITH THE USE OR PERFORMANCE OF THIS SOFTWARE.

The author may be contacted via http://ormlite.sourceforge.net/
This package provides the core functionality for the JDBC and Android packages.  Users
that are connecting to SQL databases via JDBC connections will need to download the
ormlite-jdbc package as well. Android users should download the ormlite-android package
as well as this core package.

For more information, see the online documentation on the home page:

   http://ormlite.com/

Sources can be found online via Github:

   https://github.com/j256/ormlite-core

Enjoy,
Gray Watson
