 
JONES & BARTLETT LEARNING

Nurse’s
Drug
Handbook

 

 

 

 

Mobile Edition

 
 
 
 
 
 
a

 
y

=

y
 
 
 
y

=

y
I
 
Nurse's
Dit)
eae

 
 
 
 
|
 
Nurse's
Drug
Handbook

 
Oo
a
OC
Nurse's
DyatTe)
Handbook

 
G)
a
Oo
 
a
 
 
 
 
»
.
 
 

 

JONES & BARTLETT LEARNING

Nurse's
Drug
Handbook

 

Mobile Edition
 

JONES & BARTLETT LEARNING

Nurses
Drug
Handbook

 

 

 

 

Mobile Edition
Cl
 

JONES & BARTLETT LEARNING

Nurses
Drug
Handbook

 

 

 
 

JONES & BARTLETT LEARNING

Nurse’s
Drug
Handbook

 

 

a ae

Mobile Edition

 
   
 

JONES & BARTLETT LEARNING

Nurse's
Drug
Se

 

 

 

 
 

JONES & BARTLETT LEARNING

Nurse's
Drug
a

 

 

 
 

JONES & BARTLETT LEARNING

Nurse’s
Drug
Handbook

 

Mobile Edition
 

JONES & BARTLETT LEARNING

Nurse's
Drug
i

 

 

 

Mobile Edition
git.version=ce3551a92c8cf91f925232f93a88b3048fecd9ac
This is TagSoup 1.2, downloaded from http://home.ccil.org/~cowan/XML/tagsoup/.

To get the java files included here:
- download tagsoup
- unzip it
- cd into the tagsoup directory
- run ant
- copy the files in src/java and tmp/src