 
 
 
y

=

y
 
 
I
y

=

y
 
 
 
 
|
 
 
 
»
 
.
 
 
 
a
Cl
