 
 
 
 
C
 
 
 
 
 
 
 
 
.
»
 
 
 
y

=

y
 
 
 
y

=

y
Cl
a
