| 421%) 3
ECG Master |
G)
 
a

 
ECG Master |
UZ
asey) 93
ECG Master
ECG Master |
A

2

A
=

4ajsv|\/ €
y A
a

ECG Master
>
WV

a
| 421% 93
| 490) D9
ECG Master
rm
| 4219 93
 
 

 

 

 

 

 

 

 

 

 

 

 

 

 

 

 

 

 

 

 

 

 

 

 

 

 

 

 

 

 

 

 

 

 

 

 

 

 

 

 

 

 

 

 

 

 

 

 

 

 

 

 

 

 

 

 

 

 

 

 

 

 

 

 

 

 

 

 

 

 

 

  

 

 

 

 

 

 

 

 

 

 

 

 

 

 

 

 

 

 

 

 

 

 

 

 

 

ECG: QPEDIAORG
 
 

Coury Mishel Rs MD, Mc Use ECG QPEDIA.ORG,
 
 

 

ones in de Roe RS & Devinn AMC The Netants ECGQPRDIA.ORG
 

 

 

 

 

 

 

 

 

 

 

 

 

 

 

 

 

 

 

 

 

 

 

 

 

 

 

 

 

 

 

 

 

 

 

 

 

 

 

 

 

 

 

 

 

 

 

 

 

 

 

 

 

 

 

 

 

 

 

 

 

 

 

 

 

 

 

 

 

 

 

 

 

 

 

 

 

 

 

 

 

 

 

 

 

 

 

 

 

 

 

 

 

 

 

 

 

 

 

 

 

 

 

 

 

 

 

 

 

 

 

 

 

 

 

 

 

 

 

 

 

 

 

 

 

 

 

 

 

 

 

 

 

 

 

 

 

 

 

 

 

 

 

 

 

 

 

 

 

 

 

 

 

 

 

 

 

 

 

 

 

 

 

 

 

 

 

 

 

 

 

 

 

 

 

 

 

 

ECG\QPEDIA,ORG

 
Pa)

Se Vereen
Ty
crore tan aa
os HILL lJ LL

htt bt

 
 
 

 

aenin telus (aa fan uv aaa
eee
mar neti aR ae
eA AAA AMAA PITY
AIT

 

 
 

 

 

 

 

 

 

 

 

 

 

 

 

 

 

 

 

 
 
 
 
 

 

 

 
 
Ny
RGEC Ca oe Coca cao
HRC CE Coasts eg
Np i

 
 

 

 

 

 

 

 

 

 

 

 

 

 

 

 

 

 

 

 

 

 

 

 

 

 

 

 

 

 

 

 

 

 

 

 

 

 

 

 

 

 

 

“4
4

 

 

 

 

 

 

 

 

 

 

 

 

 

 

 

 

 

 

 

 

 

 

 

 

 

 

 

 

 

 

 

 

 

 

 

 

 

 

 

 

 

 

 

 

 

 

 

 

 

 

 

 

 

 

 

 

 

 

 

 

 

 

 

 

 

 

 

 

 

 

 

 

 

 

 

 

 

 

 

 

 

 

 

 

 
   

 

E | fi@teadt | | AS Bom aa es aaa 1h Gera
ee
PRB, 1s. Aeon Mie lise oy a ted
te “| beta rit
|e acta “eat Fla

 

frre Ser ea cy Bas
|

tA
au eS

 

t
Ol
Te

Tn la
————— ies Coceeeeie
{ i
1.8 6-15 unis asin NGF LPS
 

Sent loom Ae LSD GDS ‘Counery of RG. Postma, MID.AMC ECG: 2PEDIAORG
 

ECG: QPRDIAORG,
 

ce
Courteny of Jancn E. Rootiger, CCT, CRAT.

er ema nannn a Wi Mn nra\ia IV
cantonal attnenoylgecentrerNealrtaneacplortonant

Wr nu an aan Wl VA nl WY nein

panei nnnatannanr i nanny Manyvennlind
 

Coustesy of Michel Rosengarten BEngs MD, MeGill University ECG\QPEDIA,ORG;
 
 
 

 

\
46-1580 Sonise:
 
 

 

 

 

 

 

 

 

 
 

 

 

 

 

 

 

 

 

 

 

 

 

 

 

 

 

 

 

 

 

 

 

 

 

 

 

 

 

 

 

 

 

 

 

 

 

 

 

 

 

 

 

 

 

 

 

 

 

 

 

 

 

 

 

 

 

 

 

 

 

 

 

 

 

 

 

 

 

 

 

 

 

 

 

 

 

 

 

 

 

 

 

 

 

 

 

 

 

 

 

 

 

 

 

 

 

 

 

 

 

 

 

 

 

 

 

 

 

 

 

 

 

 

 

 

 

 

 

 

 

 

 

 

 

 

 

 

 

 

 

 

 

 

 

 

 

 

 

 

 
 

ECG IPEDIAORG
 

 

 

 

 

 

 

 

 

 

 

 

 

 

 

 

 

 

 

 

 

 

 

 

 

 

 

 

 

 

 

 

 

 

 

 

 

 

 

 

 

 

 

 

 

 

 

 

 

 

 

 

 

 

 

 

 

 

 

 
 

 

 

 

 

 
 
 
 

 

aenin telus (aa fan uv aaa
eee
mar neti aR ae
eA AAA AMAA PITY
AIT

 

 
 

(Courtesy of Michael Rosengarten, BEng, MD, MeGil University ECG QPEDIA,ORG
 

 

 

 

 

 

 

 

 

 

 

 

 

 

 

 

 

 

 

 

 

 

 

 

 

 

 

 

 

 

 

 

 

 

 

 

 

 

 

 

 

 

 

 

 

 

 

 

 

 

 

 

 

 

 

 

 

 

 

 

 

 

 

 

 

 

 

 

 

 

 

 

 

 

 

 

 

 

 

 

 

 

 

 

 

 

 

 

 

 

 

 

 

 

 

 

 

 

 

 

 

 

 

 

 

 

 

 

 

 

 

 

 

 

 

 

 

 

 

 

 

 

 

 

 

 

 

 

 

 

 

 

 

 

 

 

 

 

 

 
 

 

 

 

 

 

 

 

 

 

 

 

 

 

 

 

 

 

 

 

 

 

 

 

 

 

 

 

 

 

 

 

 

 

 

 

 

 

 

 

 

 

 

 

 

 

 

 

 

 

 

 

 

 

 

 

 

 

 

 

 

 

 

 

 

 

 

 

 

 

 

 

 

 

 

 

 

 

 

 

 

 

 

 

 

 

 

 

 

 

 

 

 

 

 

 

 

 

 

 

 

 

 

 

 
 

ECG DPEDIAORG
Sees

aVR

 

Pe ee eed
Ny
RGEC Ca oe Coca cao
HRC CE Coasts eg
Np i

 
 

ps
cee fl hol fh Ay

ASIA Alay TRH
pall als Lata ALA A hd Ad ds AA

Fear stents AAA Aandi face

3 Lee OS Nel UL AN AAU
: Eee eat AL EEL WAL

PPO WALLLL itt

   
 
 
  
    

Apri ae
BE HeHe rita

Courtesy of WG, deVoogt, MD, PhD, Amsterda, The Netherlands ECG: QPEDIA,ORG
 

 

 

 

 

 

 

 

 

 

 

 

 

 

 

 

 

 

 

 

 

 

 

 

 

 

 

 

 

 

 

 

 

 

 

 

 

 

 

 

 

 

 

 

 

 

 

 

 

 

 

 

 

 

 

 

 

ECG\QPEDIA.ORG

Courtesy of W.G. de Vogt, MD, PhD, Amsterdam, The Netherlands
A ETT ere
a

 

i Tea bt

Courtesy of W.G. de Voogt, MD, PhD, Amsterdam, The Netherlands ECG: QPEDIA.ORG
 

 

 

 

 

 

 

 

 

 

 

 

 

 

 

 

 

 

 

 

 

 

 

 

 

 

 

 

 

 

 

 

 

 

 

 

 

 

 

 

 

 

Courtesy of WG de Voogt, MD, PD, Amsterdam, The Netherlands ECG QPEDIA,ORG
 
 

 

 

 

 

 

 

 

 

 

 

 

 

 

 

 

 

 

 

 

 

 

 

 

 

 

 

 

 

 

 

 

 

 

 

 

 

 

 

 

 

 

 

 

 

 

 

 

 

 

 

 

 

 

 

Courtesy of W.G, de Vogt, MD, PhD, Amsterdam, The Netherlands PEDIA.ORG
 

 

 

 

 

 

 

 

 

 

 

 

 

 

 

 

 

 

 

 

 

 

 

 

 

 

 

on
‘a

 

Courtesy of WG de Voogt, MD, PD, Amsterdam, The Netherlands ECG QPEDIA,ORG
 

ECG QPEDIA,ORG

Courtesy of W.G. de Voogt, MD, PhD, Amsterdam, The Netherlands
 

 

 

 

 

 

 

 

 

 

 

 

 

 

 

 

 

 

 

 

 

 

 

 

 

 

 

 

 
 

 

 

 

 

 

 

 

 

 

 

 

 

 

 

 

 

 

 

 

 

 

 

 

 

 

 

 

 

 

 

 

 

 

 

 

 

 

 

 

 

 

 

 

 

 

 

 

 

 

 

 

 

 

 

 

 

 

 

 

 

 

 

 

 

 

 

 

 

 

 

 

 

 

 

 

 

 

 

 

 

 

 

 

 

 

 

 

 

 

 

 

 

 

 

 

ae

‘Courtesy of W.G. de Voogt, MD, PhD, Amsterdam, The Netherlands

 

 
 

 

 

 

 

 

 

 

 

 

 

 

 

 

 

 

 

 

 

 

 

 

 

 

 

 

 

 

 

 

 

 

 

 

 

 

 

 

 

 

 

 

 

 

 

 

 

 

 

 

 

 

 

 

 

 

 

 

 

 

 

 

 

 

 

 

 

 

 

 

 

 

 

 

 

 

 

 

 

 

 

 

 

 

 

 

 

 

 

 

 

 
 

 

og

 

 

 

Courtesy of W.G. deVoogt, MD, PhD, Amsterdam, The Netherlands ECGQPEDIA,ORG
 

 

 

Courtesy of WG, de Voogt, MD, PAD, Amsterdam, The Netherlands ECG: 2PEDIA.ORG
 

 

 

 

 

 

 

 

 

 

 

 

 

 

 

 

 

 

 

 

 

 

 

 

 

 

 

 

 

 

 

 

 

 

 

 

 

 

 

Courtesy of W.G. de Voogt, MD, PhD, Amsterdam, The Netherlands

a

 

 

 

 

 

 

 

 

 

 

 

 

 

 

 

 

 

 

 

 

 

 

 

 

 

 

 

 

 

 

 

 

 

 

 

 

 

 

 

 

 

 
 

ofW.G, de Voogt, MD, PRD, Amsterdan, The Nethestnds ECG. QPEDIA.ORG
 

 

 

 

 

 

 

 

 

 

 

 

 

 

 

 

 

 

 

 

 

 

 

 

 

 

 

 

 

 

 

 

 

 

 

 

 

 

 

 

 

 

Courtesy of W.G, de Voogt, MD, PRD, Amsterdam, The Netherlands ECG QPEDIA.ORG
 
 

 

 

 

 

 

 

 

 

 

 
 

 

 

 

 

 

 

 

 

 

 

 

 

 

 

 

 

 

 

 

 

 
244)
a cs SuesIu i i
FULLER EEL yyy fy

1] Po Barry Ay
aL Li a i 1 ay a ‘enol ia

JULIE Lbalbeb bbb

yer apa,

ET TERE TETEU Fanaa dene

i I
Bh! ey, faa mal
: Bidet Ld LL

TUELLACELLL al ALLELE

 

 

    

 

Courtesy of WG, de Voogt, MD, PAD, Amsterdam, The Nethetands ECG QPEDIA.ORG
a t 183

tebe lel LULL ap prppeereee

A fey A [NAA AZ,
ta ACO La ies COOSA at a

ene er

pa ea
Sas hppa ette estan

ae Aer MSrPPPere

 

fe | ea tt | BEET
ae ee inna

AAU ELL

   

 

   

 

Courtesy of WG. de Voogs, MD, PAD, Amsterdam, The Netherlands aoenmed
Courtesy of W.G. de Vogt, MD, PhD, Amsterdam, The Netherlands

 
Ley | iA a A at
eet
Fi 4 4 tt
{| i I
aay 1 aa :

    
 

Tee | i ne
AL le lat yay

h ii fa |

bt

, A oh |
wo

 

{| foi Ll
Sas rt [me AL
¥ V V ' ; i / rey
SEINE eee LH
fe poi
JU ve Ee AL
Lucas Ziekenhhuia | 2S male 18 an/eV 282 Seite. ni oo Raork. i il

Courtesy of W.G. de Voogt, MD, PAD, Amsterdam, The Netherlands ECGQPED)

 
 

 

 

 

 

 

 

 

 

 

 

 

 

 

 

 

 

 

 

 

 

 

 

 

 

 

 

 

 

 

 

 

 

 

 

 

 

 

 

 

 

 

 

 

 

 

 

 

 

 

 

 

 

    

 

 

 

 

 

 

 

 

 

 

 

 

 

 

 

 

 

 

 

 

 

 

 

dl
PE areee | i See

 

 

Courtesy of W.G. de Voogt, MD, PhD, Amsterdam, The Netherlands ECG. PEDIA.ORG
| a
SAO Hirde
Mans i OHRESO DI mule nad { Sh

hay
Ce aN Ws /
HRMS

na Score

ECG: QPEDIA.ORG

  
 

Courtesy of W.G. de Vogt, MD, PhD, Amsterdat

 
ee

 
YA pew Alvrarertanialennulveninininlvaindannnnades’ alge
i anol henry oy yey
BLISSEY ny Af
LN ONO
HANA CA earner yee

HANTY Veen OCA me ie
he

 

ECG: QPEDIA,ORG
ete y= oNeesurevifere9

Cy

 

“Courtesy of LA.C. van der Bit, MD, AMC, The Netherlands ECG QPEDIA,ORG
  

 

 

 

 

 

 

 

 

IAORG

CG 2EDY

 

 

 

 

 
 

 

 

 

 

 

 

 

 

 

 

 

 

 

 

 

 

 

 

 

 

 

 

 

 

 

 

 

 

 

 

 

 

 

 

 

 

 

 

 

 

 

 

 

 

 

 

 

 

 

 

 

 

 

 

 

 

 

 

 

 

 

 

 

 

 

 

 

 

 

 

 

 

 

 

 

 

 

 

 

 

 

 

 

 

 

 

 

 

 

 

 

 

 

 

 

 

 

 

 

 

 

 

 

 

 

 

 

 

 

 

 

 

 

 

 

 

 

 

 

 

 

 

 

 

 

 

 

 

 

 
 

 

 

 

 

 

 

 

 

 

 

 

 

 

 

 

 

 

 

 

 

 

 

 

 

 

 

 

 

 

 

 

 

 

 

 

 

 

 

 

 

 

 

 

 

 

 

 

 

 

 

 

 

 

 

 

 

 

 

 

 

 

 

 

 

 

 

 

 

 

 

 

 

 

 

 

 

 

 

 

 

 

 

 

 

 

 

ECG\QPEDIA,ORG

Courtesy of}88.6. de Jong, MD, AMC,The Nether:
 

ECG QPEDIA.ORG
a

 
 
 

Courtesy of RAW. Koster, MD, PAD ECG! QPBDIAORG
AMC, The Nethertonds,
 

 

 

 

 

 

 

 

 

 

 

 

 

 

 

 

 

 

 

 

 

 

 

 

 

 

 

 

 

 

 

 

 

 

 

 

 

 

 

 

 

E
: Pale

=a0n : =

a PET : ce

rE = i.

eeeeue Ee pct

 

  

 

 

 

 

 

 

 

 

 

 

 

 

 

 

 

 

 

 

 

 

 

 

 

 

 

 

 

 

 

 

 

 

 

 

 

 

 

 

 

 

 

 

 

 

 

 

 

 

 

 

 

 

 

 

 

 

 

 

 

 

 

 

ECG )PEDIA.ORG

 
lie
Ne

Selalsls

AAA,

 
 

ECGpedia.org,
 

ou of Ree Go Hsia Te Nests ECG. 2PEDIA,ORG
 

 

 

 

 

 

 

 

 

 

 

 

 

 

 

 

 

 

 

 

 

 

 

 

 

 

 

 

 

 

 

 

 

 

 

 

 

 

 

 

 

 

 

 

 

 

 

 

 

 

 

 

 

 

 

 

 

 

 

 

 

 

 

 

 

 

 

 

 

 

 

 

 

 

 

 

 

 

 

 

 

 

 

 

 

 

 

ECG\QPEDIA,ORG

Courtesy of}88.6. de Jong, MD, AMC,The Nether:
 

Courtesy of RW. Kosten, MD, PAD ECG IPEDIA,ORG
AMG, The Netheronds
 

 

 

 

 

 

 

 

 

 

 

 

 

 

 

 

 

 

 

 

 

 

 

 

 

 

 

 

 

 

 

 

 

 

 

 

 

 

 

 

 

 

 

 

 

 

 

 

 

 

 

 

 

 

 

 

 

 

 

 

 

 

 

 

 

 

 

 

 

 

 

 

 

 

 

 

 

 

 

 

 

 

 

 

 

 

 

ECG\QPEDIA,ORG

Courtesy of}88.6. de Jong, MD, AMC,The Nether:
 

 

 

 

 

 

 

 

 

 

 

 

 

 

 

 

 

 

 

 

 

 

 

 

 

 

 

     

 

+ s i a ae Hel i

fe : 4 soe A - y L - C

: a : Peet i
us ie { ce

 

 

 

 

 

 

 

 

 

 

 

 

 

 

 

 

 

 

 

 

 

 

 

 

 

 

 

 

 

 

 

 

 

 

 

 

 

 

 

 

 

 

 

 

 

 

 

 

 

 

 

 

 

 

 

 

 

 

 

 

 

 

 

 

 

ECG. )PEDIA.ORG.

 
 

‘Courtesy of JS.8.G. de Jong MD, AMC, The Netherlands ECG QPEDIA.ORG
 

Courtesy of BK Arenbout, MD, PAD, ECG QPEDIA,ORG
 

Courter of R Dele, MD, AMC, The Netherands ECG QPEDIA.ORG
 

 

 

 

 

 

 

 

 

 

 

 

 

 

 

 

 

 

 

 

 

 

 

 

 

 

 

 

 

 

 

 

 

 

 

 

 

 

 

 

 

 

 

 

 

 

 

 

 

 

 

 

 

 

 

 

 

 

 

 

 

 

 

 

 

 

 

 

 

 

 

 

 

 

 

 

MACK.

 

 

‘Courtesy of W.G. de Vogt, MD, PhD, Amsterdam, The Netherlands. ECG\QPEDIA.ORG
 

 

 

 

 

 

 

 

 

 

 

 

 
 

 

 

 

 

 

 

 

 

 

 

 

 

 

 

 

 

 

 

 

 

 

 

 

 

 

 

 

 

 

 

 

 

 

 

 

 

 

 

 

 

 

 

 

 

 

 

 

 

 

 

 

 

 

 

 

 

 

 

 

 

 

 

 

 

 

 

 

 

 

 

 

 

 

 

 

 

 

 

 

 

 

 

 

 

 

 

 

 

 

 

 

 

 

 

 

 

 

 

 

 

 

 

 

 

 

 

 

 

 

 

 

 

 

 

 

 

 

 

 

 

 

 

Courtesy of WG, de Yoogs, MD, Pa, Amsterdam The Nehesands ECG. QPRDIA.ORG
 

os Ni
2 he .) al / Hy a,

C 7 petals “A Ne . i JN: | } SH yA

 

 

Uh tytn Mann

 
 

ECG: QPRDIAORG,
 

Courtesy of. Hirsh, MD, PRD,AMG, The Nethedands ECG: QPEDIA,ORG
 

ECG IPEDIAORG
 

Sent foe Ale ILE GAS Courtesy ofG. Postma, MD,AMC ECG: 2PEDIAORG
 

Sot Kemet ak EL DS Courtesy oP. Posten LD,AMGECG.IPEDIA.ORG
 

ont Kemet A B.S GDS ‘CourteryofPG. Potem, MLD,AMC ECG: JPEDIAORG
 

Sent Kemet AG B.S GDS Courter of PG. Posters, MLD,AMC ECG. 2PEDIAORG
 

 

 

 

 

 

 

 

 

 

 

 

 

 

 

 

 

 

 

 

 

 

 

 

 

 

 

 

 

 

 

 

 

 

 

 

 

ECG 2PEDIAORG
 

 

 

 

 

 

 

 

 
 
 

Fame Hoemey Ale Os HLA GBT Courtesy of RG. Postma, MD,AMC ECG QPRDIAORG
 

ce
 
= S|

  
 

 

 

 

 

 

 

 

 

 

 

 

 

 

 

 

 

 

 

 

 

 

 

 

 

 

 

 

 

 

LOR

ECG\QPEDIA,
 
 

Courtesy of RAW. Koster, MD, PAD ECG! QPBDIAORG
AMC, The Nethertonds,
 
 
fy yy

ell
La YY
Toererererrreet HAHAH

Dt comb LTT

ie bal a] LU eU i ae

 
 

 

 

 

 

 

 

 

 

 

 

 

 

 

 

 

 

 

 

 

 

 

 

 

 

 

 

 

 

 

 

 

 

 

 

 

 

 

 

 

 

 

 

 

 

 

 

 

 

 

 

 

 

 

 

 

 

 

 

 

 

 

 

 

 

 

 

 

 

 

 

  

 

 

 

 

 

 

 

 

 

 

 

 

 

 

 

 

 

 

 

 

 

 

 

 

 

ECG: QPEDIAORG
 

 

 

 

 

 

 

 

 

 

 

 

 

 

 

 

 

 

 

 

 

 

 

 

 

 

 

 

 

 

 

 

 

 

 

 

 

 

 

 

 

 
 

 

 

 

 

 

 

 

 

 

 

 

 

 

 

 

 

 

 

 

 

 

 

 

 

 

 

 

 

 

 

 

 

 

 

 

 

 

 

 

 

 

 

 

 

 

 

 

 

 

 

 

 

 

 

 

 

 

 

 

 

 

 

 

 

 

 

 

 

 

 

 

 

 

 

 

 

 

 
 

 

 

 

 

 

 

 

 

 

 

 

 

 

 

 

 

 

 

 

 

 

 

 

 

 

 

 

 

 

 

 

 

 

 

 

 

 

 

 

 

 

 

 

 

 

 

 

 

 

 

 

 

 

 

 

 

 

 

 

 
  
 
  

A Ay,
ee

Teer
we
 

Courtesy of A.A.M. Wilde, MD, PhD, AMC, The Netherlands

 
 

‘Courtesy of AA.M.Wilde, MD, PRD, AMC, The Netherlands ECG.2PEDIA.ORG
JAAR idl

 
 
 

Courtesy of R. Adams, RN, AMG, The Nethelands ECG: QPEDIA,ORG
 

ECGpedia.org,
 

 

 

 

 

 

 

 

 

 

 

 

 

 

 

 

 

 

 

 

 

 

 

 

 

 

 

 

 

 

 

 

 

 

 

 

 

 

 

 

 

 

 

 

 

 

 

 

 

 

 

 

 

 

 

 

 

 

 

 

 

 

 

 

 

 

 

 

 

 

 

 

 

 

 

 

 

 

 

 

 

 

 

 

 

 

 

 

 

 

 

 

 

 

 

 

 

 

 

 

 

 

 

 

 

 

 

 

 

 

 

 

 

 

 

 

 

 

 

 

 

 

 

 

 

 

 

 

 

 

 

 

 

 

 

 

 

 

 

 

 

 

 

 

 

 

 

 

 

 

 

 

 

 

 

 

 

 

 

 

 

 

 

 

 

 

 

 

 

 

 

 

 

 

 
 
 
 
 

Courtesy of RW. Kosten, MD, PAD ECG IPEDIA,ORG
AMG, The Netheronds
 

 

 

 

 

 

 

 

 

 

 

 

 

 

 

 

 

 

 

 

 

 

 

 

 

 

 

 

 

 

 

 

 

 

 

 

206. 2PHDIA.ORG
 
 

 

   

 

 

Ae Nee tg ei ee

Come. Kgs RN, OLVG The Nant ECG: IPRDIAORG
Wlatadddol Py
ee aN a

Weddle irdlodadlddaded ed dedadaldaded,
 

 

 

 

 

 

 

 

 

 

 

 

 

 

 

 

 

 

 

 

 

 
 
 
 

 

 

 

 

 

Courtesy of KJ. Rooyoards, MD ECG‘ JPEDIA.ORG
$2ead 1 HR S8bpm

03.03.05 49:56:16
_. PROMS QRS 0.1228

Incident IO: ‘T0190 aT/0Te: 0.42690-4188.
: SocM P-ORST Aves: 73-7490
i

    

 

 

CoarenyfKReoyarty MD ECGOPEDIA,ORG
‘12-Lead 1 HR 41pm.

 
   
    

“os.oses 61826,
PROO0s ORS 00065,
asariare.” —_ 0800s04ies ri
va

 

 

|
7

‘Sex: M. -T Axes: 0108 80. t
nae |

 

aH
ee
|

‘Courtesy of KJ. Rooyaards, MD ECG‘ )PEDIA.ORG

Medtronic Physio-Contcl_ Comments:
‘Lead 1 fet yi
130305 TST

 

 

 

 

 

 

 

 

 

 

 

 

 

 

 

 

 

 

 

 

 

Gourtesy of KJ Rooyantyy MD ECG‘ QPEDIA,ORG
i2Lead 1 HR 9bpm|

04.03.05 30707,
PRO.136s QRS 0.1005

Inset D: Toone aniare. _ oaztwoaats Ft j

CTT 59952,

  
  
   

 

Medion PhssContl_Conmens
Couey oF) Raagoans, Mi) ECG: DPEDIA.ORG

 
‘iBikead 1 HR 99pm

06.02.05 165725,
PRO.160s QRS 0076s

Itt: solvate 034te0.tbe

08:6. Sex. P-ORS.TAves 49-6959 tbe

fis

     

fave - We 6

  

   

Pre oe PR PR

Gna of Reyeors, MD ECG. QPEDIA,ORG
‘Lead 1 LHR S8bpm:

10-03-05 15303,

PRO.9325 ‘QRS 0.1008
Incident 10: arate: 0.420810.4125
Age: 37 Sex P-ORS-T Aves: 788787

    

Coury of. Roooants, MD ECG. IPEDIA,ORG
 

 

 

 

 

 

 

 

 

 

 

Couney of. Reogoants, MD ECG\QPEDIA;ORG
ae 4
ee BEAL al 1 CEE AA Re ee
“it ete ett Lda EE

‘ ae per aac eee
ae ney perpreeeeeeee
bc! Besieu cmos tactile
Taner

U50e 250mm/ 100am/av bye MACS 0088 aSLte 250
camera Sem BOD. RRORED
 

nanny of Rewer, ND ECG QPEDIA,ORG
 
 

 

   

 

 

Ae Nee tg ei ee

Come. Kgs RN, OLVG The Nant ECG: IPRDIAORG
 
   
  

i BEER SeAAAAA AHH a

ee

 

   
     
 
     
  

 

ae

 

anno
a el : y mi

 

oo /
Oe My fd

   

    

: ape

Fe
a NA UN

      

ECG QPEDIA.ORG
 
cnet pot
etl
Pee ms
ide
ete PEAT IN beep
ee pS

ECG.QPEDIA.ORG

 
    

wartesy of W.G. de Voogt, MD, PAD, An The Ni

     
 

: BS |
a auscasae anne
Meade ausauasaaieas isa
[ #

D, PhD, Amsterdam, The Netherlands ECG an oRG
 

 

 

 

 

 

 

 

 

 

 

 

 

 

 

 

 

 

 

 

 

 

 

 

 

 

 

 

 

 

 

 

 

 

 

 

 

 

 

 

 

 

 

 

 

 

 

 

 

 

 

 

 

 

 

 

 

 

 

 

 

 

 

 

 

 

 

 

 

 

 

 

 

 

 

 

 

 

 

 

 

 

 

 

 

 

 

 

 

 

 

 

 

 

 

 

 

 

 

Courtesy of W.G, de Voogt, MD, PhD, Amsterdam, The Netherlands CG. QPEDIA,ORG
1 Aanayr cong teeat aetna Sy hy"
a

Courtesy of WG, de Voogt, MD, PRD, Amsterdam, The Netherlands ECG: 2PEDIA.ORG
| a Re r— eu eee

 

! ipaaeues! ke ee ;
|

 

Courtesy of WG. de-Voogt, MD, PhD, Amsterdam, The Netherlands ECG QPEDIA:

 
 

 

 

 

 

 

 

 

 

 

 

 

 

 

 

 

 

 

 

 

 

 

 

 

 

 

 

 

 

 

 

 

 

 

 

 

 

 

 

 

 

 

 

 

 

 

 

 

 

 

 

 

 

 

 

 

 

 

 

 

 

 

 

 

 

 

 

 

 

 

 

 

 

 

 

 

 

 

 

 

 

 

 

 

 

 

 

 

 

 

 

 

 

 

 

 

 

 

ORS

ECG(PEDI

Courtesy of De. Alberto Ginger ICRA, Buenos Ais, Aston
 
9g
a
2
a
a
g
g
g

  
 

 

 

 

 

 

 

 

 

 

 

 

 

 

 

 

 

 

 

 

 

 

 

 

 

 

 

 

 

 

 

 

 

 

 

 

 

 

 

 

 

 

 

 

 

 

 

 

 

 

 

 

 

 

 

 

 

 

 

 

 

 

 

 

 

 

 

 

 

 

 

 

 

 

 

 

 

 

 

 

 

 

 

 

 

 

 

 

 

 

 

 

 

 

 

 

 

 

 

er

 

Courtesy of Dr. Alberto Ginigsr, ICBA, Busnos Aires, Argentina ECG\QPEDIA.ORG
 

 

 

 

 

 

 

 

 

 

 

 

 

 

 

 

 

 

 

 

 

 

 

 

 

 

 

 

 

 

 

 

 

 

 

 

 

 

 

 

 

 

 

 

 

 

 

 

 

 

 

 

 

 

 

 

 

 

 

 

 

 

 

 

 

 

 

 

 

 

 

 

 

 

 

 

 

 

 

 

 

 

 

 

 

 

 

 

 

 

 

Courtsty of Dr Albsrto Giniger,ICBA, Buenos Ais, Asotin ECG: PEDIA,ORG

 
 

 

 

 

 

 

 

 

 

 

 

 

 

 

 

 

 

 

 

 

 

 

 

 

 

 

 

 

 

 

 

 

 

 

 

 

 

 

 

 

 

 

 

 

 

 

 

 

 

 

 

 

 

 

 

 

 

 

 

 

 

 

 

 

 

 

 

 

 

 

 

 

 

 

 

 

 

 

 

 

 

 

 

 

 

 

 

 

 

 

 

 

 

 

 

 

 

 

 

 

 

 

 

 

 

 

 

 

 

 

 

 

 

 

 

 

 

 

 

 

 

 

 

 

 

 

 

 

 

 

 

 

Courtesy of De. Albert Ginger IODA, Buenos Aires Argentina

 
 

 

 

 

 

 

 

 

 

 

 

 

 

 

 

 

 

 

 

 

 

 

 

 

 

 

 

 

 

 

 

 

 

 

 

 

 

 

 

 

 

 

 

 

 

 

 

 

 

 

 

 

 

 

 

 

 

 

 

 

 

 

 

 

 

 

 

 

 

 

 

 

 

 

 

 

 

 

 

 

 

 

 

 

 

 

 

 

 

 

 

 

 

 

 

 

 

 

 

 

 

 

 

 

 

 

 

 

 

 

 

 

 

 

 

 

 

 

 

 

 

 

 

 

 

 

 

 

 

 

 

 

 

 

 

 

 

 

 

 

 

 

 

 

 

 

 

 

 

 

 

 

 

 

 

 

 

 

 

 

 

 

 

 

 

 

 

 

 

 

 

 

 

 

 

 

 

 

Courtesy of Dr atbero Ginger, ICBA, Buenos Aes, Argentina

 
 

ECG QPEDIA.ORG

 
  

 

 

 

 

 

 

 

 

IAORG

CG 2EDY

 

 

 

 

 
 
 

ECG: JPEDIAORG
 
 
 
 

unt Rous MARE te DOOR
 

RG

ECG QPEDI

Courtesy of P.G. Postema, M.D., AMC.
 
 

PEDIA.ORC
a

 
 
ECG Master
