 
 
 
 
 
.
»
 

 
 
Veterinary Advances
 
 
 
I
 
 
y

=

y
y

=

y
 
 

 
a

 
 
 
Veterinary Advances
 
 
 
|
 
 
 
G)
a
Cl
Veterinary Advances
 
 
 
I
 
 
y

=

y
y

=

y
 
 

 
a

 
 
 
Veterinary Advances
Veterinary Advances
a
Cl
 
 
 
 
 
.
»
 

 
 
Veterinary Advances
 
 
 
|
 
 
 
G)
