G)
 
Pinlorourmel (M4) UI NT
 
 

por
@
 
Converted inside cells to carbovir
triphosphate, its active metabolite. Carbovir
triphosphate inhibits the activity of HIV-1
reverse transcriptase, which in turn terminates
viral DNA growth.

The copy NOTE GLIMPSE 3

e Stowe WIS PEG GreVvVIygiy GET v ISVs rT are

decreases the occurrence of its sequelae.

e Increases CD4 cell counts an@JecreasesD
viral load.
 
py Prime
>

P< g
@
y

=

y
Ww

ee
a UI MIAO UME!
MEDLINE
ca)
i

ne
 
6
4
(By, re
I
ne
Ea

ee

ee
Ea

ee

ee
a

 
IN
of
LO)
LO)
(By, unbound medicine’
 
 
4

Get the most out of Unbound MEDLINE
IN
 
 

PM ERS CETTE
of Medical Therapeutics
Wolters Kluwer
@
 
a)
y

=

y
 
a
 
 
 
|
 
 

PM ERS CETTE
of Medical Therapeutics
Wolters Kluwer
 
 
 
‘ly
 
 
 
 
 
Vine Westie ton Menu
of Wiketticall Viner) sewtiies
 
 
— 4
lo
 
lo
 
 
w &
Favorites
@ unbound
‘ly
 
lL —_
 
»
 
eth
 
 

PM ERS CETTE
of Medical Therapeutics
Wolters Kluwer
im

iB
 
 
Z
 
Talent ite foe aD ete ume a acs dala

MEDICINE
 
.
 
@crasp
g
 
ia
 
 
 
 
 
rN
2 =7 unbound
KAIRIE
 

ITT] ets) 1 en

oa
 
 
Cl
a
Vine Westie ton Menu
of Wiketticall Viner) sewtiies
 
CONFIDENCE AT YOUR FINGERTIPS

ee

ee

 
ae

ee
