Cl
G)
 
 
 
 
 
y

=

y
I
 
 
a

 
y

=

y
|
 
 
 
 
 
 
 
»
 
.
 
 
a
od
 
 
RTS
 
