IASLC
ZN
oa

pr TESTING
TL)
 
 
 
 
 
y

=

y
y

=

y
 
 
 
C
 
 
 
 
 
 
 
 
.
»
a
Cl
 
 
 
 
 
y

=

y
y

=

y
a
Cl
 
 
 
 
 
.
»
 
 
 
C
 
 
 
IASLC
ZN
oa

pr TESTING
TL)
