 
G)
 
 
 
 
 
.
»
a
a
i
oe
 
 
 
 
 
i>
TT
 
y N
 
 
 
|
 
 
 
 
 
I
 
 
y

=

y
y

=

y
a

 
 
Cl
a
 
 
 
I
 
 
y

=

y
y

=

y
a

 
 
a
Cl
 
 
 
 
 
.
»
a
a
i
oe
 
 
 
 
 
i>
TT
 
y N
 
 
 
|
 
 
 
G)
