FAH first stop health
<<
G)
_ a
DISC ver)
— -

DISC@VER

. 7
 
- /

UnionPay

7 '
7 7

UnionPay

' 7
VISA
first stop health
 
 
FA+ first stop health
ee | first stop health’
ERaE
 
first stop health
 
FA+ first stop health
ee | first stop health’
FAH first stop health
<<
G)
_ a
— -

DISC@VER

. 7
DISC ver)
 
7 7

UnionPay

' 7
- /

UnionPay

7 '
VISA
ERaE
