I
 
 
 
 
y

=

y
y

=

y
 
 
 
 
a
|
 
 
 
a
a
 
 
.
»
 
 
 
 
 
 
 
 
 
 

 

 

 

 
a
Cl
a
