<=
ha
 
 
 
TIL
UU
S
 
 
 
a
 
 
 
 
 
 
 
 
 
ow

signia
 
 
kid
—
 
=
a
 
 
 
ae
 
 
 
 
 
bad
 
ow

signia
 
 
 
 
 
 
a
 
bau
 
 
ea
_
_
 
 
signa
 
 
 
 
lll
ote
 
 
QW
XK
 
ea
 
 
 
 
 
_
_
 
 
 
 
 
 
signa
a
 
 
 
 
 
lll
ote
|
bau
 
 
 
QW
XK
a
WS

signia
lll
TID
 
wn
 
 
 
 
 
 
 
 
 
 
a
 
 
—
 
 
nN
 
 
 
 
 
 
 
 
 
 
 
a
 
 
 
 
 
 
 
 
ha
TIL
UU
 
 
ow

signia
S
<=
 
 
 
 
ow

signia
a
 
 
 
 
 
 
 
 
 
 
 
bad
 
a
 
 
 
 
ae
C
 
 
kid
 
=
 
 
—
 
 
 
 
Cl
a
# robotstxt.org

User-agent: *
= Oe
C
| =

Lo
Ne’

war
 
 
 
 
 
 
 
 
 
 
 
 
 
 
 
 
 
 
 
 
 
 
 
 
 
 
 
 
 
 
 
 
