 
 
 
 
a
Lal
HIPPO

EDUCATION
 
 
 
 
.
 
 
»
 
 
le
le
i
 
le
le
 
HIPPO

EDUCATION
>|
G)
 
le
le
 
 
 
a
 
HIPPO

EDUCATION
C
i
 
 
 
i
 
a

 
 
 
 
 
HIPPO

EDUCATION
y

=

y
La
 
y

=

y
 
 
Pl
HIPPO

EDUCATION
 
Re
i
Cl
a
