 
 
‘ob
a’ A
y,Y
as )Ve =0) Diere
 
On-call
Doctors

 
On-call
Doctors

 
“
On-call
Doctors i.
2
 
 
_ a
DISC ver)
ro
On-call pa
 
 
 
|
 
 
 
 
0 @ Doctor Waiting © Patient In-Queue <** Patient In-Consult [ll Checkin Interrupted
LT |
‘oo
Bi
~
On-call a
 
 
 
I
 
 
y

=

y
y

=

y
a

 
 
 
 
 

— @ Doctor Waiting © Patient In-Queve Patient InConsult §§ Checkin Interrupted
ol
sod
By
g
lee B.4
 
G)
a

 
DISC: ver
~  @ Doctor Waiting © Patient In-Queue <7: Patient In-Consult | Checkin Interrupted
|
ot
gfe
ro
On-call pa
 
 
 
 
 
.
»
 
 
 
 

—  Dactor Waiting © Patientingueve “! PatientinCoansut MB Checkin Interrupted
 
 
 
 
 
 
 
 
a
Cl
 
 
 
 
 
I
 
 
y

=

y
y

=

y
a

 
 
 
 
 

— @ Doctor Waiting © Patient In-Queve Patient InConsult §§ Checkin Interrupted
ol
sod
By
g
lee B.4
‘ob
a’ A
y,Y
 
 
 
 
 
 
 
a
Cl
as )Ve =0) Diere
 
 
 
 
 
 
.
»
 
 
 
 

—  Dactor Waiting © Patientingueve “! PatientinCoansut MB Checkin Interrupted
 
On-call
Doctors

 
On-call
Doctors

 
“
On-call
Doctors i.
2
 
 
 
 
 
|
 
 
 
 
0 @ Doctor Waiting © Patient In-Queue <** Patient In-Consult [ll Checkin Interrupted
LT |
‘oo
Bi
~
On-call a
 
G)
a

 
DISC: ver
~  @ Doctor Waiting © Patient In-Queue <7: Patient In-Consult | Checkin Interrupted
|
ot
gfe
ro
On-call pa
_ a
DISC ver)
ro
On-call pa
