ON

<n
IN

4
_
“i
 
 
a
le
 
git.version=ce3551a92c8cf91f925232f93a88b3048fecd9ac
