 
G)
a
04
powered by Google
Tn a
powered by Google
 
Tn a
 
 
 
a
 
 
 
 
 

ELROSHETTA
oO}
USTERI
‘COOL MINT

  
 

Voltaren w
| 1.S.mg'g Gel
 
git.version=ce3551a92c8cf91f925232f93a88b3048fecd9ac
isoparser-1.0.6