 
 
Dose de ataque (2mg/kg) correr em 1 hora

 

 

 

Peso da Paciente Quantidade de Gotejamento

Zidovudina (gotas/min)
40kg 8ml 36
50kg 10ml aL
60kg 12ml 37
70kg 14ml 38
80kg 16ml 39
90kg 18ml 39

Manutencao em infusao continua (1mg/kg/hora)

40kg 4ml 35
50kg 5ml 35
60kg 6ml BS
70kg Tml 36
80kg 8ml 36

90kg 9ml 36
 

 

IG PESO FETAL (g)
Percentil

3 10 50 90 oF
10 26 29 35 41 44
11 34 37 45 53 56
12 43 48 58 68 73
13 55 61 73 85 91
14 70 Te. 33 109 116
15 88 97 117 137 146
16 110 121 146 171 183
17 136 150 181 212 226
18 167 185 28 261 279.
19 205 227 273 319 341
20 248 275 331 387 414
21 299 331 399 467 499
22 505. 398 478 559 598
23 426 471 568 665 710
24 503 556 670 784 838
25 589 652 785 918 981
26 685 758 913 1068 1141
27 791 879 1055 1234 1319
28 908 1004 1210 1416 1513
29 1034 1145 1379 1613 1754
30 1169 1294 1559 1824 1949
31 1313 1453 1751 2049 2189
BZ 1465 1621 1953 2285 2441
33 1622 1794 2162 2530 2703
34 17Sa ee 1973252877 278 re 20 71:
35 1946 2154 2595 3036 3244
36 2110) 02335 28157 7829 0 3hi6
37 2271 2513 3028 3543 3785
38 2427 2686 3236 3786 4045
39 2576 2851 3435 4019 4294
40 2714 3004 3619 4234 4524

 
 

Dose de ataque: 4 g (8 ml de sulfato de magnésio a 50% em 12 ml de agua
destilada), EV, lentamente (20 min);

ou
Dose de ataque: 4g - 40 ml (4 ampolas) de sulfato de magnésio a 10% em
60 ml de soro fisiolégico, EV, lentamente (20 min);

 
 

Dose de manutengdo: 2g/hora (40ml de sulfato de magnésio a 50% - 4 ampolas
em 460ml de soro a 20 gotas por minuto — 50m\hora);

ou
Dose de manutenedo: 2g/hora - 100ml (10 ampolas) de sulfato de magnésio a
40% em 400mI de soro — correr 50mi/h em bomba de infusao.

* Se a opcdo for 1g/hora, administrar metade das doses acima

 

 
 

InfeccSoaguda_+ou- -ou+ + - - -
InfeceSo crénica + - - + +ou- -out
Imunidade . + - + - +
4
5
16
7
18
19
20
21
22
23
24

26
7
28
29
30
31
32
33
34
35
36
37
38.
39

41

28

3.2
3,6
41
46
SL.
55.
5,9
63
67
7.0
73
75
7.6
7.6
7.6
75
73
7
68
64
6.0
5,6
SL.
47
42.
3,7
3,3

34

36
4L
40
SL
5,6
61
6.6
7
75
7.9
82
84
86
86
86
85
84
81
7.8
74
7.0
65
6.0
55.
5,0
45
4,0

5,0
54
58
63
68
74
8,0
87
93

10,0

10,7

114

12,0

12,6

13,0

13,4

13,6

13,6

13,6

13,3

12,9

12,4

11,8

ui

10,3
94
86
78

54
57
61
6.6
7
77
83
89
96
10,3
11,0
1,7
12,3
12,8
13,3
13,6
13,8
13,8
13,7
13,4
13,0
12,5
11,8
ui
10,3
94
86
77

3,0
82
85
9,0
97

10,4

11,3

12,2

13,2

14,2

15,2

16,1

17,0

17.8

18,4

18,8

18,9

18,9

18,7

18,2

17,7

16,9

16,2

15,3

14,4

13,7

12,9

12,3

86
91
96

10,3

ui

12,0

12,9

13,9

14,9

15,9

16,9

17.8

18,7

19,4

19,9

20,4

20,6

20,6

20,4

20,0

19,4

18,7

17,9

16,9

15,9

14,9

13,9

12,9,
-Penicilina Cristalina:
5 milhes UI EV dose de ataque.
Seguida de 2,5 milhées UI EV a cada 4 horas.

-Altemativa:
Ampicilina 2g EV de ataque
Seguida de 1g EV a cada 4 horas até o pasto.

 
/Ampicilina 2g 6/6h associado a Eritromicina 250mg 6/6h por 48 horas.

Seguida por Amoxicilina 250mg 8/8h + Eritromicina 250mg 8/8h via Oral por 5 dias|
ou

Ampicilina 2g 6/6h IV por 48 horas associado a Azitromicina 1g VO dose tnica,
Seguida por Amoxicilina 500mg VO 8/8h por mais 5 dias.

 
<30%  InfeccZo recente <3 meses
> 60% _Infeccdo passada >4-6 meses
Pranic IgG Pad
Imunidade Positive Negativo
Infeccio aguda_Negativo —_Positivo
Susceptivel Negativo _Negativo
Infeccio

recente ou Positivo — Positivo

igM residual
App Store
 
 
