a
a
a
|
a
OPA a
“a
“a
“a
a
 
a
a
“a
 
a
 
NI]
a
“a
a
“a
a
 
“a
 
NI]
 
 
 
y

=

y
Oe
 
 
 
>

c
a

 
y

=

y
I
 
 
 
 
 
 
»
 
 
OP ay
.
OPE a
a
EY
i
a
we
~
a
a
~\
~\
“a
a
a
 
a
a
we
“a
_
a
>
~\
a
>
a
EY
we
a
Te
we
G)
a
a
a
OTP a
a
 
Oa
 
Cl
