 
 
 
I
 
 
y

=

y
y

=

y
a

 
 
 
 
 
ee
Delete
ica
pt
 
 
 
 
3 4 3 6 7 8 9 10

Numeric Pain Rating Scale

0 2
No Moderate Worst
pain pain possible
pain
Wong-Baker FACES Pain Rating Scale
am of ~~ _-—- “<M
OO OO OO ©S OS
a ww ad wv ~/
WY heaunioet — — a
0 2 4 6 8
NO HURT HURTS HURTS HURTS HURTS
LITTLE BIT LITTLE MORE EVEN MORE WHOLE LOT

10
HURTS
woRsT
>
. ef
wy
 
 
 
|
 
 
a
 
pt LL
Delete
 
mY,

es
 
 
,

a
 
Os
3 4 3 6 7 8 9 10

Numeric Pain Rating Scale

0 2
No Moderate Worst
pain pain possible
pain
Wong-Baker FACES Pain Rating Scale
am of ~~ _-—- “<M
OO OO OO ©S OS
a ww ad wv ~/
WY heaunioet — — a
0 2 4 6 8
NO HURT HURTS HURTS HURTS HURTS
LITTLE BIT LITTLE MORE EVEN MORE WHOLE LOT

10
HURTS
woRsT
wy
 
axxessCARE
 
 

Name Lastname
1234 Anywhere St.
Anywhere, USA 12345

31234567898) 0009876543210 IP

 
pt
 
 
 
 
 
G)
PRC =
wr Cir:
Weed
_ =—-_ |
aaa
 
(©)
i
3 4 3 6 7 8 9 10

Numeric Pain Rating Scale

0 2
No Moderate Worst
pain pain possible
pain
Wong-Baker FACES Pain Rating Scale
am of ~~ _-—- “<M
OO OO OO ©S OS
a ww ad wv ~/
WY heaunioet — — a
0 2 4 6 8
NO HURT HURTS HURTS HURTS HURTS
LITTLE BIT LITTLE MORE EVEN MORE WHOLE LOT

10
HURTS
woRsT
 
 
 
 
 
 
.
»
 
a
ica
pt
 
 
 
ey”
, 8
wy
Oo
Oo
Activate
WT) (ear)
Inactivate
ba & & &
 
a
7
Os
3 4 3 6 7 8 9 10

Numeric Pain Rating Scale

0 2
No Moderate Worst
pain pain possible
pain
Wong-Baker FACES Pain Rating Scale
am of ~~ _-—- “<M
OO OO OO ©S OS
a ww ad wv ~/
WY heaunioet — — a
0 2 4 6 8
NO HURT HURTS HURTS HURTS HURTS
LITTLE BIT LITTLE MORE EVEN MORE WHOLE LOT

10
HURTS
woRsT
 
Cl
a
a
 
 
wy
a
axxessCARE
 
 
 

Name Lastname
1234 Anywhere St.
Anywhere, USA 12345

31234567898) 0009876543210 IP

 
 
 
 
I
 
 
y

=

y
y

=

y
a

 
 
 
 
 
ee
Delete
ica
pt
 
 
 
 
3 4 3 6 7 8 9 10

Numeric Pain Rating Scale

0 2
No Moderate Worst
pain pain possible
pain
Wong-Baker FACES Pain Rating Scale
am of ~~ _-—- “<M
OO OO OO ©S OS
a ww ad wv ~/
WY heaunioet — — a
0 2 4 6 8
NO HURT HURTS HURTS HURTS HURTS
LITTLE BIT LITTLE MORE EVEN MORE WHOLE LOT

10
HURTS
woRsT
>
. ef
wy
pt
 
 
a
a
 
 
wy
a
Cl
 
 
 
 
 
.
»
 
a
ica
pt
 
 
 
ey”
, 8
wy
 
 
 
 
 
|
 
 
a
 
pt LL
Delete
 
mY,

es
 
 
,

a
 
Os
3 4 3 6 7 8 9 10

Numeric Pain Rating Scale

0 2
No Moderate Worst
pain pain possible
pain
Wong-Baker FACES Pain Rating Scale
am of ~~ _-—- “<M
OO OO OO ©S OS
a ww ad wv ~/
WY heaunioet — — a
0 2 4 6 8
NO HURT HURTS HURTS HURTS HURTS
LITTLE BIT LITTLE MORE EVEN MORE WHOLE LOT

10
HURTS
woRsT
wy
 
G)
PRC =
wr Cir:
Weed
_ =—-_ |
aaa
 
(©)
i
3 4 3 6 7 8 9 10

Numeric Pain Rating Scale

0 2
No Moderate Worst
pain pain possible
pain
Wong-Baker FACES Pain Rating Scale
am of ~~ _-—- “<M
OO OO OO ©S OS
a ww ad wv ~/
WY heaunioet — — a
0 2 4 6 8
NO HURT HURTS HURTS HURTS HURTS
LITTLE BIT LITTLE MORE EVEN MORE WHOLE LOT

10
HURTS
woRsT
 
Oo
Oo
Activate
WT) (ear)
Inactivate
ba & & &
 
a
7
Os
3 4 3 6 7 8 9 10

Numeric Pain Rating Scale

0 2
No Moderate Worst
pain pain possible
pain
Wong-Baker FACES Pain Rating Scale
am of ~~ _-—- “<M
OO OO OO ©S OS
a ww ad wv ~/
WY heaunioet — — a
0 2 4 6 8
NO HURT HURTS HURTS HURTS HURTS
LITTLE BIT LITTLE MORE EVEN MORE WHOLE LOT

10
HURTS
woRsT
 
[
  {
    "state":"AL",
    "rule": "^[0-9]{1,7}$",
    "descriptions": [
      "1-7 Numeric"
    ]
  },
  {
    "state":"AK",
    "rule": "^[0-9]{1,7}$",
    "description": [
      "1-7 Numbers"
    ]
  },
  {
  "state":"AZ",
    "rule": "(^[A-Z]{1}[0-9]{1,8}$)|(^[A-Z]{2}[0-9]{2,5}$)|(^[0-9]{9}$)",
    "description": [
      "1 Alpha + 1-8 Numeric",
      "2 Alpha + 2-5 Numeric",
      "9 Numeric"
    ]
  },
  {
    "state":"AR",
    "rule": "^[0-9]{4,9}$",
    "description": [
      "4-9 Numeric"
    ]
  },
  {
    "state":"CA",
    "rule": "^[A-Z]{1}[0-9]{7}$",
    "description": [
      "1 Alpha + 7 Numeric"
    ]
  },
  {
    "state":"CO",
    "rule": "(^[0-9]{9}$)|(^[A-Z]{1}[0-9]{3,6}$)|(^[A-Z]{2}[0-9]{2,5}$)",
    "description": [
      "9 Numeric",
      "1 Alpha + 3-6 Numeric",
      "2 Alpha + 2-5 Numeric"
    ]
  },
  {
    "state":"CT",
    "rule": "^[0-9]{9}$",
    "description": [
      "9 Numeric"
    ]
  },
  {
    "state":"DE",
    "rule": "^[0-9]{1,7}$",
    "description": [
      "1-7 Numeric"
    ]
  },
  {
    "state":"DC",
    "rule": "(^[0-9]{7}$)|(^[0-9]{9}$)",
    "description": [
      "7 Numeric",
      "9 Numeric"
    ]
  },
  {
    "state":"FL",
    "rule": "^[A-Z]{1}[0-9]{12}$",
    "description": [
      "1 Alpha + 12 Numeric"
    ]
  },
  {
    "state":"GA",
    "rule": "^[0-9]{7,9}$",
    "description": [
      "7-9 Numeric"
    ]
  },
  {
    "state":"GU",
    "rule": "^[a-zA-Z]{1}[0-9]{14}",
    "description": [
      "1 Alpha + 14 Numeric"
    ]
  },
  {
    "state":"HI",
    "rule": "(^[A-Z]{1}[0-9]{8}$)|(^[0-9]{9}$)",
    "description": [
      "1 Alpha + 8 Numeric",
      "9 Numeric"
    ]
  },
  {
    "state":"ID",
    "rule": "(^[A-Z]{2}[0-9]{6}[A-Z]{1}$)|(^[0-9]{9}$)",
    "description": [
      "2 Alpha + 6 Numeric + 1 Alpha",
      "9 Numeric"
    ]
  },
  {
  "state":"IL",
    "rule": "^[A-Z]{1}[0-9]{11,12}$",
    "description": [
      "1 Alpha + 11-12 Numeric"
    ]
  },
  {
    "state":"IN",
    "rule": "(^[A-Z]{1}[0-9]{9}$)|(^[0-9]{9,10}$)",
    "description": [
      "1 Alpha + 9 Numeric",
      "9-10 Numeric"
    ]
  },
  {
    "state":"IA",
    "rule": "^([0-9]{9}|([0-9]{3}[A-Z]{2}[0-9]{4}))$",
    "description": [
      "9 Numeric",
      "3 Numeric + 2 Alpha + 4 Numeric"
    ]
  },
  {
    "state":"KS",
    "rule": "(^([A-Z]{1}[0-9]{1}){2}[A-Z]{1}$)|(^[A-Z]{1}[0-9]{8}$)|(^[0-9]{9}$)",
    "description": [
      "1 Alpha + 1 Numeric + 1 Alpha + 1 Numeric + 1 Alpha",
      "1 Alpha + 8 Numeric",
      "9 Numeric"
    ]
  },
  {
    "state":"KY",
    "rule": "(^[A_Z]{1}[0-9]{8,9}$)|(^[0-9]{9}$)",
    "description": [
      "1 Alpha + 8-9 Numeric",
      "9 Numeric"
    ]
  },
  {
    "state":"LA",
    "rule": "^[0-9]{1,9}$",
    "description": [
      "1-9 Numeric"
    ]
  },
  {
    "state":"ME",
    "rule": "(^[0-9]{7,8}$)|(^[0-9]{7}[A-Z]{1}$)",
    "description": [
      "7-8 Numeric",
      "7 Numeric + 1 Alpha"
    ]
  },
  {
    "state":"MD",
    "rule": "^[A-Z]{1}[0-9]{12}$",
    "description": [
      "1Alpha+12Numeric"
    ]
  },
  {
    "state":"MA",
    "rule": "(^[A-Z]{1}[0-9]{8}$)|(^[0-9]{9}$)",
    "description": [
      "1 Alpha + 8 Numeric",
      "9 Numeric"
    ]
  },
  {
    "state":"MI",
    "rule": "(^[A-Z]{1}[0-9]{10}$)|(^[A-Z]{1}[0-9]{12}$)",
    "description": [
      "1 Alpha + 10 Numeric",
      "1 Alpha + 12 Numeric"
    ]
  },
  {
    "state":"MN",
    "rule": "^[A-Z]{1}[0-9]{12}$",
    "description": [
      "1 Alpha + 12 Numeric"
    ]
  },
  {
    "state":"MS",
    "rule": "^[0-9]{9}$",
    "description": [
      "9 Numeric"
    ]
  },
  {
    "state":"MO",
    "rule": "(^[A-Z]{1}[0-9]{5,9}$)|(^[A-Z]{1}[0-9]{6}[R]{1}$)|(^[0-9]{8}[A-Z]{2}$)|(^[0-9]{9}[A-Z]{1}$)|(^[0-9]{9}$)",
    "description": [
      "1 Alpha + 5-9 Numeric",
      "1 Alpha + 6 Numeric + 'R'",
      "8 Numeric + 2 Alpha",
      "9 Numeric + 1 Alpha",
      "9 Numeric"
    ]
  },
  {
    "state":"MT",
    "rule": "(^[A-Z]{1}[0-9]{8}$)|(^[0-9]{13}$)|(^[0-9]{9}$)|(^[0-9]{14}$)",
    "description": [
      "1 Alpha + 8 Numeric",
      "13 Numeric",
      "9 Numeric",
      "14 Numeric"
    ]
  },
  {
    "state":"NE",
    "rule": "^[0-9]{1,7}$",
    "description": [
      "1-7 Numeric"
    ]
  },
  {
    "state":"NV",
    "rule": "(^[0-9]{9,10}$)|(^[0-9]{12}$)|(^[X]{1}[0-9]{8}$)",
    "description": [
      "9 Numeric",
      "10 Numeric",
      "12 Numeric",
      "'X' + 8 Numeric"
    ]
  },
  {
    "state":"NH",
    "rule": "^[0-9]{2}[A-Z]{3}[0-9]{5}$",
    "description": [
      "2 Numeric + 3 Alpha + 5 Numeric"
    ]
  },
  {
    "state":"NJ",
    "rule": "^[A-Z]{1}[0-9]{14}$",
    "description": [
      "1 Alpha + 14 Numeric"
    ]
  },
  {
    "state":"NM",
    "rule": "^[0-9]{8,9}$",
    "description": [
      "8 Numeric",
      "9 Numeric"
    ]
  },
  {
    "state":"NY",
    "rule": "(^[A-Z]{1}[0-9]{7}$)|(^[A-Z]{1}[0-9]{18}$)|(^[0-9]{8}$)|(^[0-9]{9}$)|(^[0-9]{16}$)|(^[A-Z]{8}$)",
    "description": [
      "1 Alpha + 7 Numeric",
      "1 Alpha + 18 Numeric",
      "8 Numeric",
      "9 Numeric",
      "16 Numeric",
      "8 Alpha"
    ]
  },
  {
    "state":"NC",
    "rule": "^[0-9]{1,12}$",
    "description": [
      "1-12 Numeric"
    ]
  },
  {
    "state":"ND",
    "rule": "(^[A-Z]{3}[0-9]{6}$)|(^[0-9]{9}$)",
    "description": [
      "3 Alpha + 6 Numeric",
      "9 Numeric"
    ]
  },
  {
    "state":"OH",
    "rule": "(^[A-Z]{1}[0-9]{4,8}$)|(^[A-Z]{2}[0-9]{3,7}$)|(^[0-9]{8}$)",
    "description": [
      "1 Alpha + 4-8 Numeric",
      "2 Alpha + 3-7 Numeric",
      "8 Numeric"
    ]
  },
  {
    "state":"OK",
    "rule": "(^[A-Z]{1}[0-9]{9}$)|(^[0-9]{9}$)",
    "description": [
      "1 Alpha + 9 Numeric",
      "9 Numeric"
    ]
  },
  {
    "state":"OR",
    "rule": "^[0-9]{1,9}$",
    "description": [
      "1-9 Numeric"
    ]
  },
  {
    "state":"PA",
    "rule": "^[0-9]{8}$",
    "description": [
      "8 Numeric"
    ]
  },
  {
    "state":"PR",
    "rule": "(^[0-9]{9}$)|(^[0-9]{5,7}$)",
    "description": [
      "5-7 Numeric",
      "9 Numeric"
    ]
  },
  {
    "state":"RI",
    "rule": "^([0-9]{7}$)|(^[A-Z]{1}[0-9]{6}$)",
    "description": [
      "7 Numeric",
      "1 Alpha + 6 Numeric"
    ]
  },
  {
    "state":"SC",
    "rule": "^[0-9]{5,11}$",
    "description": [
      "5-11 Numeric"
    ]
  },
  {
    "state":"SD",
    "rule": "(^[0-9]{6,10}$)|(^[0-9]{12}$)",
    "description": [
      "6-10 Numeric",
      "12 Numeric"
    ]
  },
  {
    "state":"TN",
    "rule": "^[0-9]{7,9}$",
    "description": [
      "7-9 Numeric"
    ]
  },
  {
    "state":"TX",
    "rule": "^[0-9]{7,8}$",
    "description": [
      "7-8 Numeric"
    ]
  },
  {
    "state":"UT",
    "rule": "^[0-9]{4,10}$",
    "description": [
      "4-10 Numeric"
    ]
  },
  {
    "state":"VT",
    "rule": "(^[0-9]{8}$)|(^[0-9]{7}[A]$)",
    "description": [
      "8 Numeric",
      "7 Numeric + 'A'"
    ]
  },
  {
    "state":"VA",
    "rule": "(^[A-Z]{1}[0-9]{9,11}$)|(^[0-9]{9}$)",
    "description": [
      "1 Alpha + 9 Numeric",
      "1 Alpha + 10 Numeric",
      "1 Alpha + 11 Numeric",
      "9 Numeric"
    ]
  },
  {
    "state":"WA",
    "rule": "^(?=.{12}$)[A-Z]{1,7}[A-Z0-9\\*]{4,11}$",
    "description": [
      "1-7 Alpha + any combination of Alpha, Numeric, and * for a total of 12 characters"
    ]
  },
  {
    "state":"WV",
    "rule": "(^[0-9]{7}$)|(^[A-Z]{1,2}[0-9]{5,6}$)",
    "description": [
      "7 Numeric",
      "1-2 Alpha + 5-6 Numeric"
    ]
  },
  {
    "state":"WI",
    "rule": "^[A-Z]{1}[0-9]{13}$",
    "description": [
      "1 Alpha + 13 Numeric"
    ]
  },
  {
    "state":"WY",
    "rule": "^[0-9]{9,10}$",
    "description": [
      "9-10 Numeric"
    ]
  }
]This is a really long legal agreement sample! This is a really long legal agreement sample! This is a really long legal agreement sample! This is a really long legal agreement sample!
This is a really long legal agreement sample! This is a really long legal agreement sample! This is a really long legal agreement sample! This is a really long legal agreement sample!
This is a really long legal agreement sample! This is a really long legal agreement sample! This is a really long legal agreement sample! This is a really long legal agreement sample!
This is a really long legal agreement sample! This is a really long legal agreement sample! This is a really long legal agreement sample! This is a really long legal agreement sample!
This is a really long legal agreement sample! This is a really long legal agreement sample! This is a really long legal agreement sample! This is a really long legal agreement sample!
This is a really long legal agreement sample! This is a really long legal agreement sample! This is a really long legal agreement sample! This is a really long legal agreement sample!
This is a really long legal agreement sample! This is a really long legal agreement sample! This is a really long legal agreement sample! This is a really long legal agreement sample!
This is a really long legal agreement sample! This is a really long legal agreement sample! This is a really long legal agreement sample! This is a really long legal agreement sample!
This is a really long legal agreement sample! This is a really long legal agreement sample! This is a really long legal agreement sample! This is a really long legal agreement sample!
This is a really long legal agreement sample! This is a really long legal agreement sample! This is a really long legal agreement sample! This is a really long legal agreement sample![{"date":"Friday, April 22","messages":[{"type":"1","title":"Visit Name","isDeleted":false,"date":"04/22/2016","subject":"04/22/2016 - Android Subject","body":"This is a test message from file.This is a test message from file.This is a test message from file.This is a test message from file.This is a test message from file.This is a test message from file.This is a test message from file."},{"type":"0","title":"Missed Visit","subject":"04/22/2016 - SN Something","isDeleted":false,"date":"04/22/2016","body":"This is yet another test message from file."},{"type":"2","title":"New Title","subject":"04/22/2016 - Tyler Visit","isDeleted":false,"date":"04/22/2016","body":"This is another test message from file."},{"type":"2","title":"Another Title","subject":"04/22/2016 - SN Something","isDeleted":false,"date":"04/22/2016","body":"This is test text."}]},{"date":"Thursday, April 21","messages":[{"type":"1","title":"QA - Note Returned","subject":"04/21/2016 - SN Wound Care Visit","isDeleted":false,"date":"04/21/2016","body":"This is a test message from file."},{"type":"1","title":"You've Been Booked","subject":"00/00/0000 - SN Visit","isDeleted":false,"date":"04/21/2016","body":"This is another test message from file."},{"type":"2","title":"Re: Question","subject":"00/00/00 - SN Something","isDeleted":false,"date":"04/21/2016","body":"This is yet another test message from file."}]},{"date":"Tuesday, April 19","messages":[{"type":"1","title":"QA - Note Returned","subject":"00/00/0000 - SN Wound Care Visit","isDeleted":false,"date":"04/19/2016","body":"This is a test message from file."},{"type":"1","title":"You've Been Booked","subject":"00/00/0000 - SN Visit","isDeleted":false,"date":"04/19/2016","body":"This is another test message from file."},{"type":"2","title":"Re: Question","subject":"00/00/0000 - SN Something","isDeleted":false,"date":"04/19/2016","body":"This is yet another test message from file."}]},{"date":"Monday, April 18","messages":[{"type":"1","title":"QA - Note Returned","subject":"00/00/0000 - SN Wound Care Visit","isDeleted":false,"date":"04/18/2016","body":"This is a test message from file."},{"type":"1","title":"You've Been Booked","subject":"00/00/0000 - SN Visit","isDeleted":false,"date":"04/18/2016","body":"This is another test message from file."},{"type":"2","title":"Re: Question","subject":"00/00/0000 - SN Something","isDeleted":false,"date":"04/18/2016","body":"This is yet another test message from file."}]},{"date":"Thursday, April 14","messages":[{"type":"1","title":"QA - Note Returned","subject":"00/00/0000 - SN Wound Care Visit","isDeleted":true,"date":"04/14/2016","body":"This is a test message from file."},{"type":"1","title":"You've Been Booked","subject":"00/00/0000 - SN Visit","isDeleted":true,"date":"04/14/2016","body":"This is another test message from file."},{"type":"2","title":"Re: Question","subject":"00/00/0000 - SN Something","isDeleted":true,"date":"04/14/2016","body":"This is yet another test message from file."}]}][{"title":"Absolutely Great Nurse!","body":"I went in for a physical and was seen promptly. I was first to ... blah blah. Repeat text. I went in for a physical and was seen promptly. I was first to ... blah blah. Repeat text.","stars":4.5},{"title":"AMAZING","body":"The nurse was super thorough and kind.","stars":5.0},{"title":"Bad Mood Today","body":"Normally she is a great nurse, but today she seemed to be in a bad mood. Please cheer up!","stars":2.5},{"title":"GREAT NURSE!","body":"She was really nice to me and my family that was staying with me.","stars":4.5},{"title":"WooHoo","body":"Woohoooooooo.","stars":5.0},{"title":"Some Title","body":"I'm out of ideas.","stars":3.5}]JUnit

Eclipse Public License - v 1.0

THE ACCOMPANYING PROGRAM IS PROVIDED UNDER THE TERMS OF THIS ECLIPSE PUBLIC
LICENSE ("AGREEMENT"). ANY USE, REPRODUCTION OR DISTRIBUTION OF THE PROGRAM
CONSTITUTES RECIPIENT'S ACCEPTANCE OF THIS AGREEMENT.

1. DEFINITIONS

"Contribution" means:

      a) in the case of the initial Contributor, the initial code and
         documentation distributed under this Agreement, and
      b) in the case of each subsequent Contributor:

      i) changes to the Program, and

      ii) additions to the Program;

      where such changes and/or additions to the Program originate from and are
distributed by that particular Contributor. A Contribution 'originates' from a
Contributor if it was added to the Program by such Contributor itself or anyone
acting on such Contributor's behalf. Contributions do not include additions to
the Program which: (i) are separate modules of software distributed in
conjunction with the Program under their own license agreement, and (ii) are
not derivative works of the Program. 

"Contributor" means any person or entity that distributes the Program.

"Licensed Patents " mean patent claims licensable by a Contributor which are
necessarily infringed by the use or sale of its Contribution alone or when
combined with the Program.

"Program" means the Contributions distributed in accordance with this Agreement.

"Recipient" means anyone who receives the Program under this Agreement,
including all Contributors.

2. GRANT OF RIGHTS

      a) Subject to the terms of this Agreement, each Contributor hereby grants
Recipient a non-exclusive, worldwide, royalty-free copyright license to
reproduce, prepare derivative works of, publicly display, publicly perform,
distribute and sublicense the Contribution of such Contributor, if any, and
such derivative works, in source code and object code form.

      b) Subject to the terms of this Agreement, each Contributor hereby grants
Recipient a non-exclusive, worldwide, royalty-free patent license under
Licensed Patents to make, use, sell, offer to sell, import and otherwise
transfer the Contribution of such Contributor, if any, in source code and
object code form. This patent license shall apply to the combination of the
Contribution and the Program if, at the time the Contribution is added by the
Contributor, such addition of the Contribution causes such combination to be
covered by the Licensed Patents. The patent license shall not apply to any
other combinations which include the Contribution. No hardware per se is
licensed hereunder. 

      c) Recipient understands that although each Contributor grants the
licenses to its Contributions set forth herein, no assurances are provided by
any Contributor that the Program does not infringe the patent or other
intellectual property rights of any other entity. Each Contributor disclaims
any liability to Recipient for claims brought by any other entity based on
infringement of intellectual property rights or otherwise. As a condition to
exercising the rights and licenses granted hereunder, each Recipient hereby
assumes sole responsibility to secure any other intellectual property rights
needed, if any. For example, if a third party patent license is required to
allow Recipient to distribute the Program, it is Recipient's responsibility to
acquire that license before distributing the Program.

      d) Each Contributor represents that to its knowledge it has sufficient
copyright rights in its Contribution, if any, to grant the copyright license
set forth in this Agreement. 

3. REQUIREMENTS

A Contributor may choose to distribute the Program in object code form under
its own license agreement, provided that:

      a) it complies with the terms and conditions of this Agreement; and

      b) its license agreement:

      i) effectively disclaims on behalf of all Contributors all warranties and
conditions, express and implied, including warranties or conditions of title
and non-infringement, and implied warranties or conditions of merchantability
and fitness for a particular purpose; 

      ii) effectively excludes on behalf of all Contributors all liability for
damages, including direct, indirect, special, incidental and consequential
damages, such as lost profits; 

      iii) states that any provisions which differ from this Agreement are
offered by that Contributor alone and not by any other party; and

      iv) states that source code for the Program is available from such
Contributor, and informs licensees how to obtain it in a reasonable manner on
or through a medium customarily used for software exchange. 

When the Program is made available in source code form:

      a) it must be made available under this Agreement; and 

      b) a copy of this Agreement must be included with each copy of the
Program. 

Contributors may not remove or alter any copyright notices contained within the
Program.

Each Contributor must identify itself as the originator of its Contribution, if
any, in a manner that reasonably allows subsequent Recipients to identify the
originator of the Contribution.

4. COMMERCIAL DISTRIBUTION

Commercial distributors of software may accept certain responsibilities with
respect to end users, business partners and the like. While this license is
intended to facilitate the commercial use of the Program, the Contributor who
includes the Program in a commercial product offering should do so in a manner
which does not create potential liability for other Contributors. Therefore, if
a Contributor includes the Program in a commercial product offering, such
Contributor ("Commercial Contributor") hereby agrees to defend and indemnify
every other Contributor ("Indemnified Contributor") against any losses, damages
and costs (collectively "Losses") arising from claims, lawsuits and other legal
actions brought by a third party against the Indemnified Contributor to the
extent caused by the acts or omissions of such Commercial Contributor in
connection with its distribution of the Program in a commercial product
offering. The obligations in this section do not apply to any claims or Losses
relating to any actual or alleged intellectual property infringement. In order
to qualify, an Indemnified Contributor must: a) promptly notify the Commercial
Contributor in writing of such claim, and b) allow the Commercial Contributor
to control, and cooperate with the Commercial Contributor in, the defense and
any related settlement negotiations. The Indemnified Contributor may
participate in any such claim at its own expense.

For example, a Contributor might include the Program in a commercial product
offering, Product X. That Contributor is then a Commercial Contributor. If that
Commercial Contributor then makes performance claims, or offers warranties
related to Product X, those performance claims and warranties are such
Commercial Contributor's responsibility alone. Under this section, the
Commercial Contributor would have to defend claims against the other
Contributors related to those performance claims and warranties, and if a court
requires any other Contributor to pay any damages as a result, the Commercial
Contributor must pay those damages.

5. NO WARRANTY

EXCEPT AS EXPRESSLY SET FORTH IN THIS AGREEMENT, THE PROGRAM IS PROVIDED ON AN
"AS IS" BASIS, WITHOUT WARRANTIES OR CONDITIONS OF ANY KIND, EITHER EXPRESS OR
IMPLIED INCLUDING, WITHOUT LIMITATION, ANY WARRANTIES OR CONDITIONS OF TITLE,
NON-INFRINGEMENT, MERCHANTABILITY OR FITNESS FOR A PARTICULAR PURPOSE. Each
Recipient is solely responsible for determining the appropriateness of using
and distributing the Program and assumes all risks associated with its exercise
of rights under this Agreement, including but not limited to the risks and
costs of program errors, compliance with applicable laws, damage to or loss of
data, programs or equipment, and unavailability or interruption of operations.

6. DISCLAIMER OF LIABILITY

EXCEPT AS EXPRESSLY SET FORTH IN THIS AGREEMENT, NEITHER RECIPIENT NOR ANY
CONTRIBUTORS SHALL HAVE ANY LIABILITY FOR ANY DIRECT, INDIRECT, INCIDENTAL,
SPECIAL, EXEMPLARY, OR CONSEQUENTIAL DAMAGES (INCLUDING WITHOUT LIMITATION LOST
PROFITS), HOWEVER CAUSED AND ON ANY THEORY OF LIABILITY, WHETHER IN CONTRACT,
STRICT LIABILITY, OR TORT (INCLUDING NEGLIGENCE OR OTHERWISE) ARISING IN ANY
WAY OUT OF THE USE OR DISTRIBUTION OF THE PROGRAM OR THE EXERCISE OF ANY RIGHTS
GRANTED HEREUNDER, EVEN IF ADVISED OF THE POSSIBILITY OF SUCH DAMAGES.

7. GENERAL

If any provision of this Agreement is invalid or unenforceable under applicable
law, it shall not affect the validity or enforceability of the remainder of the
terms of this Agreement, and without further action by the parties hereto, such
provision shall be reformed to the minimum extent necessary to make such
provision valid and enforceable.

If Recipient institutes patent litigation against any
entity (including a cross-claim or counterclaim in a lawsuit) alleging that the
Program itself (excluding combinations of the Program with other software or
hardware) infringes such Recipient's patent(s), then such Recipient's rights
granted under Section 2(b) shall terminate as of the date such litigation is
filed.

All Recipient's rights under this Agreement shall terminate if it fails to
comply with any of the material terms or conditions of this Agreement and does
not cure such failure in a reasonable period of time after becoming aware of
such noncompliance. If all Recipient's rights under this Agreement terminate,
Recipient agrees to cease use and distribution of the Program as soon as
reasonably practicable. However, Recipient's obligations under this Agreement
and any licenses granted by Recipient relating to the Program shall continue
and survive.

Everyone is permitted to copy and distribute copies of this Agreement, but in
order to avoid inconsistency the Agreement is copyrighted and may only be
modified in the following manner. The Agreement Steward reserves the right to
publish new versions (including revisions) of this Agreement from time to time.
No one other than the Agreement Steward has the right to modify this Agreement.
The Eclipse Foundation is the initial Agreement Steward. The Eclipse Foundation may assign the responsibility to
serve as the Agreement Steward to a suitable separate entity. Each new version
of the Agreement will be given a distinguishing version number. The Program
(including Contributions) may always be distributed subject to the version of
the Agreement under which it was received. In addition, after a new version of
the Agreement is published, Contributor may elect to distribute the Program
(including its Contributions) under the new version. Except as expressly stated
in Sections 2(a) and 2(b) above, Recipient receives no rights or licenses to
the intellectual property of any Contributor under this Agreement, whether
expressly, by implication, estoppel or otherwise. All rights in the Program not
expressly granted under this Agreement are reserved.

This Agreement is governed by the laws of the State of New York and the
intellectual property laws of the United States of America. No party to this
Agreement will bring a legal action under this Agreement more than one year
after the cause of action arose. Each party waives its rights to a jury trial
in any resulting litigation. 

git.version=a1f28028ba4e22c11cfaffe0e37ae27be1eea0c3
