4

Ceo
 
NI]
“a
 
 
“a
.
a
 
a
 
 
a
NI]
a
a
|
 
a
a
“a
 
 
4

See
a
 
“a
a
4)
ad
= Se OnMm Es
a
 
 
 
 
“a
i
“a
—
 
 
“a
io
a
—
Ys
a
 
 
   

BE ia a
#2
 
»
"rae ORION TPES
 
 
 
 
 
 
 
 
 
a
 
&
 
.
 
 
 
a
>
 
 
a
~
“a
~\
a
“a
Te
we
a
a
a
iN
a
EY
 
_
>
a
ee CAIIDIRIEN'S
 
a
EY
we
a
a
i
 
5»
~\
a
 
~\
G)
we
a
a
<<
a
a
we
a
acd
wget Serene GreBID Eis
 
 
 
 

 
 
ae
 
y

=

y
 
 
Sy
—
a

 
4)
 
 
 
y

=

y
 
Sd
= IYO ga) a Galan DINSIUS
Ys.
I
 
 
a
SO
 
Cl
a
 
 
