a

 
 
 
a

 
G)
G)
a

 
 
G)
or althaia

Xarxa Assistencial Universitaria Manresa
ee
SE
ee j
SE

es

retees
eeseeseeees

ees 533

SESSSSSs 35

reeset

eae

ES

seseaeeren.

=

Le
eee

eee

33

waa w aes

=
£22

es
33
oes
ee
essees
ese
ra
eee 2
Scores
Se 2
ee
ee
Bee
ra =
EE
See
raaae,
ZS
ra

oes oseetateee.
ro
$2 resestate.
‘4 eesesees
25

ey
: CEE

oo
es

Se Le

reece"

ose

res

oe

.
"0
.

oa
eee
eee eee
SLL

ra

25
rages
ee

‘

‘
:
‘

Mei

x)
wos

*

wns

25
ro
S28 ees

.

%
wy

ro
2

SSSs
SS S S
SSSS
SSV
SSS
SS
SSS
SV
S88
SSS
SGS88
SSS
SSS S
SSs
SSs
SSS
Ss
SSS

eae
LE
LaIEE,
erage
See
ee
wanes

=
= =
SS
— SS =
SS
=~ SSS =<
SSS
=—
== ~~ =

SS =< =
SS

SS

 
 
 
 

 

 

 

 

 

rr
ux
A)

as W
GX

\ aah Z
AN

id |
s
KY
Vika

@,
A)

Vd
sf
%
 
 
I hope you love Font Awesome. If you've found it useful, please do me a favor and check out my latest project,
Fort Awesome (https://fortawesome.com). It makes it easy to put the perfect icons on your website. Choose from our awesome,
comprehensive icon sets or copy and paste your own.

Please. Check it out.

-Dave Gandy
