 
‘ly
 
ia
2 =7 unbound
KAIRIE
eth
\) uCentral
 
lo
 
»
 
 
 
.
 
 
 

ITT] ets) 1 en

oa
 
gli er-vatie]
 
 
im

iB
rN
 
 
— 4
 
lL —_
lo
 
 
 
@ unbound
 
w &
Favorites
Talent ite foe aD ete ume a acs dala

MEDICINE
@crasp
(J uCentral
 
Z
g
 
 
 
Ww

ee
4

Get the most out of Unbound MEDLINE
(By, unbound medicine’
a)
i

ne
LO)
@
I
ne
 

por
py Prime
gli er-vatie]
of
(By, re
>

P< g
6
IN
 
a UI MIAO UME!
MEDLINE
 
a
y

=

y
y

=

y
@
4
a

 
IN
 
Ea

ee

ee
Converted inside cells to carbovir
triphosphate, its active metabolite. Carbovir
triphosphate inhibits the activity of HIV-1
reverse transcriptase, which in turn terminates
viral DNA growth.

The copy NOTE GLIMPSE 3

e Stowe WIS PEG GreVvVIygiy GET v ISVs rT are

decreases the occurrence of its sequelae.

e Increases CD4 cell counts an@JecreasesD
viral load.
 
 
@
Ea

ee

ee
 
Pinlorourmel (M4) UI NT
ca)
 
LO)
 
 
 
 
 
‘ly
 
 
 
G)
 
 
 
|
 
gli er-vatie]
 
Cl
a
\v) uCentral
 
CONFIDENCE AT YOUR FINGERTIPS

ee

ee

 
ae

ee
