 
ve

==
 
 
 
 
 
 
 
4
i
 
 
 
 
 
 
 
 
i
 
 
0

 
 
WN
 

|
 
E
 
 
 
 
 
 
 
 
 
 
 
 
26
 
a
 
dq’
3,
a
 
a
r
 
 
 
 
 
 
 
 
 
 
 
 
 
 
 
 
 
 
 
 
 
VAS
eh
BE
 
 
 
4a
 
il
a
Nv
TN
 
|
 
 
 
 
 
 
 
 
 
 
bd
a
 
 
 
 
 
r
 
F
 
+
 
 
 
 
 
[-|
 
 
 
.
 
 
 
 
Bai
 
 
 
 
 
 
 
 
A
 
 
 
 
 
 
 
 
 
 
 
 
(e:
 
 
 
fo]
 
|
4
 
 
 
 
 
 
 
 
br
 
»
 
 
 
 
be
 
YW
 
 
 
 
 
 
 
 
 
 
 
 
»
 
 
=e
 
 
 
Za
 
 
 
 
vals
ia
 
 
 
| fe
 
 
 
 
|
 
 
 
ia
 
A

ral
 
 
Xx
Zz
7
(
 
a
 
 
I:
|
Oe
BC
 
 
rf
 
 
 
 
 
 
%@*
8,
 
 
 
x]
 
Oo
OO
mixpanel
@ee-
SO
 
 
I
a

 
y

=

y
 
 
a
a
a
 
y

=

y
 
 
a
 
<<
G)
 
mixpanel
@ee-
 
|
mixpanel
@ee-
 
 
 
oe
 
 
Cl
a
ONLINE DOCTORS
QQ
Ss

einen
9,
~

ONLINE DOCTORS
 
