kd
 
 

=
 

@
v
 

@
v
ree
 
 
4
 
 

=
 
ave
"|
 

a
he
4
Ww 4
 
 
t
@

 
awe
 

o=>
a4

_
 

@
v
 
 

@
¥
a4

_
 
 
a
 
 
 
 
 
—
ave
 

mo
4h

L
 
 
- 4
 

oo
—
 
 

-
v
 

=
 

a.
 
 

-
v
 

a_i
 

-
v
 
 
 
t
-

 
 
 

-
v
 
+6

eo=
 
 

-
v
 

=.
a
 
ee
 

eo=
 
 
va
 
 
2)
ee)
 

=.
Cl
 
awe
 
(oro
 

e
v
 
 
a
 

e
v
 
ave
Val Y
 
C
 
 
 
est
 

Ls
 
 

e
v
CXol 0h
 

[i
i
 

e
v
 

=
Ka
4
S

 
 

o=
 

e
v
>
 
 
 

Ls
CXol 0h
 

e
v
 

=
4
S

 
 

e
v
awe
Val Y
 

e
v
 

e
v
(oro
 

[i
i
 
>
est
 

o=
 
 
Ka
ave
 
 

e
v
he
t
@

 
 
 
a4

_
 
awe
 

@
v
 

a
"|
 

o=>
 

=
4
 

@
¥
 

@
v
 
 

=
a
a4

_
ave
Ww 4
4
 

@
v
kd
 
 
 
 
 

mo
—
 
 
 
 
 
 
ave
 
 
 
rem
 
 
|
—
4h

L
 
 

oo
- 4
 
a
a
# robotstxt.org

User-agent: *
= Oe
C
| =

Lo
Ne’

war
 
 
 
 
 
 
 
 
 
 
 
 
 
 
 
 
 
 
 
 
 
 
 
 
 
 
 
 
 
 
 
 
