 
 
 
I
 
 
y

=

y
y

=

y
a

 
 
y

=

y
 
 
I
 
 
y

=

y
a

 
 
 
 
G)
G)
 
 
 
 
 
 
.
»
»
 
.
 
 
 
 
 
 
 
|
 
 
 
 
 
 
|
 
a
a
 
7D
 
 
7D
 
Cl
Cl
 
 
 
I
 
 
y

=

y
y

=

y
a

 
 
a
Cl
 
 
 
 
 
.
»
 
7D
 
 
 
 
|
 
 
 
G)
git.version=eb8d5626ff8b7781e3a2ec6c3990785697adb99f
