 
 
 
I
 
 
y

=

y
y

=

y
a

 
 
Doktop Ha pa6oTe
 
 
 
 
|
 
 
ZZ
 
Doktop Ha pa6oTe
DokTop Ha pa6oTe
ee ae rr
aa hae’
okey, Pie ea
ee

Ne nC
iN on ae eae
p
Vib
©) iber
e) WhatsApp
ww
 
=
G)
DoktTop Ha pa6oTe
p
'e) WhatsApp
WY
 
 
 
ie
 
 
a
|
*
*

*
*
~~
_ Oe
 
— ) —

rs
 
iy
 
(
6
 
 
EC
mie
=z
 
ant
—
 
 
hi

K
 
@
(e:
 
Na
> 21S
 
 
 
 
 
 
 
.
»
rears Emeril
 
ay
y N
ae Waa
ae ®: ee,
eee 6 ny,

; "o ©
3S: Ee ea) <r
oa
(© whatsapp
.
DoktTop Ha pa6oTe
cs
;
:
s
. 4
: ‘
S
p
e) WhatsApp
.
Cl
a
 
 
 
I
 
 
y

=

y
y

=

y
a

 
 
Doktop Ha pa6oTe
 
a
Cl
 
 
 
 
 
.
»
rears Emeril
 
ay
y N
ae Waa
ae ®: ee,
eee 6 ny,

; "o ©
3S: Ee ea) <r
oa
(© whatsapp
.
WY
 
 
 
ie
 
 
a
|
*
*

*
*
~~
_ Oe
 
— ) —

rs
 
iy
 
(
6
 
 
EC
mie
=z
 
ant
—
 
 
hi

K
 
@
(e:
 
Na
> 21S
 
 
 
 
 
|
 
 
ZZ
 
Doktop Ha pa6oTe
DokTop Ha pa6oTe
ee ae rr
aa hae’
okey, Pie ea
ee

Ne nC
iN on ae eae
p
Vib
©) iber
e) WhatsApp
ww
 
=
G)
DoktTop Ha pa6oTe
p
'e) WhatsApp
DoktTop Ha pa6oTe
cs
;
:
s
. 4
: ‘
S
p
e) WhatsApp
.
git.version=a1f28028ba4e22c11cfaffe0e37ae27be1eea0c3
