 
ak
 
 
 
 
on
 
a
7
 
 
 
 

 
 
 
o

 

r=)
 
Start >
a

Raed ANP VU erat
RETEAUA PRIVATA DE SANATATE
ic
    

PACHET
SCREENING
OSTEOPOROZA

 
 
 
 
 
 
r
 
 
rl
ry

REGINA MARIA

RETEAUA PRIVATA DE SANATATE
C)
 
 
|
 

 

 

 

 

 

 

I Ml 906

 
.
 
 
 
 
 
 
 
 
 
 
 
 
Lo Y
 
 
 
 
 
1 234567 890906
i t-) aa
 

be
 
 
 
 
 
 
 
A

D
=

PACHET,

SCREEN
OSTEOPOROZ

 
 
 
 
 
 
a

REGINA MARIA
Le VTE W TNA WYRE WON |
yy
, ff
 
 
 
 
 
 
 

 
 
 
 
 
 
 
 
Py

REGINA MARIA

RETEAUA PRIVATA DE SANATATE
 
 
I

RETEAUA PRIVATA DE SAN

 
 
()
L
Ma
 
a
 
 
 
lt.) da
 
c
 
ry

REGINA MARIA
A
 
 
 
 

 

 

 

ay
 
y

=

y
 
Ma

i
y

=

y
 
 
Tt
 

 

 

 

 
@
oe
 
 
 
I
 
234567 " 890906

 

 

 

 

 

 

 

 

 

 

 
 
C)
 
 
 
 
 
 
 

 
a

 
 
ae

REGINA MARIA
Pe T PWS TW ORRIN ar ays
ae

REGINA MARIA

RETEAUA PRIVATA DE SANATATE
 
 
 
 
 
en
 

 
 
 
 
 
 
rN
T,
Sit: ) ame
 
 
 
 
 
 
 
 
 
 
1.

RETEAUA PRIVATA DE SAN.

 
fc
 
rye
r
_
 
 
()
 
 
{ t; Adaugasioimagine }
 
 
 
LA
PACHET

SCREENING
OSTEOPOROZA

 
 
 
234567 " 890906

 

 

 

 

 

 

 

 

 

 

 
My

REGINA MARIA

RETEAUA PRIVATA DE SANATATE
 
CLUBUL REGAL

AL MEDICILOR
ae

REGINA MARIA
Pree ee ear Seed tery |
 
M4
 

 

 

 

 
 

 

 

 

 
 
oe
 
 
 
 
»
 
oa
@
@
 
 
 
 
 
 
is »
ic laae
q ,
 
tk

REGINA MARIA
 
 
 
 
 
 
.
ise
 

J 567

890906
z_
fa
 
 
 

 

 

 
REGINA MAI

DO te tar

 
Cl
a
