 
 
 
 
 
 
»
 
.
 
 
 
 
 
 
 
 
y

=

y
 
I
y

=

y
a
 
mm
 
an

Diary

| ee

AFEl BH a2HOl] Ststo}
4 oe bee S| nk
Gieitg )
Diary

SL rete ed

ead ae ecla Tey ley alae
ante Abn Senay ue
mother’ Ss
Dia

19 = MUS tr” M2
 
 
 

EILIC

101 MIZF=101

= hill

CH

=
3

 
Hwee Se Ue Se

818712 AABABCS G4 SO Fe BBO S01 Ste
20~2540| FAAS ASC SOIA Ste SRILICH,
1 7|240}] 1240] SACHA 243] DAI SIIE} 1688-3558
SO|WFRILICH,

29 enol we Ss Pe Ae oT BES! wo ACD
BSSAH Paz SEO CHa] ASTI OA ApM[o| OHH Bf
ERLICH

FW Se ny ways

- 7| 2 HO|A/2I 4Om|0|2\7}2| SISA EES 2st

7 ar

ol

A{g| HA |2VaIE] 1688- 3558= Atlas Fe Ree
22 sae a ZAG
Ate BE7PS26}7|

Tur

 
|
 
OFS] SSAA N Beta Best FS So SML~
=

1.93 Sit BY7| 00/25 Sr4 4049| 0]0F7 |S Al4pSzL Ct.
-
ica res Omnis =" 71
-

2. AZIZ OFFAL] SHES SSA] SOBAD, ASD BRS
AAS EE

‘ rae mest am

1
201644 32 104

WY mother's

Diary

APIS S7p8H AID + .

   
 
 

 

A RIS
po HS (0/SE|Z ASA| SHO] OF

 

 

tf
=

SUC.)

 

 
 
a ea NI
RO
ord

BY
4. cheat Bo] ABOlSLICh M

+4, SAE 7bSSict.

4 cae ress

SHO}, OfttkO} SE.

MB ~ O OY

 

| am
, &
\

OS& $2] 3802

zig az ug)
Con)

S\

B wtopay~ we
201444 38 182
ALT QIz|?

 

 

/f,

 
 
<b
a

val

ro)
 
>. other's

Diary

MAS =7htoq FAQ +
OLAV) he ala chal
Toh aa hae al
eee

> oid al de45 Ly
a \\ ola che A
 
DIARY
cb Eas Rd

E|

ro
5. AS SHS CH) HY Ofeyo| ofol=

 

 

 

 

 

7, OFS Wel Sttop7| HES +SUC.

 

 

 

8. AiO] CS a} ZO| HSL.
Tae WS0| REA] Sso] Hl Stop |S SUC.
2nt5|7|2} ote SI 20| 27tSsSuct.

 
mothers
DIARY
Fa hd
 
_
 
WEB
TOON
Mother's Diary
oes)
ee eal
Cale es

téA
ri
C=]

AUE
 
ote ae aera
hae ea
i
ra

ts
| EE Ye TTatevey am
ply ay a ot ea

co
—

Sl - See

_ — is
i a ==
DH2= Samy OF TIGA Snz2 Ye OOF

OF}, OFS! OOS 24oH SMe
Be Of 25 MAO! THSe!Lict.

 
a
640 * 300
 
Cl
