\

\s
i

80
@ ‘a

Ly
K€
Ww,

yo) 8)

(7
DOCTop,
| a | ela iret .
@ far
%
Oe

PATIENT
 
 
Ge:
_
a
 
a
>
 
YY
i
a
 
YY
 
12:30

@ https://dox.im/2udYhg2

(2 John Smith, MD

Please remember to schedule an
appointment at your earliest
convenience.

 
7)
BETA
 
a
 
     
  

LOCATION

 
 

SKILL
l SPECIALTY
a
 
 
a
a
 
oe)
‘Amy Landers, DO

 

8 Soars Fils Park, Apt 9A Pans.sss-1212
Boston, MA 02108 8006199672
To: Mogan taper ‘ate: 925720
ax: saeasere2 Pages: 1
subject

ee

‘doximity
S
 

H
1
 
-?:
res |
a

a
a
S
Y

wy
 
YY
a
 
<<
a
 
au
a
 
a
G)
00,

 
BETA
 
 
a

an
a
 
 
(7

ehool Koy
late

_/@,
a

PATIENT
]
rg

)
4
 
 
YU

Po é
Gi:
i

 

 

ed
a»
LOCATION
ry rt

 
  

SPECIALTY
a
 
a
a
 
 
 
a
 
a
¢o
12:30

@ https://dox.im/2udYhg2

& John Smith, MD

Please remember to schedule an
appointment at your earliest
convenience.

 
PON

>)
Ice
D7
 
 
 
12:30

@ https://dox.im/2udYhg2

& John Smith, MD

Please remember to schedule an
appointment at your earliest
convenience.

 
 
 
 

 

 
a,
 
BETA
(ie
A
a
a
 
 
a [el

SKILL
SPECIALTY

 
ouT
|
a
7

bole ey
y
Ls

td

st Rm
Co bed hd e
PM oN

<
°
c

Un
 
 
 
a
a
Y
a
 
 
ie
 

 

o
y >
 

 
¢o
 
 
 
 
a
a
@)>
 
 
rel 3
4
@ heips/doximy2udng2

g John Smith, MD

Please remember to schedule an
appointment at your earliest
convenience.

 
l

 
 
fre

Mg
 
a
 
 
a
 
 
 
a
ts
 
 
 
 
 
 
 
ie
 
 
a
 
  
  
 

LOCATION

SPECIALTY
me
 
+=
rele;
 
 
 
7
E
 
»
 
a
 
 
a
a
ed
7

‘
 
 
 
 
.
Je
12:30

@ https://dox.im/2udYhg2

& John Smith, MD

Please remember to schedule an
appointment at your earliest
convenience.

 
|
 
a
a
 
aun
a
 
a
 
 
a
SO
 
a
I
 
Pe =
es
 
 

cy
mes
a

 
 
LOCATION
a —

SPECIALTY

 
 
3
y

=

y
a»

PAT

AN
eo
Pi
 
iy

4:35)
/
 
 
 
 
 
 
lay
 
—_

Pan
Ys con
a:
PRS CN
You Va
y

=

y
 
a
 
a
fp¥®

of?
 
i

 
 
dx 2

@ emer ve

Please remember to schedule an
‘appointment at your earest

 
 
 
a
 
@
 
fe ®

‘ey
 
      
 
 
 
o0
de,
 
 
 
 
a
te
 
 
 
Powis)
a
 
 
 
 
 
 
 
med
Le
 
 
 
Li @

Ee]
 
 
a
 

 

Go|

 

 
 

 

Ge]

 

 
 

 

Ko

 

 
Cl
