powered by Google
 
a
a
 
 
a
a
ee
(St
 
a
Sa
 
 
C
a
HealthWorks

oe ee
ae CVU ue

SEMA MOM MAL Vey
a
en = i
 
LaCie hala eas

Sree rae)
od

‘The Right Care, Right Awoy
ee
 
.
 
 
®
2
E
 
 
 
 
 
 
powered by Google
 
»
 
2
E
 
ee a
powered by Google
a
a
a
a
 
i
8+
HealthWorks:

MEDICAL GROUP
Py aA (oe

 

The Right Care, Right Away
(S41
a
a
a
G)
a
a
a
+)
+)
a
a
Tn a
a
powered by Google
a
ed
a
a
a
a
_
ee
a
a
a
(8
a
a
a
«DB
 
 
 
powered by Google
re
 
8+
 
y

=

y
PY
 
en =.
 

 
PY
a

 
y

=

y
 
a(t 114 ah a celaiecy

MEDICAL GROUP
ied

SM yt MOTs tla
B+
 

 

8+

 

 
a
Cl
Copyright 2010 to 2011 by Gray Watson

This file is part of the ORMLite package.

Permission to use, copy, modify, and/or distribute this software for any
purpose with or without fee is hereby granted, provided that the above
copyright notice and this permission notice appear in all copies.

THE SOFTWARE IS PROVIDED "AS IS" AND THE AUTHOR DISCLAIMS ALL WARRANTIES
WITH REGARD TO THIS SOFTWARE INCLUDING ALL IMPLIED WARRANTIES OF
MERCHANTABILITY AND FITNESS. IN NO EVENT SHALL THE AUTHOR BE LIABLE FOR
ANY SPECIAL, DIRECT, INDIRECT, OR CONSEQUENTIAL DAMAGES OR ANY DAMAGES
WHATSOEVER RESULTING FROM LOSS OF USE, DATA OR PROFITS, WHETHER IN AN
ACTION OF CONTRACT, NEGLIGENCE OR OTHER TORTIOUS ACTION, ARISING OUT OF
OR IN CONNECTION WITH THE USE OR PERFORMANCE OF THIS SOFTWARE.

The author may be contacted via http://ormlite.sourceforge.net/
This package provides the Android specific functionality.  You will also need to download the
ormlite-core package as well.  Users that are connecting to SQL databases via JDBC connections
should download the ormlite-jdbc package instead of this Android one.

For more information, see the online documentation on the home page:

   http://ormlite.com/

Sources can be found online via Github:

   https://github.com/j256/ormlite-android

Enjoy,
Gray Watson
Copyright 2010 to 2011 by Gray Watson

This file is part of the ORMLite package.

Permission to use, copy, modify, and/or distribute this software for any
purpose with or without fee is hereby granted, provided that the above
copyright notice and this permission notice appear in all copies.

THE SOFTWARE IS PROVIDED "AS IS" AND THE AUTHOR DISCLAIMS ALL WARRANTIES
WITH REGARD TO THIS SOFTWARE INCLUDING ALL IMPLIED WARRANTIES OF
MERCHANTABILITY AND FITNESS. IN NO EVENT SHALL THE AUTHOR BE LIABLE FOR
ANY SPECIAL, DIRECT, INDIRECT, OR CONSEQUENTIAL DAMAGES OR ANY DAMAGES
WHATSOEVER RESULTING FROM LOSS OF USE, DATA OR PROFITS, WHETHER IN AN
ACTION OF CONTRACT, NEGLIGENCE OR OTHER TORTIOUS ACTION, ARISING OUT OF
OR IN CONNECTION WITH THE USE OR PERFORMANCE OF THIS SOFTWARE.

The author may be contacted via http://ormlite.sourceforge.net/
This package provides the core functionality for the JDBC and Android packages.  Users
that are connecting to SQL databases via JDBC connections will need to download the
ormlite-jdbc package as well. Android users should download the ormlite-android package
as well as this core package.

For more information, see the online documentation on the home page:

   http://ormlite.com/

Sources can be found online via Github:

   https://github.com/j256/ormlite-core

Enjoy,
Gray Watson
