‘American
cranes
Association

 
 
I
 
a

 
y
DIscovER
 
/
 
 
”.
oS
IN
SY
 
 
 

 

 

 

 
y
 
Le Toff) [2
 
Bo
Ro
Paes)
IN
a
 
 
 
 
re
 
¢’)tytocare
 
 
y

=

y
t
 
i
 
Cold

Fever

Headache

Rash
y

=

y
D><]
4q.
 
mi
Ys.
ase
2
Pp
NO
i)
 
 
ro
rs
 
a
 
 

 

 

 

 

 

 
ee
 
a
a
NO
a
ee 1 |
1)
 
¢’)tytocare
 
 
 
Google
DISCOVER
SY
vd
—

vd
~
 
 
 
 
 
 
XG
Ss
 
—
Pa ns)
Ys
Lh
|
 
 
a
4
 
><]
IN
Yim cuss

jess)

i
2
Es
e

rN

 
 
a
 
IN
ab
 
 
Cold

Fever

Headache

Rash
4

<
 
 
 
op
 
Dp.
pe
css
 
NU
 
S47
a4
 
 
a
 
 
4@
 
Google
 
 
 
»
 
 
C7
IN
 
 
 

 

 

 

 
 
 

 
 
—
v=

u—S
: a
¢l)tytocare
.
Bo
 
IN
 
ee
 
 
i
Cold

Fever

Headache

Rash
 
 
C7
 
 
 
 
 
 
a
oe
o FILTER
KY
Yoo—
yo

yo
G)
he
IN
SY
 
IN
a
a
INO
\)
 
><
Google
 
 
 
a
¢’)tytocare
an
S
\)
a
 
DISCOVER
 
 
><
ww
 
ia

ian
—

wn
 
 
 
.o
ie
¢’)tytocare
 
 
Va
Va

A
=
 
ee |
aoe
yuan ana)
BS
a
 
©
 
 
a
aS
 
 
@ amwell
 
|
@
op)
 
,0@
| a
One ofaKind

Humans have different fingerprints, and »
each person also has a different tongue print.

 
 
| a
| a
 
 
Carehirst. 209
 
 
 
   
  
  

respiratory system and can identify
over 10,000 scents.
ee ehOUcLe oe COU sd
 
 
 
 
 
| a
| a
 
 
| a
 
 
 
p ON
   

Dog owners have been reported to
Lr live longer and have a lower risk
~ of heart disease than non-dog owners.

7

   
p ON
 
 
 
 
| a
Po >
20ee@e
     
 

If you take 7500 steps per ae you'll
have walked about 216 million steps
by the age of 80.

   
   
 
 

~ so

a
*
. Yh

—e

~
 
 
 
 
| a
 
 
 
 
  
   
 

Sneeze Ati 7

A single sneeze can

travel at 10O0mph and
distribute 100,000 germs
into the air.

A
Ly
hh
 

The average American consumes 500 cans
of soda per year. That's 52 lbs of sugar.

| = oT; ar eee rrr
—

 
 
 
  

oh

The average adult needs 7-8 hours of sleep
per night. Babies require 12 hours.

vill) 2.

 
p ON
| a
 
 
a
 
 
 
Cl
enc: a
CoC)

_ Video A ae
 
    

End

pefreshvideo yomins Lett
 
 
 
 
Renna

_ Video via
Carelirst.
Rene cas
ey

ach ae
 
cere
oY

—_—
ceria

ate
git.version=eb8d5626ff8b7781e3a2ec6c3990785697adb99f
