 
 
 
 
 
|
 
ic]

 
 
»
 
 
 
.
G)
 
 
 
y

=

y
a
GUIDE
y

=

y
a

 
 
I
 
 
vy
 
Cl
a
git.version=eb8d5626ff8b7781e3a2ec6c3990785697adb99f
