 
hia
 
 
 
 
¢@
we
|
ac
(a)
 
 
 
 
ae
ay
hi
 
y

=

y
 
 
y

=

y
a

 
CA
EN
 
 
I
 
 
.
»
 
KY Know more. Besure.
La
I
KG

nowy more. He eure.
ae
 
<3
 
 
ye
 

 

 

 

 
 
Cl
%
ac
G)
¢€
 
ia
3
Ln
 
ANS ")
Ox

Know more. Be sure.
Vy
a
wy
(ANS Know more. Be sure.
 

4
 
 
La
6 a ae
ea
