 

 

po

 

 
 
 

 

&

 

 
&
 
po
 

 

pe

 

 
 
 

 

&

 

 
 
 
 
 
 
 

 

| 3

 

 
 
 

 

| 3

 

 
 
 

 

&

 

 
3+ |
 
ee
 
3+ |
 

 

&

 

 
ae
 
—_—_——
 
 
©
poe
 
NZ

Chelsea and Westminster
Health Charity

Registered Charity n°1067412
 
 
____________________________________________________________________________________________________
    _____     _     _    __      ____      _   _     __        ______    _     _    ____      _____ 
    /    )    /    /     / |     /    )    /  /|     / |         /       |    /     /    )    /    '
---/----/----/___ /-----/__|----/___ /----/| /-|----/__|--------/--------|---/-----/____/----/__----
  /    /    /    /     /   |   /    |    / |/  |   /   |       /         |  /     /         /       
_/____/____/____/_____/____|__/_____|___/__/___|__/____|______/__________|_/_____/_________/____ ___
                                                                          /                         
                                                                      (_ /     DHARMA TYPE FREE FONTs


EULA ( the End User License Agreement )

This document is a legal agreement between you the end user, and Dharma Type.  
By using or installing Dharma Type font(s), you agree to be bound by the terms of this Agreement. 

1. You may use this font for both commercial and non-commercial works at no charge.
2. You may use this font to create images on the website or printed matter on papre, logomark.....up to you.
3. You may not sell this font without permission.
4. You may not redistribute this font without permission.
5. You may not modify, adapt, translate, reverse engineer, decompile, disassemble, or create derivative works based on this font.
6. This font are Copyrighted by Ryoichi Tsunekawa. All rights reserved. You may not claim copyrgiht rights for this font.
7. DISCLAIMER 
This font is provided to you free of charge.
Dharma Type give no warranty in relation to this font, and you use this at your own risk.
Dharma Type will not be liable for any damage to your system, any loss or corruption of any data or software,
or any other loss or damage that you may suffer as a result of downloading or using this font, whether it results from our negligence or in any other way.

Here is a list of things you could do, Only if you want to:
* Link http://dharmatype.com/ or credit "Dharma Type"
* Tell me what did you use this font for.


FAQ

Q_ Can I use this for a commercial product?
A_ Yes, You can!

Q_ Can I use this on a web page via css @font-face?
A_ Yes, You can!

Q_ Can I donate $ to you?
A_ Yes, You can! ( Paypal: info@flat-it.com )



Contact_______________________________

info@dharmatype.com

Dharma Type (http://dharmatype.com)
  |
  |___ Flat it type foundry
  |
  |___ Prop-a-ganda
  |
  |___ Holiday Type
______________________________________ 
 

Diagram showing an implantable port under the skin

Me cessetieig Uk

 
 

Collar.
bone gg

Point where =
central line 7 \~
enters body |

\

Connection \
for drips or
syringes

j

t
Heart
LIF

Diagram showing a central line
Copyright © CancerHelp UK

 

 

pment
v
 

PIC line enters body here

Pice Diagram showing a PICE line
‘© CancerHelp UK.
Diarrhoea Resolved Poe RU TT)
AU ee ela

Take stool sample if
modifications.

not previuosly done.

Cee VoL Celo molto)

a (eTel<

BS oR Oe tule Lice
12 hour diarrhoea-free
interval.

 

 

Peristent (Grade 1-2) Severe (Grade 3-4)
Continue with
Loperamide 2mg every
2 hours, up to 16mg

Admit the patient:

 

per 24 hours.

Antibiotics as
appropriate.

 

 

1. FBC, U&E’s, Stool
culture, C. difficile.

2. Budesonide CR
capsules 9mg po OD
until diarrhoea
resolved.

3. IV fluids,
antibiotics as
appropriate.

 

 

¥

 

 

interval.

 

 

Gradually add
solved foods.

Stop Loperamide
after 12 hour
diarrhoea-free

Diarrhoea Diarrhoea Diarrhoea
Unresolved Resolved Unresolved
Continue dietary Octreotide
modifications. 300mcg/24hr s/c
for 5 days,
increase to

600mcg/24hr if
not sufficiently
effective.

 

 

 

ee

 

 

Persistent (Grade 1-2)
(No fever, dehydration
or malaena)

Evaluate as an
outpatient:

1, Stool cultures, C.
difficile, FBC, U&Es

2. Abdominal
examination

3. Fluid/electrolyte
replacement

4. Budesonide CR
capsules 9mg po OD

 

 

Progression to Severe
(Grades 3-4)

(Fever, dehydration,
malaena)

Admit the patient to
hospital.

 

 

 

 
Diarrhoea Resolved

ee aU ee ela
modifications.

Cee Vola Cel ote)

a CeTel<

By oe Oe tule Lice
12 hour diarrhoea-free
interval.

Drei UT)

Take stool sample if
not previuosly done.

 

 

Peristent (Grade 1-2)

Continue with
Loperamide 2mg every
2 hours, up to 16mg
per 24 hours.

Antibiotics as
appropriate.

Severe (Grade 3-4)
Admit the patient:

1. FBC, U&E’s, Stool
culture, C. difficile.

2. Budesonide CR
capsules 9mg po OD
until diarrhoea
resolved.

3. IV fluids,
antibiotics as
appropriate.

 

 

 

 

 

 

Diarrhoea
Unresolved

Diarrhoea
Resolved

Continue dietary
modifications.

Gradually add
solved foods.

Stop Loperamide
after 12 hour
diarrhoea-free
interval.

 

 

 

 

Diarrhoea
Unresolved

Octreotide
300mcg/24hr s/c
for 5 days,
increase to
600mcg/24hr if
not sufficiently
effective.

 

&

&

 

 

Persistent (Grade 1-2)
(No fever, dehydration
or malaena)

Evaluate as an
outpatient:

1, Stool cultures, C.
difficile, FBC, U&Es

2. Abdominal
examination

3. Fluid/electrolyte
replacement

4. Budesonide CR
capsules 9mg po OD

 

 

Progression to Severe
(Grades 3-4)

(Fever, dehydration,
malaena)

Admit the patient to
hospital.

 

 

 
 

 

Access to plastic team
within 2 hours, or a
nurse trained in
Flush-out technique

 

 

gf
SS

J

 

Contact relevant
doctor and plastics
team trained in
Flush-out technique

 

\

 

 

Remove Cannula

 

 

-

 

Photograph
extraversion site
pre-treament if
possible

DNA binding drugs
e.g. Doxorubicin

Non-DNA binding
drugs e.g. Vinca
Alkaloids or
Paclitaxel

 

 

Flush-out technique
to be performed

 

'

'

'

 

 

 

Document

Apply cold pack
and consider use
of Dexrazoxane

Infiltrate with
Hyaluronidase
1500-units

 

 

 

'

'

 

 

Apply dimenthyl
sulfoxide topically 2
hourly for 24 hours
then 6 hourly for 7
days

 

 

Apply hot pack

 

VS

 

Apply
Hydrocortisone
cream 6 hourly

 

'

 

 

Document

 

 

'

 

 

Consider Analgesia,
refer to plastics
team and take a

photograph

 

 

 
The Art+Science
of Patient Care
Gates washer Heth Chay

Five ict to make care bottor for patients
and thelr familias through ploneering
research, Innovation artaned design.
©) +
Chelsea and Westminster Hospital [7754 ] af Patient Core,
NHS Foundation Trust + Westminster Health Charity
LONDON
CANCER
ALLIANCE

West and South
ae INHS

ain
 
Action of anti-emetics on main receptor sites

 

Feat eins ras Taparaes BL Wiech = Polson Gave Fomndeny Tod Ean a
