ARSON
HARRIET LANE
. HANDBOOK

 
 

por
y

=

y
>

P< g
ca)
y

=

y
 
py Prime
4
 
(By, unbound medicine’
 
4

Get the most out of Unbound MEDLINE
a)
LO)
 
@
 
a UI MIAO UME!
MEDLINE
 
@
Ww

ee
a
(By, re
of
I
 
@
6
IN
 
ne
a

 
Pinlorourmel (M4) UI NT
Ea

ee

ee
 
Converted inside cells to carbovir
triphosphate, its active metabolite. Carbovir
triphosphate inhibits the activity of HIV-1
reverse transcriptase, which in turn terminates
viral DNA growth.

The copy NOTE GLIMPSE 3

e Stowe WIS PEG GreVvVIygiy GET v ISVs rT are

decreases the occurrence of its sequelae.

e Increases CD4 cell counts an@JecreasesD
viral load.
LO)
IN
Ea

ee

ee
i

ne
 
 
 
 
 
 
 
‘ly
ia
‘ly
im

iB
w &
Favorites
@crasp
 
2 =7 unbound
KAIRIE
g
rN
 
 
 
 
 
 
.
re
 
Z
 
 
 

ITT] ets) 1 en

oa
ARSON
HARRIET LANE
. HANDBOOK

 
— 4
Talent ite foe aD ete ume a acs dala

MEDICINE
HARRIET LANE HANDBOOK
 
 
 
 
eth
 
 
 
 
 
lo
lo
 
»
 
@ unbound
lL —_
|
 
 
 
ARSON
HARRIET LANE
. HANDBOOK

 
 
 
 
G)
Cl
a
HARRIE Ege AND BOK)
 
CONFIDENCE AT YOUR FINGERTIPS

ee

ee

 
ae

ee
