 
 
 
 
|

Tr
 
2989

TNM

 

 
aes 2

= Say

ry i!
CANCER STAGING APP
 

_—_——_———————__
 

 
SC

J
 
a
 
 
C
oY

 
 
a
 
@oo

we QAE IO EA _

 

CANCER STAGING APP
a
 
 
 
 

TNMs
a
 
 
 
 
|

Tr
 
2989

TNM

 

 
aes 2

= Say

ry i!
CANCER STAGING APP
 

_—_——_———————__
 

 
SC

J
a
 
 
 
 

TNMs
 
a
 
 
C
oY

 
 
a
 
@oo

we QAE IO EA _

 

CANCER STAGING APP
a
