 
 
 
 
 
 
 
 
 
 
_
y

=

y
_
 
 
ee

 

a
ne

__ EEE
ee

 

qn

 

ee
a
 
a

 
 
 
—

a
Dra. Judit Calpe
Medicina General y Familiar

Dr. David Garcia
Ginecdlogo

 
VISA
 
y

=

y
I
an
,
|
 
EC
Dax
*
*

*
*
a
(
 
 
@
ie
— ) —

rN
 
 
 
6
_ Oe
Ns
> 21S
 
 
 
 
 
 
 
 
WY
 

 

Cc

 

 
 
a 3
 
informacion
 
 
 
 
bSc@yrE
 
 
_
 
5°
 
 
‘VISA
 
Dra. Judit Calpe

Medicina General y Familiar

Dr. David Garcia
Ginecdlogo

 
nn

 

a,
ne

ee
Ee

 

ee
qui

 

ee
a
 
 
 
 

 
|
>

as
 
. oY
 
 
_
 

 
ne

 

a
ne

ee
ee

 

Se
Co

 

ee
a
 
VISA
 

 
Tienes acceso a
Descuentos de hasta el 70% en

e Servicios y pruebas médicas

e Tratamientos dentales

 

 

Y también, consigue GRATIS
@ Primera visita al dentista

e@ Limpieza bucal anual

 

e Revision dental anual
DISC: ver
a

 
sy
 
Dra. Judit Calpe
Medicina General y Familiar
| t $1

Dr. David Garcia
Ginecdlogo

 
 

 
DISC@VER
Buenos dias, soy de Madrid y
necesito pedir hora para hacerme
una analitica esta semana. {Podrias
decirme donde puedo acudir?

09:56

Buenos dias Marta, tienes disponible

el miércoles a las 12h 0 el jueves a

las 18.30h. ¢Qué horario te va mejor?
09:58

 
G)
 
 
—
ns
ne

mo Qi!
— Ce
Fe

, De
 
re
 
 
(o
 
_
-
ns

a
ee

—_——_—_——
TT

a
ee

 

ST ll
 
 
 
<
M
|
aa
-
Visa
 
 
 
 
.
 
 
Dra. Judit Calpe

Medicina General y Familiar

Dr. David Garcia

Ginecélogo

 
 
 
 
 
re
»
 
 
Dra. Judit Calpe

Medicina General y Familiar

Dr. David Garcia
Ginecdlogo

 
 
_ a
 
VISA
DISC ver)
 

 

 
 
 
ne

 

a,

ee
ee

 

A ee

 

a
 

 
re
 

 
— -

DISC@VER

. 7
 
 
ro}
 
 
 
 
 
Cl
pe
a
git.version=a1f28028ba4e22c11cfaffe0e37ae27be1eea0c3
