 
BS
 

Phy esse lig
=
 
ww
 
¢’)tytocare
 
ie
Va
Va

A
.o
 
 
 
a
 
 
 
Atrium Health
 
><
 
aoe
yuan ana)
4@
 
Cold

Fever

Headache

Rash
C7
 

 
 
 
 
 
a
NU
 
: a
 
 
»
 
 
C7
 
css
 
—
v=

u—S
 
 
 
op
 

 

 

 

 
Dp.
pe
 
 
 
 
Google
IN
 
 
Bo
.
 
Atrium Health
 
 
ee
S47
 
¢l)tytocare
a4
IN
IN
SY
 
 
Atrium Health
oe
o FILTER
a
Yoo—
yo

yo
 
a
SO a ed
a
 
G)
a
 
KY
 
 
IN
¢’)tytocare
an
S
\)
><
a
Google
 
 
DISCOVER
 
\)
INO
 
 
/
mi
 
y
 
I
 
 
re
2
Pp
 
 
vi
y

=

y
DIscovER
 
 

 

 

 

 
 
 
y

=

y
Ro
Paes)
D><]
 
4q.
”.
oS
‘American
cranes
Association

 
 
 
 
ase
t
i
 
IN
SY

Atrium Health
Ys.
NO
Le Toff) [2
 
a

 
IN
 
¢’)tytocare
SY
y
Bo
 
Cold

Fever

Headache

Rash
a
 
 
 
IN
 
 
4
Google
vd
—

vd
XG
Ss
 
 
NO
 
 
Yim cuss

jess)

i
2
Es
e

rN

 
a
 
 
Ys
IN
DISCOVER
i)
a
eee
7D
\\y

Atrium Health
 
 
 
 
 
 
 
a
a
 
 
Lh
 
a
 
ro
rs
Cold

Fever

Headache

Rash
—
Pa ns)
¢’)tytocare
 
4

<
><]
 
a
ee
 
 
1)
 
~
SY
 

 

 

 

 

 

 
ab
|
    

End

pefreshvideo yomins Lett
 
 
@ amwell
 
a
aS
 
op)
@
 
|
 
 
 
p ON
| a
| a
| a
| a
     
 

If you take 7500 steps per ae you'll
have walked about 216 million steps
by the age of 80.

   
   
 
 

~ so

a
*
. Yh

—e

~
 
 
 
 
,0@
  
  

respiratory system and can identify
over 10,000 scents.
ee ehOUcLe oe COU sd
| a
 
 
 
 
 
   
 

The average American consumes 500 cans
of soda per year. That's 52 lbs of sugar.

| = oT; ar eee rrr
 
 
 
 
| a
  
   
 

Sneeze Ati 7

A single sneeze can

travel at 10O0mph and
distribute 100,000 germs
into the air.

A
Ly
hh
Atrium Health

Virtual Visit
  

oh

The average adult needs 7-8 hours of sleep
per night. Babies require 12 hours.

vill) 2.

 
 
| a
 
p ON
| a
 
 
   

Dog owners have been reported to
Lr live longer and have a lower risk
~ of heart disease than non-dog owners.

7

   
 
 
 
—

 
 
 
Po >
20ee@e
 
 
 
One ofaKind

Humans have different fingerprints, and »
each person also has a different tongue print.

 
 
| a
 
 
p ON
 
 
 
 
 
Cl
a
 
 
 
 
BZ
Atrium Health

Virtual Visit
git.version=a1f28028ba4e22c11cfaffe0e37ae27be1eea0c3
