 
Bo
 
»
 
a
a4
IN
 
.
C7
NU
 
 
op
 
—
v=

u—S
¢l)tytocare
 
 
UPMC | cane™™**
ee
 
S47
C7
 
 
Cold

Fever

Headache

Rash
: a
 
 
IN
 
 

 

 

 

 
Dp.
pe
 
 
 
 
 
 
 
 
 
 

 
Google
css
4@
 
I
DIscovER
SY
y

=

y
 
IN
 
 
2
Pp
 
y
Bo
a
Cold

Fever

Headache

Rash
 
t
/
Ys.
D><]
y
¢’)tytocare
 
 
mi
 
 
NO
IN
 

 

 

 

 
i
 
re
 
Ro
Paes)
 
Le Toff) [2
 
 
 
 
‘American
cranes
Association

 
 
ase
 
a

 
4q.
 
”.
oS
y

=

y
UPMC | care™™*
Google
 
|
~
NO
 
a
a
 
vd
—

vd
 
 
 
 
IN
Lh
UPMC | care"
4
><]
i)
 
 
a
a
 
—
Pa ns)
 
 
a
SY
4

<
 
DISCOVER
¢’)tytocare
ro
rs
Ys
 
 
 
a
 
 
 
ee
ab
 

 

 

 

 

 

 
IN
Cold

Fever

Headache

Rash
 
1)
 
XG
Ss
 
Yim cuss

jess)

i
2
Es
e

rN

 
 
 
@ amwell
 
 
@
op)
a
aS
|
 
 
 
SY
 
UPMC | care"
a
 
\)
 
¢’)tytocare
DISCOVER
 
an
S
 
INO
IN
 
a
 
a
IN
\)
 
><
 
Yoo—
yo

yo
oe
o FILTER
 
G)
Google
KY
a
 
 
a
 
 
©
 
BS
 
><
 
a
=
.o
 
 
 
aoe
yuan ana)
ie
¢’)tytocare
ww
ia

ian
—

wn
 
Va
Va

A
 
 
 
| a
 
True or False?

Red wine reduces your risk
for heart attack.

A) True
B) False
How do you best treat a nosebleed?
A) Blow your nose
B) Tilt your head up

C) Apply an icepack to your
nose and cheeks
B) False

Studies from the American Heart
Association show that pet ownership
is linked to increased activity and
lower cholesterol, lowering the risk
for heart disease.
 
B) False

The flu is an illness that develops from
infection with the influenza virus. This
virus can evolve rapidly and produce
new strains. That's why a new flu
vaccine is necessary every year.
| a
True or False?

The flu is a bacterial infection.
A) True

B) False
How many glasses of water should
you drink per day to stay hydrated?

A) 3
B) 8
© 15
1 O11) (@ yet dinaan
 
 
What is the cleanest way to
dry your hands?

A) Paper towels
B) Hand dryer
A) Avocado

Most fruits have low levels of fat, but
avocados break that mold. An

avocado is primarily made up of
monounsaturated fat and is also a
good source of fiber and antioxidants.
B) 8

Every part of your body (cells, tissue,
organs), needs water to function.
Drink 6-8 glasses of water per day to
keep your body hydrated.
p ON
| a
B) False

Red wine and other types of alcohol can
immediately increase your risk of heart
attack and stroke, according to the
American Heart Association. This risk,
however, decreases over time.
 
| a
| a
| a
A) Paper towels

Hand dryers blow bacteria from your
hands into the air. A University of
Westminster study claims that hand
dryers increase the presence of germs
by 225 percent.
| a
| a
Po >
20ee@e
,0@
 
 
 
 
B) Brown rice

While more caloric, brown rice is
recommended for a healthy diet. It
contains extra protein and fiber, which
lowers cholesterol, controls blood sugar
levels, and nourishes gut bacteria.
Which food contains healthy fats?
A) Avocado

B) Cream cheese
 
| a
 
—

 
p ON
True or False?

The best way to protect yourself
from the flu is by getting an annual flu
shot.

A) True
B) False
C) Apply an icepack to your
nose and cheeks

Nosebleeds are commonly caused by
dryness in the nose, scratching,
excessive use of nasal spray, trauma to
the nose, and blood thinners.
p ON
White rice or brown rice:
Which is healthier?

A) White rice

B) Brown rice
 
True or False?

Cold sores are not contagious.
A) True

B) False
B) False

The herpes simplex virus can be passed
from person to person. You can spread
fluid from a cold sore blister to another
person through kissing or by sharing
utensils or a razor.
A) True

The flu is soread through respiratory
secretions; therefore, while disinfecting
surfaces and washing your hands are
both helpful, the best way to protect
yourself is by getting an annual flu shot.
True or False?

Keeping a pet is bad for your heart
health.

A) True
B) False
 
 
a0) (en

rast

CARE
es
 
 
 
50100

i

a
—— VY
 
 
 
    

End

pefreshvideo yomins Lett
 
UPMC | cane"
a
Cl
 
 
OID (en

TA 515

CARE
ae
10) 2 (om

Pd
Ny

 
git.version=eb8d5626ff8b7781e3a2ec6c3990785697adb99f
