 
 
 
 
 
y

=

y
 
y

=

y
 
 
 
C
 
 
 
 
   
    
   
  
    
 

 

        
 
 
 
 
 

relaxation
Ejection Rapid inflow
Isovolumie
contraction =
| Atrial systote
Aortic
120 Aortle valve
valve AC costs
100 1 pera IG Aortic pressure

Pressure (mmHg)

 

Av valve
4 closes
20 \ Arial pressure
°
Ventricular pressure
= 1% e
£ Ventricular volume
2 %
Ss 0 ‘
—\—- >| Electrocardiogram

Phonocardiogram

 

tet } Jana | sea

 

Diastole

 

Diastole__: Systole; | Diastole
ei!

 
 
    

  

PA. Parey RV RA erey4
 
 
 
.
 
»
 
 
 
Cl
a
 

i:

ie
DO
a
re
ee
Fe

meopujari@me.com

fleopujaris @ gmail.com
