 
 

a a)
oa ~~ Ph og
- ae
S i. =a oa

: Pos : “a
en) a fen

J =_* o
-
APA
 
Hy
Na
 

*
-
 
 
 
 
 
 
4
 
 

 
©
 
HELP
 
 
 
ie:
 
}
 
a ce (site)

NCIEBGE
Tone
 
 
 
 
 
— )
raced
bce ed
 
 
 
ON
a a Na
 
 
wt
at
 
A
ORC:
i
Dlue ¥Y of california
r, 4
oe RL
Clicchere to save on
90-DAY SUPPLY

 
 
Call Best Doctor
1-866-904.0910

 
 
Bee
 
 
 
Glek here for a
PHONE VISIT

 
 
ra COMPASS
.
a KAISER PERMANENTE.
 
HELP
 
 
»
 
 
 
 
 
He acs
 
 
Email Us
info@tandemcare.com

 
 
lick nere to
SHOP LOCALLY

 
 
 
4100 eas
SAWYER
‘HELP
 
callus
866-797-4100

 
o)

Glek here fora
VIDEO VisiT

 
vso.
 
WOODRUFF
SAWYER
 
 
EB Best Doctors

 
a
Cap tivated Health

NCIERGE

Call the Concierge to:

= Understand your plan
=m Review your bills

= Find procedure pricing

& much more
 
 
 
Twa aterlhaal
 
 
aE
 
 
 
 
 
ry Ld 1.
oe T HS
 
 
==.

5
(e)
 
 
 
 
 
 
 
 
 
4
 
 
 
 
 
 

 

‘HELP

 

 
 
 
 
 
ens
 
Cap vA] ater)

ee
 
 
 
 
(a)
 
Click here for a
PHONE VISIT

 
(

( }
aN hy Wehr Ie
 
 
rola
 
eS
Cigna.

BN
 
Hy
Na
 
Email Us
info@tandemcare.com

 
 
 
 
Click here to save on
90-DAY SUPPLY

 
ij UnitedHealthcare
\\
J
 
WOODRUFF
SAWYER
 
A
ORC:
Seer
Lo

ae
>)
oS OO EO EE

 
Call Best Doctor
1-866-904-0910

 
G)
 
 
blue ¥ of california
 
 
fq Best Doctors

 
 
Video
 

 

 

 

 
 
WOODRUFF
SAWYER
 
7}
oO
Ve
 

 

 

 

 
Click here for a
VIDEO VISIT

 
 
ws
Le
 
 
|
 
 
HAL
Captivated Health’

CONCIERGE
ice

Click here to
SHOP LOCALLY

 
HELP
PMs

 

 

 

 

 

 

VAY)

 

 

al
Call Us
866-797-4100

 
aT
4
 
vso.
 
 
 
M1 KAISER PERMANENTE.
HELP

 
 
 
Hy
Na
re oA)
 
 
 
 
 
 
 
 
 
 
PP
 
eT AC tere dhan
==.

5
(e)
 
 
een
 
 

 
 
==.

5
(e)
eh ry tte ala)

CIERGE
 
VSO.
 
Click here to save on
90-DAY SUPPLY

 
i@
 
HELP

 
So WANG aed Pao
 
 

 

a

 

 
 
 
 
 
 
EB Best Doctors

 
 
nH
oy
 
|
Call Best Doctor
1-866-904-0910

 
I
Email Us
info@tandemcare.com

 
 
 
|e eee
ager TT)
 
 
 
@ DELTA DENTAL’
Click here for a
PHONE VISIT

 
 
 
(el

Click here to
SHOP LOCALLY

 
biker
Wa WOODRUFF
ING
a

 
 
y

=

y
blue & of california
Bee
Pa“
ef
 
Lo

ae
 
 
 
 
 
 
y

=

y
 
eh
ay

Et
WOODRUFF
SAWYER
 
Click here for a
VIDEO VISIT

 
 
GY) HealthNet’
 
Pe
toh
Call Us
866-797-4100

 
A
ORC:
— )
 
Cap yA mola)

CIERGE
en
a
 
 
HELP
 
ate Ter
Click here for a
VIDEO VISIT

 
Na 1)
 
A
ORC:
 
 
A
a
 
 
 
 
 
Click here for a
PHONE VISIT

 
os
Call Us
866-797-4100

 
 
ac |
|
r~\
W
| |
7
1 |
 
 
Eke
 
 
 
Benes
 
4) Health Net
 
 

 
 
 
WOODRUFF
SAWYER
 
»S
| UnitedHealtheare
 

 

a
a

 

 
 
Pe
 
Call Best Doctor
1-866-904-0910

 
Click here to save on
90-DAY SUPPLY

 
 
 
Email Us
info@tandemcare.com

 
Lo

ae
 
 
 
& DELIA DENTAL
VSO.
_
ay

Et
 
 

TANDEM

Cc A R CE
blue & of california
 
&6% KAISER PERMANENTE.
 
ay

Et
al

Click here to
SHOP LOCALLY

 
 
 
on
OOP Clas
SAA
_

 
 

 

 

 

 
Best Doctors

 
 

oo
a -
One
Colonial Life.
 
 

 
 
ys
 
Hy
Na
HELP
 
 
 

 
arya Health

 
4
Hy
Na
 
 

es
*
 
 
 
 
 
 
 
 
 
 
 
M1 KAISER PERMANENTE.
 
Wa YWOODRUFF
SAWYER
4
 

Click here for a
VIDEO VISIT

 
 
 
A
ORC:
ws
Le
€.compass
HELP
 
 
PMs

 

 

 

 

 

 

VAY)

 

 

al
 
 
 
\\
J
HAL
7}
oO
id atey arc
 
ij UnitedHealthcare
©
Hy
Na
 
 

Click here for a
PHONE VISIT

 
Beker
WOODRUFF
SAWYER
Te
Video
Seer
a
 
blue ¥ of california
©
 
 
 
 
 
 
 
Rid
 
 
WS

ee as
wad
 
 
 
 
 
Cl
a
git.version=ce3551a92c8cf91f925232f93a88b3048fecd9ac
Copyright 2010 to 2011 by Gray Watson

This file is part of the ORMLite package.

Permission to use, copy, modify, and/or distribute this software for any
purpose with or without fee is hereby granted, provided that the above
copyright notice and this permission notice appear in all copies.

THE SOFTWARE IS PROVIDED "AS IS" AND THE AUTHOR DISCLAIMS ALL WARRANTIES
WITH REGARD TO THIS SOFTWARE INCLUDING ALL IMPLIED WARRANTIES OF
MERCHANTABILITY AND FITNESS. IN NO EVENT SHALL THE AUTHOR BE LIABLE FOR
ANY SPECIAL, DIRECT, INDIRECT, OR CONSEQUENTIAL DAMAGES OR ANY DAMAGES
WHATSOEVER RESULTING FROM LOSS OF USE, DATA OR PROFITS, WHETHER IN AN
ACTION OF CONTRACT, NEGLIGENCE OR OTHER TORTIOUS ACTION, ARISING OUT OF
OR IN CONNECTION WITH THE USE OR PERFORMANCE OF THIS SOFTWARE.

The author may be contacted via http://ormlite.sourceforge.net/
This package provides the Android specific functionality.  You will also need to download the
ormlite-core package as well.  Users that are connecting to SQL databases via JDBC connections
should download the ormlite-jdbc package instead of this Android one.

For more information, see the online documentation on the home page:

   http://ormlite.com/

Sources can be found online via Github:

   https://github.com/j256/ormlite-android

Enjoy,
Gray Watson
Copyright 2010 to 2011 by Gray Watson

This file is part of the ORMLite package.

Permission to use, copy, modify, and/or distribute this software for any
purpose with or without fee is hereby granted, provided that the above
copyright notice and this permission notice appear in all copies.

THE SOFTWARE IS PROVIDED "AS IS" AND THE AUTHOR DISCLAIMS ALL WARRANTIES
WITH REGARD TO THIS SOFTWARE INCLUDING ALL IMPLIED WARRANTIES OF
MERCHANTABILITY AND FITNESS. IN NO EVENT SHALL THE AUTHOR BE LIABLE FOR
ANY SPECIAL, DIRECT, INDIRECT, OR CONSEQUENTIAL DAMAGES OR ANY DAMAGES
WHATSOEVER RESULTING FROM LOSS OF USE, DATA OR PROFITS, WHETHER IN AN
ACTION OF CONTRACT, NEGLIGENCE OR OTHER TORTIOUS ACTION, ARISING OUT OF
OR IN CONNECTION WITH THE USE OR PERFORMANCE OF THIS SOFTWARE.

The author may be contacted via http://ormlite.sourceforge.net/
This package provides the core functionality for the JDBC and Android packages.  Users
that are connecting to SQL databases via JDBC connections will need to download the
ormlite-jdbc package as well. Android users should download the ormlite-android package
as well as this core package.

For more information, see the online documentation on the home page:

   http://ormlite.com/

Sources can be found online via Github:

   https://github.com/j256/ormlite-core

Enjoy,
Gray Watson
