 
 
 
»
.
 
 
 
y

=

y
 
 
a

 
 
Geriatrics
 
 
I
 
y

=

y
a
AGS
iGeriatrics
|
 
 
 
ery
iGeriatrics
 
 
AGS
eter testes
 
G)
a
Cl
 

 

AGS
iGeriatrics

Clinical Tools Focused on
Older Adults

La

 

 
 

 

AGS
iGeriatrics

Clinical Tools Focused on
Older Adults

 
 

 

XG
@fserheeles

Clinical Tools Focused on
Older Adults

 
 

 

AGS
iGeriatrics

Clinical Tools Focused on
Older Adults

 

 

 
 

 

AGS
iGeriatrics

Clinical Tools Focused on
Older Adults

 

 

 
 

 

AGS
iGeriatrics

Clinical Tools Focused on
Older Adults

 

 
 

 

AGS
iGeriatrics

Clinical Tools Focused on
Older Adults

 

 

 
 

 

XG
iGeriatrics

Clinical Tools Focused on
Older Adults

RSTn Rr
This is TagSoup 1.2, downloaded from http://home.ccil.org/~cowan/XML/tagsoup/.

To get the java files included here:
- download tagsoup
- unzip it
- cd into the tagsoup directory
- run ant
- copy the files in src/java and tmp/src