 
 
 
 

 
 

 
 
 
 
 
 
 
 
 
 

 

 
 
 

 

 

 
 

 

 

 
 

 
 

 

 

 
 
 
 
 

 

 
 

 
 
 

 

 

 
 
 
 
 
 
 
 
 
 
 

 
 

 
 

 

 

 
 

 

 

 

 
 
 
 
 

 
 
 
 

 

 

 
 

 
 
 
 
 
 
 

 

 

 
 
 

 
 
 
 
 
 
 
 

 
 
 

 

 

 
 
 

 

 
 
 

 
 

 
 
 

 
 

 

 

 
 
 

 
>

 

 

 

 
 
 
 
 
 
 

 
 
 

 

 

 
 
 
 

 

 

 
 
 

 
 
 
 
 
 

 

 
 

 

 

 

 
 
 

 

 

 
 

 
 

 

 

 
 

 

 

 
 

 
 
 

 

 

 
 
 
 

 

 

 
 

 
 
 
 
 

 
 
 
 
 

 
 

 

 

 
 
 

 

 

 
 

 

 

 
 
 
 

 
 
 
 

 
 

 
 
 
 
 
 
 
 
 
 

 
 
 
 

 

 
 
 

 

 

 
 

 

 

 

 
 
 
 

 
 
 

 
 
 

 

 

 
 
 
 
 
 

 

 

 
 
 
 
 
 
 

 

 

 

 
 
 
 
 
 

 

 

 
 
 

 
 
 

 
 
 
 
 
 
 

 

 

 
 

 
 
 

 
 
 
 

 

 

 

 
 

 

 

 

 
 
 
 

 

 

 
 
 
 
 

 
 
 

 

 

 
 

 
 
 
 

 
 

 

 
 

 

 

 
 

 
 

 

 

 

 
 
 
 
 
 
 
 
 
 

 
 
 

 
 

 

 

 

 
 
 
 
 

 

 

 
 
 
 
 
 
 
 
 

 
 

 

 

 
 
 

a P
 

 

 
 
 
 
 

 
 
 
 
 
 

 

 

 
 

 
 
 

 

 

 
 
 
 

 
 

 
 
 
 
 

 

 

 
 

 

 

 

 
 
 
 

 
 
 
 
 
 
 

 

 
 

 
 
 

 

 

 
 

 
 

 
 
 
 

 

 

 
 
 
 

 

 

 
 

 
 
 
 
 
 
 
 

 
 

 
 

 
 

 

 
 
 

 

 

 
 

 
 
 

 

 

 

 
 

 
 
 

 
 
 
 

 

 
 

 
 
 
 
 

 
 
 
 
 
 

 

 
 

 
 

 

 

 
 
 
 
 

 

 

 
 
 
 

 
 
 
 
 

 
 

 
 

 
 

 

 

 
 

 
 

 
 
 
 
 

 
 
 
 
 

 
 

 

 

 
 

 
 
 
 
 
 
 
 

 
 
 

 

 

 
 

 
 
 

 
 
 
 

 
 

 

 

 

 
 
 
 

 

 

 

 
 
 
 
 
 
 

 

 

 
 
 
 
 
 

 

 

 
 
 
 

 

 
 
 

 

 

 
 
 

 
 
 

 
 
 
 
 
 
 

 

 

 
 

 
 
 
 
 
 
 

 
 

 
 

 

 

 
 
 

 
 
 

 

 

 
 
 
 

 
 
 
 
 

 
 

 

 

 

 
 
 
 
 
 
 

 
 
 
 

 

 

 
 
 

 

  
 
 
 
 

 

 

 
 

 

 

 
 

 

 
 
 
 
 

 
 

 
 

 

 

 

 
 
 
 

 

 

 
 

 

 

 
 

 
 

 

 

 
 
 

 

 

 

 

 
 
 
 
 
 
 
 
 

 
 

 

 

 

 
 

 
 
 

 

 

 
 
 

 

 

 
 
 
 
 

 

 

 

 
 
 
 

 

 

 

 
 

 

 

 

 
 
 
 
 
 
 

 
 
 
 
 
 
 
 
 
 
 
 
 

 
  

 

 

 
 
 

 
 
 
 
 

 
 

 
 
 
 
 
 
 

 

 

 
 
 

 

 

 
 
 

 

 

 

 
 

 

 

 
 

 

 

 
 
 
 
 

 
 

 

 

 
 
 
 
 

 
 
 

 
 

 
 
 

 

 

 
 
 
 
 
 

 

 

 
 
 

 
 

 
 
 

 
 
 
 

 
 

 

 

 
 
 

 

 
 
 

 

 

 
 

 

 
 
 
 

 
 
 

 

 

 
 
 
 
 
 
 
 
 

 

 

 
 

 
 

 

 

 

 
 
 

 

 
 

 

 

 
 
 
 

 

 

 
 

 

 

 
 
 
 

 

 

 
 

 
 
 
 
 

 

 

 
 
 
 
 
 

 
 

 

 

 
 
 
 
 
 
 
 
 
 
 
 
 
 
 
 

 
 
 
 
 
 
 
 

 
 
 
 

 
 
 

 

 

 
 

 
 
 
 

 

 

 
 
 

 

 
 

 

 

 
 

 
 
 

 
 
 

 

 

 

 
 

 
 
 

 
 

 
 
 
 

 

 

 
 
 

 
 
 

 

 

 
 

 

 

 

 
 

 

 

 
 
 

 

 

 
 
 
 
 
 
 

 
 

 
 

 

 

 
 

 

 

 
 
 
 

 
 
 
 

 

 

 
 
 

 

 

 
 

 

 

 
 

 
 
 
 
 

 
 

 

 
 
 
 

 

 
 
 
 

 
 
 

 

 

 

 
 
 

 
 

 

 

 
 
 

 

 

 
 

 

 

 
 
 

 
 
 
 

 
 
 
 
 
 

 

 

 
 

 

 

 
 
 
 

 
 
 

 

 

 
 

 
 
 

 

 
 
 
 

 
 

 

 

 

 
 

 
 
 

 

 

 

 
 

 

 

 
 

 
 

 

 
 
 
 

 
 
 
 

 

 

 
 

 

 
 

 
 

 

 

 

 
 

 

 

 

 
 

 

 

 
 

 
 

 
 

 

 

 
 
 
 

 
 

 
 
 

 

 

 
 
 
 
 
 
 
 
 
 
 

 

 

 

 
 
 
 
 
 
 
 
 

 

 

 

 
 

 
 
 

 

 

 
  
 

 

 
 
 

 
 
 

 

 

 
 
 
  

 

 

 
 
 
 

 

 

 

 
 
 
 

 

 

 

 
 
 
 

 
 

 
 

 

 

 
 

 

 
 

 
 
 
 
 
 
 

 
 

 

 

 
 

 
 

 
 
 

 
 
 

 
 
 
 

 
 

 
 
 
 
ON
>
Back
)
 
 
~

Lg
Leila 6
>

an
Os
OFF
iors
 
 
 
 
 
' OFF |
 
oe
ON
(e]\
 
 
 
 
 
 
 
 
 
 
 
C
 
 
"OFF
>
Back
y
ON
Cl
a
