Sa
en = i
powered by Google
G+
(St
ay
G+
(er
powered by Google
 
8+
 

 
(er
en =.
 
 
 
 
(ong
 
B+
 
 

 

8+

 

 
 
 
 
(er
(ong
 
(8
(er:
8+
Tn a
a
powered by Google
(S41
(er:
[cry
 
 
 
[cry
 

 

G+

 

 
 
 
 
powered by Google
[cry
 

 

G+

 

 

 
powered by Google
ee a
