 
 
 
|
 
 
=((9
 
 
\~ 4
Dern
 
“a
a
“a
a
“a
a
NI]
a
NI]
a
“a
a
“a
a
“a
a
a
a
“a
a
Sa
(St
 
 
 
 
powered by Google
en = i
 
 
 
B+
 

 

8+

 

 
 
 
 
I
 
 
y

=

y
y

=

y
 

 
a

 
=(3
 
 
ain
 
 
8+
 
 
 
 
powered by Google
en =.
 
 
powered by Google
ee a
 
Eilb
a
\> |
te
oy

be.
 
G)
“a
a
we
a
we
a
EY
a
EY
a
Te
a
we
a
>
a
>
a
~
a
we
a
~\
a
~\
a
~\
a
“a
a
(8
(S41
8+
i
_
 
 
powered by Google
Tn a
 
 
 
 
 
 
 
.
»
eip
 
Ts
t.
 
 
 
 
powered by Google
 
 
 
 
 
 
Cl
a
 
 
 
I
 
 
y

=

y
y

=

y
 

 
a

 
=(3
 
 
ain
 
 
8+
 
 
 
 
powered by Google
en =.
 
 
a
Cl
 
 
 
 
 
.
»
eip
 
Ts
t.
 
 
 
 
powered by Google
 
 
 
 
 
 
B+
 

 

8+

 

 
 
 
 
|
 
 
=((9
 
 
\~ 4
Dern
 
“a
a
“a
a
“a
a
NI]
a
NI]
a
“a
a
“a
a
“a
a
a
a
“a
a
Sa
(St
 
 
 
 
powered by Google
en = i
 
 
 
 
a
Eilb
\> |
te
oy

be.
 
G)
“a
a
we
a
we
a
EY
a
EY
a
Te
a
we
a
>
a
>
a
~
a
we
a
~\
a
~\
a
~\
a
“a
a
(8
(S41
8+
i
_
 
 
powered by Google
Tn a
 
 
powered by Google
ee a
