 
 
 
.
 
 
 
 
 
 
 
 
»
 
 
 
 
=
G)
 
 
|
 
 
 
 
 
 
 
 
 
 
y

=

y
y

=

y
 
 
 
 
 
 
I
 
 
a

 
 
 
 
 
 
 

7-10 2: aE

PE HII ZBI HE
3S > EAR 5 2s EF
HE > SBIR A
Hie > AS BERABEMD ©

7 4-62: sem

FE GOA ELAS HE.
E> RABEL PE > Am
ROLES > BERL
sna «

 

1-32: ee

MER PeHORAOFATZ.
Se BLATE AAT ~ HE
AEF +

 

0. = — 08 2a
 
 
 
 
 
=
©
nl
ON
=
es)
is
NS

WN
Sy
a
Cl
