I
 
y

=

y
A
 
a

 
y

=

y
 
 
 
i
4a

LD
 
re)
 
 
 
 
 
 
WT
 
 
 
 
 
 
AY
 
 

=~ 902 555 321
saludinforma.es
OO ND El MLE eee.ltm CC“ ee

 

em
»
 
.
 
 
 
-
 
 

ra
a
 
|
 
|
 
 
 
 
4%
y~\
 
*
e
WwW
 
 
G)
WT
rN
e
a
Cl
