 

 
He
powered by Goog!
 
powered by Google
8+
 
poe
()))
gehen
 

 

| 3

 

 
 
 

 

| 3

 

 
 
&
Het th Ree ed
We th eee eld
 

 

&

 

 
 

 

&

 

 
po
 

 

po

 

 
 
 

 

pe

 

 
 
 
B+
 

 

8+

 

 
powered by Google
3+ |
 

 

&

 

 
 
3+ |
(St
Sa
powered by Google
ac |
ee
 

 

&

 

 
powered by Google
SH
(84
sete ty a Ox0l sod (a
 
ae
(S41
|
