 
 
 
 
°@
 
 
 
I
 
 
y

=

y
y

=

y
a

 
ns oo
rcs
oe,
 
y

=

y
 
y

=

y
 
ns oo
KS
I
rcs
oe,
 
 
a

 
 
 
 
 
 
.
»
 
ee «
 
ee «
 
 
 
 
 
»
.
ru.
ee
a «x fe
a «x fe
ru.
ee
 
 
 
|
 
 
 
>
 
nn « 6
a>
Fe
nn « 6
 
 
|
 
>
a>
Fe
 
 
 
 
 
a
a
Cl
Cl
 
en = 6
ry
en = 6
ry
 
 
 
 
 
 
 
I
 
 
y

=

y
y

=

y
a

 
ns oo
rcs
oe,
 
 
a
Cl
 
 
 
 
 
.
»
 
ee «
 
 
 
|
 
 
 
>
 
nn « 6
a>
Fe
 
en = 6
ry
ru.
ee
a «x fe
git.version=eb8d5626ff8b7781e3a2ec6c3990785697adb99f
