 
 
 
I
 
 
y

=

y
y

=

y
a

 
 
 
a

 
I
 
y

=

y
 
 
 
 
y

=

y
 
 
 
|
 
 
 
 
 
|
 
 
 
 
 
 
 
.
»
 
 
.
 
 
»
 
 
G)
G)
 
 
Em
Em
Em
Em
a
a
Em
Cl
Cl
 
 
 
I
 
 
y

=

y
y

=

y
a

 
 
a
Cl
 
 
 
 
 
.
»
 
 
 
|
 
 
 
G)
