 

 

 
 

|
 

|
 

@
 

 

 

 

 

FAX -
 

(scieo]o) ciple me Celia rem ile (le lace gl
Pave a Pet ew ied EY ty eee wal Lee
4),
 
@
 

(scieo]o) ciple me Celia rem ile (le lace gl
Pave a Pet ew ied EY ty eee wal Lee
@
 

|
 

 

 

 

 

FAX -
 

|
 
 

@
4),
 

 

 
 
G)
a
a
a
a
a
a
a
a
a
a
a
a
a
a
a
a
a
a
a
a
a
a
a
i
_
powered by Google
Tn a
a
i
a
a
a
a
a
a
a
G)
a
Tn a
a
a
powered by Google
a
a
a
 
a
a
a
a
a
a
a
a
a
_
 
 
 
C
 
 
a
a
a
a
a
a
a
powered by Google
en = i
C
a
powered by Google
 
 
 
a
 
en = i
a
 
a
a
a
a
 
 
 
 
 
.
»
powered by Google
 
 
.
powered by Google
 
 
»
 
 
 
 
 
 
 
 
y

=

y
y

=

y
a

 
 
powered by Google
en =.
y

=

y
 
 
 
en =.
 
powered by Google
 
a

 
y

=

y
 
powered by Google
ee a
powered by Google
ee a
 
p

“wed.
Seine)

Established.

 
   
  
a
a
Cl
Cl
Pp

Sviea.
Service

   
   

 
 

 

 
 

|
 

|
 

@
 

 

 

 

 

FAX -
 
 
 
 
 
y

=

y
y

=

y
a

 
 
powered by Google
en =.
a
Cl
 

(scieo]o) ciple me Celia rem ile (le lace gl
Pave a Pet ew ied EY ty eee wal Lee
 
 
 
 
 
.
»
powered by Google
 
4),
 
@
 
 
 
C
 
 
a
a
a
a
a
a
a
powered by Google
en = i
 
G)
a
a
a
a
a
a
a
a
a
a
a
a
a
a
a
a
a
a
a
a
a
a
a
i
_
powered by Google
Tn a
powered by Google
ee a
