Find Pharmacy by Zip Code
© Remove Preferences
 
PS Tomi ClaS
2)
© Remove From List
 

Prescription History Pocket Profile

Drug Information Request Refills

AN alee celts

 

 

 

 

 
Yd
@ Create Account
Osa oils:
OQ Rotate
Q Light
SE
\ Update Pharmacy Info
Ar
XK Cancel
  
      

request SCan “¥¢ Bottle

 

Barcode must be upright.
Avoid glare and shadows.
 
em
Request

 

 
 

[ith Scan # Bottle
