 
 
 
|
 
 
 
 
 
 
|
 
 
 
 
 
 
 
 
by

NO IMAGE
AVAILABLE
 
 
 
Bora
 
 
 
I
 
 
y

=

y
y

=

y
a

 
 
y

=

y
 
y

=

y
 
a

 
 
 
 
 
I
 
 
 
 
 
.
»
 
 
 
 
»
 
.
cto] pt [el
 
G)
 
G)
sonud
me )2] at [4]
Cl
Cl
a
a
 
 
 
I
 
 
y

=

y
y

=

y
a

 
 
a
Cl
 
 
 
 
 
.
»
 
 
 
 
 
 
|
 
 
 
G)
 
 
Zamalaya

 
quiraprd HO) tablets
[ANE

isotretinoin
ACCON
Acetaminophen
AcipHex
Acyclovir
i» Adalat’
 

 

Adefovir Dipivoxil

 

 
Albendazole
Albenza
ALBUTEROL”
Aldactone-A
Se
ALESSE
pa Hl
alli
__e
Allopurinol
 
Altace”
Amaryl

pina tines
AMITRIPTYLINE
Amoxicillin™
AMOXIL
Ampicillin
Anafranil)
ANALGIN’
Angeliq
Ansaid °

Flurbiprofen tablets, USP
Aravaz

leflunomide
@
ARGCOXIA’

(etoricoxib)
Aricept®
Arimickex
Aristocort®

(Tiamcinolone)
Asacol
 
a
ASPIRIN
 

 

Atacand’
candesartan cilexetil

 

 
Atarax?
ATENOLOL
 
atomoxetine HC/
Atrovent’
Agmentin

ero innate passim
Avanafil
ZL; besartan|M sensise
AVELOX™
AVODART A

(dutasteride)
 

hyd AYGESTIN’

NORETHNDRONE ACETATE TABLETS, US?
AZULFIDINE™
BACLOFEN
beclate
Benemid
<Benicar

(olmesartan medoxomil)
BENOQUIN’
 

 

[APACE Al-
ete ee |

 

 
Betnovate”
BIAXIN’

clarithromycin
LUMIGAN
a
Zamalaya

 
Budesonide’
Gla
 
—s Cad

juet
ae 2 firumisonasatcun
 

 

 

 

 
CAPOTEN”
Carafate
ONCE-A-DAY

(diltiazem HC!)
CARDURA
CAVERTA’
a
LS
CEFACLOR
Cefadroxil
CEFIXIME
 

 

Ceftin®

 

 
CELEBREX”

(CELECOXIB CAPSULES)
citalopram HBr
a
 
Chloromycetin®
Chloroquine
Phosphate
Cc ,Cialis:
(tadalafil) ses:
CILOSTAZOL
Cipralex

Ser
 
Zamalaya

 
Zamalaya

 
Clarinex
Desloratadine
fatacta

Generic Clindamycin
Clindamycin
Clomid"
 
Clonidine
Hl CLOPIDOGREL
Clozaril’ If

Clozapine) #5.
Colon

Detox
COLOSPA
ComBIFLAM
COMBIVIR’
Zamalaya

 
Cordarone®
COVERSYL?

perindope
COZARR

(losartan potassium tablets)
CRESTOR

rosuvastatin calcium
Cymbalta’

duloxetine HCI
 

 

aA

 

 
Daivonex
ma
iy
Danazol*

(Danocrine)
Dapsone®
 

Deltason
Depakote’
Depo-Medrol
Desyrel®

(Trazodone)
 

 

Detrol LA

 

 
Zamalaya

 
Zamalaya

 
 

(fluconazol)
Dilantin®
(Phenytoin)
as
i
Diltiazem
Hydrochloride
DIPYRIDAMOLE
DITROPAN
DOSTINEX’
Doxycycline
Dulcelax
duloxetine HSI
 
VENTAFAXINE HC]

XR’

The change you deserve.”
ay
ELDEPRYL
PF insaprt®

nalapril®
 
 

 

ENDEP 10

 

 
in,

se
Epivit-HBv'
(lamivudine)
ERIACTA
ERYTHROMYCIN
Estrace

90 TABLETS
Etodolac
Zamalaya

 
EVISTA
ou

| Onteaprotection.
dane)
Zamalaya

 
FAMVIR"

famciclovi
Feldene
Finpecia
Flagyl°
FLOMAX

TAMSULOSIN HO"
Flovent®
 
Fluoxetine
EE
FOSAMAX:

(alendronate sodium) tablets
Frumii
Grispeg
FUROSEMIDE
Ql
Zamalaya

 
 
Zamalaya

 
Gestanin
Glucophage”

   
 
Zamalaya

 
Zamalaya

 
 

 
Zamalaya

 
Zamalaya

 
Hoodia
HYDREA®
Hydrochlorothiazide
HYTRIN®

TERAZOSIN HCI

CAPSULES
HYZARR
(losartan potassium-
hyetochlorahiaide able)
ILOSONE

 
Imdur'S
imodium,,
ec)
Indinavir
Indocin®
Isoptin®
Isosorbide Mononitrate’
KEFLEX’
Kemadrin”
KEPPRA
Kerlone”
Ketotifen
KLARICID
Lamictal
LAMISIL
Gatitne Hl nhs) Sing TABLETS
Lamivudine”
2
‘ ins
trigi
01
im
La
Lanoxin®

Digoxin
Lasix?)

Furosemide
Zamalaya

 
LEVAQUIN”
tect

(VARDENAFIL HC!)
LEVLEN
PlanB
Levothroid

(Gvothyraxine sodium nblessUSP)
 
Lidocane / Prilocaine°
(lincomycin hydrochloride)
Lisinopril
Zamalaya

 
Lopid®

(Gemfibrozi)
@Lopressor
Identical to

Lotensin’

benazepril HCI
LOTREL
LOVEGRA*
Loxitane
(loxaping)
——l0zol

Indapamide
Zamalaya

 
fluvoxamine maleate
Macrobid
Maxalt

(icatpen benzoate)
a
Maxaquin
Zamalaya

 
Zamalaya

 
MENTAX”
Proviron”
 

 

Mestinon

 

 
metaglip*
Methocarbamol
METHOTREXATE
®
Mevacor

(Lovastatin)
cs
Mexitil®

(Mexiletine HCl)
MIEUS
Micronase®
Microzide
: MINIPRESS
 
Mirapex®
Mircetté
MOZC

(emcloxicam)
Moduretic®
Motilium
Ure
Myambutol

enti}
Mysoline®
(Primidone)
Naprosyn®
(Naproxen)
 

om
Zamalaya

 
 

(gabapentin)
 
 
Nitroglycerin
Nizoral
Nolvadex
Nootropil’
NOROXIN
Norpace®
 
Nortriptyline
NORVASC’

{amlodipine besylate}
Olanzapine”
 

 

CO}

 

 
ONIN
Ornidazole
ORTHO TRI-CYCLEN LO®
OXYTROL
PAMELOR®
Paracetamol
Novartis

Parlodel’2,5 mg
comprimidos
PAROXETINE HCI
PENEGRA
 

 

 

 

 
| PERIACTIN®
Phenergan”
Tablets 25 mg
Pilocarpine
Hydrochloride
(Clopidogrel bisulete) 75% ons
Plendil ®
(nena ai cases ng)
PRANDIN
*,
ppslacyor
Praziquantel
Precose.
 
PREMARIN
(ones is)
PRED Se
28e.
PRILIGY.

danoxetine
phosec
td
Primaquine”
(CPindrat
Prometriuny
Propecia’

(finasteride)
Propranolol
OPpRoscAR’

(FINASTERIDE)
Prothiaden
PROTONIX®

(pantoprazole sodium)
Provera
10mg
PR@ZAC

fluoxetine hydrochloride
 

 

Pulmicort’

 

 
Rebetol

200 mg
Reglan®
RELAFEN

NABUMETONE
12. REMERON
SolTab’
RENOVA

(TRETINOIN CREAM)
REQUIP’
ropinirole HCl
Retin; A

(tretinoin),
Retrovir®
100 mg
Se

ie tsar
Rogaine
Rulide
SECNIDAZOLE
SEPTRA”
seroflo
§ Seroquel
Hl
Zamalaya

 
SILYMARIN"
Sinemet”
Sinequan’
 
é SuEEP WELL
a
SLIMFAST™
Hl
Zamalaya

 
STAXYN”
strattera’

atomoxetine HCI
STROMECTOL”
Suhagra-100
Sumycin®
(Tetradycine)
Suprax
SUSTIVA

(efavirenz) fas
mo
[<p SUAMETREL/
ee ANeNTAGHENCS /
Synthroid”
TADACIP
Tadalis
Tadora
TAMOXIFEN
Tegretol XR_
carbamazepine
extended-release tablets
CONE TABLET A DAY
@

TenORMIN

(atenolol)
Zamalaya

 
Terbinafine
TETRACYCLINE
 

 

Tizanidine

 

 
Tofranil®
TOPAMAX’

(topiramate)...
TraZODONE
Trecator’
Trental’
 
Trileptal®
TRiIMox
fe
Zamalaya

 
TYLENOL
URISPAS

Flavoxate
Uroxatral
Zamalaya

 
ye

vAuIREX
Vantin®
{Cefpodoxime)
Vardenafil
Oi

7

%
Zamalaya

 
Vasotec’ )

Enalapril
Ventolin’
(albuterol sulfate)
Verapamil
 

 

Vermox

 

 
VIAGRA

(sildenafil citrate) tablets
‘ViGORA®
Voltaren...
ia
Zamalaya

 
VYTORIN.
Wellbutrin
WOMENRA
toblets
wnkaedcy

capecitabine
 
WO
XENICAL

orlistat
aid
Zamalaya

 
_YAYMIN’

ot 08 es
-
 
Zebeta®

Bisoprolol
ZENEGRA
©) ZERIT
 

Zetia
(ezetimibe) rss
Ziac
Tithromax
(ALITHROUYCIN}
 

 

 

 

 
Zoloft

Oe
ZOuIRAX®

 
YBAN
one
Zyloprim®

(Allopurinol)
Zyprexa
Olanzapine
ZYRTEC:
tetirizine WGI
Borneo IT Developer

Aa

OTHER ANDROID APPS

Sarre
Ud Google Play
mga, ORME APPSRGIES.. 4 ¥ an atliaeed rm
DISEASES
DICTIONARY
 

a ae

PHARMACY
Wee) 7.\;) ae

s i a a ai
RCs med

 

 
——

a=

OFFLINE APP SERIES

DICTIONARY
a VAG eas) (ee

GET FREE ON PLAYSTORE

SSSR

 
International Classification of Diseases

ICD 10
CODE OFFLINE

GET FREE ON PLAYSTORE

Perret

 
