 
y

=

y
SO
 
a

 
mixpanel
@ee-
y

=

y
a
I
 
 
 
 
 
 
Weesiate

Share knowledge
Save lives
a
a
 
 
oe
 
weesinte

Share knowledge
Save lives
mixpanel
@ee-
_
 
 
 
 
lathe dale wat-relel—
Save lives
”
9
 
 
|
 
 
 
»
 
Oe
BC
 
.
 
a
 
 
 
G)
 
 
share knowledge
Save lives
mixpanel
@ee-
 
 
a
 
aSnr
MedShr

Share knowledge
Save lives
<<
Cl
share knowledge
Save lives
 
 
(M)

MedShr
wees

Share knowledge
SF WVom hor}
MedShr

Share knowledge
Save lives
Oo
OO
a
 
 
 
 
 
 
 
 
 
 
 
 
 
 
git.version=a1f28028ba4e22c11cfaffe0e37ae27be1eea0c3
# To enable ProGuard in your project, edit project.properties
# to define the proguard.config property as described in that file.
#
# Add project specific ProGuard rules here.
# By default, the flags in this file are appended to flags specified
# in ${sdk.dir}/tools/proguard/proguard-android.txt
# You can edit the include path and order by changing the ProGuard
# include property in project.properties.
#
# For more details, see
#   http://developer.android.com/guide/developing/tools/proguard.html

# Add any project specific keep options here:

# If your project uses WebView with JS, uncomment the following
# and specify the fully qualified class name to the JavaScript interface
# class:
#-keepclassmembers class fqcn.of.javascript.interface.for.webview {
#   public *;
#}
