Nurse to Nurse:
Neate ed ee
Dien ence)
 
y |

Patient Education
Handouts

 
EL.

Oncology Nursing
Suite
 
Clinical Rotation
Companion

 
 

=

Pharmacist Pro with
AHFS
Emergency
i relCelfntomstOLi Cy
 

Portable Drug
Companion
era ltitele Mer Co LOS
1
ae
AHFS

re Sn
erences
TSO Met
PYRO}
TS ON Wes
EL ert
&

PEPID CME
 

a
AHFS

Na lese PLaU le)
aiceyanarclitey aba
Drug Information
by PEPID
Settings
 
 
IV Comp
Be)

PEPID
Video Gallery
 

eee)
 
 

EMS Plus NAEMSE

 
 

PEPID Video Gallery
 

AAO Mle
Ambulatory Care
RN Student
Clinical Companion
TES ON et
Nursing Management

 
Nurse to Nurse:
acnenecten
 

Nurse to Nurse:
Wound Care
ay

Critical Care
Nursing Suite
Portable Drug
Companion
 
Dictionary
 

Professional Nursing
Oncology Nursing
matches
 
rN

News & Alerts
 

Ve

Pediatric Emergency
Medicine
 

Emergency Medicine
Gerontological
Nursing
 

ay

Critical Care Nursing
pyToitleyar-lavg
 

a
AHFS

AHFS Dru
Information Essentials®
ad
s

Pharmacist Pro
Interaction
alse a-1
Nursing Suite
 
Notes
ea
@

Pill Identifier
ar
 

Gerontological Nursing

 
 
<>

Clinical Rotation
Companion
EMS Plus NAEMSE
 
a
ie

e

Pediatric Emergency
Medicine
e153
 
 
Help
+
oe Dey
Patients
PEPID for
ean eS
DDX
e>

ICD Lookup
Calculators
Na
ayn

Allergy Checker
Labs
TSO et
fate ence eee har cod
gs PEPID
©

Indications
 

RN Student Clinical
Companion
 
 
 
 
 
 
 
 
|
 
 
 
 
.
 
 
 
 
 
 
»
 
 
 
a

 
 
y

=

y
y

=

y
 
 
 
 
 
I
 
 
G)
 
 
Cl
a
 
 
2 BURP
 
   
  
 
    
 
    
  

Pulmonary
artery

Superior
vena cava
Leff atrium
Right atrium
Aortic
Pulmonary valve
valve
Mitral
Tricuspid valve

valve
Left
Right ventricle

ventricle

Inferior
vena cava
s TH Gta eye}
Criterion A
Criterion B1
Criterion B2
Criterion B3
Criterion B4
Criterion C
~MD_
ma
 
User Type: © Single/ © Shared

 

 

elect user: AdamS

 

 

eo |. 6 |. 25 |. (0 | - [69 |. 6

 

 

 

 

 

 

 

 

 

 

 

a

 

 

255

 

 

 

68,.56.0.20 - 68.56.0.255

 

 

69,56.25.0 - 69.56.27.255

 

 

 

 
 
as
 
al
(=
a
AS
 
24 x PalOz
Heo:
 
 

 
 

yack

 

YELLOW

 

 
 

 

 

 

 
 

 
 
 

 
 

 

 

 

 
 

 

 

 

 
 

 
 

 

 

 

 
 
 
 

 

 

 

 
 

 

 

 

 
 

 

 
 
 

 
 

 
 

 
 

 

 

he

 

 
 

it & | i by2)

Classes

A |

Agents

Amoxicillin

Amoxicillin/Clavulanate

Penicillins

History of Allergy Class: Penicillins

Plan to Take: Amoxicillin

Allergy Warning: Immediate type IgE mediated
(mild rash to anaphylactic shock) and Delayed
type T- Cell mediated, (maculopapular rash).
Hypersensitivity to beta-lactams. Use of another
Non-Beta Lactam (Penicillin) agent indicated. If
ANG = WBC x<( +.
(S4nOH
eno 222 LL 90
easy, °

osoras KH

 

 

 

2 U ko
EB) sacs finns
espe
H ss
oz
soury ease
2

 

 

 

 

 

Absolute Lymphocytes (109%L)
Gace = (Hg « 1. 34NSa02h+
(Pace x03)"
SHOES, Dare
3) SHR §, Oastoleg,
Siro t, OARS
Sp outer 6, Daal g,
ARC = hx RBC
0.863 xVCO2
PLO>

 
 
 
We

 

Ht?
BHR = 37. Ase -20)
 
Parietal lobe Central
— sulcus

    
     
 

PF} pellucidum
ay,

~ Fornix

ENS Corpus
ry
eye Oo

Thalamus
Cerebellum Pons \Region of
hypothalamus

 

Medulla
Parietal Central sulcus

‘Temporal lobe

Lateral fissure of Sylvius
Cerebellum ‘Superior temporal sulcus
Medulla oblongata {.//’ Pons

 
Cerebrum white matter 0 » Cortex grey matter

      
     
  
 

Anterior horn of Head of

lateral ventricle ~ caudate nucleus
Internal capsule Putamen
Third ventricle Globus

pallidus _Lentiform

 

Pineal body ~ nucleus
Colliculis — Thalam .
Vermis of _ Posterior horn of
cerebellum lateral ventricle

Cerebellar hemispheres
apt)
UL =TBWx(
a
  
  
 

ct
Spinal canal
Spinal

laminar tne
Tips of

spinous process
Anterior 7
spinal line
Posterior
spinal line
 
Cr Ae eh

 

PEPID Medical Calculat... ¥ G

pain| x

 

Pain Assessment

Pain Assessment, Intensity
Pain Crisis, Sickle Cell

Pain Disability Index (Eqn)
PAIN DRUGS

asdfgh ijk |

*® zxevbnam &

7123, . 6
 

Q Search for drug, disease, lab, etc

 

Equations
(Open Calc) Alc to eAG Converter
Background

1. The A1C test gives a picture of the average
blood glucose (blood sugar) control for the past
2-3 months
o The results give a good idea of how well the

diabetes management plan is working

. The health care provider may report the A1C test
result as eAG (estimated average glucose),
which directly correlates to your A1C.

o eAG is a unit similar to what is seen regularly
through self-monitoring on the meter

o A1Cis reported as a percent and eAG uses
the same units (mg/dl) as the popular
glucose meters display

. However, eAG is not the same average glucose
level as the average of the readings on a meter
o Because people with diabetes are more likely

to check their blood glucose more often when
they are low (for example, first thing in the
ca MF (100% 3:21 PM

Ideal Body Wt
Height
in A
Gender

Male A

Ideal Body Weight: Ibs A

 

Close Calculate
ac air Md Rada

Ideal Body Wt
Height
74 in 4
Gender

Male A

Ideal Body Weight: 178.493 Ibs A

 

Close Calculate
cre

Sruxt¥
Transverse

Vertebral
foramen

Transverse foramen
Pedicle
Articular
process and

et
Lamina

Spinous
process
 

 

 

 
 

 
 

 

 

 

 
 
 

 

 

 

 
g
Ccapoo= (Hg « 1.341 (Scapne b+
(Pio2 x 003)
 
 
 
 
V/Q
 
Dentiaem
 

 
>
 

 

Cr Ae ley!

Select Subsymptoms _ Confirm Selection
difficulty
noisy

prolonged expiration

Cheyne-Stokes

pain on inspiration

Kussmaul respirations

 
eae

Diagnosis List

6 Barotrauma
6 Cardiac/Circulatory Shock

 

 

6 Guillain Barre Syndrome
6 ID, Botulism, Toxin
6 ID, Croup

5 auma. Chesi
SoCs

 

 

Age: All
Etiology: Both

Gender: Both
4
 

 
 
 

it & 1:18

1 25 dihydroxycholecalciferol
1.5% Glycine Irrigation Solution USP

10% W/V Dextrose and 0.18% W/V Sodium
Chloride Injection Usp

17Hydroxyprogesterone caproate
170HPC

2.5% W/V Dextrose and 0.45% W/V Sodium
Chloride Injection Usp

CITALOPRAM

WARFARIN
rm) OY \ 1:18

Interaction Results ff

 

eo CITALOPRAM:WARFARIN-other =“

Type: Other
3-CITALOPRAM:WARFARIN-other

CITALOPRAM increases levels of WARFARIN by decreasing
metabolism.

Possible serious or life-threatening interaction. Monitor
closely. Use alternatives if available.
 
xi
Incus Tympanic
Auricle brat

   
   

Helix
Tragus

Extemal
acoustic
meatus

Lobule of
auricle

  

Mastoid process
hb hh
hb hh
 

 

 

 

 

 

 

 

 

 

 

 

 

 

 

 

 
EF

s¥

Env
 
 
 

 
 
 
 
 
 

InGhiar nBeidal indies

 

Inivat
PP <2xPP
 
 
 
 
 
 
Radius UIna Humerus
Anterior view

Radial tuberosity Coronoid process
Tuberosity of the ulna

Posterior view

‘Superior radioulnar joint
Lateral view flexed
Outer canthus

    
  

Inner canthus
Superior punctum
Caruncle
Inferior punctum

Limbus
(Corneo-scleral

Sclera iia (eyelashes) jncton)
Conjunctiva
\ Comea

WY - Ciliary body

Canal of Schlemm
Limbus

   
Superior rectus

  
   
 

Superior oblique

Sphincter

lator
pupillae

pupillae

Inferior rectus Inferior oblique
 
   
      
    

‘Greater
trochanter

Intertrochanteric

  

Lesser
trochanter

    
 

cna aspera
Medial
epicondyle Intercondylar

Lateral
mt epicondyle
epicondyle eoicon
Patellar ‘condyle

Posterior
FENa =

Rat xGr

ooo
COffick =.

Cano:
Fingertip
—
Flexor tendons
Nail fold
Nail plate
Hyponychium

Perionychium!
nail complex
—

Eponychium
Sterile matrix
Germinal matrix
Lunula
Paraonychium
 
 
(Ma - Nazca) x TRW

FWD —
GFR(males) =
LW 25 (0.205 0.05: OF]
GFR(females)=

Lew B55: (0ATOKAgEIE-0.05¢6)
EY
 
 
  
     
 
  
  

Aorta Pulmonary
‘Superior
vena cava
Right
atrium
Pulmonary
valve
Tricuspid
valve
Right
ventricle
Inferior
vena cava
HCOs

pH = pK + log|—____
PCO2 x 0.0:

 
lliac crest

‘Anterior superior
iliac spine

Anterior inferior
iliac spine

Acetabular rim
Head of femur
Neck

Intertrochanteric
line

Obturator foramen
Greater trochanter
| Lesser trochanter

 
 
 
Ht:q =Ht
0.42246
Ht

 
BWM HE x23
IBW:F SHt x 21.5
 
 

 

 

 
IH
ey
 

 
 

 

 

 

 
 

it & | iby)

ABCIXIMAB
ACETAMINOPHEN
ACETAZOLAMIDE
ACETOHYDROXAMIC ACID
ACETYLCYSTEINE
ACYCLOVIR

ADENOSINE

DIPHENHYDRAMINE

AMPICILLIN
 

 

Cr Ae les:)

Drug 1: DIPHENHYDRAMINE

Drug 2: AMPICILLIN

Additive: Unknown

Syringe: Unknown

Y-Site: Unknown

 

Close
Type in
Keyword
 
rm) Cr Ane ear)

Lab Manual Index ¥ G

Q. Search for drug, disease, lab, e...

 

Lab Manual TOC

Lab Manual Index
ABCDEFGHI
JKLMNOPQR

STUVWXYZ

Alc

Acanthocytes, Blood Smear
Acetaminophen

Acid Phosphatase
Agglutination, Blood Smear
AIDS

Albumin

Alkaline Phosphatase, Subforms
Alkaline Phosphatase, Total
ALT (SGPT)

Ammonia, Plasma
Amphetamines
LBW (1.07 <9. (1482)
ne
LBW ne Q.4 x. (128 x)
He
 

 
Spinal nerve foramen
Superior articular process
Inferior articular process
‘Transverse process
us ‘Vertebral body (L4)
st Spinous process
Pedicle
Sacrum
Coccyx
Body
Pedicle

‘Superior articular
process and facet,

‘Transverse process
Vertebral foramen
‘Lamina

‘Spinous process
Mandibular Condyloid
notch process

  
 
  
 

Mandibular
condyles

Ramus

‘Angle
Mental protuberance.» Alveolar process
Mental foramen
map = opp 8? “DBP
McHe =
ict
MCV =

Hetx 10
  
=
ero, URGE
3, SURO 6 DARTS,
Gr

opie §, ORC

   
SHOES, Dare
3) SHR g, Oastol g,
HPAP - Pap + 85 -PAD
Cuoe = Hg x 1.34(Su02 +
+ (Pooe x 003
b ih IGF (100% 3:23 PM

ev R SMe +

Q Search for drug, disease, lab...

Labs Pill Identifier

ri
Allergy Checker IV Comp Wels k)
yo
Notes News & Alerts Help
P|

 
= i

oo
 

 

 

 

 
n
NB= —-(UUN x 1.25)+ 4.0 gms
p
 
 
Si BOR
Oamze*=2 (NavK) ++
 
 
 

PaO2 = F102 x (PB - PH20) -

— PaGO2
FR
 
liaclcrest liac fossa Ant sup
iliac spine

Pubic tubercle
Sacrum

     
 
 

 

‘Acetabulum
\ Hip joint
We

S

Obturator Ischial_Ischial_Ischium
foramen spine ramus
 
| Ci Ae 27)

Pepid EM Platinum ft

 

Enter Pill Imprint

123° Imprint

a Score A 4
shape Any Shape 4

a Color 1 Any Color 4
a Color 2 Any Color 4

GB matches

View Results
| it & @ 2:21

Pepid EM Platinum ff

 

Enter Pill Imprint

123° Imprint

a Score 3 a
Shape Rectangle 4

G Color Any Color 4

G Color? Any Color 4

GR matches

View Results
 

Ps Cr Aen eed

ALPRAZOLAM

Shape: RECTANGLE
Color: GREEN

Gen ALPRAZOLAM
Score:

Size: 15mm

Imprint: S903

 
Professional
QS _ Ceapor - Caoz

OT Capos tvor «10
EERE
   

on Madrid Mexico City
(HAP. PCWP) 79.92

PYR = ae
(HPAP - PCWP}:79.92

PYRI= a
QL
QS _ Ceapor - Caoz

OT Capos tvor «10
Qs___(a8 qadiemxo.0s
Ot” Ga-njoe + [ca-a greaieny x0.03]
 
 
R= x 100
13
13,
1,10
1,2
12,7
1,3
1,4
14,5
1,6,7
1-3
2.3.7
3.4.7
3-6
4,5
4,7
4,8
5-12
6,3
 
7,8
7,9
7-10
8-10
8-11
8-12
8-13
9-13
Jaw (C5)
N/ eens c58)
ischioradals (C58)

(oS ticeps (26-3)
oe_| 'Prenstert8-7)

ret 028

Pohiles (15-82)

 

0 NOREFLEX
fe NPOACTIVE

2 NORMAL

Se AYPERACTIVE

TOV PERACTIVE WITHCLONUS:
 
‘Sternoctavicular joint Suprastemal

  
  
 

Clavicle > Clavicular

notch

  
 

True ribs (1

   

Floating ribs |
(11-12) Costal margin
 
Meesteisorerrer cerry fold|
shLL-Hererrtfepp peel
TU a bk
isor
id incisor
First premolar
‘Second premolar
First molar
‘Second molar

Third molar
(wisdom tooth)

    
    
 
 
 
   
    
  
 
 
   

Clavicle

Acromioclavicular
joint

Coracoid process:
‘Acromion

Subscapular
fossa

Glenohumeral joint
Lesser tubercle
Greater tubercle
Humerus

Lateral epicondyle
Coronoid fossa
Medial epicondyle
   

Mandible
4

4. Sagitttal suture

2. Coronal suture 9. Occipital

3. Parietal bone 410. Maxilla

4, Frontal bone ‘11. Mastoid process

5. Glabella 412. Condyle of mandible

6. Greater wing of sphenoid 13, Ramus of mandible
7. Lambdoid suture 414, Angle of mandible

 
   
  

__— Frontal
Nasion

Supraorbital
foramen

Glabella
Zygomatic.
process
Orbital foramen

Mental foramen

Mental
— protuberance
 
 
% STEDMAN'S
 
(MAP - CYP} x 80

S¥R = wo
(HAP - CYP) «80

svRI= a
 
   
  
   
 
   
  
  

First thoracic Spinous process

vertebrae
Sup costal facet
Inf costal facet
Vertebral body
Sup vertebral notch
Inf vertebral notch —

Sup articular
process

Inf articular
process

Trans process

Costal facet on
trans process

Zygapophyseal
joint

Twelfth thoracic
vertebrae

Inf articular facet
Body

   
 
  
   
  

‘Superior
articular facet Superior
articular process

Vertebral
foramen
Articular facets
forribs

‘Spinous
process
5

‘Superior
articular facet
‘Superior
articular process
Articular facets
for ribs

Body
Transverse
process
Vertebral
foramen
‘Spinous process
rm) ‘OY \ 1:09

PEPID Emergency Medi... ¥ G

Q

 

PEPID Emergency Medicine
Platinum v. [16.3.1]

What's New

Emergency Medicine Sections
Procedures in the ER

Acute Care Reference
Pharmacology

Medical Calculators
Illustrations

Lab Manual

Authors and Contributors
Disclaimer

Emergency Medicine Sections

Acute Care and Resuscitation
Acute Care Procedures
Airway Management

Allergy and Immunology
Alternative Medicine
Bioterrorism
 
 
  
  
  
   
  

Crown
Enamel

Dentin
Gingiva
Pulp cavity
Pulp
Root canal
Cementum
Alveolar bone —

Periodontal
membrane

Neck

Root
Zone tll

   
 
  

Angle of
‘mandible

Cricoid

SEZ Clavicle
Bex sm

=o
x
 
‘90.

120 60
+R 20
"180 eV
120 9
a
+180 30
120 ‘60

ai 30 aaF all
CBH*
TPLBEZ 4

LEPTCFBS

FLUTED zeW

 
ZL

Lens
Retina
Optic nerve
Optic chiasma
Optic tract

Lateral
geniculate

 

Visual cortex
16
vo =
@ wolters Kluwer
(eee
as
os
ae
Bay
Wteq =U
0.51456
= wt

 
