 
 
 
 
 
 
 
 
 
 
 
 
 
 
BAS

al
 
 
 
 
 
 
2
'

yf
 
 
 
 
 
 
 
 
 
 
 
 
 
 
 
 
 
 
 
 
 
 
 
 
 
 
 
 

 
 
 
 
 
a
 
 
 
 
 
 
 
 
 
 
 
 
 
“*
ao No
 
 
 
 
 
 
 
 
Pe
NS

ye
 
 
 
V
raat

lo
 
 
 
 
 
 
 
 
 
 
 
 
 
 
 
 
 
 
ia
 
 
 
 
 
 
 
 
 
 
 
 
 
 
 
 
 
 
 
 
 
 
 
 
|
 
 
 
lt
 
 
 
 
 
 
 
 
 
 
 
qa
 
 
 
 
 
 
 
 
.
a el
 
 
2s
2

(=

<2
3

N
td,
 
 
Ys
es
é Lives
om)
AP]
asia,
SS

Ae
ais
|
 
 
 
 
i)

»
ee
Pe
 
 
 
 
a
ev

—
 
 
whies!
.

Tsp

a
 
\

sp

a
|
LP

NA

pee
 
 
 
 
ile
rity
C
a
Cl
|
ed
@ Dylans
=

a

We

GR
 
* Ges BH Sly Be

 
 
