a
Pesyssrara aonosmresbitix Merosi08 Hecte0BAKH

(Cysova wesoaueranaianx paswepos nepxioix peatios ~ 32 sa
(Cysova wessoaueransiacx paswepos roratenx pesos — 24

TIapawerpia syGue0x ps0s:

apioxa ay6noro pasa of.tacri sepxsx npemonspos — 33 (nopma 37,5 me)
bapiora ay6noro pata w o6.nacri siexsx npewonspos — 34

apioia ay6noro pasa w of.racri sepxsix moapos — 44 (wopwa 49,0 s01)
apioxa ay6noro pasta w of.zacri sexs Moxpon — 45

TLamua nepesero ompeaka nepxxero syGnoro pasa — 16 (Hops 18,5 04)
‘Lamua nepesero ompeaka rorxero syGxiore pasa — 14 (wopata 16,5 0)
‘Opronaseroworpasa:

 

 

THauie texeperrrenorpaxonss 8 Goxo80f mpoexii

Pears

 

27
a
 
|
G+
 
G+
 
 
 
 
[cry
 
 
 
 
 
 
 

 

G+

 

 

 
.
[cry
[cry
»
 

 

G+

 

 
 
I
 
 
 
y

=

y
 
(er
 
 
(er
y

=

y
 
(er:
(er:
Cl
 
 
(ong
(er
 
 
 
 
(ong
