y

=

y
 
 
 
y

=

y
I
 
 
 
a
Po
Cnn
Bien ay
er uuy
‘=
———_
 
.
 
 
 
»
 
 
else aL
MS Gea =)

_ AHAJIO“NM

 
 
Cd
 
 
PCy
 
|
 
 
rely Ne AL
JIEKAPCTB
Uo)

 
Cl
a
,
eu:
JIEKAPCTB

vv le) a2]

_ 4
Cotes AL4
JIEKAPCTB
AHAJIO“M

= ”
