Cl
0. Introduction
1. Basic Anatomy
2. Basic Physiology of Respiration

3. Basic Mechanics of Ventilation
0. Introduction

1. The Basic of Vital signs
: ECG,SpO2,Respiration,NIBP,
IBP, Temperature, ICO, EtCO2.

2. Terminology of Special function
Classification

History

Introduction

Indications

Key terms- compliance , ventilatory work
Components

Control mechanism

Variables

Triggering

Factors to consider in mechanical ventilation
Wave-forms
 
No Image
Available
 
:

-
|
 
0. Introduction
1. The Basic of Vital signs
1 ECG,SpO2,Respiration,NIBP,
IBP, Temperature, ICO, EtCO2.

2. Terminology of Special function
 
»
 
 
 
.
 
 
G)
 
 
|
 
 
 
 
a
y

=

y
 
 
a

 
 
 
 
 
I
y

=

y
