Na
a\]
ALN
wi
KZN
wi
G)
wow
\
 
ON
aN
we
A
 
 
ey
FJ
 
 
wow
\
C
 
 

N@TING!!
4 Tt Tt
<p

€006
SPOTLAL
.
we
A
 
 
 
 
 
 
»
“y
&
ey
FJ
 
 
a

 
 
ey
FJ
Na
a\]
 
wow
\
y

=

y
y

=

y
rs |
* ]
 
 
ON
aN
KZN
wi
wow
\
KZN
wil
co0oo
EVE

 
 

f if
rrr)

 

 
“Cos
re
Cl
 
ct ee

yO
TT
Na

 
cee®
nV

 
coeo
EV Var

 
ie
AV

 
a
co

cour
coon
Nar)
(Tt
UN)

 
 

Rl.
ADAPTA

 
Ue
ADAPTA

 
