9°780201 310054

 

 

 

 

 

 

 

 

 

 

 
ey
Pena eT
Pane

es)

 
   
 
 
 
-
 
 
 
 
© | BMODULAID
He Te
9°780201 310054

 

 

 

 

 

 

 

 

 

 

 
ey
Pena eT
Pane

es)

 
   
 
 
 
-
 
 
 
 
© | BMODULAID
He Te
