 
 
_
ire
JEbG |
r~%
 
 
 
y

=

y
I
y

=

y
 
be
 
a
Cl
 
 
 
4
ie
Sy
 
 
PNT
»
 
.
 
be
 
 
 
_
mre
tt |
 
PN"
 
 
|
 
be
 
 
 
 
 
 
bs
 
 
 
 
 
 
db
 
 
 
 
 
 
db
 
 
 
 
 
 
 
