 
http://
 
 
mu
OM ede
 
ko} NW anae-eal tM (rel ae
 
y

=

y
I
 

 

 

 
y

=

y
 
v—
a
v—
 
a

 
VISA
 
 )
—

 
 
AN
a
 
ad
 
B:
 
 
ne
an
 
C7
a
1234 j
<[>
 
an

oe
rier)

as
a
ay

2
=
ry)
 
 
A
 
 

 

|

 

 
 
<
a <
a <
a <
 
 

 

   

 
 
 
 
 

 

 

 

 
 
 

 

 

 

 
 
 

 

 

 

 
Decal

(Epic)

 
a
 
Cl
powered by |
powered by

 
ele oe ey
 
hittp//
 
 
 
TOW
Sea
@) My Premise Health
»
 
 

 
.
 
 
 
 
 
 
 
 
 
1234 |
 
 
 
 
cr rcs
 
 
1
a

a
ier)

ae
 
fa
a
oe
ry)
 
 
 
3}
3}
 
 
 
 
 
.e
| oT |
| |
| |
 
http://
 

 

 

 

 

 
 
 
WOU
 
@ PaaS aa tela
 
@) My Premise Health
|
 

 

 

 

 
 
va
v=
va
(Be)
 
4
a
 

powered by
 
 
 
a
<[>
[—
ae

a
eco

a»
a
at
r_/y)
D
PYG
a
a
Ea
| |
2)
3)
 
a
 
 

 

|

 

 
 
1234 ;
| |
| |
 
http://
 
 
WOU
@) Pare ual y earls
@) My Premise Health
 

 

 

 

 

 
ve
veo’
ve’
*
 

powered by
G)
 
tS
 
5
 
t /y)
Ea
WwW
rT
ae

a
mer,

ae
a
 
1234
—
a
 
http://
LO} My Premise Health
 
@) My Premise Health
=I
 

 

 

 

 

 

 
 
ty
 
 

powered by
WW
<[>
a

a
e05co

a
a
pa
Ls
a
ee
a
 
 
mz
ry
1234
Yo
t /
a
 
 
 
 
ry Ca Ca Ca Ca Ca Ca Ca Ca Ca Ca Ca
eee ee eee ee eee ee eee ee eee ee ee ee ee ee eee ee eee ee eee ee ee ee ee
&®
&®
&
&
®
®
Q
@®
Q
@®
a
@
a
@
1
1
~—

Bi

 
  
. \* = Pe

 
 
 
 
http://
 
ty
LO} My Premise Health
@) My Premise Health
 

 

 

 

 

 

 
 
=I
 
VISA
 

powered by
4
G)
a
 
 
Ls
a
ee
a
 
 
at
mz
C7
WW
1234
<[>
a

a
e05co

a
a
pa
Yo
ry
t /
A
a
 
 

 

 

 

 

 
a
 
 
 
ry Ca Ca Ca Ca Ca Ca Ca Ca Ca Ca Ca
eee ee eee ee eee ee eee ee eee ee ee ee ee ee eee ee eee ee eee ee ee ee ee
a
@
a
@
1
1
~—

Bi

 
  
. \* = Pe

 
 
 
 
