 
 
 

 
 
 
Veterinary Advances
 
a

 
 
y

=

y
I
y

=

y
 
 
Veterinary Advances
a
Cl
 
 
 
 
 

 
»
 
.
 
Veterinary Advances
 
 
 
 
|
 
 
G)
 

 
 
 
Veterinary Advances
G)
