 
Bo TT

Nursing Pius
 
poe
nec

iN ursing faites

ee
Reference Center”

ursing fh

EBSCO Health
 
ree

Nursing Plus
 
 
a
 

 

&

 

 
&
 

 

po

 

 
po
 
 
 

elelestats bots
 
 
 
 
 
 

 

&

 

 
 

 

| 3+

 

 
 

 

| 3+

 

 
 

 

pe

 

 
NO IMAGE
Sei

 
ieee

Nursing Pius
ite) ee Mtns

Ursing LT

es
ac |
Reference Center”

(SING Plus

EBSCO Oh
ea Onli

Nursing Pru
ee
 

 

|

 

 
 
a
 

 

|

 

 
 
 
3+ |
3+ |
Reference Center”

(SING Plus

ne Oil
|
Reference Center”

Ursing Plus

EBSCO Health
 
ia eye =) a

NUrsiNg Plu
ae
 
a
a
NRC

Plus
NRC

Plus
NRC

Plus
NRC

Plus
 

elelestats bots
 
NRC

Plus
 
ae
Reference Center”

(SING Plus

ne Oil
Reference Center”

Ursing Plus

EBSCO Health
a
ia eye =) a

NUrsiNg Plu
 
 
 
NO IMAGE
