 
> ee |
 
 
 
y

=

y
y

=

y
 
 
(er
(er
 
 

Z

ae

 

 

 
ol=

YS
 
 
ol—=

~~
ol

Y
a
Fg
Po
Fg
-
Fg
 
 
 

 

 

 

 

 

 

 

 

 

 

 

 

 

 

 

 

 

 

 

 

 
   

   

i ™

i, i
q

"
i
i ’
i q

i
i
i

"

 

  

 

 

 

M
,
tl r
Wl=]>-4

HIGH DEFINITION HEARING
N |
. + |

a
a
Cl
 
- a |
 
 
»
 
.
 
 

 

G+

 

 
 
 
[cry
[cry
 

 

G+

 

 

 
 

=
oc
 
 
[cry
C
oG
|
Ce

= |
 
 
 
    

 

™ i | 1 |
|). am
a i

 
 
Wwii=)>.¢

HIGH DEFINITION HEARING
 
 
(er
 
 
 
(ong
(ong
 
- a |
 
 
 
 
C
 
 
G+
G+
7
p
(o)

~
 
 
~
(o) =

~~
(o) =

~
oO

Om
(g)
a
a,
Po
Fg
f
ey,
 
 
 

 

 

 

 

 

 

 
 

 

 

 

 

 

 

 

 

 

 

 

 

 

 

 

 

 

 

 

 

 

 

 

 

 

 

 

 

 

 

 

 

 

 

 

 

 

 

 

 

 

 

 

 

 

 

 

 

 

 

 

 

 

 

 

 

 

 

 

 

 

 

 

 

 

 

 

 

 

 

 

 

 

 

 

 

 

 

 

 

 

 

 

 

 

 

 

 

 

 

 

 

 

 

 

 

 

 

 

 

 

 

 
 
—
,
 
wil=J>¢

HIGH DEFINITION HEARING
a
LN Y
pot
PONY
an
LN Y
 
 
 
 
 
 
 
 
 
ul

 
(er:
(er:
ae
a4
()

AN,
Ol—=

SS
a
LG
 
 
 
 
Ool—

Sa
Ol—

SS
)
((2))
AN
NN
((o )))
AN
 
ON
ON
 
 
 
 
 

[~~
™

9
 
 

 

 

 

 
 

 

 

 

 

 

 

 

 

 

 

 

 

 

 

 

 

 

 

 

 

 

 

 

 

 

 

 

 

 

 

 

 

 

 

 

 

 

 

 

 

 

 

 

 

 

 

 

 

 

 

 

 

 

 

 

 

 

 

 

 

 

 

 

 

 

 

1

 

 

 

 

 

 

 

 

 

"

 

 

 

 

 

Hi " |
"

I
EL lb
|
ae Ta A
| Ny he
\ I || ALE Hh
My | HW mM
Wh | IV) Wy
ih | a Ni
| 1 Hii i HN
I |, | Kil HF
| j | |
| | i|! Hi Tif

7 |

Pant

 

| | I |
Nal ily! | |
eo Ay
Vi WM lhe |
Vi) Wy | |
" 1H
Mt
i | |
W hs ‘| mi | |
[il iI
I \ ||! |
Wh. Mh I | ;
| 4 | | |
Hy | |)
Yh |
el |
may

 

 

 

 

 

 

 

 

 

 

 

 

 

 

 

 

 

 
 

 
 

 
a
pg
—
fog
 
 
 
 
 
 
wil=J>.4

HIGH DEFINITION HEARING
 
 
wy
 
 
 
 
W

¥

 
 
 
 
 
 
A
 
 
 
 
r“
 
 
 
 
 
 
wy
 
a
waa
 
|
wa
7
waa
Sek 7

7s

Let
Sek 7

7s

Let
wil=J>.4

HIGH DEFINITION HEARING
 
 
 
 
 
7 S
 
— S
 
' S
 
 
 

 

 

 

 

 

 

 

 

 

 
 

 

 

r
""

Hi mn

 

 

 

 

 

 

 

” i iM
Hi)

 

 

 

 

 

 

 

 

 

 

 

 

 

 

 

 

 

 

 

 

 

 

 

 

 

 

 

|
i \ iH
}
|

 

 

 

 

 

 

 

 

Hi
Vi | | |
lll Wh My | |
(Hy) ] ay
{i | Wl Hy) | |
My I | tI! ! i ! |
AWA] Hil) AVM | i \
| | | i |
Me
| | All| 1 | { t i j
|
[
|| . |

 

 

 

 

 
 
 
(i.
Lg
O
pg
 
(o)
mn
 
 
 
 
 
 
img coming soon.

 
 
 
(® Choose Direction
71
 
 
Ww) inC=la ao) K=MV/ Led

000

_ y
Giwex
@inex
QipeEx’
 
 
 
 
 
 
 
 
 
 
(er:
(er:
A
r“
 
W

¥

 
(i.
Lg
 
 
 
 
 
 
 
 
 
 
a
waa
|
wa
7
waa
 
 
 
 
7 S
— S
' S
 
 
 

 

 

 

 

 

 

 

 

 

 
 

 

 

r
""

Hi mn

 

 

 

 

 

 

 

” i iM
Hi)

 

 

 

 

 

 

 

 

 

 

 

 

 

 

 

 

 

 

 

 

 

 

 

 

 

 

 

|
i \ iH
}
|

 

 

 

 

 

 

 

 

Hi
Vi | | |
lll Wh My | |
(Hy) ] ay
{i | Wl Hy) | |
My I | tI! ! i ! |
AWA] Hil) AVM | i \
| | | i |
Me
| | All| 1 | { t i j
|
[
|| . |

 

 

 

 

 
Sek 7

7s

Let
O
pg
 
 
 
Sek 7

7s

Let
wil=J>.4

HIGH DEFINITION HEARING
 
 
 
wy
™

9
 

 
 

 
(o)
mn
 
 
 
 
 
 
img coming soon.

 
 
 
(® Choose Direction
71
 
 
Ww) inC=la ao) K=MV/ Led

000

_ y
QipeEx’
