 
 
 
 
 
 
 
y

=

y
 
I
y

=

y
 
 
 
SO
=
a

 
Oo
,- ™

aT)
MTL)
Ls
 
Status
8+
 
 
 
SEE YOUR ACTIVITY HERE AFTER
MAKING AN ACTIVITY CHECKIN
Blood Sugar mg/dL

© Before Meal © After Meal Other ‘Avg this week
220

180 NO DATA AVAILABLE. 0

PLEASE LOG A FEW GLUCOSE 9

MEASUREMENTS TO POPULATE a

THE CHART. 7

 

04 08

a
-
 

 
 
 
—
 
—_
 

PLEASE SPECIFY YOUR AGE AND GENDER TO
CALIBRATE BPM ZONES
 
 
 
OTTe:;

 

All i ediatal

ee

my aM
a
Cl
 
 
 
 
»
 
 
.
 
 
 
 
||
 
744
>

SAULT
PTR)
 
 
 
 
 
 
 
 

_
 
Staak

es Ca

 

 

 

a)

a
 
‘SEE YOUR ACTIVITY HERE AFTER
MAKING AN ACTIVITY CHECKIN
Blood Sugar mg/dl.

NO DATA AVAILABLE.
PLEASE LOG A FEW GLUCOSE
MEASUREMENTS TO POPULATE
THE CHART,

 
B+
 

 

8+

 

 
a 1] C1)
El a
 
 
Pala
 
 
 
 
 
|
 
 
 
 
 

 
 
 
 
 
 
ae
UM
Le
an
a
oe
p 4
a
 
ys
+ y
|
yj
ve
| £ Continue with Facebook
 

 

 
 

my

 
 
 
 
 
Do more
 
a
a
Va
~
 
 
 
 
 
ace
» PREMIUM -
 
 

 
G Sign in with Google
_
| |
Oo
 
, ™

a AU
TM TY
 

 

 

 
=|

 
Sa
(St
 
Do this Workout
 
 
— “a
os
 
 
 
—
 

 
7]
es eee

ib 12 Di a2 Li} cy oy icy a7 08

TT rity
a
SUGGESTED
FOR YOU
 
SEE YOUR ACTIVITY HERE AFTER
MAKING AN ACTIVITY CHECKIN
Blood Sugar mg/dL

© Before Meal

mg/d.
220
180
140
100
60

Oct 01

04

© After Meal © Other

o8

NO DATA AVAILABLE.
PLEASE LOG A FEW GLUCOSE
MEASUREMENTS TO POPULATE

THE CHART.

20

24

Avg this week

Humalog

28 31

 
 
 
 
 
 
 
Na
 
Parente
<<
(8
 

ee
UD
(S41
es
r >

ww

new balance
sports monitors

_ 4
8+
 
P
LifeTrak
= y
 
G)
 
01:12 am Light Sleep

ht} a4 toi yd 03 1) it) 06 rd Let

er AM
a
 
| eat
 

 
01:12 am Light Sleep

ht} a4 toi yd 03 1) it) 06 rd Let

er AM
SUGGESTED
FOR YOU
SEE YOUR ACTIVITY HERE AFTER
MAKING AN ACTIVITY CHECKIN
Blood Sugar mg/dL ---

© Before Meal e AfterMeal ¢ Other Avg this week
mg/dL Humalog
220 a
180 NO DATA AVAILABLE. 10
140 PLEASE LOG A FEW GLUCOSE 9
100 MEASUREMENTS TO POPULATE 8
60 THE CHART. 7

6

Oct 01 04 08 12 16 20 24 28 «(311

 
oe

Status
&

 
Blood Sugar mg/dL

© Before Meal

mg/dL
220
180
140
100
60
30

Oct 01

04

e After Meal

08

NO DATA AVAILABLE.
PLEASE LOG A FEW GLUCOSE
MEASUREMENTS TO POPULATE

12

e Other

THE CHART.

16

20

24

Avg this week

Humalog
11
10

oOo nN © 0

28 «(31

 
Argus
SEE YOUR ACTIVITY HERE AFTER
MAKING AN ACTIVITY CHECKIN
Steps by UP.
 
zz
 
SEE YOUR ACTIVITY HERE AFTER
MAKING AN ACTIVITY CHECKIN
 
 
 
 
XN 7
7
xX x
7
° ey
7
7
Blood Sugar mg/dL

© Before Meal

mg/dL
220
180
140
100
60
30

Oct 01

04

e After Meal

08

NO DATA AVAILABLE.
PLEASE LOG A FEW GLUCOSE
MEASUREMENTS TO POPULATE

12

e Other

THE CHART.

16

20

24

Avg this week

Humalog
11
10

oOo nN © 0

28 «(31

 
 
 
 
yan
ee
 
-
=
a
 
 
Smart Health Scale

Keep track of your transformation in
one easy step.

LEARN MORE

 
FITNESS BUDDY
 
 
4

 

QOOOOHO

 

Medicine Carbs Exercise Weight
Glucose

Blood Glucose

--- mg/dL
Time 2:35 PM
Tags Add

Additional Notes

 

 
ae
CATH:
a0 01)
STAs
BUDDY
GLUCUSE BUDDY

ern
_
—_
-
Fr
 
mod
 
Steps by bd SHINE
 
 
 
 
 
 
 
VIE
 
 
 
 
 

 
Argus
 
 
&

 
 
<<
Oo
 
, ™

a AU
TM TY
 
es
G)
oe

Status
(8
(S41
8+
a
 
SEE YOUR ACTIVITY HERE AFTER
MAKING AN ACTIVITY CHECKIN
Blood Sugar mg/dL

© Before Meal

mg/dL
220
180
140
100
60
30

Oct 01

04

e After Meal

08

NO DATA AVAILABLE.
PLEASE LOG A FEW GLUCOSE
MEASUREMENTS TO POPULATE

12

e Other

THE CHART.

16

20

24

Avg this week

Humalog
11
10

oOo nN © 0

28 «(31

 
 
a
 

 
Do this Workout
 
| eat
 

PLEASE SPECIFY YOUR AGE AND GENDER TO
CALIBRATE BPM ZONES
 
 

 
01:12 am Light Sleep

ht} a4 toi yd 03 1) it) 06 rd Let

er AM
 
a 1] C1)
El a
 
 
 
 
 
ae
UM
Le
an
a
oe
p 4
a
 
ys
+ y
|
yj
| £ Continue with Facebook
 

 

 
 

my

 
 
 
 
Do more
 
a
a
Va
~
 
 
 
 
ace
» PREMIUM -
 
G Sign in with Google
 

 

 

 
 
— “a
os
 
7]
SUGGESTED
FOR YOU
 
 
Na
 
r >

ww

new balance
sports monitors

_ 4
 
P
LifeTrak
= y
 
01:12 am Light Sleep

ht} a4 toi yd 03 1) it) 06 rd Let

er AM
 
Steps by UP.
 
zz
 
 
 
 
 
XN 7
7
xX x
7
° ey
7
7
 
 
 
yan
ee
 
-
=
a
 
 
Smart Health Scale

Keep track of your transformation in
one easy step.

LEARN MORE

 
FITNESS BUDDY
 
 
4

 

QOOOOHO

 

Medicine Carbs Exercise Weight
Glucose

Blood Glucose

--- mg/dL
Time 2:35 PM
Tags Add

Additional Notes

 

 
ae
CATH:
a0 01)
STAs
BUDDY
GLUCUSE BUDDY

ern
_
—_
-
Fr
 
mod
 
Steps by bd SHINE
 
 
VIE
