a
aw
oo
ei\
Se
=
ee
nn
am
N.
vA

3
(
-?
 
St
 
N.
vA

3
Se
 
%
ray
 
 
 
 
 
 
 
 
 
 
 
 
 
a Nel
x
 )]
 
r
 
a

 
 
y

=

y
I
y

=

y
 
 
 
P
 
a
Cl
 
 
 
x
»))
»
 
.
 
 
P
 
 
x
a),
 

 
2
 
 
|
 
 
«Pe
 
 
1)
    

      

     
      
 

‘ SEE rate aie ere re

Perneane ie wood : eae eas tins :

ee ea eco aa ee Eee eae
ee ee ee
ES SRI IT ee, fi te betty mares a3 Fare WAS ne HEMI RS Cte AS

Pure gest srs" etek

  
  
 

 
 

     
a
G)
 
    

      

     
      
 

‘ SEE rate aie ere re

Perneane ie wood : eae eas tins :

ee ea eco aa ee Eee eae
ee ee ee
ES SRI IT ee, fi te betty mares a3 Fare WAS ne HEMI RS Cte AS

Pure gest srs" etek

  
  
 

 
 

     
CP
 
x
a)
 
oe |
 
Se
aS
a
aw
oo
ei\
Se
=
ee
nn
am
N.
vA

3
(
-?
 
St
 
N.
vA

3
Se
 
%
ray
 
 
 
 
 
 
 
 
 
 
 
a)
    

      

     
      
 

‘ SEE rate aie ere re

Perneane ie wood : eae eas tins :

ee ea eco aa ee Eee eae
ee ee ee
ES SRI IT ee, fi te betty mares a3 Fare WAS ne HEMI RS Cte AS

Pure gest srs" etek

  
  
 

 
 

     
x
G)
aS
CP
 
P
 
    

      

     
      
 

‘ SEE rate aie ere re

Perneane ie wood : eae eas tins :

ee ea eco aa ee Eee eae
ee ee ee
ES SRI IT ee, fi te betty mares a3 Fare WAS ne HEMI RS Cte AS

Pure gest srs" etek

  
  
 

 
 

     
