 
 
 

 
 
 
( m ) DOOR-STEP DELIVERY

 
(ff) ON-SITE DISPENSING

 
a) SAN SHU AM Se]

 
evn
 
 
 
 
I
y

=

y
y

=

y
DISCOVER
Po
a all
ee
 
 
a

 
 
a Mt Tl wate lateral cote

IN Association with [eq

COMEDY ® docaus:
cai
 
 
fe TAP HERE TO CALL OUR HOTLINE (10 AM - 10 PAD @
013-2862923

Consult Pharmacist On-Call Consult Doctors On-Call
\With paper prescription from panel clinic Without paper prescription
 
em
ae
fj TAP HERE TO GALL OUR HOTLINE (10 AM - 10 PND @
013-2862923
Lg
a
&
TU Get lab test now
>
[© from our doctor on call

 
 
pA
Ka

Hong Leong Bank

ASSOCIATE WITH

eelyerlory
S

Byyey Oh

Your Personal Pocket Doctor
malaysia DP

Tra

ASSOCIATE WITH

Rr lery
 
PILCU be” is your perfect

medication organizer

 

PiLcUbe"
Utilizes autonomous & smart
dispensing concept

 

Monitored by our registered pharmacists, we ensure your
medication delivery are more organized and synchronized.

  

Taking your medication on time may be difficult. We have found
the perfect solution to reduce medication errors.

 

PiLcUbe”"
is Pharmacy simplified

We fill, sort, and deliver all your medications in
personalized pouches based on medication
regimen.

  
1 Oye
BY yor lorie

Your Personal Pocket Doctor
nS) On... ao

3
-©r
Ly
 
 

ee
a
Cl
 
 
 
 
Waa ae

 
ON-SITE DISPENSING

 
aera)

 
 
 
 
.
»
 
.
PayPal
a
a
yy
a
 
 
 
& TAPHERE TO CALL OUR HOTLINE (10 AM- 10 PAD @
013-2862923

Geeta & att
pope weiptintompanl cic Wat pape wescipin
 
i
>
& TAPHERE TO CALL OUR HOTLINE 10 AM - 10 PM @
013-2862923
es
a
Be
Get lab test now 5
TG from our doctor on call

 
an redefining / standards

Inassociation with [eq

GIDL D pocavs:
 
 
e

Hong Leong Bank

Pe

@ pdoc2us:
&

pyr lorie

Spas diene
malaysia»

wn

re LT

@ pdoc2us
is your perfect
medication organizer

 

PlLcube"
utilizes autonomous & smart
dispensing concept

‘Monitored by our registered pharmacists, we ensure your
medication delivery are more organized and synchronized.

 

PlLcUbe" is simple, personalised & safe

Taking your medication on time may be difficult. We have found
the perfect solution to reduce medication errors.

 

PlLcube"
is pharmacy simplified

We fil sort, and deliver all your medications in
personalized pouches based on medication
regimen.

  
 
o

Doc2Us

OL Bela
Po

© 8 © # &

-© b
Ly)
 

DS eo ae
 
 

 

  
 
 
(m ) WU Sy Esa

 
© US aU sa 1

 
a) yo AEH ARH

 
 
 
|
card.io
L a
ep amel
is
Tt Get lab test now
>
[© from our doctor on call

 
 
ais
 
ie TAP HERE TO CALL OUR HOTLINE (10 AM 10 PMD @
013-2862923

Consult Pharmacist On-Call Consult Doctors On-Call
With paper prescription from panel clinic Without paper prescription
e TAP HERE TO CALL OUR HOTLINE (10 AM - 10 PND @
013-2862923

 
pA
oe redefining / standards

IN ASsocIATION wiTH [fe

GOUEEDEY ® pdec2us
 
\

Hong Leong Bank

ASSOCIATE WITH

@ poc2us
Doc2Us°

Your Personal Pocket Doctor
PIE eT

so

ASSOCIATE WITH

@ poc2us
 
_ is your perfect
eS medication organizer

” se

 

PiLcUbe”"
utilizes aU-ONOMoUS & smart
dispensing concept

Monitored by our registered pharmacists, we ensure your
medication delivery are more organized and synchronized.

 

PiLCUbe" is simple, personalised & safe

Taking your medication on time may be difficult. We have found
the perfect solution to reduce medication errors.

 

PiLcUbe”
is Pharmacy simplified

We fill, sort, and deliver all your medications in
personalized pouches based on medication
regimen.

  
 
 
. 4
 
Doc2Us-

Your Personal Pocket Doctor
aN) ® © &

gy
-© rf
is
 
 

(aa er) 7
a=)
 
 
| NU Sa |

 
fa) UN aN

 
a) SELF-COLLECTION

 
»
ait
 
TT Get lab test now
>
r[& from our doctor on call

 
G)
AA redefining / standards

IN association with [eq

[POWERED BY, BMS ey
 
[e TAP HERE TO CALL OUR HOTLINE (10 AM - 10 PMD @
013-2862923

Consult Pharmacist On-Call Consult Doctors On-Call
With paper prescription from panel clinic Without paper prescription
 
\

Hong Leong Bank

Pee N Gain

Lele ry
BYorey tote

Your Personal Pocket Doctor
malaysi. 3 es

fap}

ASSOCIATE WITH

rere ry
a
 
 
      

O|LcUbe” is your perfect

medication organizer

 

4 ber

YOUR MEDICATION, SIMPLIFIED.

AUTO FIRST. FAsY

"ove

  
    

     
     

PiLcUbe”

Utilizes QUCONOMOUS & SMart
dispensing concept

Monitored by our registered pharmacists, we ensure your
medication delivery are more organized and synchronized.

‘MUHAMAD FIRDAUS
BIN AFFENDIPATRICK

8:00AM

SATURDAY

PiLcUbe’” is simple, personalised & safe

Taking your medication on time may be difficult. We have found
the perfect solution to reduce medication errors.

PiLcUbe”
is Pharmacy simplified

We fill, sort, and deliver all your medications in
personalized pouches based on medication
regimen.

  
 
(e TAP HERE TO CALL OUR HOTLINE (10 AM - 10 PMD @
013-2862923

 
-
Byoey) oi

Your Personal Pocket Doctor
A Oo ©
ye oe

3
-© |
[s
(Ysa Lr er)
C
Byoey) oi

Your Personal Pocket Doctor
Doc2Us

Your Personal Pocket Doctor
p A
oO

 

FAG alpr FO

MEDICATION SAFETY
OUR PRIORITY

BRE EAS
 
cc
 
 
 
 
 
| NU Sa |

 
fa) UN aN

 
a) SELF-COLLECTION

 
 
card.io
L a
ep amel
 
AA redefining / standards

IN association with [eq

[POWERED BY, BMS ey
cc
 
G)
[e TAP HERE TO CALL OUR HOTLINE (10 AM - 10 PMD @
013-2862923

Consult Pharmacist On-Call Consult Doctors On-Call
With paper prescription from panel clinic Without paper prescription
(e TAP HERE TO CALL OUR HOTLINE (10 AM - 10 PMD @
013-2862923

 
a
TT Get lab test now
>
r[& from our doctor on call

 
 
p A
\

Hong Leong Bank

Pee N Gain

Lele ry
Doc2Us

Your Personal Pocket Doctor
malaysi. 3 es

fap}

ASSOCIATE WITH

rere ry
 
 
      

O|LcUbe” is your perfect

medication organizer

 

4 ber

YOUR MEDICATION, SIMPLIFIED.

AUTO FIRST. FAsY

"ove

  
    

     
     

PiLcUbe”

Utilizes QUCONOMOUS & SMart
dispensing concept

Monitored by our registered pharmacists, we ensure your
medication delivery are more organized and synchronized.

‘MUHAMAD FIRDAUS
BIN AFFENDIPATRICK

8:00AM

SATURDAY

PiLcUbe’” is simple, personalised & safe

Taking your medication on time may be difficult. We have found
the perfect solution to reduce medication errors.

PiLcUbe”
is Pharmacy simplified

We fill, sort, and deliver all your medications in
personalized pouches based on medication
regimen.

  
 
-
Byoey) oi

Your Personal Pocket Doctor
A Oo ©
ye oe

3
-© |
[s
(Ysa Lr er)
C
oO

 

FAG alpr FO

MEDICATION SAFETY
OUR PRIORITY

BRE EAS
