|

 
or '
3 |
OO

ee oe

 

as
So
a5

mad

—k
Mens =an
sitsxai
 
 

re
 
 
HUMAN
Heiter

 
 
 
 
 
 
Es
= GSoa2 |

oS '
3 |
OO

ee oe

ee

 

a
So
OS
 
 
 
 
y

=

y
y

=

y
 
 
 
a

 
 
 
aewtunt
 
 
I
 
 

 

 
 

 
 
 
 
ee

HUMAN VISUALIZATION PLATFORM
 
 
~~
 
7
 
ke My Human

BROWSE

‘K Anatomy
ey Conditions

Community
ye ~My Human >
BROWSE

XK Anatomy
e Conditions

= Community
 
«
 
 
ox
B

ce
 
 
ez

ed

~~

aN

=
 
a
Cl
 
.
»
 
 
 
 
 
 
 
 
 
 
%& My Human

enowse
K Anatomy

& Conditions

 

Community
oe My Human >
enowse

X Anatomy

@F Conditions

Community
 
CC)
re

HUMAN VISUALIZATION PLATFORM
 
 
 
 
 
 
 
 
 
|
Ky

 
2
i
i
at
at
a
7
 
ye My Human

BROWSE

‘K Anatomy

ey Conditions

Community
ye ~My Human >
BROWSE

Anatomy
ay Conditions

& ~Community
 
a
«
 
re

HUMAN VISUALIZATION PLATFORM
G)
 
Q

 
 
a

 
ik

 
gq

 
 
 
~~
 
a
7
Ju
|

 
or '
3 |
OO

ee oe

 

as
So
a5

mad

—k
Mens =an
sitsxai
 
 

re
 
 
HUMAN
Heiter

 
 
 
 
Es
= GSoa2 |

oS '
3 |
OO

ee oe

ee

 

a
So
OS
 
 
 
 
 
 
aewtunt
 
 
a

 
ik

 
Q

 
gq

 
G)
 
 
re

HUMAN VISUALIZATION PLATFORM
 
 
~~
 
7
 
ye My Human

BROWSE

‘K Anatomy

ey Conditions

Community
ye ~My Human >
BROWSE

Anatomy
ay Conditions

& ~Community
 
a
«
 
 
ox
B

ce
 
 
ez

ed

~~

aN

=
 
Ju
