 
CONFIDENCE AT YOUR FINGERTIPS

ee

ee

 
ae

ee
 
 
 

ee
re
Lippincott Williams & Wilkins
4
 
 
y

=

y
I
y

=

y
 
LO)
LO)
 
a
of
i

ne
>

P< g
@
a)
@
@
a

 
ne
py Prime
 
 
 

por
Ea

ee

ee
Ea

ee

ee
 
Converted inside cells to carbovir
triphosphate, its active metabolite. Carbovir
triphosphate inhibits the activity of HIV-1
reverse transcriptase, which in turn terminates
viral DNA growth.

The copy NOTE GLIMPSE 3

e Stowe WIS PEG GreVvVIygiy GET v ISVs rT are

decreases the occurrence of its sequelae.

e Increases CD4 cell counts an@JecreasesD
viral load.
(By, re
IN
IN
(By, unbound medicine’
a UI MIAO UME!
MEDLINE
Ww

ee
4

Get the most out of Unbound MEDLINE
Pinlorourmel (M4) UI NT
6
ca)
a
Cl
 
NURSES’ HANDBOOK of HEALTH ASSESSMENT
 
re
re
 
 
im

iB
— 4
lL —_
»
 
 
.
 

ee
re
Lippincott Williams & Wilkins
 
lo
ia
g
 
lo
 
 
 
eth
 
 
2 =7 unbound
KAIRIE
 
 
@ unbound
 
Talent ite foe aD ete ume a acs dala

MEDICINE
 
‘ly
 
 
w &
Favorites
@crasp
Z
rN
 
 
 

ITT] ets) 1 en

oa
 
 
 

ee
re
Lippincott Williams & Wilkins
 
 
|
 
 
G)
 
 
 
‘ly
 
 
 
 
 
re
re
 
CONFIDENCE AT YOUR FINGERTIPS

ee

ee

 
ae

ee
 

ee
re
Lippincott Williams & Wilkins
4
 
LO)
LO)
 
a
of
i

ne
>

P< g
@
a)
@
@
 
ne
py Prime
G)
 
 
 

por
Ea

ee

ee
Ea

ee

ee
 
Converted inside cells to carbovir
triphosphate, its active metabolite. Carbovir
triphosphate inhibits the activity of HIV-1
reverse transcriptase, which in turn terminates
viral DNA growth.

The copy NOTE GLIMPSE 3

e Stowe WIS PEG GreVvVIygiy GET v ISVs rT are

decreases the occurrence of its sequelae.

e Increases CD4 cell counts an@JecreasesD
viral load.
(By, re
(By, unbound medicine’
a UI MIAO UME!
MEDLINE
Ww

ee
4

Get the most out of Unbound MEDLINE
Pinlorourmel (M4) UI NT
 
NURSES’ HANDBOOK of HEALTH ASSESSMENT
 
im

iB
— 4
lL —_
 
lo
ia
g
lo
 
 
 
eth
 
2 =7 unbound
KAIRIE
 
 
Talent ite foe aD ete ume a acs dala

MEDICINE
 
‘ly
 
 
w &
Favorites
@crasp
Z
rN
 
 

ITT] ets) 1 en

oa
