    

PLDD Solution for
Neck & Beck Pain
i ANTIBIOTIC,
~ ane

wre

FIRST AID | \

Tate

 

 

 

BANDAGE

™ Cy
ASPIRIN 2
ws de G:

ad -_ e TRIANGULAR

STERILE
GAUZE PADS

 

/
f
f

 

 

 

 
a.
 
 
 
 
 
a

 
 
 
y

=

y
I
8+
y

=

y
 
a
Cl
 
 
 
 
»
 
 
 
.
 
B+
 

 

8+

 

 
 
 
 
 
Sa
|
(St
 
 
G)
(8
(S41
8+
 
 
 
cs
 
 

\ FIRST AID _/
   

\ FIRST AID _}
    

PLDD Solution for
Neck & Beck Pain
i ANTIBIOTIC,
~ ane

wre

FIRST AID | \

Tate

 

 

 

BANDAGE

™ Cy
ASPIRIN 2
ws de G:

ad -_ e TRIANGULAR

STERILE
GAUZE PADS

 

/
f
f

 

 

 

 
a.
 
 
8+
G)
(8
(S41
   

\ FIRST AID _}
cs
 

\ FIRST AID _/
