 
 
 
 
 
GET MORE GREAT APPS! Doe
a

 
 

Deed
 
 
y

=

y
 

The
AMERICAN
HERITAGE’

dicti@nary

 

 
|
y

=

y
 
 
roget:

 

 

The
AMERICAN
HERITAGE’

 

thesaurus
 
 
 

Bean MORE GREAT APPS! ING robisystems
GET MORE GREAT APPS! IU/ mobisystem
GET MORE GREAT APPS! IU/ mobisystem
 

Ben WOlsexeis Ue AcaSy WY fa cue
 

 

Od NORE GREAT APPS!

\7/4 MNES

 

 
fen MORE GREAT APPS! NG motisystems
a
Cl
 
| |
 
 
~
“ _—
—

~~ .

 
amon cn fc
 
 
»
 

 

oe MERICAN

dictignary

 

 
ee
 
.
 
 
 
 

Toget’s st
thesaurus
 
 
 
 
 
GET MORE GREAT APPS! N/a
 
 

mobisystems
 
 
The
AMERICAN
HERITAGE’

dictig@nary
ad serra yd
C
 
 
 
 
roget’

 

 

The
AMERICAN
HERITAGE’

 

thesaurus
Google Play
W

mobisystems
GET MORE GREAT APPS! WA
 
 

DORL »
Trt)
DICTIONARY

ELSEVIER
The
AMERICAN
HERITAGE
 
a
OXFORD

UNIVERSITY PRESS
Ww
 
 
 
 
a
a
 
 

The
AMERICAN
HERITAGE’

dicti@nary

 
roget’s suse
thesaurus
Collins
aN clay

prong Tel VN AG

RU
rs
ONE

 
&

WordNet
diccitonaris de

l Enciclopedia
Collins
NY
y <7
NZ S
SN
S

\ . SS
SF rE WEE
B ss
VSS S
VY LQWNGh

NS INA

V2

 
BE
Mc
Te)

|
Education
WEBSTER’S
NEW WERLD
Word Net
a
roget’s eases
thesaurus
pe Craver e | aad ah
 
 
roget’s sens
thesaurus
1

mobisystems
 
 
 
 

GET MORE GREAT APPS! MH mobisystems
The
AMERICAN
HERITAGE

dicti@nary
 
Wise Viewer
amon cn fc
CAMBRIDGE
AOA Ue 2 8d
VA
£> Collins
WordNet
 
 
amon cn fc
1

mobisystems
 
The
AMERICAN
HERITAGE

dicti@nary
pe Craver e | aad ah
 
roget’s sens
thesaurus
Ww
 
 
 

DORL »
Trt)
DICTIONARY

ELSEVIER
The
AMERICAN
HERITAGE
 
a
OXFORD

UNIVERSITY PRESS
a
a
 
 

The
AMERICAN
HERITAGE’

dicti@nary

 
roget’s suse
thesaurus
Collins
aN clay

prong Tel VN AG

RU
rs
ONE

 
&

WordNet
diccitonaris de

l Enciclopedia
Collins
NY
y <7
NZ S
SN
S

\ . SS
SF rE WEE
B ss
VSS S
VY LQWNGh

NS INA

V2

 
BE
Mc
Te)

|
Education
WEBSTER’S
NEW WERLD
Word Net
a
Wise Viewer
CAMBRIDGE
AOA Ue 2 8d
VA
£> Collins
WordNet
