 
 
 
 
 
 
 
 
 
 
 
 
 
 
 
 
 
an
NUE
an
NUE
 
 
 
 
 
 
 
 
 
 
 
lll
SS
NH
i
C
 
 
a
ave
 
 
 
 
 
 
 
PoP ot ot at oF oF ot oF
@eeeB8HeGB
VVVVVVVVV
SS8GGBOSG8

OOOOOOOOO®
C4666 KE «
a
Cl
 
 
 
 
 
 
 
C
 
|
 
 
 
 
 
 
 
PoP ot ot at oF oF ot oF
@eeeB8HeGB
VVVVVVVVV
SS8GGBOSG8

OOOOOOOOO®
C4666 KE «
lll
SS
NH
i
a
ave
C
 
 
 
 
 
 
a
 
 
 
 
 
 
 
 
 
 
a
 
 
 
 
 
 
 
 
 
 
 
 
ro
 
 
 
a
 
 
 
 
 
 
 
 
 
 
 
ah
TLE
a
ro
 
 
 
a
 
 
 
 
 
 
 
 
 
 
 
ah
TLE
