a
 
 
 
 
 
y

=

y
I
y

=

y
nid
 
 
(er
(er
 
a
Cl
 
a
 
 
»
 
.
nid
 
 

 

G+

 

 
 
 
[cry
[cry
 

 

G+

 

 

 
[cry
 
 
(er
 
 
 
(ong
(ong
 
 
 
 
 
|
 
G+
G+
 
(er:
(er:
 
 
 
 

 

 

 

 
 
 
a
nid
 
(er:
(er:
 
 
