 
 
 
 
y

=

y
y

=

y
 
 
a
Cl
 
 
 
»
 
.
 
 
 
 
 
C
 
 
 
 
 
 
 
 
 
 
 
 
 

Retos
 
O
1
1
1
i
1
(
\

 
 
 
 
 
 
 
 
 
 
 
 
 
 

Retos
 
O
1
1
1
i
1
(
\

 
 
