 
 
 
a

 
 
 
y

=

y
y

=

y
 
a
Cl
 
ce NURSING

WITHOUT WALLS
 
Beverly Hills

 
 
 
 
»
 
.
 
y N
 
 
 
 
C
 
 
G)
G)
ce NURSING

WITHOUT WALLS
 
Beverly Hills

 
 
y N
