 
 
 
 
 
a

 
 

Deed
 
 

The
AMERICAN
HERITAGE’

dicti@nary

 

 
 
y

=

y
y

=

y
 
|
 
pat
Bemon
Droog
roget:

 

 

The
AMERICAN
HERITAGE’

 

thesaurus
 
 
a
Cl
 
| |
 
~
“ _—
—

~~ .

 
 
 
 
 

 

oe MERICAN

dictignary

 

 
»
 
.
 
 
ee
 

Toget’s st
thesaurus
 
 
 
 
 
 
 
 

mobisystems
 
The
AMERICAN
HERITAGE’

dictig@nary
 
C
 
 
ad serra yd
aay

MEDICAL
DICTIONARY

7 7
W

mobisystems
Google Play
 
Bay

MEDICAL
DICTIONARY

7 7
= '
RT

MEDICAL
DICTIONARY

a a
Ww
 
 
a
a
Collins
a
a
BRE)

MEDICAL
DICTIONARY

a a
 
1

mobisystems
The
AMERICAN
HERITAGE

dicti@nary
pe Craver e | aad ah
Wise Viewer
CAMBRIDGE
AOA Ue 2 8d
VA
£> Collins
WordNet
 
 
1

mobisystems
 
The
AMERICAN
HERITAGE

dicti@nary
pe Craver e | aad ah
 
 

Toget’s st
thesaurus
Ww
= '
RT

MEDICAL
DICTIONARY

a a
a
a
Collins
a
a
Wise Viewer
CAMBRIDGE
AOA Ue 2 8d
VA
£> Collins
WordNet
