a

 
 
 
 
RED
BOOK

AAP
a
RED
BOOK

AAP
American Academy of Pediatrics (4
DEDICATED TO THE HEALTH OF ALL CHILDREN”

 
 
sua oy @D willowtree
|
eS
—
@
G)
 
>
Sg
 
American Academy of Pediatrics
DEDICATED TO THE HEALTH OF ALL CHILDREN”

 
CQ
© Red Book Online
Ue eacr
apps
BOOK
AAP
G)
BOOK
AAP
a
American Academy of Pediatrics (4
DEDICATED TO THE HEALTH OF ALL CHILDREN”

 
 
sua oy @D willowtree
|
eS
—
@
 
>
Sg
 
American Academy of Pediatrics
DEDICATED TO THE HEALTH OF ALL CHILDREN”

 
CQ
© Red Book Online
Ue eacr
apps
