 
 
—.

HTL iv

—— Y/Y YY =
=2@-8-6:=

 

UNIVERSIDAD
DE LA REPUBLICA
URUGUAY
 
 
 
 
 
a
Cl
gl
 
 
 
 
 
 
 
 
 
C
 
IO
 
 
 
 
—.

HTL iv

—— Y/Y YY =
=2@-8-6:=

 

UNIVERSIDAD
DE LA REPUBLICA
URUGUAY
 
