 
 
 
 
 
 
 
a

 
a
Cl
 
 
 
 
 
 
 
 
 
 
 
|
 
FY,
 
 
 
am)
 

#3511 256,8734

   

 
°
N
o
So
-
3
a
°
°
N
S
©
©
S

100

Alergologia

Andlisis Clinicos

Anatomia Patoldgica

Anestesiologia y Cirugia Vascular

Aparato Digestivo

Bioquimica Clinica

Cardiologia

Cirugia Cardiovascular

Cirugia General y del Aparato Digestivo

Cirugia Oral y Maxilofacial

Cirugia Ortopédica y Traumatologia

Cirugia Pedidtrica
y N
 
 
 
|
 
 
C
 
|
G)
|
|
G)
 
 
 
 
 
 
 
 
 
FY,
 
 
am)
 

#3511 256,8734

   

 
°
N
o
So
-
3
a
°
°
N
S
©
©
S

100

Alergologia

Andlisis Clinicos

Anatomia Patoldgica

Anestesiologia y Cirugia Vascular

Aparato Digestivo

Bioquimica Clinica

Cardiologia

Cirugia Cardiovascular

Cirugia General y del Aparato Digestivo

Cirugia Oral y Maxilofacial

Cirugia Ortopédica y Traumatologia

Cirugia Pedidtrica
y N
