©

 
a

 
 
aC)
 
Crt
BE TACp)
 
 
 
BETA
oS
 
BAYER)
E
mYBE TACpp”
G)
 
BAYER
sae
©

 
G)
oS
 
BAYER
sae
