))
 
 
 
 
 
y

=

y
a
a

 
y

=

y
 
&

arate
ee

ne

ne
a
Cl
gl
 
 
 
»
 
.
 
 
Cl
 
 
 
 
 
a
C
 
=

Pharmacy
ee
ee

ee
“a
a
“a
a
“a
a
NI]
a
NI]
a
“a
a
“a
a
“a
a
a
a
“a
a
gl
-
 
IO
 
 
 
 
 
a
a
~\
=

Pharmacy
a
a

a

ee
~\
“a
a
we
a
we
a
EY
a
EY
a
Te
a
we
a
>
a
>
a
~
a
we
a
~\
a
“a
a
i
ia
 
he
))
&% Xamarin
 

=

Pharmacy
S

Lieut
Image Placeholder
@STOP&SHOP

Pharmacy
@STOP&SHOP

Pharmacy
a
 
 
EEE EE EE ESO

Bs
 
 
 
 
 
 
ee

ne

ne
18934
 
Scanning by SCANDIT
Scanning by SCANDIT
))
-
 
 
 
 
 
a
i
ia
S

Lieut
ee

ne

ne
he
a
~\
a
~\
“a
a
we
a
we
a
EY
a
EY
a
Te
a
we
a
>
a
>
a
~
a
we
a
~\
a
“a
a
&% Xamarin
 

=

Pharmacy
Image Placeholder
@STOP&SHOP

Pharmacy
@STOP&SHOP

Pharmacy
EEE EE EE ESO

Bs
 
 
 
18934
 
Scanning by SCANDIT
Scanning by SCANDIT
