 
 
a

 
 
 
 
y

=

y
y

=

y
 
Medtronic

SN

 

 

 

 

 
 

 

Toe

  

sso GA, innciaaiaan

 

“| medtronic
4194 78em,

 

 

 
aioe t)

MY NAME TEL
ADDRESS

IHAVE AN IMPLANTED GPACEMAKER CICD OMONITOR
MODEL / SERIAL NO IMPLANT DATE

 

4194-78em __ LFG115977V

Wedron, Mioeapols, UN SSX, USA on estaee
Medtronic of Canada, is, 6733 Ktrat Road, Mississauga, Ontario SN 1W3 (800) 268-5348

 
en
>a
ea
 
mMyCareLink rieart™
é
fl

fe
ilslendgetq ict
ot
 
ms
())
())
©)
 
 

 

SN

 

 

ABC 123 123 A

 
a
Cl
gl
 
 
 
»
 
 
.
 
 
 
i et) a) ol
 
 
a
a:
 
»4
‘4
©)
‘4
©)
‘4
©)
 
‘Medtronic

 

ABC 123 123 A

 
 

 
 

 

 

 

 

 
A )

sores

[HAVE AN PLANTED GPACEMAKER CIGD OWONTOR
MODEL SERIAL NO

 

 

 

IMPLANT OATE
Medtronic 6)
=
4108-76em _ UFGIIS977V
Cl
 
 
 
 
 
C
 
Nee 4
“a
a
“a
a
“a
a
NI]
a
NI]
a
“a
a
“a
a
“a
a
a
a
“a
a
iiiG
 
 
 
MyCareLink Heart’
f &
leveqace nie
mvmeatronic
a
 
Os
Os
(w) dr
Medtronic

SN

 

 

 

 

ABC 123 123 A

 
Medtronic

SN

 

 

 

 

 
 

 

ae)
MY NAME, TEL

ADDRESS

| HAVE ANIMPLANTED PACEMAKER ICD GMONITOR
MODEL / SERIAL NO IMPLANT DATE.

 

Medtronic
esr (0. 2\ Siapcrasizan

 

‘Medtronic =!
#94 78em__,_ LFGTIS977V

 

  

 

 

 
aioe t)

MY NAME TEL
ADDRESS

IHAVE AN IMPLANTED GPACEMAKER CICD OMONITOR
MODEL / SERIAL NO IMPLANT DATE

 

4194-78em __ LFG115977V

Wedron, Mioeapols, UN SSX, USA on estaee
Medtronic of Canada, is, 6733 Ktrat Road, Mississauga, Ontario SN 1W3 (800) 268-5348

 
iH]
gl
IO
 
-
~
a
we
a
 
“a
a
we
a
we
a
EY
a
EY
a
Te
a
we
a
>
a
>
a
~\
a
~\
a
~\
a
“a
a
i
ia
 
 
MyCareLink Heart'™
l= Tentgel gle
Meatronic
La
<
i
2)
- = 4
Os
Os
(w) dr
 

Medtronic

| SN | Bt

ABC 123 123 A

 
 

Medtronic

 
 

 

TEMPORARY ID CARD

MY NAME TEL

ADDRESS

| HAVE AN IMPLANTED CPACEMAKER CICD OMONITOR

MODEL / SERIAL NO IMPLANT DATE
ecronic Are” XTOR MA SueScan™

Weston” LAN GilaBot23129a

 

Medtronic |=)
4194-78cm __ LFG115977V

Medtonic, In, Minneapolis, NN $5432, USA (600) $51-5544
Medtronic of Canada, Ltd, 6733 Kitimat Road, Mississauga, Ontario LSN 13 (800) 268-5346,

 

 
 

TEMPORARY ID CARD

MY NAME TEL
ADDRESS

 

 

 

 

| HAVE AN IMPLANTED OPACEMAKER CICD OMONITOR
MODEL / SERIAL NO IMPLANT DATE

Medtronic
W3SRO01

 

 

 

 

 

 

 

 

   

 

&} Medtronic
4194-78¢m  LFG115977V

Medtronic, Inc., Minneapolis, MN 55432, USA (800) 551-5544
Medtronic of Canada, Ltd., 6733 Kitimat Road, Mississauga, Ontario L5N 1W3 (800) 268-5346
he
 
é
fl

fe
ilslendgetq ict
 
Medtronic

SN

ABC 123 123 A

 
 

Medtronic

SN | fae

 
TEMPORARY ID CARD

MY NAME TEL
ADDRESS

| HAVE ANIMPLANTED CPACEMAKER CICD CMONITOR
MODEL / SERIAL NO IMPLANT DATE

 

Medtronic y vAN Azure™ XT DR MRI SureScan™

s¥] ABC123123A

&} Medtronic =
4194-78cm LFG115977V

Medtronic, Inc., Minneapolis, MN 55432, USA (800) 551-5544
Medtronic of Canada, Ltd., 6733 Kitimat Road, Mississauga, Ontario LEN 1W3 (800) 268-5346

W3SRO01

 

 

 

 

 
 

TEMPORARY ID CARD

MY NAME TEL
ADDRESS

 

 

| HAVE AN IMPLANTED OPACEMAKER CICD OMONITOR
MODEL / SERIAL NO IMPLANT DATE

Medtronic VAN Po
W3SRO01 oa

&> Medtronic
4194-78em  LFG115977V

Medtronic, Inc., Minneapolis, MN 55432, USA (800) 551-5544
Medtronic of Canada, Ltd., 6733 Kitimat Road, Mississauga, Ontario LSN 1W3 (800) 268-5346

 

 
Medtronic
Medtronic

 
-
 

Medtronic

SN | fae

 
TEMPORARY ID CARD

MY NAME TEL
ADDRESS

| HAVE ANIMPLANTED CPACEMAKER CICD CMONITOR
MODEL / SERIAL NO IMPLANT DATE

 

Medtronic y vAN Azure™ XT DR MRI SureScan™

s¥] ABC123123A

&} Medtronic =
4194-78cm LFG115977V

Medtronic, Inc., Minneapolis, MN 55432, USA (800) 551-5544
Medtronic of Canada, Ltd., 6733 Kitimat Road, Mississauga, Ontario LEN 1W3 (800) 268-5346

W3SRO01

 

 

 

 

 
 

TEMPORARY ID CARD

MY NAME TEL
ADDRESS

 

 

| HAVE AN IMPLANTED OPACEMAKER CICD OMONITOR
MODEL / SERIAL NO IMPLANT DATE

Medtronic VAN Po
W3SRO01 oa

&> Medtronic
4194-78em  LFG115977V

Medtronic, Inc., Minneapolis, MN 55432, USA (800) 551-5544
Medtronic of Canada, Ltd., 6733 Kitimat Road, Mississauga, Ontario LSN 1W3 (800) 268-5346

 

 
i
ia
 
 
MyCareLink Heart'™
é
fl

fe
ilslendgetq ict
La
<
i
2)
- = 4
Os
Os
(w) dr
 
Medtronic

SN

ABC 123 123 A

 
he
~
a
we
a
“a
a
we
a
we
a
EY
a
EY
a
Te
a
we
a
>
a
>
a
~\
a
~\
a
~\
a
“a
a
Medtronic

 
