FORA Diamond

Blood Glucose Monitoring System

Beautiful. Portable.
Gloriously capable.

Integrated with

(VD a
Health
 
 
iy
 
 
 
 
ube

A
 
 

 

 

 

 
 
 
 
 
 
 
 
 
 
 
 
 
 
 
 
 
 
 
 
 
 
 
 
 
nu

es
 
 
iw
a
 
 
 
 
 
Qa

4
 
7
7.
ay
2
R
 
FORA Diamond
oe

Beautiful.
lac Los

Gloriously capable.
   
 

Bienvenidos a

FORA

Sistema de Monitoreo de Glucosa

 
   
 

Welcome to

FORA

Blood Glucose Monitoring System

 
 
 

FORA Diamond

Blood Glucose Monitoring System

Beautiful. Portable.
Gloriously capable.

Integrated with

Discovery
Health

 
 
 
Aeon eee nd
peal

Ce
Prien Ono

Peeeeeeeeninns
Peau
oe

 

 

 

 

 

 

 

 

cm

 

 

 

 
 
 
 
ee cnc
ees

 

 

od
ena

 

 

 

 

 

 

 

 

 

 
pee eee eed
Paras
cree ener]

 

ena

 

 

 

 

 

 

 

 

 

 
Pad

ea
Ee)

ed

 

 

 

 

 
-}
F
,
, |
 
TY
a
a
 

| OFF
ON
HOw S DET!

eterna Src)

es=cUvLaL eagela tL)
Gloriously capable.

een

@Discovery
lta)
 

 
 
 

 
 
 
 
 
 
 
 

 

 

 

 
 
 
 
 
Lg
 
 
 
os
4
 
. i
 
 
 
 
 
iw
 
 
 
 
Lae
 
 
FES
 
 
 
| a
3),
©)
 

 

 

 

 
 

 

 

 

 
a
Aid
Dy
=
 

 
 
 
 
 
 

 
 
 
 
 
 
 
 
 

 

 

 

 
SPM Ven Uomo Reais
Pare MCR

 

 

 

 

 

3. Save and leave to complete pairing

EE ced

 

 

 

oars or)

 

 

 

 

 

(e-Lteo)

 
 

 

 

 

 
Gd el
Pe ANE EW eee

 

 

 

 

 

RC CAA aie ab alba

St

 

 

 

FORA BT DEVICE bl

 

 

 

eI

 

 
 
 
 
 
1. Prenda la funci6n de Bluetooth en

su medidor.

2. Oprima

 

ce

 

 

 

 

[ele Reel a cle sv aie lee

con la aplicacion en su teléfono.

3. Después oprima la flecha de regresar

(GYR cic CKcL Im Acct Cla

Tne Lancs

 

re eeu Le seule

 

eae ac

 

 

 

 

 

 

 

 

 

CANCELAR

 

 

 

 

 
1. Wiacz funkcje Bluetooth w swoim
glukometrze

 

2. W celu sparowania stuknij opcje Dodaj

 

 

 

 

3. Zapisz i wyjdz, aby zakonczyé parowanie

 

Pe ae Wud

 

 

 

 

 

eA ane eI

 

 

 

 

 

 

Anulyj

 

 

 

 
 
 
 
Ty
 
 
 
FORA Diamond

Peer
Portable.

eee
a
a
 
 
Welcome to

FORA

Blood Glucose Monitoring System

 
FORA Diamond

Blood Glucose Monitoring System

Beautiful. Portable.
Gloriously capable.

Integrated with

Discovery
Health
 
FORA Diamond

ER eu eC

Beautiful. Portable.
Gloriously capable.

Integrated with

Discovery
aie naa)
eo
oo
 
 
 
 
cy
 
ll
; St
az
 
, 4
 

 

 

 

 
 
 
 
av
 
 
"ON
_,
YY
e
 
 
 
 
 
. i
 
 
 
 
 
 
 
iw
 
 
 
 
 
 
2
avi
 
 
 
 
 
 
 
 
r >
 

 
 
 
 
 
 
 
 
 
Peo uy
Pe
Pa ee en eee

 

 

 

 

 

3. Zapiszi wyjd2, aby zakoriczyé parowanie

Cera ed

ona sroence — [_Dodsi

 

 

 

 

 

 

 
 

 
FORA Diamond

Pett
Lact m

ee Nee Ls
 
 
   
Pe ee esa
2.Tap| Add |to pair

3. Save and leave to complete pairing

Ca

Coad

 

 

 

 

 

 

 

 

 

 
Pe eS say)
PA Ae Bh eed

 

 

 

 

 

Ba ep tobi

Bid

 

 

 

 

FORA BT DEVICE cr]

 

 

 

 

 
pCO une end
Pres
ee Ce eee
ene ees
3. Después oprima la flecha de regresar
CC epee

ee

Cert

 

 

ona sroemce | [AGREGAR

 

 

 

 

 

 

ena
Bienvenidos a

FORA

Sistema de Monitoreo de Glucosa

 
 
 
 
[el
ea)
Welcome to

FORA

Blood Glucose Monitoring System

 
ea)
OFF
ON,
rs
FORA Diamond

Blood Glucose Monitoring System

Beautiful. Portable.
Gloriously capable.

Integrated with

Q Discovery
Health
FORA Diamond

Blood Glucose Monitoring System

Beautiful. Portable.
Gloriously capable.

Integrated with

(VDEeoa ny
Health

 
sic
sic
 

 
 
 
 

 

 

 
 
0
 
 
 
 

 
-
7)
;
Sr
a?)
;
 
 
 
 

 

 

 

 
 
 
 
 
 
 
 
 
 
 
 
 
 
 
 
 
 
 
 
sal
 
 
 
 
 
 
 
 
ae |
Re

rs
a |
 
 
aa?

ae

"ea
©

a? XA
iw
a
eo
wr
 
 
 
 
alll
GC)

7d
<a?

aie

"ea
7
7
BR
BR
 
FORA Diamond

Tre
Portable.

Gloriously capable.
 
   
 

Bienvenidos a

FORA

Sistema de Monitoreo de Glucosa

 
   

Welcome to

FORA

Blood Glucose Monitoring System

 
FORA Diamond

Blood Glucose Monitoring System

Beautiful. Portable.
Gloriously capable.

Integrated with

Discovery
Health
1. Prenda la funcién de Bluetooth en

su medidor.

 

PAxe) Jil Weasel

 

 

 

  
  
   

fex-le-Meolaroic-lalemini-rel(e(ele

con la aplicacion en su teléfono.
3. Después oprima la flecha de regresar
(GDN c Reco my mcont Ro

emparejamiento.

Medidores Disponibles

fe) Uae Paes ENCES

 

CANCELAR

 
oa

ae

"ea
hae

ae

errs
ee,

ae

oTT
ne,

ae

av
ha?

ae

"eat
ha?

ai

“a
ha?

ae

ort
ee,

ie

arr
ee,

ae

orc
 
1. Wtacz funkcje Bluetooth w swoim

glukometrze

2. W celu sparowania stuknij opcje

 

 

Dodaj

 

 

 

3. Zapisz i wyjdz, aby zakoniczyé parowanie

Dostepne glukometry

fe) Uae Paes

 

 

 
1. Turn on Bluetooth of your meter
2.Tap Add _to pair

 

 

 

 

 

3. Save and leave to complete pairing

 

Available Meters

 

 

 

 

fe) Uae Paes Add

 

 

 

 

 

 

Cancel

 

 

 
Pst eS
Oe eee

 

 

 

 

 

 

 

 

 

Rea Cea doe Balled a

 

 

 

 

 

 

 

 

rT

 

 

 

 

 

 

 

 

FORA BT DEVICE bie

 

 

 

Ee

 

 
|
ms 4
- |
m_ 4
Ty)
ye
ye
 

|) OFF.
ON
 
FORA Diamond

Blood Glucose Monitoring System

Beautiful. Portable.
Gloriously capable.

Integrated with

YD eOeln
Health

 
 

 
 
 
 

Se ee
 
 
 

 
 
 
 
 
 
 
 

 

 

 

 
 
 
 
 
 
 
 
 
 
 
 
 
 
 
 
 
 
 
 
Premium V10
BLE

 
 
 
Premium V10
BLE

 
 
 
 
 
 
 
 
a
3% q
2@=

cn
RUD q
2@=

he
iw
 
wiz,

on
 
iw
iw
 
5)
On)

w? \@
eee
 
BR
 

Ria
se

is
 

Ria
se

iS
 
 
RA

ae
 
wr
 
hs

Ale
a
~~
Sit,

hes
Gy’

Net
oP

nes
hi

nes
hes

nes
hs

nes
hs

nes
hs

hes
hs

es
hs

es
hs

es
Gt eel
Oe Eee

 

 

 

 

 

SP Ceca eee ee all bog 4 ne 3

 

SEE es

 

 

 

 

ze) 8b) (6 ii

 

 
|
 
 
1. Turn on Bluetooth of your meter

2. Tap

 

 

Add

 

 

 

to pair

3. Save and leave to complete pairing

ENVY Fle) tem talked

 

FORA BT DEVICE

 

Cancel

 
()
1. Prenda la funcion de Bluetooth en
su medidor.

con la aplicacion en su teléfono.

2. Oprima para conectar su medidor

      
   
     

3. Después oprima la flecha de regresar
(®}) para guardar y completar el

emparejamiento.

Medidores Disponibles
FORA BT DEVICE NCCT A

CANCELAR
1. Wtacz funkcje Bluetooth w swoim
glukometrze
2. W celu sparowania stuknij opcje

3. Zapisz i wyjdz, aby zakoficzyé parowanie

   
   
 
   

  

  

Dostepne glukometry

  
 

 

~ FORA Diamond

Beautiful.
Portable.

Gloriously capable.

 

 
me
>
ms J
Lg
ay
ay
toy
ya
ya
ON
OFF.
   
 

Bienvenidos a

FORA

Sistema de Monitoreo de Glucosa

 
   
 

Welcome to

FORA

Blood Glucose Monitoring System

 
 

 

FORA Diamond

Blood Glucose Monitoring System

Beautiful. Portable.
Gloriously capable.

Integrated with

Y) Discovery
Health

 

 
ll
; St
az
 
—
oh}
; St
facebook
 
FORA Diamond

Blood Glucose Monitoring System

Beautiful. Portable.
Gloriously capable.

Integrated with

YD eOeln
Health

 
 

 
 
 
 

Se ee
 
 
 

 
 
 
 
 
 
 
 

 

 

 

 
 
 
ll
; St
az
—
oh}
; St
facebook
 
 
 
 
 
 
 
 
 
 
Premium V10
BLE

 
 
 
 
 
 
 
 
 
 
 
a
 
 
 
 
 
Premium V10
BLE

 
 
 
 
 
 
3% q
2@=

cn
RUD q
2@=

he
wiz,

on
 
RA

ae
hs

Ale
5)
On)

w? \@
iw
eee
wr
 
 
BR
 

Ria
se

is
 
a
~~
iw
iw
Gy’

Net
Sit,

hes
 
 
ay
()
ay
 

Ria
se

iS
 

 

~ FORA Diamond

Beautiful.
Portable.

Gloriously capable.

 

 
 
   
 

Bienvenidos a

FORA

Sistema de Monitoreo de Glucosa

 
   
 

Welcome to

FORA

Blood Glucose Monitoring System

 
 

 

FORA Diamond

Blood Glucose Monitoring System

Beautiful. Portable.
Gloriously capable.

Integrated with

Y) Discovery
Health

 

 
1. Prenda la funcion de Bluetooth en
su medidor.

con la aplicacion en su teléfono.

2. Oprima para conectar su medidor

      
   
     

3. Después oprima la flecha de regresar
(®}) para guardar y completar el

emparejamiento.

Medidores Disponibles
FORA BT DEVICE NCCT A

CANCELAR
 
oP

nes
hi

nes
hes

nes
hs

nes
hs

nes
hs

hes
hs

es
hs

es
hs

es
 
1. Wtacz funkcje Bluetooth w swoim
glukometrze
2. W celu sparowania stuknij opcje

3. Zapisz i wyjdz, aby zakoficzyé parowanie

   
   
 
   

  

  

Dostepne glukometry

  
1. Turn on Bluetooth of your meter

2. Tap

 

 

Add

 

 

 

to pair

3. Save and leave to complete pairing

ENVY Fle) tem talked

 

FORA BT DEVICE

 

Cancel

 
Gt eel
Oe Eee

 

 

 

 

 

SP Ceca eee ee all bog 4 ne 3

 

SEE es

 

 

 

 

ze) 8b) (6 ii

 

 
|
me
>
ms J
Lg
toy
ya
ya
OFF.
ON
 
