 
G)
 
 
 
ras
i
a
ii

Tartlabs

technology as an art
 
 
G)
 
 
 
ras
i
a
ii

Tartlabs

technology as an art
 
