 
FORCE tTHERXPEUTICS
 
 
 
 
a

 
 
 
y

=

y
re
I
 
y

=

y
 
a
Cl
 
 
 
 
 
ee
»
 
.
 
 
 
 
 
 
ee
|
 
 
a
G)
 
FORGE THERXPEUTICS
FORCE THERXPEUTICS
 
Morce
 
AForce
 
a an |
CC

COG
oe
GE

i

 
 
FORCE tTHERXPEUTICS
a
G)
 
FORGE THERXPEUTICS
FORCE THERXPEUTICS
 
Morce
 
AForce
 
a an |
CC

COG
oe
GE

i

 
