HD
 

 

REF

 

 
Normal heart Heart with atrial fibrillation

Atrial
fibrillating

‘Sinus node Chaotic signals ~4 impulses

impulse passing through

AV node

Impulse

passes through Ventricular Rapid ventricular

atrioventricular node impulses impulses
 
G)
 
 
 
a

 
DISC: ver
DISC@VER
ag
UmonPay
VISA
_

:
7
iN
 
te AK
EAE
 

 

_

an
 
HD
 

 

REF

 

 
Normal heart Heart with atrial fibrillation

Atrial
fibrillating

‘Sinus node Chaotic signals ~4 impulses

impulse passing through

AV node

Impulse

passes through Ventricular Rapid ventricular

atrioventricular node impulses impulses
 
G)
 
 
 
a

 
DISC: ver
DISC@VER
te AK
EAE
VISA
_

:
7
iN
 
 

 

_

an
 
