 
 
 
|- -]
 
 
 
y

=

y
I
y

=

y
 
 

 

Pairing image

 

 
 
 
 
 
a
Cl
 
 
 
 
 
»
 
.
 
pee eC Te
 
ResMed  AjrMini
ResMed  Aijr\Nini"
<

ResMed

 
 
 
 
 
 
 
 
|
 
 

 
 
 
 
( }
a
 
na [ 3
ti
a

p
nd
 
 
ae
KEY
 
€>)))
3
(A)
me
Oy
 
 
 
 
 
 
 
 
 
  
 
 
 
C¢ anit
 
|- -]
 
 

 

Pairing image

 

 
 
 
 
 
 
 
ResMed  AjrMini
ResMed  Aijr\Nini"
<

ResMed

 
 
 
( }
a
 
na [ 3
ti
a

p
nd
 
 
ae
KEY
 
€>)))
(A)
me
Oy
 
 
 
 
 
 
  
 
 
 
C¢ anit
