 
 
 
ClinicalKey’
 
 
ClinicalKey’
 
a

 
 
y

=

y
I
y

=

y
 
ClinicalKey”
for Nursing
Clinical Pharmacology
powered by ClinicalKey*
Sw Weave
a
Cl
 
 
ClinicalKkey’
 
SO Talleoll Cae
»
 
.
 
CK
 
Clinical Key’
fem cies]
Clinical Pharmacology
powered by ClinicalKey”
Gs RELX Group™
 
ClinicaliKey’
 
PCy
ClinicalKey’
Ts
La
 
 
|
 
a
OT xell Kaye
erm N OLeciL Ere)
Clinical Pharmacology
powered by ClinicalKey*
SES Ce cell on
G)
ClinicalKey’
 
Cd
]
a
ClinicalKey’
a
ClinicaiKey’
MN eae)
Clinical Pharmacology
powered by ClinicalKey’
€, RELX Group™
r
arn
a
ClinicalKey’
ClinicalKey’
ClinicalKey’

for Nursing

 
Clinical Pharmacology
powered by ClinicalKey*
€_RELX Group™
G)
ClinicalKey’
ClinicalKey’
r
arn
a
ClinicalKey’

for Nursing

 
Clinical Pharmacology
powered by ClinicalKey*
€_RELX Group™
