 
 
%
a
%
ae
4
 

 

 

 

 

 

 

 

 

 

 

 

 

 

 

 
 
 
 
 
y

=

y
a |
y

=

y
 
 
>

c
 
a
Cl
gl
 
 
 
 
»
 
 
.
 
p
 
 
 
 
C
 
“a
a
“a
a
“a
a
NI]
a
NI]
a
“a
a
“a
a
“a
a
a
a
“a
a
 
p
IO
 
we
a
we
“a
a
a
EY
a
EY
a
Te
a
we
a
>
a
>
a
~
a
we
a
~\
a
~\
a
~\
a
“a
a
ia
i
7 -
NCCN

GUIDELINES

S 4
National Comprehensive

fetes Cancer Network”

 
National Comprehensive
Cancer Network®

 
 

 

 

rere IE an cacgrmemny 2 Erion Sor
ar SE een een, «ers eho
— vee ® Seereeaeep ac” Sotto

esrorerme, tp nC
NCCN
Newer Version
Available
_ a
NCCN
Crone

' '
( >
NCCN

GUIDELINES

S ”
NCCN
_ =

NCCN

GUIDELINES
a a”
n a

NCCN

Cray
. 4
C >
LTO)

GUIDELINES

\ ”
“ =

IN CeCen)

GUIDELINES

— 4
= —
NCCN

GUIDELINES

] 4
a a
Celery)

GUIDELINES

S 4
on =
LOL ery)

GUIDELINES

S 4
 
 
%
a
%
ae
4
i
ia
we
a
“a
we
a
a
EY
a
EY
a
Te
a
we
a
>
a
>
a
~
a
we
a
~\
a
~\
a
~\
a
“a
a
7 -
NCCN

GUIDELINES

S 4
National Comprehensive

fetes Cancer Network”

 
National Comprehensive
Cancer Network®

 
 

 

 

rere IE an cacgrmemny 2 Erion Sor
ar SE een een, «ers eho
— vee ® Seereeaeep ac” Sotto

esrorerme, tp nC
NCCN
Newer Version
Available
a a
Celery)

GUIDELINES

S 4
on =
LOL ery)

GUIDELINES

S 4
