 
 
a

 
a
a
 
 
 
y

=

y
I
y

=

y
 
fs
 
 
J
7
a
cn
oO
on
&
ee
. ¢
4
4
—
PT
©
9
 
rs
A
J
++
 
 
 
 
 
Quizit Mobile
 
A>
©
we
ce
eo
a
a
 
oe
_
yy
MirMeApp
rs
a
©
9
ry
@
rs
7 on
&
fs
x 2
. ¢
3
7
a
-
rs
Po
 
 
o
oe
 
 
Miia Cat))
 
iy
&
 
 
 
 
 
 
+
 
 
 
a
P= %
Ly
Cc)
A
oo
-s
oe
’
&
 
 
 
..
.¥
 
 
 
ey
- 2h
¢
 
wi

x)
i.

cy

a
=)
SF
7
a
Cl
 
OY"
sr
 
 
»
 
.
 
>
oa
ba
 
r
 
 
ea
a
i
a.)
 
. a
&
7}

tS
 
eS
1
 
a
a
oe
Do
 
‘Up
Am
‘ea
 
7"
&
@®
.-)
+
a)
q
 
3
 
oe
oe
Pa 3
ar
 
Ce!
<a
ae
 
 
 
 
 
a
a
wy
 
Wide tort
<)
 
a
7%
 
Co
03)
 
7}

rs
 
—
 
eo
.
 
oe
Ao}
‘Up
Am
MirMeApp
oe
&
 
Se
1
_@
.
‘ea
7
&
oa
bi
"ys
a. )
 
 
a
i
 
 
|
 
Oo
fs
rN
WM

a
rs
7
Qo
_
A
Oo
x 2
4
oF
r.Y
a
oy
Ue
ee
&
 
 
Pa.
Ly
+
 
 
 
a
 
 

 
Oraia Cyl (:
 
rs
 
 
 
 
-
i

a
 
 
pa
of
a
 
re
<
a
’
i
14
i’
rs
an
B
cay
aK
o
a

a
coy
Ue
ee
2
&
x 2
4
oF
4
&
MirMeApp
=
rs
fs
ae
G)
 
2
 
A
ry

y
>
of
 
a
yy
a
a
aie
oO
 
 
 
 
 
 
rd
OlUvalm Cy)
 
 
 
 
 
 
 
Lea
<
 
 
 
en
a
ye
a
a
rs
 
aK
rc

I
oo
 
a
ye
a
a F
rs
oe

Ld
>a
a
 
A
ae
yp. N
7
 
s

=
a
a
a
nt
a
a
oO
re
<
pi.’
Vy
 
 
rN
cc
 
 
 
Quizlt Mobile
 
a
 
 
a
 
 
 
 
BT
 
ed
 
 
eS
a
a
&
on

oF
rs
a
a
 
aK
rh
1 F
ey
HE
eT
S

og
@
rs
a
>a
a
a
a
Cia tat are Ma aot: |

   

 
 
 
 
 
wl
 
 
re
 
re
 
Enfermedad
SI NO
Prueba
Positiva 80 100
Negativa 20 800
 
Autopsia
Ucera No tilcera
Diagnéstico clinico
Ulcera 130 20
No tlcera 170 9680
- 0
Us
Ne

Fx
ripe Whee

dee «
am. ate

Ste

 
 
 
 
 
 
 
 
NAME
108)

COMMENT
Facility

 
 

 

 

 
 
 
 
 
 
 
 
 
 
 
 
 

 
 
 
 
 
 
 
 
 
 
 
 
 
 
 
 
 
 
 

 

 

 

 

 
 
Lesion 1

Lesion 3

 
GE MEDICAL SYSTEMS pr
BrightSpeed hpe_ct0S_ge

     

Ex: 10124

Sia ; ae) =P)
Im: S61+¢ ee eee
Dae Cisse a Pdestee=s= 0)

  
  
  

ay eiae Tse mega eu Sai vig tg Pee
ola : ‘

aan Pee
irae be %
iin) ge geen}

eetgr tes EE rey Ua on, Lio
1.250mm/27 50 1.375:1

Tea a)
0.6s sHED4 52 RR ae ELE Bat
Lene
 
 

 
 
oo ini
r

ut
LALA A eine It A an

{ i ee j i i j | i j

|

ef Lae LPN AL as a ol Am

HE
hh tL ei ry He ie nw ond IA Aa

aot | j 4 i i

Poa
i

ada, aN i Fae rae

 

   

Ee WWrinlun. { el Aa
ioe Shia ite pe aa HR RRA
~ ee a

ee yy

LARA Ens
aUL. Oe ALAA

ey Say Poa ate

nae

bet ee ee

ae A LS Ae Ok kk
 
 
 
 
    

o
Age Neel ceo ne

A Bobet A 4 pda]

abe a al i by

! Tampa
fy re

i ddan A uA AS

yayAroletoleole

ery
deletes cern

|e,

AW Ne
A
ae

i
| aa aera ne tsa
foyer

 

ape

 

dpa
 
     

380
eee ces ad
at

Eu kes

 
 
bt a RJOSE

Tired a — on Study Date: 19/09/2001-
eS ; BS On aT sea

ied

 
 
 

 

 

 
 
 
Figura 8.1. Grifico de Kaplan Vieler de tiempo de supervivenda libre dle progresidin (evaksadién principal
[Conjunto de analisis de todos kos packertns inchides)

  
 
  

100%
Crusade Tiseaerioetn

Partusrartads + 880: fg}
-—-  Kisoh=ay

 

Eventos Ibres de progresian
3
#

0 2 4 6 & WY HM 18 18 22 BM MB HW BWM W WwW a 42 44 4H 4 D

Somanss
Sujetosarrieggo
Paturumab+es: «6-291 217 203 197 118 &S 78 85 49 dt 4 4 Sf 2 ee UB AGU klk 4
Batsalo 930°209 17S HE 7S 44S ot FOF OF SOS SS Ok A At OTH to
 
 
 
 
 

 
 
 

 

 
TORAX PORTATIL

epee =
92 ANO 12/09/2014 19:13:17
‘a RIS701211107891

  

CPB Urz,
Eamonn)
corel
pn

Corel TCC UYAS

Pagina: 1 de 1 He Taleb
aan 10 ‘ome | ‘ral at V1) ean) ease Seen

  

       

FpLe7

 

 

 

 

 

 

 

joe | @{[ TT i) on nn) TL OT TTT) 992060 | ine fmt cw
2 =

ee
one =
%
’ Salter an

as

$2 aet

2 a4
aes
ay

ek

9°
s

< ¢ )
q Wee ase
eye
® e*
@ ogee
s -,\e
‘ Bees: S

 
 
 
 
 
 
 
 
 
|

aVL

avF

det tet to bbb pet
     
       
     
     
 

8 MHz - SPEED: 20 mm/S - AMPLI.: 10 cm/S.
S/DINt2 910.414 SemvS-PIS.2-Ri:t-Puts S6-mmlg:142

Posterior Tibial Artery Posterior Tibial Artery

8 MHz - SPEED: 20 mm/S - AMPLI.: 10 cnv/S
SIDIM2. 50/2 1oT/S-PL'6.7-RE1-Puls:95-mmiig: 145

8 MHz - SPEED: 20 mm/S - AMPLL.: 10 cm/S.
‘SIDIM:3 10/0 ScnvS-PI'4 LRI:1-Puls:96-nmtig 54

Segmental Pres. => Calf

ere

8 MHz - SPEED: 20 mm/S - AMPLI.: 10 cmv/S
S/D/M-O//0emvS-PI:O-RLO-Puls:O-mmig:65

Segmental Pres. => lower Thigh Segmental Pres. => lower Thigh

Segmental Pres. => Calf

8 MHz - SPEED: 20 mm/S - AMPLI.; 10 cm/S
S/DIM6.8/0/3. 20=S-PIE 9-RE 1 -Puls:99-nmHg.141

 

 

 

 

 

8 MHz - SPEED: 20 mmv/S - AMPLI.: 10 cem/S._ |
‘SIDIM: 1.7/7 Ar2cm/S-PLG.9-RV0.4-Puls: 1024nmHg'170

8 MHz - SPEED: 20 mm/S - AMPLI.: 10 cm/S.
SIDIM:4.71010 SenvS-P120.2-Ri-1-Puls.87-mmHg:73
 
 

Exploraci6n Funcional Respiratoria

 

 

Apellidos: Identificaciés

Nombre: Grupo teorico:

F. Nacimiento: 19/06/1954 Edad: 60 Afios

sexo: hombre Altura: 169,0 cm
Peso: 74,0 kg

 

 

ant i | extn tea ee

 

 

 

 

 

 

 

Vo despiazaco fr}

 

{Teno (seo)
30205065

 

 

 

 

 

ESPIROMETRIA Medl Teérico %Medl/Teor Med2 %Med2/Teor _*Difer
FVc [t] 1.47 3.83 38.3 1.54 40.2 4.7
FEV 1 165} 0.72 3.04 23.8 0.77 25.3 6.9
FEV 1 / Fvc [8] 49.18 76.41 64.4 50.00 65.4

PEF [t/s] 2.11 7.95 26.5 2.10 26.4 -0.5
FEF 25 [L/s] 0.75 7.02 10.7 0.77 10.9 2.6
FEF 50 [L/s] 0.42 4.20 10.1 0.49 11.5 16.7
FEF 75 [L/s] 0.11 1.51 1.5 0.13 8.7 18.1
MMEF 75/25 [L/s] 0.22 3.40 6.5 0.23 6.7 4.4

 

 

 

DIFUSION DE CO Medi Teérico %Med1/Teor
TLCO SB {mmol /min/kPa] 2.15 8.79 24.4
VA [L) 3.96 6.27 63.2
TLCO/VA {mmol /min/kPa/L] 0.54 1.37 39.6
PLETISMOGRAFIA Med1 Teérico *Med1/Teor
ITGv {hb} 8.52 3.40 250.3
RV (Lh) 7.63 2.30 331.2
TLC (L] 9.29 6.42 144.6
RV / TLC % ($] 82.15 37.36 219.9
ABREVIATURAS:

FVC: Capacidad Vital Forzada, FEV1: Volumen Espiratorio Forzado primer segundo, PEF: Flujo
Espiratorio Pico, FEF: Flujo Espiratorio Forzado al 25, 50 y 75% de la FVC, MMEF 25/75: Flujo
Mesoespiratorio Maximo, TLCO: Capacidad de Difusién de CO, VA: Volumen Alveolar, ITGV:
Volumen de Gas Intratoradcico (equivale a la capacidad residual funcional), RV: Volumen Resi-
dual, TLC: Capacidad Pulmonar Total

Med1: medicion basal, Med2: Medicién postobroncodilatador, *Difer: % de diferencia entre Medl
y med2
 
 
 
 
 
 
 
 
 
 
 
 
 
 

 

hae
iar
lta)
 
 
 
 
 
 
 
 
 

 

WEVOAIMCOAGUATE  AceHocUNAROL skate risk ato
sup po ma ara nae act
TABLE 2 ang to mae erat
2.BOTTIC 10 502 5 608 92% — 2.02 (0.70, $.88) a |
rotten sie sera tis ost 04n.a0a _

2 “

Pee |
Ge aa.rasi oe a A

  

Testfor overall efect 2= 2.24 (P= 0.03)

 

Favorece al nueva Favorece al acenocumarol
Resultados del estudio

objetivos

Primario

Tromboembolismo arterial

Jetus
aT
Embolismo sistémico
Sangrado grave

Secundario
Muerte
Infarto de miocardio
Trombosis venosa profunda
Embolia pulmonar
Sangrado menor

& valor de p para no inferioridad
* valor de p para superioridad

Tratamiento con Placebo —_Anticoagulante puente
(w=918) (W=895)

‘ntimero de pacientes (%)

(04) 3103)
2 (0,2) 3(03)
2 (0,2) 0

0 o
12 (1,3) 29 (3,2)

5 (05) 4 (04)
7 (0,8) 14 (1,6)
0 10,1)
oO 1(0,1)

110 (12,0) 187 (20,9)

0,018, 0,73"

gat
oat
0,25*
0,25*

<0,001"

 
 
 
 
 
 
 
 
 

 

 
 
cuyetyerse
Pe eek

 
16477820
PAST Ogle}
Bebb)

$f
ABDOMINAL
YAS} o3
ed

Sia ea 4
~1dB/DR60

Elo Mat tert
Selec Or Aer)

i

It

Orso OM ain)

 

 
 
 
6 Ope oSo 16 5008".
age ear SRL af
Ne 0b 0, Wed OOO. oe
oc. 7 gue 9¢ @Yo BOS aie ‘
,0 "90.0 © gc? OF og. o® One

b os Boere
 
 

¢ eh Een B= C|Pistackimaurcom |
Funnel plot with pseudo 95% confidence limits

 

 

 

o4 *
7\N
a a
®\
# .
reg “
a e ee
o7 / e@ a
‘pe eo ©
/ €?@ |®e@\
/ %
a 7 \
Oo / 3 ee
. 4 7 \
6 So / \
; / \
o / \
0) / \
/ 4
© 1 / \
° A \
/ \
/ e \
2 J
° oT T T T T
-2 -1 0 1 2

OR
Tira reactiva realizada a la orina de la paciente

cond A

1005 101010151020

 

  

pH

Leucocitos

 

 

 

Nitritos

 

Proteinas

Glucosa

Cetonas

Urobilindgeno

Bilirrubina

Eritrocitos
+ Hemoglobina

 
STN]
4

a)

i)

C113

 

 
 
 
 
 
Flow

 

3 4
 
 

 

 

 

 
 
 

 

 

3 i Mj
a
ae
, _ ‘ f
C

 
Dcho Izqdo

  
 
 
 
 
 
 
 
 

 

 

 

 

 

 

 
 
 
 

 

 

 

 

 

 

 

 

 

 

 
Tira reactiva realizada en la orina del paciente

Densidad

 

pH

Leucocitos

 

 

 

Nitritos

 

Proteinas
Glucosa
Cetonas

Urobilindgeno,

 

rrubina

Eritrocitos
+ Hemoglobina

 

Sedimento de orina x 200

 
 
 
 

 

 

 

 

 

 

 

 

 

 

 

 

 

 

 

 

 

 

 

 

 

 

 

 

 

 

 

 

 

 

 

 

 

 

 

 

 

 

 

 

 

 

 

 

 

 

 

 

 

 

 

 

 

 

 

 

 

 

 

 

 

 

 

 

 

 

 

 

 

 

 

 

 

 

 

 

 

 

 

 

 

 

 

 

 

 

 

 

 

 

 

 

 

 

 

 

 

 

 
 
 
 
 
 
PA,
rambig

20

161

121

80.

40:

 

 

 

 

 

 

 

Fak

 
 
 
 

 
 
 
Tabla. Comparacion de mirgliptin (tratamiento experimental) versus metformina
(tratamiento control) en la tasa anual de eventos cardiovasculares (andlisis secuencial de no
inferioridad seguido de superioridad).

 

 

 

Variable mirgliptin metformina Hazard ratio Pde no Pde
n= 7330 n=7340 (IC 95%) inferioridad* | superioridad
n(%) Tasa n(%) Tasa
anual anual
ee ek
Eventos 830 4,03 850 4,15 0,97 0,01 0,68
cardiovasculares* (11,3) (11,6) (0,69 a 1,26)

 

 

 

 

 

 

 

*

 

 

IC = intervalo de confianza.

*El limite de no inferioridad se prefijé en un hazard ratio de 1,30.

**Variable combinada de muerte cardiovascular, infarto agudo de miocardio no fatal, ictus no fatal u
hospitalizacién por angina de pecho.

***Eventos por cada 100 pacientes-anio.

 
 
 

 
 
 
a

ives, =
1 i.

P 2 ee
cue

 
 

 
 

 

er ETT

Mite att alalabdal

SH

 

 
 

 

 
 
 

 
 
a ard

 

Plas}

Peart

a lard
et

yA}
re

ath
TA)

ie4
65%
2.5MHz
aaeAle
Le

 

 

Pla}

Lia
Bae

a am:)
ry

PSR duy
 
ARCADIS

SanUl eh a
01/09/2017
VAC ays
era ee

OR Bia t-\8

 
 
 

 
Pa.

    

57.0 mm (Hadlock
28

MirMeApp

Esperamos que estos meses
MirMeApp te haya ayudado
a aumentar tus netas
jMucha suerte el #1F!

El equipo MirMeApp
Ver la respuesta comentada
ae
G)
a
yp. N
7
A
 
oe

Ld
nt
a
s

=
a
oO
>a
a
re
<
a
a
pi.’
Vy
 
 
 
 
 
a
 
BT
ed
Quizlt Mobile
 
 
 
 
 
 
 
 
 
 
a
a
rN
cc
eS
a
&
MirMeApp
on

oF
rs
a
a
 
aK
rh
1 F
ey
HE
eT
S

og
@
rs
a
>a
a
a
a
7
 
Cia tat are Ma aot: |

   

 
 
 
 
 
wl
 
 
re
 
re
 
Enfermedad
SI NO
Prueba
Positiva 80 100
Negativa 20 800
 
Autopsia
Ucera No tilcera
Diagnéstico clinico
Ulcera 130 20
No tlcera 170 9680
- 0
Us
Ne

Fx
ripe Whee

dee «
am. ate

Ste

 
 
 
 
 
 
 
 
NAME
108)

COMMENT
Facility

 
 

 

 

 
 
 
 
 
 
 
 
 
 
 
 
 

 
 
 
 
 
 
 
 
 
 
 
 
 
 
 
 
 
 
 

 

 

 

 

 
 
Lesion 1

Lesion 3

 
GE MEDICAL SYSTEMS pr
BrightSpeed hpe_ct0S_ge

     

Ex: 10124

Sia ; ae) =P)
Im: S61+¢ ee eee
Dae Cisse a Pdestee=s= 0)

  
  
  

ay eiae Tse mega eu Sai vig tg Pee
ola : ‘

aan Pee
irae be %
iin) ge geen}

eetgr tes EE rey Ua on, Lio
1.250mm/27 50 1.375:1

Tea a)
0.6s sHED4 52 RR ae ELE Bat
Lene
 
 

 
 
oo ini
r

ut
LALA A eine It A an

{ i ee j i i j | i j

|

ef Lae LPN AL as a ol Am

HE
hh tL ei ry He ie nw ond IA Aa

aot | j 4 i i

Poa
i

ada, aN i Fae rae

 

   

Ee WWrinlun. { el Aa
ioe Shia ite pe aa HR RRA
~ ee a

ee yy

LARA Ens
aUL. Oe ALAA

ey Say Poa ate

nae

bet ee ee

ae A LS Ae Ok kk
 
 
 
 
    

o
Age Neel ceo ne

A Bobet A 4 pda]

abe a al i by

! Tampa
fy re

i ddan A uA AS

yayAroletoleole

ery
deletes cern

|e,

AW Ne
A
ae

i
| aa aera ne tsa
foyer

 

ape

 

dpa
 
     

380
eee ces ad
at

Eu kes

 
 
bt a RJOSE

Tired a — on Study Date: 19/09/2001-
eS ; BS On aT sea

ied

 
 
 

 

 

 
 
 
Figura 8.1. Grifico de Kaplan Vieler de tiempo de supervivenda libre dle progresidin (evaksadién principal
[Conjunto de analisis de todos kos packertns inchides)

  
 
  

100%
Crusade Tiseaerioetn

Partusrartads + 880: fg}
-—-  Kisoh=ay

 

Eventos Ibres de progresian
3
#

0 2 4 6 & WY HM 18 18 22 BM MB HW BWM W WwW a 42 44 4H 4 D

Somanss
Sujetosarrieggo
Paturumab+es: «6-291 217 203 197 118 &S 78 85 49 dt 4 4 Sf 2 ee UB AGU klk 4
Batsalo 930°209 17S HE 7S 44S ot FOF OF SOS SS Ok A At OTH to
 
 
 
 
 

 
 
 

 

 
TORAX PORTATIL

epee =
92 ANO 12/09/2014 19:13:17
‘a RIS701211107891

  

CPB Urz,
Eamonn)
corel
pn

Corel TCC UYAS

Pagina: 1 de 1 He Taleb
aan 10 ‘ome | ‘ral at V1) ean) ease Seen

  

       

FpLe7

 

 

 

 

 

 

 

joe | @{[ TT i) on nn) TL OT TTT) 992060 | ine fmt cw
2 =

ee
one =
%
’ Salter an

as

$2 aet

2 a4
aes
ay

ek

9°
s

< ¢ )
q Wee ase
eye
® e*
@ ogee
s -,\e
‘ Bees: S

 
 
 
 
 
 
 
 
 
|

aVL

avF

det tet to bbb pet
     
       
     
     
 

8 MHz - SPEED: 20 mm/S - AMPLI.: 10 cm/S.
S/DINt2 910.414 SemvS-PIS.2-Ri:t-Puts S6-mmlg:142

Posterior Tibial Artery Posterior Tibial Artery

8 MHz - SPEED: 20 mm/S - AMPLI.: 10 cnv/S
SIDIM2. 50/2 1oT/S-PL'6.7-RE1-Puls:95-mmiig: 145

8 MHz - SPEED: 20 mm/S - AMPLL.: 10 cm/S.
‘SIDIM:3 10/0 ScnvS-PI'4 LRI:1-Puls:96-nmtig 54

Segmental Pres. => Calf

ere

8 MHz - SPEED: 20 mm/S - AMPLI.: 10 cmv/S
S/D/M-O//0emvS-PI:O-RLO-Puls:O-mmig:65

Segmental Pres. => lower Thigh Segmental Pres. => lower Thigh

Segmental Pres. => Calf

8 MHz - SPEED: 20 mm/S - AMPLI.; 10 cm/S
S/DIM6.8/0/3. 20=S-PIE 9-RE 1 -Puls:99-nmHg.141

 

 

 

 

 

8 MHz - SPEED: 20 mmv/S - AMPLI.: 10 cem/S._ |
‘SIDIM: 1.7/7 Ar2cm/S-PLG.9-RV0.4-Puls: 1024nmHg'170

8 MHz - SPEED: 20 mm/S - AMPLI.: 10 cm/S.
SIDIM:4.71010 SenvS-P120.2-Ri-1-Puls.87-mmHg:73
 
 

Exploraci6n Funcional Respiratoria

 

 

Apellidos: Identificaciés

Nombre: Grupo teorico:

F. Nacimiento: 19/06/1954 Edad: 60 Afios

sexo: hombre Altura: 169,0 cm
Peso: 74,0 kg

 

 

ant i | extn tea ee

 

 

 

 

 

 

 

Vo despiazaco fr}

 

{Teno (seo)
30205065

 

 

 

 

 

ESPIROMETRIA Medl Teérico %Medl/Teor Med2 %Med2/Teor _*Difer
FVc [t] 1.47 3.83 38.3 1.54 40.2 4.7
FEV 1 165} 0.72 3.04 23.8 0.77 25.3 6.9
FEV 1 / Fvc [8] 49.18 76.41 64.4 50.00 65.4

PEF [t/s] 2.11 7.95 26.5 2.10 26.4 -0.5
FEF 25 [L/s] 0.75 7.02 10.7 0.77 10.9 2.6
FEF 50 [L/s] 0.42 4.20 10.1 0.49 11.5 16.7
FEF 75 [L/s] 0.11 1.51 1.5 0.13 8.7 18.1
MMEF 75/25 [L/s] 0.22 3.40 6.5 0.23 6.7 4.4

 

 

 

DIFUSION DE CO Medi Teérico %Med1/Teor
TLCO SB {mmol /min/kPa] 2.15 8.79 24.4
VA [L) 3.96 6.27 63.2
TLCO/VA {mmol /min/kPa/L] 0.54 1.37 39.6
PLETISMOGRAFIA Med1 Teérico *Med1/Teor
ITGv {hb} 8.52 3.40 250.3
RV (Lh) 7.63 2.30 331.2
TLC (L] 9.29 6.42 144.6
RV / TLC % ($] 82.15 37.36 219.9
ABREVIATURAS:

FVC: Capacidad Vital Forzada, FEV1: Volumen Espiratorio Forzado primer segundo, PEF: Flujo
Espiratorio Pico, FEF: Flujo Espiratorio Forzado al 25, 50 y 75% de la FVC, MMEF 25/75: Flujo
Mesoespiratorio Maximo, TLCO: Capacidad de Difusién de CO, VA: Volumen Alveolar, ITGV:
Volumen de Gas Intratoradcico (equivale a la capacidad residual funcional), RV: Volumen Resi-
dual, TLC: Capacidad Pulmonar Total

Med1: medicion basal, Med2: Medicién postobroncodilatador, *Difer: % de diferencia entre Medl
y med2
 
 
 
 
 
 
 
 
 
 
 
 
 
 

 

hae
iar
lta)
 
 
 
 
 
 
 
 
 

 

WEVOAIMCOAGUATE  AceHocUNAROL skate risk ato
sup po ma ara nae act
TABLE 2 ang to mae erat
2.BOTTIC 10 502 5 608 92% — 2.02 (0.70, $.88) a |
rotten sie sera tis ost 04n.a0a _

2 “

Pee |
Ge aa.rasi oe a A

  

Testfor overall efect 2= 2.24 (P= 0.03)

 

Favorece al nueva Favorece al acenocumarol
Resultados del estudio

objetivos

Primario

Tromboembolismo arterial

Jetus
aT
Embolismo sistémico
Sangrado grave

Secundario
Muerte
Infarto de miocardio
Trombosis venosa profunda
Embolia pulmonar
Sangrado menor

& valor de p para no inferioridad
* valor de p para superioridad

Tratamiento con Placebo —_Anticoagulante puente
(w=918) (W=895)

‘ntimero de pacientes (%)

(04) 3103)
2 (0,2) 3(03)
2 (0,2) 0

0 o
12 (1,3) 29 (3,2)

5 (05) 4 (04)
7 (0,8) 14 (1,6)
0 10,1)
oO 1(0,1)

110 (12,0) 187 (20,9)

0,018, 0,73"

gat
oat
0,25*
0,25*

<0,001"

 
 
 
 
 
 
 
 
 

 

 
 
cuyetyerse
Pe eek

 
16477820
PAST Ogle}
Bebb)

$f
ABDOMINAL
YAS} o3
ed

Sia ea 4
~1dB/DR60

Elo Mat tert
Selec Or Aer)

i

It

Orso OM ain)

 

 
 
 
6 Ope oSo 16 5008".
age ear SRL af
Ne 0b 0, Wed OOO. oe
oc. 7 gue 9¢ @Yo BOS aie ‘
,0 "90.0 © gc? OF og. o® One

b os Boere
 
 

¢ eh Een B= C|Pistackimaurcom |
Funnel plot with pseudo 95% confidence limits

 

 

 

o4 *
7\N
a a
®\
# .
reg “
a e ee
o7 / e@ a
‘pe eo ©
/ €?@ |®e@\
/ %
a 7 \
Oo / 3 ee
. 4 7 \
6 So / \
; / \
o / \
0) / \
/ 4
© 1 / \
° A \
/ \
/ e \
2 J
° oT T T T T
-2 -1 0 1 2

OR
Tira reactiva realizada a la orina de la paciente

cond A

1005 101010151020

 

  

pH

Leucocitos

 

 

 

Nitritos

 

Proteinas

Glucosa

Cetonas

Urobilindgeno

Bilirrubina

Eritrocitos
+ Hemoglobina

 
STN]
4

a)

i)

C113

 

 
 
 
 
 
Flow

 

3 4
 
 

 

 

 

 
 
 

 

 

3 i Mj
a
ae
, _ ‘ f
C

 
Dcho Izqdo

  
 
 
 
 
 
 
 
 

 

 

 

 

 

 

 
 
 
 

 

 

 

 

 

 

 

 

 

 

 
Tira reactiva realizada en la orina del paciente

Densidad

 

pH

Leucocitos

 

 

 

Nitritos

 

Proteinas
Glucosa
Cetonas

Urobilindgeno,

 

rrubina

Eritrocitos
+ Hemoglobina

 

Sedimento de orina x 200

 
 
 
 

 

 

 

 

 

 

 

 

 

 

 

 

 

 

 

 

 

 

 

 

 

 

 

 

 

 

 

 

 

 

 

 

 

 

 

 

 

 

 

 

 

 

 

 

 

 

 

 

 

 

 

 

 

 

 

 

 

 

 

 

 

 

 

 

 

 

 

 

 

 

 

 

 

 

 

 

 

 

 

 

 

 

 

 

 

 

 

 

 

 

 

 

 

 

 

 

 

 

 
 
 
 
 
 
PA,
rambig

20

161

121

80.

40:

 

 

 

 

 

 

 

Fak

 
 
 
 

 
 
 
Tabla. Comparacion de mirgliptin (tratamiento experimental) versus metformina
(tratamiento control) en la tasa anual de eventos cardiovasculares (andlisis secuencial de no
inferioridad seguido de superioridad).

 

 

 

Variable mirgliptin metformina Hazard ratio Pde no Pde
n= 7330 n=7340 (IC 95%) inferioridad* | superioridad
n(%) Tasa n(%) Tasa
anual anual
ee ek
Eventos 830 4,03 850 4,15 0,97 0,01 0,68
cardiovasculares* (11,3) (11,6) (0,69 a 1,26)

 

 

 

 

 

 

 

*

 

 

IC = intervalo de confianza.

*El limite de no inferioridad se prefijé en un hazard ratio de 1,30.

**Variable combinada de muerte cardiovascular, infarto agudo de miocardio no fatal, ictus no fatal u
hospitalizacién por angina de pecho.

***Eventos por cada 100 pacientes-anio.

 
 
 

 
 
 
a

ives, =
1 i.

P 2 ee
cue

 
 

 
 

 

er ETT

Mite att alalabdal

SH

 

 
 

 

 
 
 

 
 
a ard

 

Plas}

Peart

a lard
et

yA}
re

ath
TA)

ie4
65%
2.5MHz
aaeAle
Le

 

 

Pla}

Lia
Bae

a am:)
ry

PSR duy
 
ARCADIS

SanUl eh a
01/09/2017
VAC ays
era ee

OR Bia t-\8

 
 
 

 
Pa.

    

57.0 mm (Hadlock
28

MirMeApp

Esperamos que estos meses
MirMeApp te haya ayudado
a aumentar tus netas
jMucha suerte el #1F!

El equipo MirMeApp
Ver la respuesta comentada
