 
 
a

 
 
 
y

=

y
 
I
y

=

y
 
a
Cl
 
 
 
»
 
.
 
 
 
 
 
|
 
 
G)
 
 
 
 
 
 

 

 

 

 
2
 
 
 
 
 
 
 
 
 
 
 
 
 
 
 
 
a
C3
CS
 
 
 
 
 
 
 
 
 
 
 
 
 
 
 
 
 
 
 
 
 
 
 
 
 
 
 
 
 
 
 
 
 
 
 
 
 
 
 
 
 
 
 
 
 
 
 
 
 
 
 
 
 
 
 
 
 
 
 
 
 
 
 
 
 
 
 
 
 
 
 
 
 
 
 
 
 
 
 
 
 
 
| ae
 
 
 
 
 
 
 
 
Wd
 
 
 
 
 
 
 
 
 
 
 
 
 
 
 
 
 
 
 
 
 
 
 
 
 
 
 
 
 
 
 
 
 
 
 
 
 
.
—<e ‘e

AO
ee
 
oat
coe
a
a

a

a
a

a

a
 
a

a

a

a
a

a

ae
<
ca oN
Ca
a

a

a

a

a

a

a
 
a

 

a
 
a

a

i a

a

a
 
a) Yat
"aN.

x

—_ -
a a
 
a

a
Q
a ) Aer,
ba
f
I
 
ot
a®

On

BN

22

+

Nig
a

a

a
a
a
 
On

Ne
‘oe
 
 
 
 
ea

els

“OH

 
 
f
I
 
H3C CHs eae Cin ne)
SORE SS

one
 
Themes

N

On.)

Oink Oi)
T-Saw~

O

OH
 
a

a
a

a

a
a
ee

a a

re

a

a
[
a

 
G)
 
 
 
 
 
 

 

 

 

 
2
 
 
 
 
 
 
 
 
 
 
 
 
 
 
 
 
 
 
 
 
 
 
 
 
 
 
 
 
 
 
 
 
 
 
 
 
 
 
 
 
 
 
 
 
 
 
 
 
 
 
 
 
 
 
 
 
 
 
 
 
 
 
 
 
 
 
 
 
 
 
 
 
 
 
 
 
 
 
 
 
 
 
 
 
 
 
 
 
 
 
 
 
 
 
 
 
 
 
| ae
 
 
 
 
 
 
 
 
Wd
 
 
 
 
 
 
 
 
 
 
 
 
 
 
 
 
 
 
 
 
 
 
 
 
 
 
 
 
 
 
 
 
 
 
 
 
 
.
—<e ‘e

AO
ee
 
a
a

a

a
a

a

a
 
a

a

a

a
a

a

ae
<
ca oN
Ca
a

a

a

a

a

a

a
 
a

 

a
 
a

a

i a

a

a
 
a) Yat
"aN.

x

—_ -
a a
 
a

a
Q
a ) Aer,
ba
f
I
 
ot
a®

On

BN

22

+

Nig
a

a

a
a
a
 
On

Ne
‘oe
 
 
 
ea

els

“OH

 
 
f
I
 
H3C CHs eae Cin ne)
SORE SS

one
 
Themes

N

On.)

Oink Oi)
T-Saw~

O

OH
 
a

a
a

a

a
a
ee

a a

re

a

a
[
a

 
