nn
nn
ee
ne
ne
—
ne
ne
ne
nn
nn

ee

ne

—
—
_
—
_

'
:

—
—
—
—
oo

_
ee
ne
ne
a
a
—
ee
—

—

ee
—
—

 

 
>
>
>

:
:

7
_—
7
7
—_—

>
rr
rr
—
_—

_—

rr
_—
_—

 

 
7
_
~
TS
—
_
_

7

OOOO

7
_—
nn
nn
ee
ne
nn
nn
ne
ne
ne
nn
nn

ee

ne

nn
an
re
re
re
re
ee
re
re

BS

Bn

ee
OO
 
 
a

 
 
 
y

=

y
 
I
y

=

y
 
a
Cl
 
 
 
 
»
 
.
 
Cl
 
 
 
 
 
 
 
 
 
 
|
MEG
 
gl
 
he
G)
MEG
 
nn
nn
ee
ne
ne
—
ne
ne
ne
nn
nn

ee

ne

—
—
_
—
_

'
:

—
—
—
—
oo

_
ee
ne
ne
a
a
—
ee
—

—

ee
—
—

 

 
>
>
>

:
:

7
_—
7
7
—_—

>
rr
rr
—
_—

_—

rr
_—
_—

 

 
7
_
~
TS
—
_
_

7

OOOO

7
_—
nn
nn
ee
ne
nn
nn
ne
ne
ne
nn
nn

ee

ne

nn
an
re
re
re
re
ee
re
re

BS

Bn

ee
OO
he
G)
MEG
 
 
 
 
 
