CINDROID

developers
PRELIMINARY
 
 
.
.
 
 
y

=

y
 
y

=

y
 
 
 
(er
(er
 
i
, 4
a
, 4
, 4
, 4
, 4
, 4
Lo»
i>
L >»
i>
i>
i>
i
i
 
a
Cl
 
 
 
 
 
 
a

=,
»
 
.
 
 

 

G+

 

 
 
 
.
 
if
. f
[cry
[cry
 

 

G+

 

 

 
[cry
 
 
(er
 
 
 
(ong
(ong
 
 
 
oP teeta apc
 
ff
 
 
 
C
 
G+
G+
fa
 
7
=
Y
 
(er:
(er:
 
CINDROID

developers
PRELIMINARY
oP teeta apc
fa
ff
 
 
(er:
(er:
i
, 4
a
, 4
, 4
, 4
, 4
, 4
Lo»
i>
L >»
i>
i>
i>
i
i
7
 
=
Y
 
