 
 
a

 
a
a
 
 
 
y

=

y
I
y

=

y
 
 
 
 
 
a
cn
oO
A
7
 
 
 
 
 
we
ce
Quizit Mobile
yy
je)
A>
a
©
eo
 
rs
oe
_
 
©
9
<>
4
FirMeApp
7 on
&
x 2
. ¢
a
-
rs
Po
ry
@
rs
fs
3
7
 
 
o
oe
 
 
3
 
iy
FirMeApp
 
 
 
 
 
 
 
 
 
2
9
2
—_.
Ly
Cc)
A
oo
-s
oe
’
&
 
 
 
..
.¥
 
 
7
 
 
ey
- 2h
¢
wi

x)
i.

cy

a
=)
SF
a
Cl
 
OY"
sr
 
 
»
 
.
 
 
 
 
r
 
 
a
a
 
 
 
 
 
ea
a
i
a.)
 
 
 
a)
q
 
&
wy
 
a
7%
Wide tort
«)
oe
oe
oe
oe
 
 
—
 
eo
.
<a
ae
 
a
a
Co
03)
 
 
oe
Ao}
 
‘Up
Am
 
_
ar
aieuCaeyy))
Ce!
oe
&
 
Se
1
‘ea
7
&
"ys
a. )
_@
.
oa
bi
7}

rs
 
 
a
i
 
 
|
 
Ey
=
rN
 
7
 
A
Oo
 
 
a
 
rs
pa’
4
 

 
an
B
cay
re
<
Oraia Cyl (:
a
 
 
 
 
’
 
 
 
aK
oo
a
o
i
14
i’
 
-
i

a
 
a

a
coy
Ue
ee
rs
2
&
x 2
4
oF
4
&
=
rs
fs
my)
ae
G)
 
2
 
A
 
 
 
>
 
aie
oO
oo
>
4
yy
 
 
 
 
rd
OlUvalm Cy)
 
 
 
 
 
 
 
 
en
a
a
PCD
Lea
<
ye
a
rs
 
aK
rc

I
oo
 
a F
rs
a
ye
a
aia)
oe

Ld
nt
a
a
oO
 
A
oo
 
ae
re
<
yp. N
7
 
pa’
Ly
 
 
 
&
a
a
on

oF
BT
ed
Quizlt Mobile
eS
 
 
 
rN
cc
 
 
 
a
a
 
S

og
 
 
 
 
 
rs
a
a
 
aK
rh
1 F
ey
HE
eT
>a
a
a
a
@
rs
a
IOx

STRUM Se RENAN TC ome

ee

...ayUdanos a crecer compartiendo
TUT Ny eor MMM Ol TSO)
erates
SE .

Si MirMeApp te esta ayudando...

ee

Mee N CET S-Man tesla Y- TENET 0)
UC RMA RaeL Ser eee
Enfermeria

 

a oT
wl
re
re
ae
G)
 
yp. N
7
A
oe

Ld
nt
a
a
oO
a
oo
re
<
pa’
Ly
BT
 
 
ed
 
 
Quizlt Mobile
&
 
 
 
 
on

oF
 
 
 
S

og
 
 
 
 
a
a
 
aK
rh
1 F
ey
HE
eT
rN
cc
rs
a
a
a
 
 
eS
>a
a
a
a
@
rs
a
7
 
IOx

STRUM Se RENAN TC ome

ee

...ayUdanos a crecer compartiendo
TUT Ny eor MMM Ol TSO)
erates
SE .

Si MirMeApp te esta ayudando...

ee

Mee N CET S-Man tesla Y- TENET 0)
UC RMA RaeL Ser eee
Enfermeria

 

a oT
wl
re
re
