 
 
a

 
 
 
y

=

y
 
I
y

=

y
 
a
Cl
 
 
 
»
 
.
 
 
 
 
 
|
 
 
G)
G)
