 
 
 

 

VISA

 

 
 
 

 

AMEX

 

 
 

 

eo

 

 
a

 
 
 
y

=

y
ce)
EEE EE IEE IE IE ES EE EEE IE EE EE EEE IE EEE IE IEE OE IE EE SE BE:COE_EE!' ERE REERE EE IEE EE EE EEO IEEE IEE! OB

rr rr
ee
 

DIScevER
y

=

y
Pe
 
 
 
DIRECT

Care. No matter what.®
 

 

Uo

 

 
 

 

a7

 

 
a
Cl
gl
 
 
 

 

ah

 

 
 
 

 

AMEX

 

 
»
 

“cot
 
.
@e
 
DIRECT

Care. No matter what.”
 
 
 

 

AMEX

 

 
 

 

ota

Preece

 

 
 

 

VISA

 

 
 
 
 

DISC@®VER
C
 
NI]
a
NI]
a
“a
a
“a
a
“a
a
“a
a
“a
a
“a
a
a
a
“a
a
DIRECT

Care. No matter what.®
IO
DISC@VER
 
-
PAW,
(e309

1234 5678 9012 3456

 
VISA
a
~\
a
~\
“a
a
we
a
we
a
EY
a
EY
a
Te
a
we
a
>
a
>
a
~
a
we
a
~\
a
“a
a
i
ia
(aN IDaR

1234 5678 9012 3456

 
VISA
 
 
Pirttag
 
>.
 
 
VISA
(aN IDaR

1234 5678 9012 3456

 
-
i
ia
DIRECT

Care. No matter what.®
Pirttag
“a
a
we
a
we
a
EY
a
EY
a
Te
a
we
a
>
a
>
a
~
a
we
a
~\
a
~\
a
~\
a
“a
a
 
 
 
>.
 
 
