iitele(-a a cleclarel ei

This image will load automatically
eee one
Image Unavailable

CO

We are unable to load this image as
the device is currently offline
 
 
 
 
Ir
 
 
y

=

y
I
 
y

=

y
 
 
DynamicHealtn
DAY ar- lanl marl da
 
 
 
 
 
 
a

 
ea lated
 
 
 
 
 
a
 
©
a
 
 
 
 
DynamicHealtn
 
a
Cl
 
 
 
 
 
 
»
 
 
.
 
 
 
 
 
 
 
 
 
 
 
DynamicHealth’
 
 
 

 

 

 

 
 
 
 
 
 
 
.
 
4
 
PP iat lei elm = lta
 
 
 
auue
 
 
 
Oe
ey
 
 
 
pric)
 

 
 
 
 
 
NO IMAGE
DynamicHealth’
PA ars] anleaclae
 
 
ro
 
 
7

<
 
|
 
 
 
 
DynamicHealth’
DynamicHealth
 
 
 
 
|
DA are lanl eimiec lean
 
4
 
 
ac |
 
 
 
 
©
a
(
DynamicHealth’
 
 
ic
P<
S
DynamicHealtn:
DynamicHealtn
—
— 2
mii}
OY
4

p
w
G)
DynamicHealtn
S|
|
 
 
 
 
DynamicHealtn:
in
mii}
»
re
<<
—
—— A
tt)
seces
rrr)
DynamicHealtn’
a
 
DynamicHealtn’
DynamicHealtn
Py
oy
an
 
a
Paes
ce
a
Dynamic
Health”
an
Dynamic
mioelia
a
iitele(-a a cleclarel ei

This image will load automatically
eee one
Image Unavailable

CO

We are unable to load this image as
the device is currently offline
re
<<
DynamicHealtn’
DynamicHealtn
—
—— A
tt)
seces
rrr)
in
mii}
»
G)
DynamicHealtn
 
Dynamic
mioelia
a
 
 
 
 
 
DynamicHealtn’
 
 
 
 
 
pric)
 

 
 
 
 
 
NO IMAGE
a
