 
 
a

 
 
 
y

=

y
 
I
y

=

y
 
a
Cl
 
 
 
»
 
.
 
 
 
 
 
|
 
 
G)
:
A
 
%
 
A
 
 
A
 
 
Fy
A
 
nd
 
: /
WA
 
 
 
G)
: /
WA
 
 
 
