7
a
kuraray
 
 
 
a

 
 
 
 
y

=

y
I
y

=

y
 
SO
 
_
_
a
a
Cl
 
 
 
—
—
»
><
kuraray
 
.
 
a
 
 
kuraray

Noritake
 
 
Poesy

Mel) ig
 
 
 
 
|
iC
 
welcome to
Zappar

 

Prepare to add a little zap to your life.
Tap or slide to continue.
kuraray

Noritake
 
seca} PLA rE

 

Using Zappar is simple - just aim at a
zapcode to unlock its hidden content.
—
—
zap
a
OO
 
kuraray

Noritake

 
~
—
a
 
>>
<<
G)
a
a
Oe
OO
a
a
 
 

 
FIOOF!, =
YA! lOO! =1-2
 

 

 

 

 
re

re
en
ae
ee

a
ne
7
a
kuraray
 
a
a
<<
G)
a
kuraray

Noritake
>>
kuraray

Noritake

 
Poesy

Mel) ig
iC
welcome to
Zappar

 

Prepare to add a little zap to your life.
Tap or slide to continue.
 
seca} PLA rE

 

Using Zappar is simple - just aim at a
zapcode to unlock its hidden content.
zap
 
Oe
OO
 
 

 
FIOOF!, =
YA! lOO! =1-2
 

 

 

 

 
re

re
en
ae
ee

a
ne
