 
 

 

10° - Clear 6:40 PM |
Northland - Jun 5 6:40 PM i

 

(By Pave O'Brien 7:12 PM
ee dinner Saturday?

 
 

   
  

SENSES NATE ET NEES EY

My Emergency Info

Swipe down for more

wor = motes

 

ry
O
O

e
Ly.

 
Spark NZ

10°- Clear
Northland - Jun 5 6:40 PM

 

Medic Alert 123456

Deep Vein Thrombosis (DVT) in 2012,
2013. Warfarin 5mg once a day.

Wife: Wendy Smith, +1 416 345 6789,
wendy.smith@acme.com

GP: Susan Marshall, Foobar Medical
Centre, Toronto, +1 416 567 8901

Tap for more info

es dinner Saturday?

 
I.C.E. Lock ?

 

Medic Alert 123456

Deep Vein Thrombosis (DVT) in 2012,
2013. Warfarin 5mg once a day.

Wife: Wendy Smith, +1 416 345 6789,
wendy.smith@acme.com

GP: Susan Marshall, Foobar Medical
Centre, Toronto, +1 416 567 8901

Additional info

Children:

Jane Smith, Toronto, +1 416 234 5678
Daniel Smith, Montreal, +1 778 123
4567

 
Notifications on lock screen

Show all content

Hide content

Do not show notifications O

CANCEL

 
 
 

 

10° - Clear 6:40 PM |
Northland - Jun 5 6:40 PM i

 

(By Pave O'Brien 7:12 PM
ee dinner Saturday?

 
 

   
  

SENSES NATE ET NEES EY

My Emergency Info

Swipe down for more

wor = motes

 

ry
O
O

e
Ly.

 
Spark NZ

10°- Clear
Northland - Jun 5 6:40 PM

 

Medic Alert 123456

Deep Vein Thrombosis (DVT) in 2012,
2013. Warfarin 5mg once a day.

Wife: Wendy Smith, +1 416 345 6789,
wendy.smith@acme.com

GP: Susan Marshall, Foobar Medical
Centre, Toronto, +1 416 567 8901

Tap for more info

es dinner Saturday?

 
I.C.E. Lock ?

 

Medic Alert 123456

Deep Vein Thrombosis (DVT) in 2012,
2013. Warfarin 5mg once a day.

Wife: Wendy Smith, +1 416 345 6789,
wendy.smith@acme.com

GP: Susan Marshall, Foobar Medical
Centre, Toronto, +1 416 567 8901

Additional info

Children:

Jane Smith, Toronto, +1 416 234 5678
Daniel Smith, Montreal, +1 778 123
4567

 
Notifications on lock screen

Show all content

Hide content

Do not show notifications O

CANCEL

 
