 
http://
 
WV CevLs

ts
 
Ween
 
y

=

y
I
 

 

MyMercyit

 

 
y

=

y
 
 
zm,
a

 
a
 
 
 
 
 
 
VISA
B:
 
ay

2
 
a
<[>
a
 
ne
an
C7
=
ry)
 
 
A
 
 

 

|

 

 
 
a <
a <
a <
 

 

 

Sen OEE) = SN — = ee lees) Ve |=}

 

 

 

 
 

 

ca MyChari

 

 
I) 6g9 a * 1099 2) 5 ee

 
 

 

ca MyCnart

 

 
 

 

 

 

 

 

 

 

 

 

 

 

 
 

 

ca MyChari

 

 
I ogy 7 EEEF aH o= aN =| |e ha

 

5
o
l

 

 

 

 

 

 

 

 

 

 

 

 

 

     
 

 

ca MyChari

 

 
 

 

 
 

 

 

 

 
Decal

(Epic)

 
a
 
Cl
powered by |
powered by

 
ele oe ey
 
hittp//
 
 
WV CevLs

ts
Ween
»
 
 

 

MyMercyit

 

 
.
 
 
 
Lr §
 
 
 
 
 
 
 
cr rcs
 
ry)
3}
 
 
3}
1
 
 
 
 
 
 
 
a
oe
| oT |
| |
| |
http://
 
 

 
 
WV CevLs

ts
 
Ween
 
|
 

 

\\yMercyit

 

 
 
 
a
 
 
 
 
 

powered by
at
[—
2)
r_/y)
3)
Ea
 
a
<[>
a
D
 
 

 

|

 

 
a
a
 
| |
| |
| |
 
http://
 
 
WV CevLs

ts
Ween
 

 

\\yMercyit

 

 
 
Ly
*
 
 
G)
tS
5
 
Ea
 

powered by
WwW
rT
a
a
—
t /y)
 
 
Ls
123

AZ
http://
=I
WV CevLs

ts
 

 
Ween
 

 

\\yMercyit

 

 
 
 
 

powered by
WW
<[>
a
Ls
a
ee
a
mz
pa
ry
 
 
t /
 
a
 
 
 
 
ry Ca Ca Ca Ca Ca Ca Ca Ca Ca Ca Ca
eee ee eee ee eee ee eee ee eee ee ee ee ee ee eee ee eee ee eee ee ee ee ee
=
=
=
=
+
un
oll Lue
_
oll Lue
_
=
Co
1
1
http://
 

 
 
WV CevLs

ts
Ween
 

 

\\yMercyit

 

 
 
Ls
123

AZ
a
 
G)
 

powered by
=I
VISA
 
 
 
 
at
WW
<[>
a
Ls
a
ee
a
mz
C7
pa
ry
t /
A
a
 
 
 
 
ry Ca Ca Ca Ca Ca Ca Ca Ca Ca Ca Ca
eee ee eee ee eee ee eee ee eee ee ee ee ee ee eee ee eee ee eee ee ee ee ee
oll Lue
_
=
Co
1
1
