 
 
 
a
 
 
 
y

=

y
eT dita

a
ew”
y

=

y
re
 
is

iN
portal.
Ve

iN
portal.
is

iN
portal.
a
Cl
 
 
 
 
»
 
.
 
VC

m
portal.
 
 
(4
 
 
 
a
|
 
 
Ve

iN
portal.
C
 
is

iN
portal.
xe
 
a
 
<,
B)]
A
 
 
1G

1
portal.
tN]
portal.
SC Dignity Health.
Healthe,
iD
portal
He
 
Le
cy %
tae
%

portal.
$e
LN
teat)
 
ig

i
Ae
uN
portal.
 
ng

iH
portal.
 
 
 
Ju
ee
a
|
 
eT dita

a
ew”
re
tN]
portal.
 
 
 
<,
B)]
A
 
 
SC Dignity Health.
Healthe,
uN
portal.
 
ng

iH
portal.
 
Ju
ee
