 
 
 
 
y

=

y
y

=

y
 
 
a
Cl
 
 
 
»
 
.
 
 
 
 
 
 
C
 
 
 
 
 
 
 
 
