 
 
 
zm,
 
 
y

=

y
http://
y

=

y
 
 
a

 
 
 
¥ Filters
 
 
a er
Fea 1 aD

eSEALTH
 
VISA
a
 
ay

2
 
 
B:
WwW
<[>
 
a
 
ae
a
ae
C7
=
ry)
 
 
A
a <
a <
a <
 
 

 

icp

 

 
 
 

 

 

Sen OEE) = SN — = ee lees) Ve |=}

 

 

 

 
I) 6g9 a * 1099 2) 5 ee

 
 

 

 

 

 

 

 

 

 

 

 

 

 
I ogy 7 EEEF aH o= aN =| |e ha

 

5
o
l

 

 

 

 

 

 

 

 

 

 

 

 

 

     
 

 

 
¥ Alters
 
see Pah)

HEALTH
=e Sa

ME & ise
Decal

(Epic)

 
a
 
Cl
powered by |
powered by

 
gl
ele oe ey
 
 
 
»
 
.
 
 
Lr §
 

7 SERRA e 8)

HEALTH
=U ha By

) | <a ee — |
 
 
 
 
¥ Filters
 
 
 
 
 
 
me
 
1
cr rcs
 
 
ry)
 
 
 
3}
3}
 
 
 
| oT |
| |
| |
http://
 
 
 
 
 

 
 
C
 
a
“a
SAIN Fed RID

HEALTH
NI]
 
F Filters
a
NI]
 
a
a
“a
a
“a
a
~ Fe ONE et eB)

HEALTH
“a
a
“a
a
“a
a
a
a
“a
a
 
 
 

powered by
 
at
Ea
4
<[>
a
D
[—
r_/y)
2)
3)
 
 
 
| |
| |
| |
 
http://
IO
 
 
 
Ly
nO 3 @ DB)

awe
 
SAN FIRD

HEALTH
Sa
-
 
“a
a
we
a
we
a
EY
a
EY
a
Te
a
we
a
>
a
>
a
~
a
we
a
~\
a
~\
a
~\
a
“a
a
i
ia
tS
 
5
 
 

powered by
*
 
Ea
WwW
rT
a
a
 
Ns
—
t /y)
 
¥ Filters
 
 
Ls
 
 

 
123

AZ
SAN FIRD

ia.
http://
—eUN i OD)

HEALTH
 
=I
 
 

powered by
 
WW
te
a
Ls
a
ee
a
mz
pa
ry
t /
a
 
 
 
 
ry Ca Ca Ca Ca Ca Ca Ca Ca Ca Ca Ca
eee ee eee ee eee ee eee ee eee ee ee ee ee ee eee ee eee ee eee ee ee ee ee
SANF®RD
 
 
PNT Tey
SON)
SANF3RD

HEALTH
Noe
SANF®RD
SANF23RD

ee
SANF@RD

HEALTH
SANFS3RD

Pres
SANF3RD

HEALTH
SANF3RD

Tee
1
1
 
 
 

 
Ls
http://
123

AZ
ia
 
¥ Filters
-
 
=I
—eUN i OD)

HEALTH
SAN FIRD

ia.
 
VISA
i
a
 
 

powered by
at
 
 
WW
te
a
Ls
 
a
ee
a
mz
C7
pa
ry
t /
A
a
 
a
“a
we
a
we
a
EY
a
EY
a
Te
a
we
a
>
a
>
a
~
a
we
a
~\
a
~\
a
~\
a
“a
a
 
 
 
ry Ca Ca Ca Ca Ca Ca Ca Ca Ca Ca Ca
eee ee eee ee eee ee eee ee eee ee ee ee ee ee eee ee eee ee eee ee ee ee ee
SANFS3RD

Pres
SANF3RD

HEALTH
SANF3RD

Tee
1
1
