rt

eS
Se ask ah ena el ME Celt)
erst Ma eS. cs MDA OE eek
 

2011-11-08

ae 128mgai
BR 103mgai
BR (Ah205RH) 143 mgt
oR 110 mgt
2011-11-09
ae 119mg

SAR (Re 205R5) 174mgiai

BR oid

 
 

2011-11-08

wR
BR

dR

2011-11-09

wR

BR

PE =)

128mgai
103mgai
143 mgai
110 mgt

119mgai
174myai

  
     
  

sib aed

2011-11-11

TN (Ne)

ey tbl

    
  
 

2011-11-08

aR 128mgai
BR 103mgai
BR (Rwe2e RI) 143 mgai
dR 110mgai
2011-11-09

aR 119mgai
SAR (Re 20585) 174mgai

BR eid
 

2011-12-01

aR 119mgai
BAR (Be 285 81) 122mgai
BR 87 mgal
BR (Ae255R) 101 mgai
dR 89mgal

 

PsA RE Fa-—huyw
ES gs
2011 3m ee jam ee ae

11/01 108sc/0. 1380/4105 noi 127o0/4 86 a

 

11/02 118.00 Wowie 1030/00
11/03 125.00 1BB.c/a. M0 mc/a
11/04 116.0 120 ja W3ec/a
11/05 12900 J 07a! E08
11/06 115.00, 107 mca 101 mca
11/07 128. 113nec/at 184n0/a 104 neat
11/02 “ow a

Met

  
ll
7 The data accumulated up to 3 months = Unlimited.
Can be backed up to SD card.

ey Upgrade Diabetes Recorder
\
"\
Diabetes
Recorder
ave LP ve) pee

 

  
  
  
 

2011-12-01

Breakfast 119 mgai

Breakfast (After) 122mgai

Lunch 87 mgai

Lunch (After) 101 mgai

Dinner 89mgai

Dinner (After) 127 mgt

2011-12-02 Glucose
Breakfast 89mgai

  

Weight

Blood Pressure
 

   
  
  
   

2011-12-01

Breakfast 119 mgt

Breakfast (After) 122mgai

Lunch 87 mgai

Lunch (After) 101 mgt

Dinner 89mgai

Dinner (After) 127myai Bee
2011-12-02

nn alll

(erecta

(slucose

  

Regist Cancel
\
(ieee oe eto

 

2011-12-01
Breakfast 119mgai
Breakfast (After) 122mgai
Lunch 87 mgial
Lunch (After) 101 mgt
Dinner 89mg
Dinner (After) 127 mgt
2011-12-02

Breakfast 89 mga

  
[ed ee EL G

Glucose (S) Record

 

 

2011-12-01

Breakfast 119mgai
Breakfast (After) 122mgai
Lunch 87 mgal
Lunch (After) 101 mgai
Dinner 89mg

2
A A

oS oO @O

Alarm Setting Tutorial
ES gs
2011 3m ee jam ee ae

11/01 108sc/0. 1380/4105 noi 127o0/4 86 a

 

11/02 118.00 Wowie 1030/00
11/03 125.00 1BB.c/a. M0 mc/a
11/04 116.0 120 ja W3ec/a
11/05 12900 J 07a! E08
11/06 115.00, 107 mca 101 mca
11/07 128. 113nec/at 184n0/a 104 neat
11/02 “ow a

Met

  
rt

eS
7 The data accumulated up to 3 months = Unlimited.
Can be backed up to SD card.

ey Upgrade Diabetes Recorder
\
"\
Diabetes
Recorder
ave LP ve) pee

 

  
  
  
 

2011-12-01

Breakfast 119 mgai

Breakfast (After) 122mgai

Lunch 87 mgai

Lunch (After) 101 mgai

Dinner 89mgai

Dinner (After) 127 mgt

2011-12-02 Glucose
Breakfast 89mgai

  

Weight

Blood Pressure
 

   
  
  
   

2011-12-01

Breakfast 119 mgt

Breakfast (After) 122mgai

Lunch 87 mgai

Lunch (After) 101 mgt

Dinner 89mgai

Dinner (After) 127myai Bee
2011-12-02

nn alll

(erecta

(slucose

  

Regist Cancel
\
(ieee oe eto

 

2011-12-01
Breakfast 119mgai
Breakfast (After) 122mgai
Lunch 87 mgial
Lunch (After) 101 mgt
Dinner 89mg
Dinner (After) 127 mgt
2011-12-02

Breakfast 89 mga

  
[ed ee EL G

Glucose (S) Record

 

 

2011-12-01

Breakfast 119mgai
Breakfast (After) 122mgai
Lunch 87 mgal
Lunch (After) 101 mgai
Dinner 89mg

2
A A

oS oO @O

Alarm Setting Tutorial
ES gs
2011 3m ee jam ee ae

11/01 108sc/0. 1380/4105 noi 127o0/4 86 a

 

11/02 118.00 Wowie 1030/00
11/03 125.00 1BB.c/a. M0 mc/a
11/04 116.0 120 ja W3ec/a
11/05 12900 J 07a! E08
11/06 115.00, 107 mca 101 mca
11/07 128. 113nec/at 184n0/a 104 neat
11/02 “ow a

Met

  
ll
