a

 
 
 
 
Oe Nelere-a ai (=
 
 
y

=

y
I
y

=

y
 
 
 
a
Cl
 
 
Wisse
 
1G)
 
»
oH)
 
Pele Cage
.
 
 
 
 
 
”

ca
 
 
 
 
SNe
¢ Apptentive
|
 
 
nm

co
MENU
 
G)
© Apptentive
© Apptentive
ee
oui
ept
G)
© Apptentive
 
 
nm

co
MENU
 
