Cl
ee
a ee

 
Co
 
 
 
 
 
|
 
ee
Pes

 
ee
Pes

 
Co
 
 
 
 
 
|
 
