 
 
 
 
 
 
   
   

 

Jlamu3un’
SS Tepomacwn
250MF vse
~

  
  

Menoxcukam

—_ / MOBACUH
=> pactBop
= ANA BHYTPUMbIWeYHOrO
Ab) BBegeHna
EY 10 mrimn
YY 3 amnynbi no 1,5 mn
CTEPUNbHO

  
1@|HOPMogMnH® Ee

as

® ia 30 to6netox
(Prize = L}M@SIKOKAH® A

150 MP rancyner

4 Kancysbl

 
(3) ®

e9 HO-LLUMA ‘40 wr
(NO-SPA®)

Apotasepun / Drotaverine

TaGaerkn

     
   

Tae
     

   
 
 
 
     
 

TET
anneprnyecknx

(Geran

orem)

   
  
   

  

He Bbisbipaet
COHNMBocTH*

   
  
 

 

eran
aC Lran Ty

   
  

Kn03a

asics 10 LelraKy

  
4 ~ ELEY,
10 Ta6netox No 3368.

KAU

     

K/APUTPOMVLMH
Ta6nern,noxpeiTse o60now.o

250 mr
ee
 

 
   

20

  

raGnerOK oxaonst

10 200 Mt pois OPBIL
‘wOPG; mpu nasanants
mpuswanax spur
“enpocmyes (80%
 
ASUTPOMULIH

on

 

Becorenc
omenpas30on

     

-OME3”

30 Kancyn
ER uC

CoV LUys)

 

TaGnerkn, noKpeToIe NneHoNOn O6onowKe WAM
Aawtpommuynn oO
 
AMBPoKcon |
;

 
    
   

400 mr AgemetnoHuk

Ta6neTku noKpbiTbIe
KUWeYHOpacTBopumon O6onouKON

   
   

20 ta6netoK
KCUJIEH

 
 
SS

ae
MAHKPEATHH
255A -.

ranKpeaT# 2
60 sere moKe!
& ch eo ont

avexima
TpoxcepytHH |

300 ur]

 
   

MAKCHAEKC®
AeKCaMeTASON 0,1%
Wann rnasnee a
crepe
Sun

Alcon =

   
  
   

   

Taso watpui

   

~

Wet crcne

  

Fncror

  
OnyKonazon

15066 4 xancyn
 
Betacepk”

Betaserc®

GerarnctHn
Tabnerkn 8 Mr

Ana neyenna 4 npocbunaktuKn
TONOBOKpyxeHHn

@ |SOLVAY
sown] PHARMA

 

30 ta6netoK
 
 
 
Kpem ann HapyxHOrO
npumeHeHuar 5%
mn ncceren e pORAAERAA

epxocrH Kone
SSS

 
 
  
   
 
 

Kpem aa Hapy>KHoro
npumeHeHua 5%

Aaa nevenna v npodanaktuKn
CyKOCTH KODKH 6

    
  
  
 

Ovknencuy®

KapSamasenny
Tabnenky

wusuges
MUSUSUHMED

nosouges

  
 
 
 
ae

Betaructun
Ta6neroK

   

Kap6amaz3ennH
 
JlasonsaH

Ta6netkn

am6poxcon
30

Mr

MANeIT(= 19
Pepcoy eal TTT Vo) Cole)

 
aE

TPOKCEBA3NH°
500 wr

Bovorommpyouce
1 eqxonporxtopnoc cpeacrae

50 xancyn ans npaeen onytpe
Bonsrapen’ so

b Novanris

 
—< -
VAAEHAGMA
are ae

PE ou

A
32

 
    
    

=
oponse ‘

=

Bnoxarop si
TaGnerai §

30 Ta6neToK
 
 
 
 
 
 
 
y

=

y
I
y

=

y
 
a
Cl
 
 
 
»
 
.
 
 
 
PCy
 
 
 
 
|
 
Cd
 
else aL
MS Gea =)

_ AHAJIO“NM

 
Po
Cnn
Bien ay
er uuy
‘=
———_
rely Ne AL
JIEKAPCTB
Uo)

 
,
eu:
JIEKAPCTB

vv le) a2]

_ 4
Cotes AL4
JIEKAPCTB
AHAJIO“M

= ”
