 
 
 
 
 
 
 
Teenitad

www.androconnectin

www.androconnect.in/busykey
 

Reet eae Rey
EEC re ede]
Ulg .agetsjlgSaa
i
 

 
 

Bal SS Koy 2S

538 Soy sa

S388 aus

blawkrawa 5

S588 goshed 28S

‘

 

¥ gy992303 Be SIS shay

es

 

§ aly Sls a) ogezsiiay Sale
Je
   

7

acorns (i)

Pel need ade
 
 
 
 
 
 

Abacavir

 

PN erie lor- ol

 

PN eligi leelatsy

Acarbose

 

Acebutolol

 
a
Cl
gl
 
 
 
 
 
C
 
 
 
Cd
 
 
IO
 
eC)
sO)
 
ot
 
