 
 
a

ee

a

a

a

 

a

7
 
 
 
 

 

 

 

 

 

 
 
 
 
 
 
 
 
 
 
 
 
 
 
 

 
 
 

 
 
 

 
 
 
 
 
 
 
a

 

a

ae re 7
re
re

a

a 7 7 : 7
: a 7 -
re ee
: ee a a ; -
a ;
: 7

 
 
 
 

re

re
    
     
 
   
  
    

ee

ee
re

: re

ee

re
ee
ee

an
; ee

7 re
 
 
 
 

 
 

 
 
 
 
 
 
 
 
 
 

 

 
 
 

a
 
 

 

 
 
 
 

 

 

 

 
oad OO

7 ear
me ott ee
ey

 
 
 
 

 

 

 
 
 
 
 
 
 
 
 
 
 
 

 

 

 

 
 
 

 

 
 
 
 
 
 
 
 
 
 
 
 

 

a a
ee
a ae :

a a :

an

a a

a 7
a _ a

ae

a

 

 

 

 

a
a
a : a
ne a
oe 7 a
7 _
an ae

a 7 ee a
a

 

 

 

 
 
 
 
a
7

an

7

7
:
7

a

 
 
 

 

 

 

 
 
 
 
 
 
 
 
 
 
 
 
 
 
 
 
 
 
 
y

=

y
I
y

=

y
 
a
Cl
 
 
 
»
 
.
 
 
 
 
 
|
 
 
ie

Wg

ry
fey
I?

 
ae
ey

i

ico
is
IS

 
 
ey
fe

 
ala

 
se)
eo}

Pa

SS]

Ey Tir]

 
A

 
