Boi6yxarouuti
nynok

 
 
 
 
a

ee

a

a

a

 

a

7
 
\ f

CL <=> a)

AS as
 
 
a
7

an

7

7
:
7

a

 
 
 
 
 
 
 
 
 
 
 
 
 
 
      

   

[Aenean
Phe al bell ehh fered efmeipebamntfellan
es re ee ee ee ee | ee ee

  

5-4 1ou

         

OD Nhe

TT ty] ee a dT

  

4-” Trop,

Nh Ne Nae eA NN ee eee teeiereedeneel
a = cm oO =~ wo ~ - of -—- oO a «
~ . Ss ed r

  

S

om

ST A a
ee a
. <—

      

eee er ye A ee
tA the “2

eye ye ye pe a
ret te Pe a

rete ds dt tt he Ne a

  

        

ee ee A a a
ee a

              

ee Na
ee a he a

Pe tT TA a A
a TN

ed NN
te ed

ee Ne he a

3-4 ron

    

BO3PACT B MECAUAX

Kapma dbu3uyecKxo2o pazeumun pe6enxa (nokazamenb «eec/eo3pacm»)

    

4° ea ac 9 99 99°

Pet AT Ty Ny I
Pit A A

        

        

SCT ETT TT
PATE TENA
CTT RKTT TT

BEC (1-# rog)

I]
Te ro ATT

hy
i
 
 
 
 

re

re
 
   
       
   
  
  

<q _ Beni

BonocucTon
uacTM FOnoOBbI

( Hapy>kHas spemHaa BeHa

Beubi AOKTeBOrO CrH6a

q—_

Beub!i Ha
TbINIbHON
cTOpoHe

KUCTU
{ BegpeHHaa BeHa

q Beubi B O6NacTu NopAbpKeK
 
 
 
 
 
a

 

a

ae re 7
re
re

a

a 7 7 : 7
: a 7 -
re ee
: ee a a ; -
a ;
: 7

 
 
 
 
 
 
 
 
 

a
 

 
 

 

 
 
 
 

 

 

 

 
 
 
 
 

 

 

 
 
 
 
 

Ilnomaap MlOBEpXHOCTH Tesla, M* =

Pocr, cM _X_Macca TeJia, Kr
600.
 
 

f\0o3a B 3ABUCMMOCTH OT MaCcCbI Tena

 

Qo3uposBKka ®Mopma 3-—<6Kr 6—<10Kr 10—<15Kr 15—<20Kr 20 —29kr
Ouazenam
mpu cyOopoeax pekTanbHo: 0,5 mr/kr_ ~=pactTBop 10 mr/2 mn 0,4un* 0,75mn 1,2 mn 1,7 mn 2,5 Mn
B/B: 0,2 — 0,3 mr/Kr 0,25 mn* 0,4 un 0,6 un 0,75 mn 1,25 mn
Kak CeOamueHoe 0,1 —0.2 mr/kr B/B
cpedcmeo neped
npouedypamu

* HOBOpOXKOeEHHbIMU BMeECMO Oua3zenama Oaealime qeHobapbuman (20 me/Ke @/e unu @/u). Ecnu cyOopoeu npodosKaromca, Oaime
yepe3 30 MUH 10 Me/ke 6/6 uNU @B/mM. [loddepxKuearoulaa 003a NepopabHo2o q@eHobapbumana cocmaensem 2,5 —5 mMe2/ke.

Qurokcnn Alo3b!I yka3auHbi Ona NnepopanbHoeo npuema. Jaume HayasbHyto Oo3y C NocnedyroluUMU Noddep»xKUealOLUUMU
O003aMU 06a pa3a @ OeHb, HayuHasr Yepe3 6 4 NocNe Haya/bHOU OO3bI, KAK YKA3AHO HUE:
HayanbHan 903Aa:

15 mr/kr, TaO6netTkKn 62,5 MKr 3/4 — 1 11/2-2 21/2-3 3 1/2-—4 —
1/2 1/2

OAHOKpaTHO TaOnetKn 125 MKr — — 1-1 1/2 13/4-2 21/2-3

NogagepxuBarowaa

A03a:

(HayHute Yepe3 64) = TaOnetKn 62,5 MKr 1/4-1/2 1/2-3/4 3/4 —1 11/44-11/2 1 1/2-

21/4
nocne HayYanbHOoU

o3bIi 5 mr/Kr
yepes Kakgble 12 4
(makc. 250 mMkr Ha

Ho3y)
OugaHo3uu — co. oTAeNnbHyto TAONULLy WNA AHTUPETPOBUPYCHbIX Npenapartos, c. 350
 
 

f\o3a B 3ABUCMMOCTH OT MaCCbI Tena

 

 

 

 

 

Hlo3zuposka ®Mopma 3-<6Kr 6-<10 10 -—<15 15 -— <20 20 -— 29
Kr Kr Kr Kr
?Kene3o OANH pa3 B DeHb Ta6nerTku *«ene30/cbonat - = 1/2 1/2 1
B TeYeHNe 14 OHen (200 mr cynbcbata
*ene3a + 250 MKr
cbonata = 60 mr
9NeMeHTAPHOrO 2*KeNe3a)
cupon *ene3a 1 mn 1,25 wn 2 Mn 2,5 Mn 4un
(cbymapatT >Kenesza,
100 mr Ha 5 Mn = 20
mr/Mn
3NeMeHTAapHOroO KeNe3a)
SUQOBYMUH — CM. OTAeENbHytO TaONuuy AHTUPETPOBMpyCHbIxX NpenaparTos, c. 348
Uoynpoden nepopanbHo5—10 ta6netku 200 mr - 1/4 1/4 1/2 3/4
mr/Kr
yepe3 KanKgbie 6 — 8
4,
makc. 500 mr B GeHb = TadnetKu 400 mr = — — 1/4 1/2
Kanun 2 — MMONb/kr/eHb

 
 
 

f103a B 3ABUCMMOCTH OT MaCCbI Tena

 

Oo3zuposka Mopma 3-<6Kr 6-—<10Kr 10-—<15Kr 15-—<20Kr 20-29 «kr

KeTaMuH*
Ona HapKo3a Paccuumaume TOYHY#O Oo3y Ha OcHoee MNoujadu NoeepxHocmu (cm. c. 325) unu MaccbI mena.
60 epema B/M: HayanbHaa 20-35 40 — 60 60 — 100 80 — 140 125 — 200

03a: Mr mr Mr Mr Mr
60nbwux onepauuu 5 —8 mr/er

B/m: NoggepxuBatoujaan

gosa: 1 — 2 mr/kr 5-10mr 8-15mr 12—25mMr 15-—35mr 25—50 mr

(npu

HeoOxogumoctn)

B/B: HayanbHaa 5-10mr 8-—15mMr 12—25mr 15-—35mMr 25-50 mr

03a:

1 -—2 mr/Kr

B/B: NoggepxuBatowan 2,9-5 4-8mr 6-12mr 8-15mr 12-25 mr

Mr

Aoza: 0,5 — 1 mr/kr

(npu

HeoOxogumoctn)

Ona noeepxHocmHo20—=—s_ B/M: 2— 4 mr

HapKO3 Mpu B/B: 0,5 — 1 mr/Kr
npoeedexuu

Pa3nUYHbIX mpouedyp

* Hemanu Oo3upoeku U MemoOb! eeedeHus —co. c. 230.

 
Boi6yxarouuti
nynok

 
 

f103a B 3ABNCUMOCTH OT MaCCbI Tena

 

 

Hlo3zuposka ®Mopma 3-<6Kr 6-<10 10 -<15 15 — <20 20 — 29 kr
Kr Kr Kr
Knokcauwnnnu!/ B/B: 25 — 50 mr/kr cbnakou 500 mr, 2-—(4)mn* 4-(8) 6-—(12)mn 8—(16) mn 12-—(24) mn
mn
cbnroknokcayyvnnne!/ yepe3 KaKaple 6 4 pacTBoputb B 8 Mn
oKcauMnnunH* (B CKOOKax 03a CTEPUNbHONM BOAbI
ucxoga u3 500 mr/kr) =gna nonyyueHnua
500 mr/10 un
B/M cbnakoH 250 mr, 0,6 (1,2) 1 (2) 1,8 (3,6) 2,5 (5) 3,75 (7,5)
pacTBopyTb B 1,3 MN mn* Mn Mn mn Mn
CTEPUNbHON BOAbI,
Ana nonyyeuna 250
mr/1.5 Mn
Kancynbl 250 ur 1/2 (1)* 1 (2) 1 (2) 2 (3) 2 (4)
Aina neyeuua 15 mr/kr Yepe3 Kancynbl 250 ur 1/4 1/2 1 1 1/2 21/2

aOcueccoe

Kaxkoble 6 4

* Ho3upoeka U UHMEPeasIbI MEXKOY OOZAMU Y HOGOPOXKOEHHbIX U HEOOHOWEHHbIX MIEOeEHUEB - CMOMPeEMb COOMeeMcmMeyiowuUt pa30en

 
oad OO

7 ear
me ott ee
ey

 
 

f103a B 3ABUCMMOCTH OT MaCCbI Tena

 

Ho3suposka ®Mopma 3-<6Kr 6-—<10Kr 10—<15Kr 15-<20Kr 20-29 Kr
KoTpumoKca3on* nepopanbHo: TaOneTKN ANA B3pocnbIx 1/4* 1/2 1 1 1
(TpumMeTponpun- TpumeTponpum 4 (80 mr TMIM+400 mr
mr/Kr CMK)
cynbcbameTokca3on, VU
cynbcbameTokca30n
TMN — CMK) 20 mr/kr oBa pa3a TaOnetTkKu ana geten 1 2 3 3 4
B Hb (20 mr TMMN+100 mur
CMkK)
cupon (40 ur TMN 2 mn* 3,5 Mn 6 mn 8,5 Mn -

+ 200 mr CMK Ha 5 mn

[lpumeyauue: Ana neyexus uymepcmuuvaNbHoU NHeemMoHuU y Oemeu c BUY —uHxqbeKuueui 00o3a cocmaensem 8 me/Ke TMI] u 40 me/Ke
CMK 3 pa3a @ 0eHb 6 MeYyeHue 3 HEdeNb.

* Ecru pe6eHoK @ eo3pacme <1 mec, Oaime KompumoKkca3on (1/2 mabnemKu Ona Oemeu uNnu 1,25 um Cupona) Oea pa3a @ OeHb.
Uz6e2aime Ha3Hayamb KOMPUMOKCa30N HEOOHOWEHHBbIM USIU KESIMYWHbIM HOBOPOXKOECHHbIM.

 

 

 

 

KocbenHa LW Tpat MpumeHeHve y HOBOPOKACHHbIX — CM. Cc. 64.

NlamusByuu — cm. oTgenbHyto TaGnuuy Ana aHTUpeTPOBUPyCHbIx Npenaparos, c. 348

Jiugokanu Hapy>KHoe npvmeHeuHne — co. Cc. 223
MectHaa UHbeKUNA B W03e 4 — 5 mr/kr NA MECTHOM aHecTesun

Me6enga3on 100 mr 2 pa3za B TaOnetku 100 mr - - 1 1 1
A\eHb

TeyeHve 3 AHeEN
500 mr — OGHOKpaTHO TaOnetTKu 100 ur - — 5 5 5

 
 
 

03a B 3ABUCUMOCTH OT MaCcCbI Tena

 

 

Do3zuposka ®Mopma 3-<6Kr 6-<10 10-<15 15 — <20 20 — 29 kr
Kr Kr Kr
Metoknonpamug
npu mowHome 0,1—0,2 mr/kr wepe3 TaOnetKu 10 ur - - 1/4 1/4 1/2
u peome Kaxkgple 8 u, Ana Vnbekyni: 5 wr/Mn — - 0,5 mn 0,7 mn 1 mun
no noka3aHuamM
MetpoHuga3on nepopanbHo 7,5 Ta6netKu 200 mr — 1/4 1/2 1/2 1
Mr/Kr
3 pa3a B EHb Ta6netKu 400 mr — ~ 1/4 1/4 1/2

B TeYeHue 7 AHeN*

* [Ina neyeHus namOsruo3a 003a cocmaensem 5 Me/Ke; O19 ameOua3a —10 Me/ke.

 

MecbnoxnH

10 mr/kr nepopanbHO = TaOnetKu 250 mur

He pexkomenHoyemca Ona Oemeu @ eo3pacme <5 Mecaues BcrIeOcmMeUe HEOOCMAaMOYHbIX OaHHbIx.

 

 

Mopcbun Paccyumaume TOUYHY#O do3y Ha OCHOee Macchi Mena pebeHKa
nepopanbuHo: 0,2 — 0,4 mr/kr yepe3 Kaxkgble 4 — 6 4.; yBenuubTe, npv HeOOxogumocTy, B CnyYae CUNbHONU Gonn.
B/m: 0,1 — 0,2 mr/kKr Yepe3 Kaxkgble 4 — 6 yu.
B/B: 0,05 — 0,1 mr/kr Yepe3 Kaxkgble 4 — 6 4 unu nyTem KanenbHoro BnuBaHua 0,005 — 0,01 mr/Kr/y
Hanugukcosaa nepopanbHo: 15 TaOnetkKu 250 mur 1/4 1/2 1 1 11/2
mr/kKr
Kucnota 4 pa3a B DeHb

B TeYeHue 5 AHeN

 

Hesupanu — co. oTAenbHyto Tabnuuy Ana aHTUpeTpOBUpycHbIx NpenapaTos, Cc. 348

 

HencbuHasBup — cm. oTAenbHy!o TaOnuuy ONA aHTUpeTpOBUpYCHbIX Npenaparos, c. 351

 

HuctatTunH

nepopanbHo: nepopanbHo cycneH3uA 1-2mn 1-2mn 1-2mn 1-2mn 1-2mn
100 000 —

200 000 Ef ana 100,000 Ef/mn

o6paboTku poToBoN

nonoctu

 

OxcauuMnnuH — co. KAOKCALIUNISINH

 
 
 

f103a B 3ABUCMMOCTH OT MaCcCbIi Tena

 

 

 

 

Oo3zuposka ®Mopma 3-<6Kr 6-<10 10 - <15 15 -— <20 20 — 29 Kr
Kr Kr Kr
Napanbgerng PEKTANbHO: cbnakoH 5 wn 1,4 mn 2,4 un 4mun 5 Mn 7,5 Mn
0,3 — 0,4 mn/kr
B/M: 0,2 mn/Kr 0,8 mn 1,5 mn 2,4 Mn 3,4 un 5 mn
Napayetamon 10 — 15 mr/kr, Ta6netKu 100 ur — 1 1 2 3
Ho 4 pa3a B eHb TaOnetku 500 mur — 1/4 1/4 1/2 1/2
NEHULIANNUH
Beu3aTnH B/m: 50 000 EfA/xr cbnakoH 0,5 mn 1 mn 2uMn 3 Mn 4mun
OeH3“NNeHUMNNNH OANVH pa3 B DeHb 1,2 wnu. EX,
pacTBOpuTb B 4 Mn
CTEPUNbHONM BOsbI
Bex3nunneHvuvnnny
(neHMWMnNNH G)
O6was Oo3upoeKa B/B: 50 000 Ef/kr cbnakoH 600 mr, 2 wn* 3,75 mn 6 mn 8,5 Mn 12,5 mn
yepes KanKgble 6 u. pacTBopnuTb B 9,6 un
CTEPUNbHON BOAbI ANA
nonyyeuua 1 000 000
E/10 un
B/M cbnakoH 600 wr 0,4 mn* 0,75 mn 1,2 Mn 1,7 mn 2,0 Mn

(1 000 000 Ef),
pacTBopuTb B 1,6 mn
CTEPUNbHON BOsbI

Ana nonyyeuna
1.000 000 Ef/2 mn

 
 
 

flo3a B 3ABUCUMOCTH OT MaCCbI Tena

 

 

 

 

Do3suposBka ®Mopma 3-<6Kr 6-<10 10 -—<15 15 — <20 20 — 29 Kr
Kr Kr Kr
Ben3vunnenuyunnun (mpodomxKenue)
npu MeHUHeume 100 000 Ef/«r B/B 4 mn* 7,5 Mn 12 un 17 un 25 Mn
yepe3 KaxKgble 6 4 B/M 0,8 mn* 1,5 mn 2,0 MN 3,5 Mn 5 mn
* Ho3upoeKa U UHMepeasbI MEXKOY OOZ3AMU Y HOBOPOXKOCHHbIX U HEOOHOWIEHHbIX MMAOeHUEE —CM. Cc. 65.
NpokanH B/m: 50 000 EfA/kr dbnakoH 3r(3 O00000 0,25 mn 0,5 mn 0,8 mn 1,2 mn 1,7 mn
Ej),
GOeH3UNNeHWLWMNNUNH = OfNH pas B ACHb pa3BecTy B 4 un
CTEPUNbHON BOsbI
NusmMeuvnnunam nepopanbuHo: 20 TaO6netkKu 200 mr 1/2 3/4 1 11/2 2
Mr/Kr
4 pa3a B eHb
B TeYeHVe 5 AHeU
NpegHu3zanon* nepopanbuHo: 1 wr/Kr = Ta6netKu 200 mr 1 1 2 3 5

Opa pa3a B eHb
B TeYyeHVe 3 DHE

* 1 Me NpeOHU3aNOHa 3KBUBANEHMEH 5 Me 2UOpOKapMu3oHa UNU 0.15 Me OeKCamMema3ona.

 

NpotuBoty6epkyne3Hbie npenapartbi — cm. Gonee nogspobuo ua c. 352

 

PuToHaBmup — cM. OTAeNbHyto TaOnuLly NA AHTUPETPOBUPYCHbIX NpenaparTosB Ha C.351

 

CakBuHaBup - co. oTAeNbHyto TaGNULy NA aHTUpeTPOBUpycHbIx Npenapatos, c.351

 
 
 

flo3a B 3ABUCUMOCTH OT MaCCbI Tena

 

 

 

 

Do3suposBka ®Mopma 3-<6Kr 6-<10 10 -—<15 15 — <20 20 — 29 Kr
Kr Kr Kr
Ben3vunnenuyunnun (mpodomxKenue)
npu MeHUHeume 100 000 Ef/«r B/B 4 mn* 7,5 Mn 12 un 17 un 25 Mn
yepe3 KaxKgble 6 4 B/M 0,8 mn* 1,5 mn 2,0 MN 3,5 Mn 5 mn
* Ho3upoeKa U UHMepeasbI MEXKOY OOZ3AMU Y HOBOPOXKOCHHbIX U HEOOHOWIEHHbIX MMAOeHUEE —CM. Cc. 65.
NpokanH B/m: 50 000 EfA/kr dbnakoH 3r(3 O00000 0,25 mn 0,5 mn 0,8 mn 1,2 mn 1,7 mn
Ej),
GOeH3UNNeHWLWMNNUNH = OfNH pas B ACHb pa3BecTy B 4 un
CTEPUNbHON BOsbI
NusmMeuvnnunam nepopanbuHo: 20 TaO6netkKu 200 mr 1/2 3/4 1 11/2 2
Mr/Kr
4 pa3a B eHb
B TeYeHVe 5 AHeU
NpegHu3zanon* nepopanbuHo: 1 wr/Kr = Ta6netKu 200 mr 1 1 2 3 5

Opa pa3a B eHb
B TeYyeHVe 3 DHE

* 1 Me NpeOHU3aNOHa 3KBUBANEHMEH 5 Me 2UOpOKapMu3oHa UNU 0.15 Me OeKCamMema3ona.

 

NpotuBoty6epkyne3Hbie npenapartbi — cm. Gonee nogspobuo ua c. 352

 

PuToHaBmup — cM. OTAeNbHyto TaOnuLly NA AHTUPETPOBUPYCHbIX NpenaparTosB Ha C.351

 

CakBuHaBup - co. oTAeNbHyto TaGNULy NA aHTUpeTPOBUpycHbIx Npenapatos, c.351

 
 
 

f1o3a B 3ABUCUMOCTH OT MaccbI Tena

 

 

 

 

Do3uposka ®Mopma 3-—<6Kr 6-—<10Kr 10—<15Kr 15-—<20Kr 20-29 Kr
CanboyTamon nepopanbHo: AeTAM = cupon 2 mr/Kr 2,9 mn 2,5 Mn 5 Mn 5 Mn 5 Mn
<1 roga 1 mr Ha Go3y
Oetam 1 —4 net
2 Mr Ha fo3y
B OCTpOM cnyyYae TaOnerTkn 2 mr 1/2 1/2 1 1 1
yepe3 KaxKgble 6 — 84 TabnetTKu 4 ur 1/4 1/4 1/2 1/2 1/2
WHranaAuua HO3UpOBaHHbin
WUHranaATop
co cnevcepom: cofepxKawun 200 03
2 HO3bI
cogepKut 200 mkr
a3pO3O0NHbIN pactsBop 5 mr/mn
UHranaATop OAHOKpaTHble 403bI
2,9 Mr/O3y no 2,5 mrB2,5 mn
CnekTMHOMULINH
npu oqomanbmMuu B/M: 25 Mr/Kr cbnakoH 2 rBOmMn 0,25 mn - — — —
HOBOPOXKOEHHbIX OAHOKpaTHO pacTBoputena
(makc. 75 Mr)
Cynbcbagua3sunH CepeOpa — NpuMeHAeTCA MECTHO Ha NOParKeHHY!O KOKY
CynbcbagoKcuH — nepopanbHo: 25 mr —=—s TaOnetku (500 ur 1/4 1/2 1 1 1 1/2
nupumMetamMunH CynbctbaoKcuHa UV cynbcbagoKcuHa
(Cn) 1,25 mr + 25 nupumetamuna)

nupumetamuna
Ha 1 kr MaccbI Tena

TOJIBKO OMHOKPaTHAaA 403a

 
 
V10 x 72/3600 = 0,45
 

 

 

 

 
 

f1o3a B 3ABUCMMOCTY OT MaCcCbI Tena
Mo3suposka Mopma 3-<6Kr 6-<10 10 -—<15 15 -— <20 20 -— 29 kr

Kr Kr Kr

 

XMHUH (MpodomKeHUe)
[lpumeyanue: Yepe3 12 4 nocne Hayana BeeOeHUA HaYasIbHOU Oo3bi, eBeOuME yKa3saHHyto 6 O€HHOU mabnuue NoddepxKueatoluy1o OO3y 6
meyeuue 2 y. [loemopatime Kaxo bie 12 y. [lepexodume Ha nepopanbHoe neyeHue (10 Me/Ke 3 pa3a 6 OeHb), Ko2da peEOeCHOK Cu“oxKeM

npuHuMamb mabnemku, U 3aeepwiume NonHbii 7 + — OHeeHbIe Kypc NMeYeHUA C NOMOUbIO MabseMOK XUHUHAa UNU Oalime OOHOKpamHyto
Oo3y CI (cm. ebiue).

 
 
 

fjo3a B 3ABUCUMOCTH OT MaCCbI Tena

 

 

 

Do3zuposka ®Mopma 3-<6Kr 6-<10Kr 10-<15 15 — <20 20 — 29 kr
Kr Kr
XFOpOXNH nepopanbHo: TaOnetku: 150 ur eHub 1: 1/2 AeHb 1: 1 eHub 1: 1 AIeHb 1: 1
1/2 1/2
OMUH pa3 B DeHb HeHb 2: 1/2 AeHb 2: 1 AieHb 2: 1 AleHb 2: 1
1/2
B TeYeHVe 3 OHEN: HeHb 3: 1/2 AeHb 3: 1/2 DeHb 3: 1 eHub 3: 1
10 mr/kr B 1 U2 DeHb
5 mr/kr B 3 eHb
TaOnetku: 100 mur HeHb 1:1/2 gedb1:1 geHb1:1/2 geHb 1:2 eHub 1: 2
1/2
HeHb 2: 1/2. AeHb 2: 1 eHub 2: ieHb 2: 2 AIe@Hb 2: 2
11/2 1/2
HeHb 3: 1/2 AeHb 3: 1/2 AeHb 3: 1/2 AeHb 3: 1 eHub 3: 1
50 mr OCHOBa/ AeHb 1: AieHb 1: AieHb 1: — _
5 mn cupon 5,0 mn 7,5 Mn 15 mn = —
eHub 2: ieHb 2: Fie@Hb 2: — —
5,0 mn 7,5 Mn 15 mn — _
eHub 3: HieHb 3: eHub 3: - -
2,5 Mn 5,0 mn 10 mn

 
 

 

 
 

{03a B 3ABUCUMOCTH OT MaCCbI Tena

 

 

 

Do3suposka ®Mopma 3-<6Kr 6-<10 10 —<15 15 -— <20 20 — 29 Kr
Kr Kr Kr
LlecbanekcnH 12,5 mr/Kr TaOnetku 250 mr 1/4 1/2 3/4 1 11/4
YeTbIPe pasa B EHb
Llecbotakcum B/M, B/B: 50 mr/Kr cbnakou 500 mr, 0,8 mn* 1,5 mn 2,0 MN 3,5 Mn 5 mn
yepes KaxKgple 6 4 pacTBopuTb B 2 Mn
CTEPUNbHON BOsbI
VUJIV conakou 1 5
pacTBopuTb B 4 wn
CTEPUNbHON BOsbI
VUJIV conakou 2 5
pacTBopuTb 2 Fr
pacTBopuTb B 8 Mn
CTEPUNbHOU BOsbI
* Ho3upoeka u UHMepeasb!l MEXKOY OO3AMU HOBOPOXKOCHHbIX U HEOOHOWIEHHbIX MsIAaOeHUes — CM. C. 66.
LlecbTpuvakcoH B/M, B/B: 80 mr/Kr/QeHb = cbnaKOH 1 Fr, paCcTBOpUTb 3 mMn* 6 mn 10 mn 14 mn 20 mn
B BUe OAHOKpaTHOU B 9,6 mn CTepvnbHON
03bI, BBOAUMON BOAbI Ana nonyyeHua
B TeYyeHve 30 MUH 1/10 mn
“nV
CbnakOH 2 ©, paCTBOPUTb
B 19 mn CTepvnbHOU
BOAbI Ana nonyyeHua
2/20 mn
npu MeHUHeume B/M, B/B: 50 mr/Kr 2un 4mun 6 mn 9mn 12.5 mn

yepe3 KaxKoble 12 4

(MaKC. OHOKpaTHaa 03a 4 r)

VvJIM

 
 
 

fJo3a B 3ABUCUMOCTH OT MaCCbI Tena
Ho3supoBKka ®opma 3-<6Kr 6-<10 10 -<15 15 — <20 20 — 29 kr
Kr Kr Kr

LlecbTpuakcoH (mpodomKeHue)
B/M, B/B: 100 mr/Kr 4 mn 8 un 12 Mn 18 mn 25 Mn

OANH Ppa3 B FEHb

npu oqomanbmMuu B/M: 50 mr/kr Paccyumaume TOYHY!#O do3y

HOBOPOXKOCHHbIX OHOKpaTHO
MakCUManbHOo 125 mr

* Ho3upoeka U UHMepeasibI MEXKOY OO3AMU Y HOBOPOXKOEHHbIX U HEOOHOWEHHbIX M/IAOeHUes — CM. C 66.

OPUTPOMUUNH* nepopanbHo: TaOnetKu 250 mr 1/4 1/2 1 1 1 1/2
(acTonatT) 12,5 mr/kKr 4 pasa

B eHb B TeYeHue

3 AHen

* HEJIB3A Ha3Hayamb emecme C MeoqbuNNUHOM (aMUHOQduIINUHOM) ecnedcmeue PuCKa Cepbe3HbIX MOOOYHbIX ABIeEHUU.
O3cdaBupeuy — CM. OTAeNbHyto TaONuuy Gna AHTUPETPOBUpPyCHbIxX Npenapartos, c. 349.
 
 

Hlo3suposBka

®Mopma

Q103a B 3ABUCMMOCTY OT MaCcCbIi Tena

3-<6Kr 6-<10 10 —<15 15 — <20 20 — 29 kr

Kr Kr Kr

 

Paccyuumatime TOYHY!O do3y Ha OcHoee mnowadu noeepxHocmu (cm. Cc. 325) uu Macchi mena.
Heo6xodumo yuumbieamb, umo demu c BUY — unqbeKuueu Yacmo umMerom OMCMaeBaHue B pocme.

 

 

Z
3uAOByAnH 4 mr/kr nepopanbHo:
(ZDV; AZT) ABaKObl B eHb »%KUQKOCTb 10 mr/mn
Kancynb! 100 mur
TaOnetKu 300 ur
Nlamusygun nepopanbHo: 4 mr/kr cycneH3ua 10 mr/mn
ABa>KOb! B LeHb
(mMakcumMymM TaOnetTKu 150 mr
150 mr Ha fo3y)
nepopanbHo: cycneH3ua 10 mr/mn
HOBOPOKACHHbIM:
2 Mr/kKr OBaxKObl B
HeHb
HesupanunH nepopanbHo: cupon 10 mr/mn
(NVP) 120 — 200 mr/u? Ta6netKu 200 mr

OBakobIB OeHb
(makcumym 200 mr
Ha f03y)

Onbim npumeHenus APB y demeu
O2paHUYeH, U peKOMeHOyembile Oo3upoeKU
nodeepxkeHb!i u3MeHeHuAM. CeedeHusl no
Oo3upoeke UHOUBUOyanbHbix npenapamoe
— CM. HauUOHasIbHbIe pekKoMeHOauuU uU60
www.who.int/hiv

 
 
 

Hlo3suposka

®Mopma

3 — <6 Kr

{03a B 3ABUCMMOCTH OT MaCcCbI Tena
6-<10 10-<15 15-<20 20-—29kr
Kr Kr Kr

 

Paccyuumaume TOUHY!O do3y Ha OcHoOee nnowadu noeepxHocmu (cm. c. 325) unu Macchi mera.
Heo6xodumo yuumbieamb, ymo Oemu c BUY — uxqbekuueu Yacmo umerom OMmcMaéBaHue 6 pocme.

 

CTaByaun 1 mr/Kr
(d4T)
ABakKAb! B DCHb

nepopanbHo: *«vgKaA
cycneH3yua 1 wr/Mn
Kancynb! 15 wr
Kancynbl 20 mr

 

ScbaBupeHy nepopanbHo: 15 mr/Kr
(EFV) OAVH pa3 B AeHb
(nepeg CHom)

cupon 30 mr/un
Kancynb! 50 ur
Kancynb! 200 mr

[lpumeyanHue: TonbKo Ona Oemeu eecom bonee 10 Ke u cmapwe 3 nem.

Onbim npumeHeuus APB y demeu
O2paHuyeH, U peKoMeHOyemBbIle Oo3upoeKU
nodeepxkenbi u3MeHeHuaAM. Ceedenusl no
Oo3upoeke UHOUBUOyasIbHbIX Npenapamoe
— CM. HauUUOHasIbHbIe peKoMeHOauuU s1U60
www.who.int/hiv

 

 

Dyosup
(3TC+ZDV)

ABaxkKAbl B EHb

nepopanbHo: TaOneTKu
150 ur 3TC nntoc
300 mr ZDV

[]lpumeyanue: Heo6xodumo ucnosb30eamb CoemecmHo c NVP nu6o EFV

 

TpuomyH
(3TC+d4T+NVP)

OBakKOb! B DeHb

MepopanbHo: Ta6nerTKu
150 mr 3TC ntoc

200 mr NVP nttoc

30 mr d4T

Us

150 3TC nntoc

200 mr NVP ntoc

40 wr d4T

Onbim npumenenua APB y Oemeu
O2paHuyeHd, U peKoMeHOyemBbie OO3upoeKU
nodeepxkeubi u3MeHeHusAM. Ceedenusl no
Oo3upoeke UHOUBGUOyasIbHbIxX Npenapamoe
— CM. HauUOHasIbHble peKOoMeHOauuuU 1U60
www.who.int/hiv

 
 

 

 

 

 

 

 
 

flo3a B 3ABMCUMOCTY OT Macchi Tena
Ho3uposka ®Mopma 3-<6Kr 6-<10 10-<15 15 — <20 20 — 29 kr
- Kr Kr Kr
Paccyumatime TOYHY!O dosy Ha ocHoee nnowjadu noeepxHocmu (cm. c. 325) unu Macchi mena.
_ Heo6xodumo yuumbieamb, umo demu c BUY — uxqbeKuueu Yacmo UMerom OMcMaeaHue 6 pocme.

 

AOakaBup nepopanbHo: 8 mr/Kr  >%*NvgkKaA CycneH3nA
_ (ABC, 200 mr/mn
GW 1592U89, ABaKObl B eHb TaOnetkKu 300 mr
3uaren) TONbKO ANA DeTen
> 3 MecaueB
(MakKcCuMyM
300 mr Ha Qo3y)
~ Dugano3nn nepopanbHo: NOPOWOK B KULUGYHO — Onsim npumeHeuus APB y demeu
(ddl, pacTBopumonu obonouKe O2paHuyeHn, U peKOMeHOyembie OO3uUpoeKU
| AMAeOKCMMHO3NH) = MNaeHLbI B Kancynax nodeepxXeHb!I u3MeHeHuAM. CeedeHus no
> 3 mecayes 50 mr/m? 30 mr (=25 or) Oo3upoeke UHOUBUOYyanbHbIx npenapamoe
ABaKObl B eHb 60 mr (=50 mr) — CM. HauUOHasIbHble peKOMeHOauUU s1U60
115 mr (=100 mr) www.who.int/hiv
getu > 3 mMecAueB 170 mr (=150 mr)
A 120 mr/w? oBaxkgpl 230 mr (=200 mr)
B Hb 285 mr (=250 mr)

KomOunupyiite nakeTuku, cogepxKalyne

pa3snuyHbie

Ao3bl, Ana nonyyenna Tpe6yemon Ao3bl.
[lpumeyauue: 75 me = nakemuK 50 Me + nakemuUK 25 M2; 125 Me = nakemuK 100 me + nakemuK 25 me; 150 me = nakemuK 150 me;
200 me = nakemukK 200 me. Ta6nemku mnoxo nepeHocamca

 
 

 

a a
ee
a ae :

a a :

an

a a

a 7
a _ a

ae

a

 

 

 

 

a
a
a : a
ne a
oe 7 a
7 _
an ae

a 7 ee a
a

 

 

 

 
 

Hlo3suposka

®Mopma

3-<6Kr 6-<10 10 -—<15 15 — <20

fio3a B 3ABUCUMOCTH OT MaCcCbI Tena
20 — 29 kr
Kr Kr Kr

 

Paccyumaume TOYHYHO Oo3y Ha ocHoee nmnowadu noeepxHocmu (cm. c. 325) unu Maccbl mena.
Heo6xodumo yyumbieamb, yumo Oemu c BMY — uHqbeKuueu Yacmo UMeltom OMCMaeBaHue @ pocme.

 

 

 

JlonuHaBup nepopanbHo: cycneH3uaA
puToHaBup peGeHoK 7 — 15 kr: 80 mr/mMn nonuHaBupa
(LPV/r) 12 mr/kr nonuHaBupa; = 20 mr/mMn puTOHaBupa
3 mr/Kr puTOHaBUpa
pe6eHok 15 — 40 xr; Kancynbl
10 mr/kr nonuHaBupa; = 133,3 mr nonuHaBupa
2,5 Mr/Kr puTOHaBUpa 33,3 Mr pPUTOHABUpa
ABaxkKgbl B AEHb
(TONbKO DeTAM
cTapwe 6 mec.)
Hencbunasup peOeHoK crapwe Ta6netKu 250 mr
(NVP) 2 net: 45 — 55 mr/kr
(MakcumyM 2 Fr Ha
Ao3y)
ABaxKObl B DeHb
CakBuHaBup 50 mr/kr MArKNe KENATUHOBbIE

TpU pasa B OeHb

Kancynb! 200 mur

Onbim npumenenHua APB y demeu
O2paHuyeHn, U PeKOMeHOyemMbie OO3UPOeKU
nodeepxkeHbi u3MeHeHUAM. CeedeHus no
Oo3upoeke UHOUBUOYyanbHbix npenapamoe
— CM. HauUOHasIbHbIe PeKOMeHOauUWU 1U60
www.who.int/hiv

 
 
Paccyumaume MmoyHylo 0O3y Ha OCHO6e Macchi Mesa pebeuka.

 

OcHoBaHHoe NpoTuBoTy6epkyne3sHoe

CpeyctBo (a66peBnuatypa)

Tun gevctTBna

CyTouHaa g03a:

Mr/kr

(quana3on)

Npepbisuctaan 4o3a:
3 pa3a B Hegento

mr/kr (quvana3on)

 

U3zonuasug (H)

Nupasunamng (Z)
Pucbamnuunu (R)
CTpentTomuun (S)

Tuoayeta3ou (T)

OTamOytTon (E)

BakTepuuvgHpin
BakTepuungHpin
BakTepuungHpin

BakTepuungHpin

Baktepuoctatuueckun

Baktepuoctatuyueckun

5 (4-6)
25 (20 — 30)
10 (8 — 12)
15 (12 — 18)

3
20 (15 — 25)

10 (8 — 12)
35 (30 — 40)
10 (8 — 12)
15 (12 — 18)
He npumeusetca
30 (25 — 35)

 

[lpumeyanue: Viz6e2eatime npumMeHAMb MUOCaUeMA3OH y pebe_ HKa, ecmu u3eecMHO, ymMo OH BUY

— UHQUUUpOeaH, USIU MPU BbICOKOU

eeposmHocmu BUY — uxqeKuuu, MOCKOSIBKY OH MOKEM BbI3b/IBaAMb MAKESIbIEO (uHO20a cuepmesnbubie) KOXKHbIe PeakKuuu.
 
Npunoxenune 4, flo3bi HanGonee 4uacto UCnONb3yeMbIxX NpenapatTosB ANA HOBOPOKMAeCHHbIX UW MNAaQeHuUeB
C HM3KOU Maccon Tena npuv poxgaennu

Mpenapat

Amuxdodunnnu
Ansa npeay-
npexfeHna
anHoe

Amnvuvnnnu

fo3zuposka

Paccuntalite TOUHY HO NepopanbHyto NoAAepKUBAIOLLy1O AO3y

Hayanbuaa 03a:
NepopanbHo unu B/B 6 Mr/Kr
B TeyeHne 30 MUHyT, 3aTeM

NoggepxuBatowan go3a:
1-A HeWeNA KU3HU:
nepopanbHo no 2,5 mr/Kr
Kakable 124acoB

2-4-1 Henenn >KM3HU:
NepopanbHo no 4 mr/kr
Kaxkgble 12 yacoB

B/m unu B/B no 50 mr/kr
1-A HeAensA KU3HU:
Kaxkgble 12 yacoB
2-4-8 HeDeNM KU3HU:
kaxgble 8 4acoB

JlekapcTBeHHaa

cbopma 1-< 1,5

Bo cbnakou 0,6 mn

Cc pacTBopom,

comepkalum

250 mr/10 mn, 01-

gobaButb oun 0.15mn

cTepunbHON

BOfbI, BBOANTb

Me(sIeHHO B TeYeHNe

15-30 muyyT 0,15-
0,2 mn

Bo cbnakou c 250 mr 0,3-

npenapatagobasuTb 0,6 mn

1,3 mn cTepunbHon
BOgbI ANANonyyeHusA
pactBopa,
cofepxkawero 250 mr
B 1,5 mn

1,5-<2

0,8 mn

0,15-
0,20 mn

0,25-
0,3mn

0,6-
0,9mn

Macca Tena mnageuua, Kr

2-2,5 2,5-< 3 3-3,5 3,5-<4 4-<4,5
1,0mn -Y QOHOWeHHbIX MNageHyes amM“HOdunAMH
OObINHO He NpumMeHAeTCA

0,20-
0,25 mn

0,30-

0,4mn

0,9- 1,2- 1,5- 2,0- 2,5-
1,2mn 1,5mn 2,0mn 2,5Mn 3,0mn
 
 

f103a B 3ABUCUMOCTY OT MaCcCbI Tena
Oo3nuposka ®Mopma 3 — <6 Kr 6-<10Kr 10-—<15Kr 15-—<20Kr 20-29 kr

 

AOakaBnup — Cw. oTgenbHyto TaGNuuy AHTNPETPOBUpyCHbIx npenapartos, c. 350

 

AgpeHanuu
npu acmmMoudoHom Paccyumaume TOUHY!O do3y 6 3aeuUcUMOCcMU OM MacCbI Mena (Kak ObICmpodeucmeyrowiee
ObIXaHuU 6poHxonumuyeckoe cpedcmeo) 0,01 mn/kr

(MaKCUManbHO Ao 0,3 mn)

pactBopa 1:1000 (unu

0,1 mn/kKr pactBopa

1:10 000), BBoAMMoro

NOAKOXKHO 1 Mn WwNnpuuem
npu msKesiom Mpo6Hoe npmMeHeHue - 2un 2un 2uMn 2un
@UPYCHOM Kpyne 2 Mn agpo3ona” 1:1000
npu aHaqbusiakcuu 0,01 mn/kr pactBopa

1:1000 unu 0,1 mn/kr
pactBopa 1:10 000,
BBOAMMOrO NOAKOXKHO
1 mn winpuuem

[lpumeyanue: [lpuzomoesme pacmeop 1:10 000, dobaeue 71 mn pacmeopa 1:1000 e 9 Mn HOpMa/bHO2o Coneso2o pacmeopa usu
5% pacmeopa es1l0KO3bI.

 
Macca tena maagenua, Kr

 

JlekapctBeHHaa
Npenapat fo3zuposka
opma 1-< 1,5 1,5-< 2 2-2,5 2,5-< 3 3-3,5 3,5-<4 4-<4,5
TeHtamMunH eNATEMbHO PaCCYUTATb TOYHYH0 AO3Y B 3ABMCMMOCTH OT MaCCbI Tena MAageHya
1-A Hefena KU3HH: Onakonbi no 0,3- 0,5- 0,6- 1,25- 15- 1,75- 2-
MNafeHupl C HM3KOM Maccon 20 mr/2 ma 0,5ma 0,6ma 0,75 ma 15mMa 1,75 ma 2mMA 2,25 MA
Tena Npu pork gexun: B/M Man Onakoubl no
8/8 3 mr/kr 1 pas B CYTKM. 80 mr/2 ma,
Mage Hub! C HOpMa/bHOn pa3Bectv B 6 ma
maccol Tena npu pork sexu: CTEPUAbHON Bob! ANA
B/m unn B/B 5 mr/Kr 1 pas nonyYeHuApactBopa,
B CYTKM cogepxawero 10 mr
Bima
2-4-9 Hefenu KU3HH: B/M 0,75- d1- 15- 18- 2,2- 2,6- 3,0-
unu s/s 7,5 mr/kr 1 pas B Tima 15ma 18ma 2,2MA 2,6MA 3,0ma 3,3MaA
cyTKU
Npnmeyanne: /Tpu ucnonb3oeaHuu daakoua 80 me/2 mn, paseedume ezo 6 6 mn cmepunbHoli BodbI Ona nonyYeHuA pacmeopa, codepxcawezo 10 me 6 1 ma, a3amem
ge0dume 0o03bI, npbuBedeHHble 6 mabnuUe.
KaHamnunu B/m unn B/B 20 mr/Kr OnakoubI no 2 ma, 0,2- 0,3- 0,4- 0,5- 0,6- 0,7- 0,8-
(OfHOKpaTHaa 403a npn cogepxKawne 0,3mn 0,4ma 0,5mn 0,6ma 0,7 ma 0,8ma 1,0ma
BbI ene HUM THOA M3 ra3) 125 mr/ma
Knokcaumanun = Mo 25-50 mr/kr Bo dnakoH c 250 mr 25 me/kr:
1-A HefenA KU3HH: Npenapatagobasutb 0,15- 0,3- 0,5- 0,6- 0,75- 1,0- 1,25-
Kakaple 12 yacos 1,3 MA cTepunbHou 0,3ma 0,5ma 0,6mn 0,75 mn 1,0ma 1,25ma 15ma
BOAbIANAnonyyeHua
pactBopa,
cogepxauero 250 mr
81,5 mn 50 mr/kr:
2-4-A HEAe AM KU3ZHU: 0,3- 0,6- 0,9- 1,2- 15- 2- 2,5-
Kakgple 8 yacoB 0,6ma 0,9ma 12ma 15ma 2,0mn 2,5MA 3,0ma
Macca Tena Mnagedua, Kr

 

JlekapctBeHHaa
Npenapat Ao3nposka
dopma 1-<1,5 1,5-< 2 2-2,5 2,5-<3 3-3,5 3,5-<4 4-<4,5
Kogenu- Paccuntalite TOUHYWO Nepopa AbHYt0 NOAAepKuBalOyto AO3y
UMTpat
HayanbHaa 03a: 20- 30- 40- 50- 60- 70- 80-
nepopanbHo 20 mr/kr (nan 30 mr 40 mr 50 mr 60 mr 70 mr 80 mr 90 mr
8/8 B TeveHne 30 muHyT)
NogAepxkusatouwjan fo3a: 5 5- 7,5- 10- 12,5- 15- 17,5- 20-
mr/Kr B CYTKM nepopabHo 7,5 Mr 10 mr 12,5 mr 15 mr 17,5 mr 20 mr 22,5 mr
(unue/BeTeyeHne 30
muuyt)
HanoKcou 0,1 mr/Kr Amnyabi no 0,4 mr/ma 0,25 man 0,25 mn 0,5mn 0,5ma 0,75 ma 0,75ma Ima
NEHMULW/WINH
Beu3aTnH B/m 50000 Ef/kr 1 pa3 Bo onakoH c 1200000 0,2ma 0,3ma 04ma 05ma 0,6mn 0,7ma 0,8ma
6en3uaneHn- B CYTKU EQ npenapata
WMAAWH gobasntb4ma
CTepUAbHOM BOAbI
Bex3uaneun- B/mno 50000 Ef/kr Bo dnakou 0,2ma 0,2ma 0,3 ma 0,5ma 0,5ma 0,6 ma 0,7ma
uMAAMH 1-A HefenA KM3HU: c 600 mr (1000000
Kakgple 12 YacoB EQ) npenapata
2-4-A Hees KU3HM 4o6asntb 1,6 ma
uctapwe: CTEPUNbHOM BOA! ANA
Kakgple 6 4acoB nony4eHuapactBopa,
cogepxawero500000
E4eima
Npokanu B/m 50000 Ef/kr1 pa3 Bo bnakoH c 3r 0,.1ma 0,15 ma 0,2ma 0,25 ma 0,3mn 0,3ma 0,35 mn
6eH3uaneHn- B CYTKM (3000000 Ef)
WMAANH Npenapatagobasutb

4M CTepuAbHOu BopbI
Npenapat

eno6apbutan

Uedotakcum

Le@tpnakcou
nlp MeHMHrMTe

pw Hanuunun
THOWHbIX
BbIQeNe HN M3
rna3

Ao3zuposka

HayanbHango3a: 20
mr/kr B/M, 8/B wn
nepopanbHo

Nogvepxusatowan fo3a:
nepopanbHo 5 mr/kr B CyTKM

B/e no 50 mr/kr
HefoHoweHHble maageH-
Ubi: Kak Able 12 yacos

1-| Hegena KU3HU:
KaKable 8 YacoB

2-4-f HEAeAM KU3ZHH:
Kakgple 6 yacoB

B/sp no 50 mr/Kr Kak zble
12 yacoB

B/m wan 8/8 100 mr/Kr 1 pas
B CYTKM

50 mr/kr OfHOKpaTHO B/M
(makKCMMa/bHO go 125 mr)

JlekapctBeHHaa
dopma

Bo /aKoH

Cc pactsopom,
comepkauum

200 mr/ma, no6aBuTb 4
MJ CTEPUAbHOH BOsbI

Ta6netKu no 30 mr

Ta6netku no 30 mr

Bo dnakoHc

500 mr npenapata
Go6asntb 2 mn
CTePUAbHOM BOAbI ANA
nony4yeHuApactBopa,
cogepxauwero 250 mr
Bima

Bo bnakoHc ir
npenapatagobasutb
9,6 MA CTepusbHON
BOgbl ANAnonyyeHua

pactBopa,
cogepxawero ir

810 ma

1-<1,5

%

0,3ma

0,5-
0,75 ma

15mn

1,5-< 2

%

0,4ma

075-
Ima

15-
2ma

Macca Tena Mnafedua, Kr

2-2,5 2,5-< 3 3-3,5

PaccunutalTe TOUHYHO Lo3y

1 lh lh

0,5ma 0,6ma 0,7 ma

1- 1,25- 15-
1,25 ma 15ma 175ma

2- 2,5- 3-
2,5MA 3m 3,5mMn

3,5-<4

1%

A

0,8ma

1,75-
2mn

3,5-
4ua

4-< 4,5

%

0,9ma
 

{03a B 3aBUCMMOCTY OT MaCcCbI Tena
flo3suposBka ®Mopma 3-<6Kr 6-<10 10 — <15 15 — <20 20-29
Kr Kr Kr Kr

 

AmuxodunnnH
rpu acmme MepopanbHo: 6 mr/kr Ta6nertku: 100 ur
Ta6nertku: 200 ur

B/B PexomeHoyemca paccyuumamb TOUYHY!O do3y Ha OCHOBaHUU Macchi Mena;
@€CNU 3MO HEBO3MOXHO, UCNOMb3ylime HUXKe MPUBeOeHHbIe OO3bI

HayanbHaa 03a:

B/B 5 — 6 mr/kr cbnakoH 250 mr/10 mn 1 mn 1,5 mn 2,5 Mn 3,5 Mn 5 un
(makc. 300 mr)

M@ANeHHO B TeYeHNe

20 — 60 MuH

NovzgepxuBarowjaan

03a:

B/B: 5 mr/kr He YaLe, 1 mn 1,5 mn 2,5 Mn 3,5 Mn 5 un
4emM

yepe3 KanKgble 6 4

YUN

KanenbHO paccyumaume TOYHYHO do3y
0.9 mr/kr/Yac

Beeoume @/e HaYyasbHyt0 00O3Y MObKO 6 Mom cryyae, ecsiU PEOeEHOK He NMPUHUMas AMUHOQOU/INUH UU MeOqUNUH B MeYeHue 24 Y.
HAlo3upoeka U UHMepeasbI MEXKOY OOZAMU MPU AMHOI Y HOBOPOXKOCHHbIX U HEOOOHOWIEHHbIX MMadeHUes —CM. Cc. 62.

 

AmoguaxuH MpeopanbHo: 10 mr/kr = Ta6netKu 153 mr 6a3a — - 1 1 1
@)KEQHEBHO, B TeYeHUe
3 QHen

 
 

03a B 3ABUCMMOCTH OT MaCCbI Tena

 

Mlo3upoBka ®opma 3-<6Kr 6-<10 10-<15 15 -— <20 20 - 29
Kr Kr Kr Kr
AMOKCULMNANH 15 mr/kr TaOnetkKnu 250 mr v4 1/2 3/4 1 1 12
Tpu pa3a B DeHb cupon (cofep»kKalun) 2,5 Mn 5 mn 7,5 Mn 10 mn -

125 mr/5 mn)

 

npu MHeEBMOHUU 25 mr/kr 1/2 1 11/2 2 21/2
{Ba pasa B eHb 5 Mn 10 mn 15 un — —
Amnuuyunnun nepopanbHo: 25 mr/kr TaOnetkKu 250 mr 1/2 1 1 11/2 2

Yetbipe pasa B OeHb™

B/M, B/B: 50 mr/kKr @Mnakou 500 mr, 1 mn** 2mun 3 mn 5 un 6 wn
yepes Kaxkable 6 4 CMeUWaTb ¢c 2,1 Mn

CTEPUNbHOU BOAbI

Ana nonyyeHuar

500 mr/2,5 un

* HaHHble nepopanbHble OO3bI YKa3aHbi OA sWe2eKO20 3ab0neeaHusA. Ecnu mpe6byemca nepopanbubil AMNUUUIIUH Nocne mpoeedeHuA
kypca SIGYeHUA C NOMOLWWbHO UHbEKUUU aAMNUUUTINIUHa MO NMOBOOY MAxKeNO2O 3ab0NeBaHUA, NMePOPasNHble OO3bI OOJHKHbI ObIMb 6 2 —4
pa3za ebiwe, 4eM NMpUuBedeHHbIe 30€Cb.

** To3upoeka U UHMepeasibI MEXKOY OOZ3AMU Y HOBOPOXKOEHHbIX U HEOOHOWEHHbIX MIAOCHUCB —CM. C. 62.

 

AmcboTepuunH 0,25 mr/kr/geHb, @nakouH 50 mr — 2-8mr 3-12mMr 4,5-18mr 6-—24mr
Ona neyeHuAa yBenuuvBasr 40

KaHOuOoo3a 1 mr/kr/QeHb no Mepe

nuwjeeoda nepeHocumoctTy,

nyTeM B/B BnuBaHna
B Teu. 6 4 &KeAHEBHO
10 — 14 qHen

 
 

03a B 3€ABUCUMOCTH OT MaCCbI Tena

 

 

 

Olo3uposka ®Mopma 3-<6Kr 6-<10 10 —<15 15 — <20 20 - 29
Kr Kr Kr Kr

Aptemetep HayanbHaa o3a: amnyna 40 mr/1 mn 0,4 un 0,8 mn 1,2 mn 1,6 mn 2,4 un
npu msxKeriou B/M: 3,2 mr/Kr amnyna 80 mr/1 mn 0,2 mn 0,4 mn 0,6 mn 0,8 mn 1,2 mn
Mansapuu NoagepxusBarowjana = amnyna 40 mr/1 wn 0,2 mn 0,4 un 0,6 mn 0,8 mn 1,2 mn

Hosa: B/M: 1,6 mr/Kr = amnyna 80 mr/1 mn 0,1 mn 0,2 mn 0,3 mn 0,4 un 0,6 mn
Beoodume noddepxxuealoulyto OO3y e@x*KEOHEB6HO, 110 KoauHeU Mepe B MeYeHue 3 OHEU OO Mex Nop, MoKa NayueHM He CmMox%KemM
MPUHUMaMb 3qqekmueHble NpomueomaNapuuHble penapamb! nepopasbuo.
Aptemetep/ nepopanbHo: TaOnerTku: — 1 1 2 2*
nymMecdbaHTpnH 1,5/12 mr/Kr aptemetep 20 mr
npu HemsKesiou OBa>KbI B eHb nymMeqauHTpun 120 mur
Mansapuu B TeYeHVe 3 AHeEU
*c 25 kr: no 3 TaOn. Ha npvem
AptecyHaT
npu msKeriou HayanbHaa 03a: 60 mr apTecyHuTOBON 0,8 mn 1,6 mn 2,4 un 3,2 Mn 4,6 mn
Mansapuu B/B: 2,4 mr/Kr KUCNnoTpbI (y>Ke

pa3BeQeHHON)

Bsognutca B/B B 0,6 mn coneBoro

6ontocHoN fo30n pacTBopa/OuKkap6oHata

NogagepxuBatowan Hatpuva) B 3,4 un 0,4 mn 0,8 wn 1,2 Mn 1,6 mn 2,3 Mn

Ao3a: conesoro pactTBopa

B/B: 1,2 mr/Kr

UNN pacTBopa FntoKO3bl

B/e pacmeop Heobxodumo 20omoéeuMb HenocpedcmeeHHo neped npumMeHeHuew. [lpu2omoebmMe Kak HayasIbHy!0, MaK U
noddepxuealoly1o Oo3bI, pazeeda 60 Me apmecyHoeou KucNomMBbI (KomOpas yxKe pazeedena 6 0,6 un 5% 6uKapboHama Hampua) @ 3,4

mn 5% 2sitOKO3bIl.

Beooume noddepxuearowy0 Oo3y yepe3 12 U 24 Y, a 3€MEM OOUH Pa3 @ OeHb 6 MeyYeHue 6 OHeU. Ecnu 6onbHOu MoKemM enomamb,

Oasauime exKedHesnyt0 OO3y MepopasibHo.

 
 

03a B 3ABUCUMOCTH OT MaCCbI Tena

 

 

 

 

 

 

Dlo3suposka ®Mopma 3-<6Kr 6-<10 10 -<15 15 — <20 20-29
Kr Kr Kr Kr
AptecyHat
(npodomxeHue)
npu HemsKenou nepopanbHo: Ta6netku 50 mur - — 1 1 1
Masapuu (Kak 2,5 Mr
KOMNOHEHT OANH pa3 B AeHb
KOMOUHUpOBaHHON B TeYeHVe 3 DHE
Tepanun
Acnupunu nepopanbHo: Ta6netKu 300 ur - v4 1/2 3/4 1
10 — 20 mr/kr
yepe3 KaxKgble 4 — 6
y
[lpumeyaHue: no Bo3MoxKHOCMU Uz6e2zalme Ha3HaYeHUA MasIeHbKUM OemamM, YYUMbIeaA PUCK paseuMUA CUuHOpoma Pete.
BeuH3aTWH NeHMWMANUH — CM. NeHvWWnNUH
BeH3unneHuuMnnnH — CM. NeHvWWnNNWH
BynusukanH 4o 1 mr/kr 0,25% pacTBop
Butamun A OAUH pa3 B CHb Kancyna 200 000 ME - 1/2 1 1 1
B TeYeHVe 2 THEN Kancyna 100 000 ME 1/2 1 2 2 2
Kancyna 50 000 ME 1 2 4 4 4

 
 

10o3a B 3ABMCUMOCTH OT MaCCbI Tena

 

 

 

 

 

 

Hlo3suposka ®opma 3-<6Kr 6-<10 10 -—<15 15 - <20 20-29
Kr Kr Kr Kr
AptecyHatT
(npodomxeHue)
npu Hems>Kerou nepopanbHo: Ta6Onetku 50 mur — — 1 1 1
Masnsapuu (Kak 2,5 MI
KOMNOHEHT OANH pa3 B GeHb
KOMOUHUpOBaHHOU B TeYyeHNe 3 OHeEN
Tepanun
Acnupuu nepopanbHo: Ta6netKu 300 mr - v4 1/2 3/4 1
10 — 20 mr/kr
yepes KaxKgble 4 — 6
y
[]lpumeyaHue: ro BO3MOxKHOCMU U3zb6e2aumMe Ha3HaYeHUA MasIeHbKUM OemaM, YuUMbIeaA PUCK pazseuMuUs CUHOpoma Pete.
BexH3aTWH NeHNUMMH — CM. NeHYWMnNWH
BeH3“nneHWuMsNH — CM. NeHVWWnNWH
BynusukanH 4o 1 mr/Kr 0,25% pacTBop
Butamun A OANH pa3 B JeHb Kancyna 200 000 ME = 1/2 1 1 1
B TeYeHMe 2 HEN Kancyna 100 000 ME 1/2 1 2 2 2
Kancyna 50 000 ME 1 2 4 4 4

 
 

{03a B 3aBUCUMOCTH OT MaccbI Tena

 

Mlo3nposka ®opma
3 - <6 Kr 6-<10 Kr 10-<15 Kr 15-<20 kr 20-29 kr
TeHTamMuun * Paccuumaltime TOYHY!O do3y, OocHOBaHHYyHO Ha Macce mena. Ecnu 9Mo0 HeBO3MOXKHO, UCTONb3ylime mpueedeHHble
7,5 mele ane ae 8= 1,1- 1,9- 2.8 - 5G
0,9 mn** 1,7 un 2,6 mn 3,5 un 5,4 un

OMUH pa3 B AeHb ae)

* flomHume O pucke NObOYHbIX aqbqbeKmMoe Npu coemMecmHOM NpuMeHeHUU C MeoduNNUHOM. [pu HasHayeHuU AMUHOeNUKO3Uda
(2eHmamuuuH) npednoymumesbHo u3z6e2amMb UCNOMb306aHUA HEpazbaeneHHoeo 40 Me/Ke 2eHMAMUULHA Y HOBOPOXKOEHHbIX.
** Tlo3upoeKa U UHMepseasibI MEXKOY OOZAMU OIA HOBOPOXKOEHHbIX U HEOOHOWEHHbIX MNAadeHUeS - CMOMpeMb CoomeemcmeyrowMul pa3zden.

 

 

 

TeHuvaHBuonet Ons HapyxkHoro npumMeHeHua
Dexcameta30H nepopanbHo: TaOnetku 0,5 wr 0,5 mn 0,9 mn 1,4 mn 2un 3 mun
nipu msKenom 0,6 mr/kr B/m: 5 wr/un
@BUPYCHOM Kpyne OfHaKpaTHO
DecbepokcamunH 15 mr/kr/y, B/B amnynb! 500 mur 2 2 2 2 2
Oo MakcumManbHON
pu ompaenexHuu o3b! 80 mr/kr 3a
esIe30M 24 yaca unu
50 mr/kr B/M 0
MaKCUManbHON

HO03bI 1 5
MecaueB

OcHawjeHue (3-6 kr)

Dina o6ecneyeHna

CbyYHKLYN AbIxaHna

JlapuHrockon npamMon
KNUHOK

OHAOTpaxeanbHaa 2,5-3,5

(UHTYOaLINOHHaa)

TpyOka 6e3 MaH>KeTbI

CTunet mManbin

AcnupalMoHHbin 6

KaTeTep (Kanu6p no

tukane LUapbepa)

Dina oGecneyeHnaA
cbyHKLIMN KpoBoo6paweHna

B/B KaHiona 24/22
LleHTpanbHaa 20
BeHO3HaA KaHIonaA

fipyroe

HasoractTpanbubit 30Hn 8

Mouesou kaTeTep
Megquatpuyeckun
TOHOMeTP

6-12
mMecaALlIeB
(4-9 kr)

npsamou
KIIMHOK

3,5-4,0

Manbii

22
20

10

roga
(10-15 kr)

KNNHOK
AeTcKun,
Tuna
«MakUHTOLU»
4,0-5,0

Manbii//
cpegHun
10/12

22/18
18

10-12

net
(16-20 kr)

KNUHOK
HetTckKun,
Tuna
«MakuHTOoLU»
5,0-6,0

cpeAHun

14

20/16
18

12
Uncby3uvoHnHbin pacTBop

PuHrepa naktat (pacTBop
XapTMauHHa)

HopmManbHbIN ConeBonN pacTBop
(0,9% NaCl)

[nroko3za, 5% pacTBop
[nrokoza, 10% pactBop
0,45 NaCl / 5% rntoKo3a
0,18% NaCl/ 4% rntoKo3a

Pactsop Jappoy

Pactsop Mappoy nonoBuHHon
KOHLIEHTPalWN C 5% FntoKO30N*

PuHrepa naktaT NONOBUHHOU
KOHUEHTpaunn Cc 5% rntoKo30n

Na*
MmMonb/n

130

154

77
31

121

61

65

K*

5,4

35

17

2,7

cr

112

154

77
31

103

52

56

CoctaB

Ca Jlaxtat
MMOnb/n MMOonb/n MMOnb/n MMOonb/n

1,8 27

27

Tntoxo3a
/n

50
100
50

40

50

50

Kanopunu /n

200
400
200

160

200

200
 
 
 
 

=i
 
 
 
 
 
 
 
 
 
 
 
 
 
 
 

CrTa6unuszaunaA Pea6unutauna

 

 

Quu 1-2-1 Qun 3-7-1 Hegenn 2-6-A
1. Punornuxemnua __*
2. Tunotepmnua —_—
3. O6e3BoxKUBAaHUe ——-
4. Onektponutbl =
5. Uncbekuna ss
6. MukposnemeuHTpl —__—. 6e3 wKene3a —__""_ _» c »Kene30M ———»
7. HayanbHoe
BOCCTAHOBUTENbHOe ——
kopmneHue
8. HaBepctbipaHue
OTCTaBaHUA B pocte —_—¥refzg—wwew
9. CeHcopHas CTUMynaALYA SS

10. Nogrotoska kK nepeBovy
Ha nocnegzyroujee HaGniogeHue ———_—_—_${ >

 
SKCTPEHHAA OLIEHKA

(umetoTca)
@ MpoBeputb Ha HaNUYNe HEOTNOKHbIX NPUSHAKOB =e IlpoBpecty SKCTPEHHOE
JIEUEHUME po

| (oTCyTCTByI0T) cTa6unu3saynn

@ Mposeputb, ecTb Nu npuopuTeTHbIe NPU3HAkU UN COCTOAHUA

|

AHAMHE3 U OBCIIEQOBAHUE
(BKMIOYaA OL|EHKy CTaTyca MMMyHM3alNu, CTaTyca nuTaHusA u KOpmneHna)

o CHayana oOcnegoBaTb AeTeN C HEOTNOKHbIMI NPUOPUTETHbIMU NpUv3sHakaMu

Ecnn notpe6yetca, JABOPATOPHBIE U APYTMVE UCCNEQOBAHUA

'

Nposectu AM@EPEHLMANbHbIN AUATHO3

Bbi6patb OCHOBHONM ANATHOS (uv fononHnTenbHbIe ANarHosb!)

' Y

CnnaHupoBatTb U HavaTb CnnaHupoBatb VU HavaTb
CTALIMOHAPHOE JIEYEHUE AMBYNATOPHOE JIEYEHUE
(BKniovaA NoAAepxkuBaloluyro Tepanuic) Ecnu notpe6yerca,
OpraHu30BaTb
| NOCNEAYOWEE HABNIOQEHVE

HABNIIOQATb 3a npv3Hakamu
- ynyy4lweHna

- OCNO*KHEHU

- HeacbqdbekTUBHOCTUM NeYeHUA

J

(HET yny4weHUA unu NosBNeHue (ynyuweHnue)
HOBbIX CUMTOMOB)

' Y

  
  
   
 
   
       
     

OLLEHUTb NOBTOPHO nposomkvTb NneyeHue
B cnyyaax NNAHUPOBATb BbINUCKY
HeacbcbeKTUBHOCTU NeYeHUA |
y BbINUCATb OMOU
NEPECMOTPETb JIEYEHUE OpraHu3oBaTb NpogomkeHne

neyeuua unu NOCHEAYIOWEE
HABNIOMEHME B craunoHape
unu no MecTy *uTenbcTBa
>
Ys, <—_—_____. —<—>

30 cekyHA

g——————  —

30 cekyHA

 

> O6cywute pebeHKa YUCTON TKaHbIO U NonoxKUTe
B TaKOe MECTO, re pebeHky OyfeT Tenno.

Boisacuute: Mi Ectb nu abixanue (nna)?
M MotweyHpi ToHyc xopowun?

i KoxkHbie nokposb! posoBbie?

 

HET

> Mpugaite ronoske pe6eHKa HeiTpanbHoe
nono»KeHve C TeM, YTOObI OOecneyNTb
NPOXOAUMOCTb AbIxaTeNbHbIX NyTen
Npu Heobxogumocty, OYUCTTe AbIxaTenbHble
nyt
Ctumynupyute pebeHKa, MeHAUTe ero
nonoxKeHve
Mpu Heobxogumoctu Zante Kucnopog

He Qbiwium, cuHtowHbiu

Ucnonb3yite npaBunbHo npuneraloluyto Macky
vu 5 pa3 MeEANeHHO COKMUITe AbIXaTENbHbIN
MeLUOK

 

Ecnu ece ewe He Obilwum

mllpoBepbTe nonoKeHue uv npuneraHue Mackn
>NonpasBbTe nonoxKeHve npuv Heobxog_umocTu
>Npopegute BEHTUNALUIO C NOMOLYbIO
AbIxaTenbHOro MeLUKa VU Mack
gEcnuv gBukenua rpyQhon kneTKu
HeafeKBaTHble
»>TlpoBeaute oTcacbiBaHnue u3
AbIxaTenbHbIx nyTen

 

§ IpoBepsTe YacToTy CepAeYHbIx COoKpaLeHui
(UCC) (no nynbcayuu nynoBuHbl
UU ayCKyNbTaTUBHO)

 

Ecnu 4CC>60 yo./muH

> Npogonkaiite BeHTunaunto npu NoMOLIN
ObIxXaTeNbHOro MeLUKa C YACTOTON OKONO 40
AbIxaHun B MUHyTy

m@ YOeauTeCb B TOM, UTO rpyfHaa KneTKa
afeKBaTHO pacluupsetca

> Haute kucnopog, ecnu umeetca

mg Menante nay3bl Yepe3 Karxkgble 1-2 MUHyTbI,
YTOObI NOCMOTPETb, YNYYLWWICA NW nynbc nr
Abixanne.

> Npekpawjante maccaxk cepaua npn
4CC>100yq./munH.

> Mpekpaujaiite BcnomoraTenbHyto BEHTUNALNIO
np yacToTe AbIxaHna >30 B 1 MUH.

> Npogonkaiite GaBatb Kucnopog AO Tex nop,
noKa KOXKHbIe NOKPOBbI HE NOPO3OBeICT U
peGeHOK He CTAHET AKTMBHbIM.

 

AA

Abiwum,

KOXKHbIe NOKPOSGbI

poz30eble

Abiuum

O6bI4NHbIN yxon

 

(cm. 6.1)

O6bIYHbIN yxon
Vv TLJaTeNbHoOe
HaOnrogeHue

 

BHuMaTenbHO
HaOnrogante

 

OBPATUTECb 3A MOMOLYbIO!

EcnuYCC
<60/muH

HaunHante

Henpsmon
Maccax cepauia

 
 

 

 

 

CXEMA 13. [nan B nevenua quapen: Buictpo okaxute noMoub
pu Taxenom oGe3BoxKUBaHMK

 

—» Cnenyiite ctpenkam. Ecnn oreer /)A, nepexogure Hanpaso, ecnu HET, uaute exis.

HAUUHAMTE 30ECb

> Haunnaiite HemeaneHHo Bogut’ B/e xWaKOCTH (noporpeTb
Ao t’-30°). Ecnn pe6eHok MoxeT nuitb, AaBaiite OPC, noKxa
ycravasnveaercs KanenbHvua. faire 100 msv/Kr pacrsopa
Punrepa nakrata (nn, ecnn ero HeT, HOpManibHbIli conesoni
pactaop) no cneayioujelt cxeme:

 

 

BO3PACT Buayane seequte 3atem BBequTe
PEBEHKA 30 mn/kr 70 mn/kr

B TeyeHve: B TeyeHne:
AO 12 Mec 14 54
oT 12 mec Ao 5 net 30 muH* 21/24

 

* Mosroprrre ewe pas, ocr nynic Ha nyoBol apropHN Boe euje cnaGesA nM He onpanenaeTE.

| Nosropsiire oueHky Hepes Kaxabie 15-30 miH. Eon cratyc
Tuapatayvn He ynyuwaeTca, yBenvubTe cKopocT Kanenib=
Horo BBeseHMA *KNAKOCTeN.

> Tatoxe aasaiite pacteops! OPC (oKono 5 mn/kr/4) Kak Tonb-
Ko pe6eHOK CMOxeT NMMTb: OBbI4HO Yepes 3-4 4 (MnageHub!)
unn 1-2 4 (geTu 6onee crapuiero sospacra).

| Mostoprio oyeHuTe cocrosHime MnageHya Yepes 3 4, a pe-
Gera Gonee ctapwero sospacra - 4epes 6 4. OnpegenuTe
cTeneH oGesBoxueaHMA. 3atem abiGepiTe CooTEeTCTAYIO-
wwii nnax (A, 6 unn B) ana npogomkeHua neyeHns.

 

» Hanpasbte pe6exxa CPOUHO Bb GonbHuuy ans B/B BeAeHMA
oKuaKocTei,

> Ecnn peGexoK moxer nutb, aaiire marepn OPC pacrsop 4
nokaxkuTe, Kak NouTb pe6eHKa no Aopore.

 

> Hauunaiire perngparayio OPC pacraopom Yepes 30Ha
(un nepopanbHo): aasalite 20 mnikr/4 8 TeyeHne 6 4 (ace-
ro 120 mavkr).
y HET | Oyexnpaiie cocoate peGeHka Hepes Kaxnbie 1-2 4:
- B cny¥ae noBTopHoA paoTbI unK nporpeceupyioujero
B3pyTuA xKuBOTAa AaBaliTe *xYAKOCTb MeANeHHee.
= Ec cratyc rmaparayyn He yny4uiaerca Yepes 3 4, Har
papbTe peGeHka Ha 8/8 Tepannio.
| Uepes 6 4 BHOBb OYeHHTe CocTosHe peGeHKa. Onpenenn-
Te cTeneHb o6e380xKUBaHMA. SaTeM BbIGepuTe CooTseTCTBY-
fowwi nav (A, Bunn B) ana npogomkexna neveHna.

| HET

 

Mpumevatiue: Mo Bo3MoxkHocTu, Ha6niopalite 3a pebeHkom 8
Te¥eHie no KpaiiHel Mepe 6 4 rlocne nposefeHna permapaTa~
UMM Asis Toro, YTOGbI YEeAWTECA, TO MaTb MoxeT noaAepxkN-
BaTb HEOXOAMMbIi OFbeM BBEAeHMA KYAKOCTeM 3a CHET Nepo-
panbHolt aay OPC.

 

 

 

 

 
CXEMA 2. SkcTpeHHaad OLIEHKa COCTOAHMA NOcTynarowynx BeTen

HEOTNOMKHbIE NPUSHAKU

Ecnu kakou-nu6o npu3Hak NpMcyTcTByeT, npoBeguTe HeoOxogumbie neuweGHble BMelWa-
TeNbCTBa, NOZOBMTe Ha NOMOLJb ONbITHbIX COTPYAHMNKOB, BO3bMNTe KPOBb ANA nabopa-
TOPHOro uccnegAOBaHnua (rntoKO3a, Ma30K, remornoGnn),.

NPU3SHAKU

[poxoOumocmBb ObixamesIbHbix
nymeu u cocmosHue qyHkKuuuU
ObIxXaHuaA

M oOcTpykKTMBHOe HapylueHue
AblxaHua (accbuKcua)
usu

LEHTPaNnbHbI LINAHO3
unu

TAKENAA ObixaTesbHaA
HEDOCTaATOUHOCTb

CocmosiHue Kpoeoo6pausjeHunl
XonogHple pyku, nntoc:

® pBpema KanunnspHoro HanonHeHuar
- CBbILUE 3 C
u

cna6bin YacTbIN nynbc

Hasiuyue
1106020
npu3Haka

Hasuuue
1106020
npu3Haka

[lpoeeppme,
Hem sIu
msKenoeo
HapyweHusA
numaHua

NEYEHUE

He noeopayueatime wero, ecmu ecmb
nodo3peHue Ha Mpaemy WeliHo2o om-
Oena MO3GOHOYHUKa

Npu acnupaynu unopogHoro Tena

> OkakuTe nepBytO NOMOLYb Npu ac-
nupauwu UnOpogsHoro Tena
(cxema 3)

Mpu otcyTcTBun acnupaynu UHO-
PpoAHoro Tena

> BocctTaHosute nerouHylo BeEHTUNA-
LuNto (Cxema 4)

> [jaite kucnopoa (cxema 5)

YOenutTecb, YTO peEOeHOK HAaXxOoANT-
cA B Tenne

Mpou3sBegute OCTaHOBKYy KPOBOTE-
4YeHUA (ECNN UMEeT MECTO)

Haute kucnopog (cxema 5)

Y6OemguTecb, UTO pPeEOeHOK HaXxOgUT-
cA B Tenne

Ecnu HeT Ta>Kenoro HapylWweHua nu-
Tanna:

> YcTaHoBuTe cucTemy Ans B/B Bnu-
BaHua UW HayuNHalTe ObICTPO BBO-
AUTb *XUQKOCTU (cxema 7).
Ecnu HeEBO3MO)KHO UCNONb30BaTb
nepucbepuueckybo B/B CucTemy,
npoBeganute KaTeTepusaLliuto LIGHT-
PaNnbHON BeHbI.

Ecnu y peOeHkKa UMeeTCA TAHKENOES
HapyweHne NUvTaHna:

Ecnu 0H 3amopmMoxeH unu 663 CO3Ha-
HUA

> BsBogute rntoKo3y B/B (cxema 10)

> TloctaBbte B/B cucTemy uv AaBaiite
»%KUQKOCTU (cxema 8)

Ecnu OH HaxoOUMCA 6 CO3HAaHUU U He
3aMOPMOKEH-

> [ante rntoKo3y OpanbHo unnu Ye-
pe3 HasoracTpanbHbIN 30HO

> Cpa3y xe nepexogute K nonHomy
oOcnegoBaHuto uv neyeHuto

 
CXEMA 2. SOkKCTpeHHavA OLIEHKAa COCTOAHMA NMNoctynatownx wAeTen
(npogomkeHne)

HEOTNOXKHbIE NPUSHAKUN

Ecnu Kkakonw-nu6o nmpu3sHakK MpucytcTByeT, nNnpoBeguTe HeoOxogumMbie neveOHble
BMelWWaTeNbCTBa, MOZOBMNTe Ha NOMOL|b OMbITHbIX COTPYAHMKOB, BO3bMMTe KPOBb AA
na6opaTopHoro uccnegoBaHna (rntoKo3a, Ma3OK Ha Mansputo, Hb)

NPU3SHAKU JEYEHUE

> BoccTaHosute nerouHyto BeEHTUNA-

ERTS Luto (cxema 4)

106020
npu3Haka > [pu cygfoporax BBegAYTe peKTanb-

HO Ava3zenamM UNU NapanbAemygA

Koma/cydopoeu (cxema 9)

M KOMAaTO3HOe COCTOAHNe

aa NMpaBunbHo ynoxKutTe pebeuka, Ha-

XOAALIerOCA B 6ECCO3HATENbHOM
m cynoporn (Ha MOMeHT CocTosHun (ecnu ecTb nog“o3speHua

o6cnenoBanns) Ha TpaBMy ronoBbI unuv Weu, CHa-
yana cTa6unusupyiite nonoxKeHue
tuen) (cxema 6)

BBogute rntokozy B/B (cxema 10)

Tsaxxerloe o6e360.KueaHue

(y pe6enka c Ouapeeti) AMAPEA > Y6enuTecb, YTO peGeHOK HaxoguT-

ns1roc
HM SaTOPMOxKEHHOCTb cA B Tenne

Ecnu Het Taxkenoro HapylweHua nu-
TaHua

@ 3anaBluue rnasa

M OveHb MEANeHHOe pacnpaBneHue

KOOKHOM CKNaaK > TloctaBbte B/B cucTemy U CTpyNHO

BBOAUTe *KUQKOCTU CneAya cxeme
11 uw Mnany B ctayuoHapHoro Be-
AeHNA ANapen (cxema 13)

Ecnu y pe6eHkKa umMeeTca TAKeENOe
HapyweHne NUTaHnA:

Ecnu 0H 3amopmoxkeH uNu 6e3 CO3sHa-
Hua:

> He yctaHasnusaite B/B cucTemMy

> Cpa3y *e nepexoguTe kK nonHomy
oOcnegsoBaHuio uu NeyeHuto
(cm. pa3gen 1.3)

NPUOPUTETHbIE NPUSHAKU
OTMM AeTAM TpeGyetca GesoTNaraTenbHoe NpoBeseHuve HEOOXOAMMbIX NeyweGHo-
AMarHocTnyecknx BMeWaTenbCcTB

BO3pacT HO 2 mec. peGeHok GecnoKoeH, pasgpax*KuTeneH unu,
PACCTPOUCTBO AbIxaHUA HanpoTuB, 3ATOPMO>%KeH

OUeHb BbICOKaA TemNepatypa Tena
TpaBMa “nu Apyroe cpouHoe xupypruyec-
KOe COCTOAHNe

pe6eHoK noctynun no cpouHomy HanpaB-
neHuto U3 Apyroro MEANUMHCKOrO yuperk-
eHua

HapylweHua nvtaHua, BUguMble npu3Haku
TAYKENOFO UCTOLUEHUA

ONeAHOCTb (BbIPaXKeEHHAaA)

60nb (cunbHaa)

HECPOUHbIE CHYYAN
Npogomkante o6cnegoBaHne vu neyeHve NO noKasaHuAM

OTpaBneHve (B AHAaMHE3e)
OxKOMM (3HAYUTENbHbIe)
OTEYHOCTb OG6enNx CTON

[Ilpumeyauue: Ecnu y pebeHKa umeetca TpaB-
Ma “nu Qpyroe HeEOTNOKHOe xupypruueckoe
COCTOAHVE, BbIZOBUTe XUpypra VNU OKarKUTE
NOMOLUb B COOTBETCTBUNM C PpyKOBOACTBaMN NO
xupyprun

 
 
 
 
 
y

=

y
I
y

=

y
 
a
Cl
 
 
 
»
 
.
 
 
 
 
 
|
 
 
ie

Wg

ry
fey
I?

 
ae
ey

i

ico
is
IS

 
 
ey
fe

 
ala

 
se)
eo}

Pa

SS]

Ey Tir]

 
A

 
