 
 
 
fin
 
 
 
 
 
 
 
 
 
y

=

y
 
I
y

=

y
 
 
 

 
 
wo
 
 
 
 
 
 
 

 
a

 
 
 
Pit LacsereL

  
 
 
 

 

 
 
 
 
 
8+
 
powered by Google
en =.
 
pA
 
fa)
 
 

 
 
Ys.
a
 
Z
 
 
 
Pit LacsereL

  
 
 
 
 
fin
 
 
pA
 
 
 
fa)
wo
 
 
 
 
 
 
 
 

 
 
 
 
 
 
 
 
 
 
 
 

 
 
 
Z
 
 
 
a
Cl
 
 
 
 
 
 
 
»
 
.
 
 
 

cg
 
 
 

 

Pa Re

 

 
 
 
 
 
 
 
powered by Google
 
 
 
 
 
 
 
 
 
 
 
 
 
()
 
 
 
Oo
 
4
 
 
 

 

Se od

 

 
 
B+
 

 

8+

 

 
 
 
 
 
yy
 
 
 
 
 
ty
 
Do
Xx
 
|
 
 
 
—
Sign in with Google
i
 
, ™
pA
pA
 
 
 
 
Sign in with Facebook
 
 
Sa
(St
 
NI]
a
a
“a
a
“a
a
“a
a
NI]
“a
a
“a
a
“a
a
a
a
“a
a
 
 
 
powered by Google
en = i
Qe
 

 

 
 

 

 
 
ao
 
Sign in with Twitter
Z
 
 
 
 
Ys
a
(4)
Ba
 
bs
Sign in with Facebook
ty
, ™
 
 
 
yy
 
 
 
 
 
 
Do
Xx
pA
pA
i
 
 
 
 
—
 
 
Sign in with Google
 
Qe
 
 
 
 
ao
 
Sign in with Twitter
(4)
Ba
Z
 
bs
fh;
 
 
34
 
 
 
 
 
-,
ap
f Sign in with Facebook
a
 
 
 
 
pd
. |

4
a Sign in with Google
 
Bd
 

 

 
Sr
 
G)
we
a
we
a
“a
EY
a
a
EY
a
Te
a
we
a
>
a
>
a
~
a
we
a
~\
a
~\
a
~\
a
&
 
“a
a
(8
(S41
8+
i
_
 

 

 
 

 

 
 
 
one
 
 
powered by Google
Tn a
 
San TaM AN Techs
@
-
 
 
oe
 
f Sign in with Facebook
&
 
 
 
 
 
 
e~
 
 

 

 

 

 
po Seen TeaeCera(=
 
Ba
Zz
Fi
or
a)
powered by Google
ee a
SAS nA Md iaccts
(9
Meee
 
BA
z
 

 

 
 

 

 

 
 

 

 

 
om
BA
 
 
 
 
 
 
 
 
 
 
 
 
 

 

 
 

 
 
 
