 
 
a

 
 
 
 
 
 
y

=

y
I
y

=

y
 
S$
——— ee a
a
Cl
 
 
 
»
 
.
 
 
 
a
 
 
 
|
 
G)
 
Oo
Oo
 
Ss
Ss
®)
®
 
FO,
 
MS
A
“ay
 
 
 
 
