 
 
4@
 

 
IN
: a
 
 
 
IN
 
.
cl
, 1 ea ies
C7
 
»
a4
S47
a
 
 
 
ee
 
Cold

Fever

Headache

Rash
css
 
—
v=

u—S
 
Dp.
pe
 
 
Bo
 
(©)
 
 
 
Google
 

 

 

 

 
 
¢l)tytocare
 
NU
C7
 
 
 
 
op
@ amwell
 
a
aS
 
@
|
 
 
op)
Cold

Fever

Headache

Rash
 
Ys.
i
 
ase
a
 
t
y
¢’)tytocare
 
a

 
y

=

y
DIscovER
y

=

y
D><]
IN
 
 
ee | pT Ret a
ry | OTT TAVIS

ere
 
 
 
4q.
()
Ro
Paes)
 
/
 
mi
‘American
cranes
Association

 
 
”.
oS
y
vi
Bo
IN
I
Le Toff) [2
 
NO
 

 

 

 

 
 
 
re
 
SY
 
 
 
2
Pp
><]
 

 

 

 

 

 

 
en PMTs a
ry 10) Biuecarenework | Online Visits”

Peery
ro
rs
 
 
 
 
|
 
a
 
Lh
IN
 
 
a
a
ee
 
NO
Yim cuss

jess)

i
2
Es
e

rN

 
 
Ys
 
DISCOVER
a
4

<
—
Pa ns)
i)
 
 
 
XG
Ss
4
 
a
 
SY
 
 
Cold

Fever

Headache

Rash
 
 
1)
a
eee
()
 
~
vd
—

vd
 
 
IN
ab
 
¢’)tytocare
Google
 
 
 
ie
ww
 
 
 
 
 

Phy esse lig
¢’)tytocare
BS
 
Va
Va

A
=
 
 
 
aoe
yuan ana)
(Oy
 
 
><
a
.o
DISCOVER
 
IN
 
(Oy
Yoo—
yo

yo
¢’)tytocare
 
a
 
\)
SY
 
 
IN
 
a
 
a
 
KY
 
ae BUM OOS
(ES ats) ; a ae
oy @ ea lela Online Visits

of Michigan
a
SO a ed
oe
o FILTER
Google
G)
INO
><
\)
a
 
 
an
S
 
 
 
 
 
 
,0@
p ON
| a
| a
 
 
 
 
 
 

lue Cross

QGEaae 0 Online Visits”
p ON
 
 
 
| a
 
 
 
     
 

If you take 7500 steps per ae you'll
have walked about 216 million steps
by the age of 80.

   
   
 
 

~ so

a
*
. Yh

—e

~
 
 
 
 

The average American consumes 500 cans
of soda per year. That's 52 lbs of sugar.

| = oT; ar eee rrr
Po >
20ee@e
  
   
 

Sneeze Ati 7

A single sneeze can

travel at 10O0mph and
distribute 100,000 germs
into the air.

A
Ly
hh
One ofaKind

Humans have different fingerprints, and »
each person also has a different tongue print.

 
 
| a
| a
p ON
 
 
 
 
—

 
| a
| a
| a
  

oh

The average adult needs 7-8 hours of sleep
per night. Babies require 12 hours.

vill) 2.

 
 
 
 
   
  
  

respiratory system and can identify
over 10,000 scents.
ee ehOUcLe oe COU sd
 
| a
 
 
 
 
 
 
 
   

Dog owners have been reported to
Lr live longer and have a lower risk
~ of heart disease than non-dog owners.

7

   
Cl
a
Blue Cross a
Osa Online Visi
of Michigan

fomed|
 
 
 
    

End

pefreshvideo yomins Lett
 
 
 
git.version=a1f28028ba4e22c11cfaffe0e37ae27be1eea0c3
