 
3 Standard | 30 dage]
ial
Day
3 Standard | 30 dni}
Py >
£93 Standard | 30 dagar |
 
C
>

3 Standard | 30 tage |
 
P wf
£93 Standard | 30 dager |
 
oo
+
Py >
£93 Standaard | 30 dagen |
 
 
Contour.

diabetes app
on
iat
 
€: Standard | 30 dana |
 
Py iN
£93 Standard | 30 giorni |
£3 Standart | 30 giin |
P + -
£3 CraHfapTHbli | 30 HEN |
Qe
_ wf
|

i;
Food
Ps ~ .
£3 Crangaptunii | 30 AHiB |
 
£3 Vakio | 30 paivaa }
 
é& Standard | 30 zile |
£3 Standard | 30 jours |

sy
P , 1
ee: Kavovikn | 30 Hpép |
 
Photo
£3 Standardno | 30 dana |
Se Standard | 30 dni)
3 Standard | 30 dni}
 
 
3 Padrao | 30 dias |
LS
 
3 Estandar | 30 dias |
an
3 Standard | 30 days |
Notes
Meds
a
gl
 
 
 
 
IO
 
G)
 
 
 
 
 
 
 
a

 
Cl
a
Contour

diabetes app
 
 
 
1
 
 
 
 
 
 
 
Ntour
TY ¥
ofl,
PAN
PL
i)
oo
ee
9:41 am

 

Cais
BQ@OOO®

 

 

 
9:41 am

 

Oe
BQ@OOO®

 

 

 
ee Py x Pees

 

BQ@OOO®

 

 
 
 
 
“3
  

a
ery
an) oan
X |

le ©
re

 
        

ae m
: OP ey s@
X |

le ©
re

 
er a aD
ig ii iy rad @ A

 
(fli

cry = Pad =

 
  
    
    
     

Cancel Lelia tty Dyoraty

12:23 |
 
   
   
      
   

a >

crn) = Per) ca

(eTite) Edit Entry Dyer)

a)
12:23

 TOISIOS,

Cid
 
ae) 5358.

   
 

12253}

a ire
My Readings

THU

 

My Week
(Past 7 days)

o *

ERI

 

 

 
tah
Bae

     
 

  

Oy’

12S)

° cPaery
= My Readings
WED i
a Soe |

My Week
(Past 7 days)

FRI

 

 

 
me) 5358.

   
 

12253}

a ire
My Readings

THU

 

My Week
(Past 7 days)

o *

ERI

 

 

 
tah
Bae

     
 

  

Oy’

12S)

° cPaery
= My Readings
WED i
a Soe |

My Week
(Past 7 days)

FRI

 

 

 
 
  
    

y ry Coy
Ry
    

—
Caen
eMman
ere

115 mmol/L
 

CloIolore
 

OOOO”
Ill
a

 

oh By

 
= a

 
= a

 
 

 

9:41 am

 
 

 

9:41 am

 
a

ier

10:15 am

she

cher:

 

 
i Ano YoWNY)

10:15 am

too

 

 
ee Py

 

Cras
CIOTGT : I

 

 
10 am ceo] av

 

 
10 am ceo] av

 

 
 
i N

i
 

 
 

 
 

 

 

 

Para ¥ Me
toh nie

Lo l= ae ae | a
>
ee . eis

 
 

re |

QO@OV®

 
 

re |

QO@OV®

 
nH}
a

 

 

 

 

 
Ill
a

 

 

 

icin a e... ° = —

>,
12:56 am ft 4g
10:15 am
toh Wy nse

Lon | a
>
‘oMole Toy CIE)
 
 
 
 
mE A
 
 
 
PAN
PL
a
 
 
/
Fe
aie)

co
@))
 
 

 

 
 
 
eval nel Uls
 
 
 
 
cee
¥ 152.
. eee
_ oe
_ mg
@ 1892
_ on
OB
y

. Standard | 30 jours | Tous |
a

4
. Standard | 30 tage | Alle |
a

. Standard | 30 giorni | Tutto |

4
a

. Standard | 30 dni | Wszystkie |
 
Contour
 
Contour
a
P >
Standard | 30 days | All
a)
Se Standard | 30 dni)
3 Standard | 30 dage]
>

3 Standard | 30 tage |
P , 1
ee: Kavovikn | 30 Hpép |
3 Standard | 30 days |
3 Estandar | 30 dias |
£3 Vakio | 30 paivaa }
£3 Standard | 30 jours |

sy
€: Standard | 30 dana |
Py iN
£93 Standard | 30 giorni |
P wf
£93 Standard | 30 dager |
Py >
£93 Standaard | 30 dagen |
3 Standard | 30 dni}
3 Padrao | 30 dias |
é&: Standard | 30 zile |
3 CtTaHaapTHbin | 30 gaHen i
3 Standard | 30 dni}
é& Standardni prikaz | 30 dana |
Py >
£93 Standard | 30 dagar |
£3 Standart | 30 giin |
r ~ .
eo: Craygaptuun | 30 AHiB |
"£3 AMIE | 30K
 
tt
iS Simulator - iPhone Retina (4-inch 64-bit) / iOS 7.0.3 (118508)
er Time Cee ta

My Readings SF

Ca

 
 
 
 
 
 
 
-
 
 
 
 
Copyright (c) 2007-2014 IOLA and Ole Laursen

Permission is hereby granted, free of charge, to any person
obtaining a copy of this software and associated documentation
files (the "Software"), to deal in the Software without
restriction, including without limitation the rights to use,
copy, modify, merge, publish, distribute, sublicense, and/or sell
copies of the Software, and to permit persons to whom the
Software is furnished to do so, subject to the following
conditions:

The above copyright notice and this permission notice shall be
included in all copies or substantial portions of the Software.

THE SOFTWARE IS PROVIDED "AS IS", WITHOUT WARRANTY OF ANY KIND,
EXPRESS OR IMPLIED, INCLUDING BUT NOT LIMITED TO THE WARRANTIES
OF MERCHANTABILITY, FITNESS FOR A PARTICULAR PURPOSE AND
NONINFRINGEMENT. IN NO EVENT SHALL THE AUTHORS OR COPYRIGHT
HOLDERS BE LIABLE FOR ANY CLAIM, DAMAGES OR OTHER LIABILITY,
WHETHER IN AN ACTION OF CONTRACT, TORT OR OTHERWISE, ARISING
FROM, OUT OF OR IN CONNECTION WITH THE SOFTWARE OR THE USE OR
OTHER DEALINGS IN THE SOFTWARE.
